timeout 3600 s
Graph with 800 vertices and 207643 edges density 0.649696
start search
improving solution size 1
improving solution size 2
improving solution size 3
improving solution size 4
improving solution size 5
improving solution size 6
improving solution size 7
improving solution size 8
improving solution size 9
improving solution size 10
improving solution size 11
improving solution size 12
improving solution size 13
improving solution size 14
improving solution size 15
improving solution size 16
improving solution size 17
improving solution size 18
improving solution size 19
improving solution size 20
improving solution size 21
improving solution size 22
improving solution size 23
TIMEOUT
best clique: 799 798 797 794 789 787 781 767 689 688 655 620 599 552 545 536 461 444 363 267 221 206 128 
record          =          23
subp            =  4017807794
time            =  3600.00048
