timeout 3600 s
Graph with 800 vertices and 207505 edges density 0.649265
start search
improving solution size 1
improving solution size 2
improving solution size 3
improving solution size 4
improving solution size 5
improving solution size 6
improving solution size 7
improving solution size 8
improving solution size 9
improving solution size 10
improving solution size 11
improving solution size 12
improving solution size 13
improving solution size 14
improving solution size 15
improving solution size 16
improving solution size 17
improving solution size 18
improving solution size 19
improving solution size 20
improving solution size 21
improving solution size 22
improving solution size 23
TIMEOUT
best clique: 799 798 797 796 793 749 724 708 638 622 594 555 460 450 391 390 378 185 180 243 44 26 25 
record          =          23
subp            =  4063015957
time            =  3600.00081
