timeout 3600 s
Graph with 800 vertices and 207505 edges density 0.649265
start search
improving solution size 1
improving solution size 2
improving solution size 3
improving solution size 4
improving solution size 5
improving solution size 6
improving solution size 7
improving solution size 8
improving solution size 9
improving solution size 10
improving solution size 11
improving solution size 12
improving solution size 13
improving solution size 14
improving solution size 15
improving solution size 16
improving solution size 17
improving solution size 18
improving solution size 19
improving solution size 20
improving solution size 21
improving solution size 22
improving solution size 23
improving solution size 24
improving solution size 25
improving solution size 26
TIMEOUT
best clique: 799 798 797 796 795 793 749 691 644 585 561 516 495 479 426 424 391 334 299 413 249 245 174 140 57 0 
record          =          26
subp            =  1844010168
time            =  3600.00026
