timeout 3600 s
Graph with 400 vertices and 59681 edges density 0.747882
start search
improving solution size 1
improving solution size 2
improving solution size 3
improving solution size 4
improving solution size 5
improving solution size 6
improving solution size 7
improving solution size 8
improving solution size 9
improving solution size 10
improving solution size 11
improving solution size 12
improving solution size 13
improving solution size 14
improving solution size 15
improving solution size 16
improving solution size 17
improving solution size 18
improving solution size 19
improving solution size 20
improving solution size 21
improving solution size 22
improving solution size 23
improving solution size 24
improving solution size 25
improving solution size 26
improving solution size 27
improving solution size 28
improving solution size 29
improving solution size 30
improving solution size 31
TIMEOUT
best clique: 399 398 397 396 395 394 393 391 389 386 384 372 370 363 312 285 271 262 244 261 226 203 191 239 157 144 53 22 15 40 4 
record          =          31
subp            =  2233694463
time            =  3600.00111
