timeout 3600 s
Graph with 800 vertices and 208166 edges density 0.651333
start search
improving solution size 1
improving solution size 2
improving solution size 3
improving solution size 4
improving solution size 5
improving solution size 6
improving solution size 7
improving solution size 8
improving solution size 9
improving solution size 10
improving solution size 11
improving solution size 12
improving solution size 13
improving solution size 14
improving solution size 15
improving solution size 16
improving solution size 17
improving solution size 18
improving solution size 19
improving solution size 20
improving solution size 21
improving solution size 22
improving solution size 23
improving solution size 24
improving solution size 25
improving solution size 26
improving solution size 27
improving solution size 28
TIMEOUT
best clique: 799 798 797 796 795 793 791 772 786 723 722 693 671 572 545 535 476 458 412 344 337 369 184 137 132 81 51 31 
record          =          28
subp            =  1761139380
time            =  3600.00161
