timeout 3600 s
Graph with 200 vertices and 13089 edges density 0.657739
start search
improving solution size 1
improving solution size 2
improving solution size 3
improving solution size 4
improving solution size 5
improving solution size 6
improving solution size 7
improving solution size 8
improving solution size 9
improving solution size 10
improving solution size 11
improving solution size 12
improving solution size 13
improving solution size 14
improving solution size 15
improving solution size 16
improving solution size 17
improving solution size 18
improving solution size 19
improving solution size 20
improving solution size 21
improving solution size 22
improving solution size 23
improving solution size 24
improving solution size 25
TIMEOUT
best clique: 199 198 197 192 191 164 159 150 142 132 130 127 123 137 118 97 94 89 107 71 85 34 32 21 61 
record          =          25
subp            =  2234554322
time            =  3600.00135
