timeout 3600 s
Graph with 500 vertices and 4459 edges density 0.035743
start search
improving solution size 1
improving solution size 2
improving solution size 3
improving solution size 4
improving solution size 5
improving solution size 6
improving solution size 7
improving solution size 8
improving solution size 9
improving solution size 10
improving solution size 11
improving solution size 12
improving solution size 13
improving solution size 14
best clique: 499 498 419 418 338 339 258 259 179 178 99 98 19 18 
record          =          14
subp            =       64077
time            =     0.27379
