timeout 3600 s
Graph with 2000 vertices and 1799532 edges density 0.900216
start search
improving solution size 1
improving solution size 2
improving solution size 3
improving solution size 4
improving solution size 5
improving solution size 6
improving solution size 7
improving solution size 8
improving solution size 9
improving solution size 10
improving solution size 11
improving solution size 12
improving solution size 13
improving solution size 14
improving solution size 15
improving solution size 16
improving solution size 17
improving solution size 18
improving solution size 19
improving solution size 20
improving solution size 21
improving solution size 22
improving solution size 23
improving solution size 24
improving solution size 25
improving solution size 26
improving solution size 27
improving solution size 28
improving solution size 29
improving solution size 30
improving solution size 31
improving solution size 32
improving solution size 33
improving solution size 34
improving solution size 35
improving solution size 36
improving solution size 37
improving solution size 38
improving solution size 39
improving solution size 40
improving solution size 41
improving solution size 42
improving solution size 43
improving solution size 44
improving solution size 45
improving solution size 46
improving solution size 47
improving solution size 48
improving solution size 49
improving solution size 50
improving solution size 51
improving solution size 52
improving solution size 53
improving solution size 54
improving solution size 55
improving solution size 56
improving solution size 57
improving solution size 58
improving solution size 59
improving solution size 60
improving solution size 61
improving solution size 62
improving solution size 63
improving solution size 64
improving solution size 65
improving solution size 66
improving solution size 67
improving solution size 68
improving solution size 69
improving solution size 70
improving solution size 71
improving solution size 72
improving solution size 73
improving solution size 74
TIMEOUT
best clique: 1999 1998 1997 1996 1995 1994 1993 1992 1991 1990 1989 1988 1987 1985 1984 1983 1982 1981 1980 1976 1974 1972 1971 1970 1968 1966 1958 1953 1952 1951 1949 1946 1938 1931 1924 1923 1895 1891 1867 1860 1844 1789 1772 1756 1715 1660 1567 1553 1531 1517 1515 1506 1504 1411 1389 1307 1123 1242 757 1015 666 648 577 501 1276 980 484 378 224 154 115 958 37 2 
record          =          74
subp            =   843339497
time            =  3600.00300
