timeout 3600 s
Graph with 200 vertices and 17910 edges density 0.900000
start search
improving solution size 1
improving solution size 2
improving solution size 3
improving solution size 4
improving solution size 5
improving solution size 6
improving solution size 7
improving solution size 8
improving solution size 9
improving solution size 10
improving solution size 11
improving solution size 12
improving solution size 13
improving solution size 14
improving solution size 15
improving solution size 16
improving solution size 17
improving solution size 18
improving solution size 19
improving solution size 20
improving solution size 21
improving solution size 22
improving solution size 23
improving solution size 24
improving solution size 25
improving solution size 26
improving solution size 27
improving solution size 28
improving solution size 29
improving solution size 30
improving solution size 31
improving solution size 32
improving solution size 33
improving solution size 34
improving solution size 35
improving solution size 36
improving solution size 37
improving solution size 38
improving solution size 39
improving solution size 40
improving solution size 41
improving solution size 42
improving solution size 43
improving solution size 44
improving solution size 45
improving solution size 46
improving solution size 47
improving solution size 48
improving solution size 49
improving solution size 50
improving solution size 51
improving solution size 52
improving solution size 53
improving solution size 54
improving solution size 55
improving solution size 56
improving solution size 57
improving solution size 58
improving solution size 59
improving solution size 60
improving solution size 61
improving solution size 62
TIMEOUT
best clique: 199 198 197 196 195 194 193 192 191 190 189 188 187 186 185 184 183 182 181 180 179 177 174 172 169 162 159 158 155 144 138 136 132 120 118 113 117 95 104 94 102 130 91 123 109 128 69 105 72 60 44 82 42 29 28 96 20 17 12 11 2 0 
record          =          62
subp            =  1706801096
time            =  3600.00148
