timeout 3600 s
Graph with 378 vertices and 70551 edges density 0.990148
start search
improving solution size 1
improving solution size 2
improving solution size 3
improving solution size 4
improving solution size 5
improving solution size 6
improving solution size 7
improving solution size 8
improving solution size 9
improving solution size 10
improving solution size 11
improving solution size 12
improving solution size 13
improving solution size 14
improving solution size 15
improving solution size 16
improving solution size 17
improving solution size 18
improving solution size 19
improving solution size 20
improving solution size 21
improving solution size 22
improving solution size 23
improving solution size 24
improving solution size 25
improving solution size 26
improving solution size 27
improving solution size 28
improving solution size 29
improving solution size 30
improving solution size 31
improving solution size 32
improving solution size 33
improving solution size 34
improving solution size 35
improving solution size 36
improving solution size 37
improving solution size 38
improving solution size 39
improving solution size 40
improving solution size 41
improving solution size 42
improving solution size 43
improving solution size 44
improving solution size 45
improving solution size 46
improving solution size 47
improving solution size 48
improving solution size 49
improving solution size 50
improving solution size 51
improving solution size 52
improving solution size 53
improving solution size 54
improving solution size 55
improving solution size 56
improving solution size 57
improving solution size 58
improving solution size 59
improving solution size 60
improving solution size 61
improving solution size 62
improving solution size 63
improving solution size 64
improving solution size 65
improving solution size 66
improving solution size 67
improving solution size 68
improving solution size 69
improving solution size 70
improving solution size 71
improving solution size 72
improving solution size 73
improving solution size 74
improving solution size 75
improving solution size 76
improving solution size 77
improving solution size 78
improving solution size 79
improving solution size 80
improving solution size 81
improving solution size 82
improving solution size 83
improving solution size 84
improving solution size 85
improving solution size 86
improving solution size 87
improving solution size 88
improving solution size 89
improving solution size 90
improving solution size 91
improving solution size 92
improving solution size 93
improving solution size 94
improving solution size 95
improving solution size 96
improving solution size 97
improving solution size 98
improving solution size 99
improving solution size 100
improving solution size 101
improving solution size 102
improving solution size 103
improving solution size 104
improving solution size 105
improving solution size 106
improving solution size 107
improving solution size 108
improving solution size 109
improving solution size 110
improving solution size 111
improving solution size 112
improving solution size 113
improving solution size 114
improving solution size 115
improving solution size 116
improving solution size 117
improving solution size 118
improving solution size 119
improving solution size 120
improving solution size 121
improving solution size 122
improving solution size 123
improving solution size 124
improving solution size 125
improving solution size 126
improving solution size 127
improving solution size 128
improving solution size 129
improving solution size 130
improving solution size 131
improving solution size 132
improving solution size 133
improving solution size 134
improving solution size 135
improving solution size 136
improving solution size 137
improving solution size 138
improving solution size 139
improving solution size 140
improving solution size 141
improving solution size 142
improving solution size 143
improving solution size 144
improving solution size 145
improving solution size 146
improving solution size 147
improving solution size 148
improving solution size 149
improving solution size 150
improving solution size 151
improving solution size 152
improving solution size 153
improving solution size 154
improving solution size 155
improving solution size 156
improving solution size 157
improving solution size 158
improving solution size 159
improving solution size 160
improving solution size 161
improving solution size 162
improving solution size 163
improving solution size 164
improving solution size 165
improving solution size 166
improving solution size 167
improving solution size 168
improving solution size 169
improving solution size 170
improving solution size 171
improving solution size 172
improving solution size 173
improving solution size 174
improving solution size 175
improving solution size 176
improving solution size 177
improving solution size 178
improving solution size 179
improving solution size 180
improving solution size 181
improving solution size 182
improving solution size 183
improving solution size 184
improving solution size 185
improving solution size 186
improving solution size 187
improving solution size 188
improving solution size 189
improving solution size 190
improving solution size 191
improving solution size 192
improving solution size 193
improving solution size 194
improving solution size 195
improving solution size 196
improving solution size 197
improving solution size 198
improving solution size 199
improving solution size 200
improving solution size 201
improving solution size 202
improving solution size 203
improving solution size 204
improving solution size 205
improving solution size 206
improving solution size 207
improving solution size 208
improving solution size 209
improving solution size 210
improving solution size 211
improving solution size 212
improving solution size 213
improving solution size 214
improving solution size 215
improving solution size 216
improving solution size 217
improving solution size 218
improving solution size 219
improving solution size 220
improving solution size 221
improving solution size 222
improving solution size 223
improving solution size 224
improving solution size 225
improving solution size 226
improving solution size 227
improving solution size 228
improving solution size 229
improving solution size 230
improving solution size 231
improving solution size 232
improving solution size 233
improving solution size 234
improving solution size 235
improving solution size 236
improving solution size 237
improving solution size 238
improving solution size 239
improving solution size 240
improving solution size 241
improving solution size 242
improving solution size 243
improving solution size 244
improving solution size 245
improving solution size 246
improving solution size 247
improving solution size 248
improving solution size 249
improving solution size 250
improving solution size 251
improving solution size 252
improving solution size 253
improving solution size 254
improving solution size 255
improving solution size 256
improving solution size 257
improving solution size 258
improving solution size 259
improving solution size 260
improving solution size 261
improving solution size 262
improving solution size 263
improving solution size 264
improving solution size 265
improving solution size 266
improving solution size 267
improving solution size 268
improving solution size 269
improving solution size 270
improving solution size 271
improving solution size 272
improving solution size 273
improving solution size 274
improving solution size 275
improving solution size 276
improving solution size 277
improving solution size 278
improving solution size 279
improving solution size 280
improving solution size 281
improving solution size 282
improving solution size 283
improving solution size 284
improving solution size 285
improving solution size 286
improving solution size 287
improving solution size 288
improving solution size 289
improving solution size 290
improving solution size 291
improving solution size 292
improving solution size 293
improving solution size 294
improving solution size 295
improving solution size 296
improving solution size 297
improving solution size 298
improving solution size 299
improving solution size 300
improving solution size 301
improving solution size 302
improving solution size 303
improving solution size 304
improving solution size 305
improving solution size 306
improving solution size 307
improving solution size 308
improving solution size 309
improving solution size 310
improving solution size 311
improving solution size 312
improving solution size 313
improving solution size 314
improving solution size 315
improving solution size 316
improving solution size 317
improving solution size 318
improving solution size 319
improving solution size 320
improving solution size 321
improving solution size 322
improving solution size 323
improving solution size 324
improving solution size 325
improving solution size 326
improving solution size 327
improving solution size 328
improving solution size 329
improving solution size 330
improving solution size 331
improving solution size 332
improving solution size 333
improving solution size 334
improving solution size 335
improving solution size 336
improving solution size 337
improving solution size 338
improving solution size 339
improving solution size 340
improving solution size 341
improving solution size 342
improving solution size 343
improving solution size 344
improving solution size 345
improving solution size 346
improving solution size 347
improving solution size 348
improving solution size 349
improving solution size 350
improving solution size 351
best clique: 377 376 375 374 373 372 371 370 369 368 367 366 365 364 363 362 361 360 359 358 357 356 355 354 353 352 351 350 349 348 347 346 345 344 343 342 341 340 339 338 337 336 335 334 333 332 331 330 329 328 327 326 325 324 323 322 321 320 319 318 317 316 315 314 313 312 311 310 309 308 307 306 305 304 303 302 301 300 299 298 297 296 295 294 293 292 291 290 289 288 287 286 285 284 283 282 281 280 279 278 277 276 275 274 273 272 271 270 269 268 267 266 265 264 263 262 261 260 259 258 257 256 255 254 253 252 251 250 249 248 247 246 245 244 243 242 241 240 239 238 237 236 235 234 233 232 231 230 229 228 227 226 225 224 223 222 221 220 219 218 217 216 215 214 213 212 211 210 209 208 207 206 205 204 203 202 201 200 199 198 197 196 195 194 193 192 191 190 189 188 187 186 185 184 183 182 181 180 179 178 177 176 175 174 173 172 171 170 169 168 167 166 165 164 163 162 161 160 159 158 157 156 155 154 153 152 151 150 149 148 147 146 145 144 143 142 141 140 139 138 137 136 135 134 133 132 131 130 129 128 127 126 125 124 123 122 121 120 119 118 117 116 115 114 113 112 111 110 109 108 107 106 105 104 103 102 101 100 99 98 97 96 95 94 93 92 91 90 89 88 87 86 85 84 83 82 81 80 79 78 77 76 75 74 73 72 71 70 69 68 67 66 65 64 63 62 61 60 59 58 57 56 55 54 53 52 51 50 49 48 47 46 45 44 43 42 41 40 39 38 37 36 35 34 33 32 31 30 29 28 27 
record          =         351
subp            =       64405
time            =     0.22103
