timeout 3600 s
Graph with 500 vertices and 93800 edges density 0.751904
start search
improving solution size 1
improving solution size 2
improving solution size 3
improving solution size 4
improving solution size 5
improving solution size 6
improving solution size 7
improving solution size 8
improving solution size 9
improving solution size 10
improving solution size 11
improving solution size 12
improving solution size 13
improving solution size 14
improving solution size 15
improving solution size 16
improving solution size 17
improving solution size 18
improving solution size 19
improving solution size 20
improving solution size 21
improving solution size 22
improving solution size 23
improving solution size 24
improving solution size 25
improving solution size 26
improving solution size 27
improving solution size 28
improving solution size 29
improving solution size 30
improving solution size 31
improving solution size 32
improving solution size 33
improving solution size 34
improving solution size 35
improving solution size 36
improving solution size 37
improving solution size 38
improving solution size 39
improving solution size 40
improving solution size 41
improving solution size 42
improving solution size 43
improving solution size 44
improving solution size 45
improving solution size 46
improving solution size 47
improving solution size 48
improving solution size 49
improving solution size 50
improving solution size 51
improving solution size 52
improving solution size 53
improving solution size 54
improving solution size 55
improving solution size 56
improving solution size 57
TIMEOUT
best clique: 499 498 497 496 495 494 491 489 488 486 485 482 480 473 468 456 454 444 443 439 431 417 407 390 383 341 340 446 427 305 296 265 247 268 230 214 338 202 189 370 181 158 233 137 145 185 132 128 193 123 90 68 117 64 38 36 22 
record          =          57
subp            =  1415699285
time            =  3600.00239
