timeout 3600 s
Graph with 1000 vertices and 122253 edges density 0.244751
start search
improving solution size 1
improving solution size 2
improving solution size 3
improving solution size 4
improving solution size 5
improving solution size 6
improving solution size 7
improving solution size 8
improving solution size 9
improving solution size 10
improving solution size 11
improving solution size 12
improving solution size 13
improving solution size 14
improving solution size 15
TIMEOUT
best clique: 999 998 994 966 954 850 801 800 661 652 640 623 445 286 97 
record          =          15
subp            =  1238642405
time            =  3600.00130
