timeout 3600 s
Graph with 1500 vertices and 568960 edges density 0.506080
start search
improving solution size 1
improving solution size 2
improving solution size 3
improving solution size 4
improving solution size 5
improving solution size 6
improving solution size 7
improving solution size 8
improving solution size 9
improving solution size 10
improving solution size 11
improving solution size 12
improving solution size 13
improving solution size 14
improving solution size 15
improving solution size 16
improving solution size 17
improving solution size 18
improving solution size 19
improving solution size 20
improving solution size 21
improving solution size 22
improving solution size 23
improving solution size 24
improving solution size 25
improving solution size 26
improving solution size 27
improving solution size 28
improving solution size 29
improving solution size 30
improving solution size 31
improving solution size 32
improving solution size 33
improving solution size 34
improving solution size 35
improving solution size 36
improving solution size 37
improving solution size 38
improving solution size 39
improving solution size 40
TIMEOUT
best clique: 1499 1498 1497 1496 1493 1490 1489 1484 1475 1461 1459 1432 1418 1412 1384 1320 1134 1133 1071 1389 1120 1045 959 731 688 621 852 449 443 579 543 415 396 711 369 357 350 311 289 148 
record          =          40
subp            =  1734001269
time            =  3600.00138
