timeout 3600 s
Graph with 500 vertices and 31569 edges density 0.253058
start search
improving solution size 1
improving solution size 2
improving solution size 3
improving solution size 4
improving solution size 5
improving solution size 6
improving solution size 7
improving solution size 8
improving solution size 9
improving solution size 10
improving solution size 11
improving solution size 12
improving solution size 13
improving solution size 14
improving solution size 15
TIMEOUT
best clique: 499 498 491 442 380 369 367 335 347 236 230 90 76 62 22 
record          =          15
subp            =  1303526224
time            =  3600.00033
