timeout 3600 s
Graph with 400 vertices and 39900 edges density 0.500000
start search
improving solution size 1
improving solution size 2
improving solution size 3
improving solution size 4
improving solution size 5
improving solution size 6
improving solution size 7
improving solution size 8
improving solution size 9
improving solution size 10
improving solution size 11
improving solution size 12
improving solution size 13
improving solution size 14
improving solution size 15
improving solution size 16
improving solution size 17
improving solution size 18
improving solution size 19
improving solution size 20
improving solution size 21
improving solution size 22
improving solution size 23
improving solution size 24
improving solution size 25
best clique: 399 398 397 392 387 380 300 287 345 288 249 295 246 279 277 226 199 191 178 169 162 156 95 89 42 
record          =          25
subp            =     2015027
time            =    15.18522
