timeout 3600 s
Graph with 400 vertices and 55869 edges density 0.700113
start search
improving solution size 1
improving solution size 2
improving solution size 3
improving solution size 4
improving solution size 5
improving solution size 6
improving solution size 7
improving solution size 8
improving solution size 9
improving solution size 10
improving solution size 11
improving solution size 12
improving solution size 13
improving solution size 14
improving solution size 15
improving solution size 16
improving solution size 17
improving solution size 18
improving solution size 19
improving solution size 20
improving solution size 21
improving solution size 22
improving solution size 23
improving solution size 24
improving solution size 25
improving solution size 26
improving solution size 27
improving solution size 28
improving solution size 29
TIMEOUT
best clique: 399 398 397 396 394 393 389 375 373 366 350 349 339 332 320 310 236 232 311 222 211 129 118 94 80 62 26 5 1 
record          =          29
subp            =  2108688582
time            =  3600.00132
