timeout 3600 s
Graph with 400 vertices and 39984 edges density 0.501053
start search
improving solution size 1
improving solution size 2
improving solution size 3
improving solution size 4
improving solution size 5
improving solution size 6
improving solution size 7
improving solution size 8
improving solution size 9
improving solution size 10
improving solution size 11
improving solution size 12
improving solution size 13
improving solution size 14
improving solution size 15
improving solution size 16
improving solution size 17
improving solution size 18
improving solution size 19
TIMEOUT
best clique: 399 398 393 392 336 335 331 325 323 305 293 268 286 267 248 242 181 116 52 
record          =          19
subp            =  1891236347
time            =  3600.00066
