timeout 3600 s
Graph with 400 vertices and 59681 edges density 0.747882
t = 119362, Enbr = 59681
é k-Plex
lBound1 = 21
é k-Plex
lBound2 = 20
start search
improving solution size 22
improving solution size 23
improving solution size 24
improving solution size 25
improving solution size 26
improving solution size 27
improving solution size 28
TIMEOUT
best clique: 101 282 185 246 91 361 374 212 184 277 302 87 264 69 294 229 53 28 186 344 59 248 379 94 321 288 351 119 
record          =          28
subp            =  3843630791
time            =  3600.00081
