timeout 3600 s
Graph with 800 vertices and 207643 edges density 0.649696
t = 415286, Enbr = 207643
é k-Plex
lBound1 = 16
é k-Plex
lBound2 = 17
start search
improving solution size 18
improving solution size 19
improving solution size 20
improving solution size 21
improving solution size 22
improving solution size 23
improving solution size 24
TIMEOUT
best clique: 423 605 732 305 771 782 685 129 594 237 499 158 606 647 733 205 552 449 194 535 487 513 127 372 
record          =          24
subp            =  3220398181
time            =  3600.00004
