timeout 3600 s
Graph with 400 vertices and 59723 edges density 0.748409
t = 119446, Enbr = 59723
é k-Plex
lBound1 = 21
é k-Plex
lBound2 = 20
start search
improving solution size 22
improving solution size 23
improving solution size 24
improving solution size 25
improving solution size 26
improving solution size 27
improving solution size 28
TIMEOUT
best clique: 283 41 313 365 218 132 286 378 149 226 122 156 125 177 379 155 111 306 82 45 74 1 345 351 287 49 372 81 
record          =          28
subp            =  3637040407
time            =  3600.00040
