timeout 3600 s
Graph with 1000 vertices and 450079 edges density 0.901059
t = 900158, Enbr = 450079
é k-Plex
lBound1 = 59
é k-Plex
lBound2 = 58
start search
improving solution size 60
improving solution size 61
improving solution size 62
improving solution size 63
improving solution size 64
improving solution size 65
TIMEOUT
best clique: 356 653 614 510 38 101 214 958 15 330 842 417 715 915 369 147 607 300 48 756 668 938 877 505 460 284 860 58 466 982 553 633 160 767 352 624 426 954 303 932 427 151 525 178 431 98 20 349 952 264 138 529 967 688 104 495 228 704 11 144 914 656 669 509 540 
record          =          65
subp            =  1891081192
time            =  3600.00188
