timeout 3600 s
Graph with 125 vertices and 6963 edges density 0.898452
t = 13926, Enbr = 6963
é k-Plex
lBound1 = 37
é k-Plex
lBound2 = 39
start search
improving solution size 40
improving solution size 41
improving solution size 42
TIMEOUT
best clique: 46 29 77 34 39 123 22 44 70 18 65 118 11 48 49 74 69 25 67 71 125 7 31 40 92 17 68 80 98 2 110 19 101 96 93 35 45 54 114 24 108 36 
record          =          42
subp            =  3523067548
time            =  3600.00050
