timeout 3600 s
Graph with 2000 vertices and 999836 edges density 0.500168
t = 1999672, Enbr = 999836
é k-Plex
lBound1 = 13
é k-Plex
lBound2 = 12
start search
improving solution size 14
improving solution size 15
improving solution size 16
improving solution size 17
improving solution size 18
TIMEOUT
best clique: 537 1159 697 349 418 761 1266 642 512 1109 1909 197 1049 813 1053 641 670 778 
record          =          18
subp            =  2515359847
time            =  3600.00100
