timeout 3600 s
Graph with 4000 vertices and 4000268 edges density 0.500159
t = 8000536, Enbr = 4000268
é k-Plex
lBound1 = 12
é k-Plex
lBound2 = 14
start search
improving solution size 15
improving solution size 16
improving solution size 17
improving solution size 18
improving solution size 19
TIMEOUT
best clique: 1715 3111 309 418 3038 2282 1226 455 3831 2460 2628 3927 3311 682 3493 921 1666 2716 17 
record          =          19
subp            =  1664319657
time            =  3600.00206
