timeout 3600 s
Graph with 200 vertices and 17910 edges density 0.900000
t = 35820, Enbr = 17910
é k-Plex
lBound1 = 46
é k-Plex
lBound2 = 44
start search
improving solution size 47
TIMEOUT
best clique: 107 142 9 79 68 116 162 46 90 140 106 82 5 23 175 7 91 145 59 87 14 35 180 166 34 40 112 104 156 172 61 65 72 167 193 62 174 33 50 86 126 98 103 2 49 128 47 
record          =          47
subp            =  2621366748
time            =  3600.00067
