timeout 3600 s
Graph with 400 vertices and 71820 edges density 0.900000
t = 143640, Enbr = 71820
é k-Plex
lBound1 = 54
é k-Plex
lBound2 = 57
start search
TIMEOUT
best clique: 289 356 342 308 143 194 385 223 136 7 207 395 323 167 241 219 154 270 350 301 68 341 153 159 234 160 387 355 172 314 69 307 281 100 263 351 115 1 346 192 367 44 364 275 353 43 13 244 309 274 297 109 125 95 78 397 138 
record          =          57
subp            =  2196223029
time            =  3600.00139
