timeout 3600 s
Graph with 378 vertices and 70551 edges density 0.990148
t = 141102, Enbr = 70551
é k-Plex
lBound1 = 236
é k-Plex
lBound2 = 236
start search
TIMEOUT
best clique: 378 377 375 374 372 371 369 368 366 365 363 362 360 359 357 356 354 353 351 350 348 347 345 344 342 341 339 338 336 335 333 332 330 329 327 326 324 323 321 320 318 317 315 314 312 311 309 308 306 305 303 302 300 299 297 296 294 293 291 290 288 287 285 284 282 281 279 278 276 275 273 272 270 269 267 266 264 263 261 260 258 257 255 254 252 251 249 248 246 245 243 242 240 239 237 236 234 233 231 230 228 227 225 224 222 221 219 218 216 215 213 212 210 209 207 206 204 203 201 200 198 197 195 194 192 191 189 188 186 185 183 182 180 179 177 176 174 173 171 170 168 167 165 164 162 161 159 158 156 155 153 152 150 149 147 146 144 143 141 140 138 137 135 134 132 131 129 128 126 125 120 119 106 108 117 116 111 110 104 105 122 123 114 113 102 101 99 98 96 95 93 92 90 89 84 83 70 72 81 80 75 74 68 69 86 87 78 77 66 65 63 62 60 59 57 56 54 53 48 47 34 36 45 44 2 39 38 32 33 50 51 3 42 41 1 30 
record          =         236
subp            =   230949719
time            =  3600.00636
