timeout 3600 s
Graph with 45 vertices and 918 edges density 0.927273
t = 1836, Enbr = 918
é k-Plex
lBound1 = 24
é k-Plex
lBound2 = 24
start search
improving solution size 25
improving solution size 26
best clique: 4 28 2 33 16 9 32 27 22 26 24 19 35 17 10 36 38 20 37 12 41 42 43 15 45 14 
record          =          26
subp            =     5245939
time            =     2.98133
