timeout 3600 s
Graph with 1035 vertices and 533115 edges density 0.996300
t = 1066230, Enbr = 533115
é k-Plex
lBound1 = 660
é k-Plex
lBound2 = 660
start search
TIMEOUT
best clique: 1035 1034 1032 1031 1029 1028 1026 1025 1023 1022 1020 1019 1017 1016 1014 1013 1011 1010 1008 1007 1005 1004 1002 1001 999 998 996 995 993 992 990 989 987 986 984 983 981 980 978 977 975 974 972 971 969 968 966 965 963 962 960 959 957 956 954 953 951 950 948 947 945 944 942 941 939 938 936 935 933 932 930 929 927 926 924 923 921 920 918 917 915 914 912 911 909 908 906 905 903 902 900 899 897 896 894 893 891 890 888 887 885 884 882 881 879 878 876 875 873 872 870 869 867 866 864 863 861 860 858 857 855 854 852 851 849 848 846 845 843 842 840 839 837 836 834 833 831 830 828 827 825 824 822 821 819 818 816 815 813 812 810 809 807 806 804 803 801 800 798 797 795 794 792 791 789 788 786 785 783 782 780 779 777 776 774 773 771 770 768 767 765 764 762 761 759 758 756 755 753 752 750 749 747 746 744 743 741 740 738 737 735 734 732 731 729 728 726 725 723 722 720 719 717 716 714 713 711 710 708 707 705 704 702 701 699 698 696 695 693 692 690 689 687 686 684 683 681 680 678 677 675 674 672 671 669 668 666 665 663 662 660 659 657 656 654 653 651 650 648 647 645 644 642 641 639 638 636 635 633 632 630 629 627 626 624 623 621 620 618 617 615 614 612 611 609 608 606 605 603 602 600 599 597 596 594 593 591 590 588 587 585 584 582 581 579 578 576 575 573 572 570 569 567 566 564 563 561 560 558 557 555 554 552 551 549 548 546 545 543 542 540 539 537 536 534 533 531 530 528 527 525 524 522 521 519 518 516 515 513 512 510 509 507 506 504 503 501 500 498 497 495 494 492 491 489 488 486 485 483 482 480 479 477 476 474 473 471 470 468 467 465 464 462 461 459 458 456 455 453 452 450 449 447 446 444 443 441 440 438 437 435 434 432 431 429 428 426 425 423 422 420 419 417 416 414 413 411 410 408 407 405 404 402 401 399 398 396 395 393 392 390 389 387 386 384 383 381 380 378 377 375 374 372 371 369 368 366 365 363 362 360 359 357 356 354 353 351 350 348 347 345 344 342 341 339 338 336 335 333 332 330 329 327 326 306 305 291 290 324 323 303 302 288 287 321 320 315 314 300 299 318 317 312 311 297 296 309 308 294 293 285 284 270 269 282 281 267 266 279 278 271 273 264 263 274 276 261 260 258 257 255 254 252 251 249 248 246 245 243 242 240 239 237 236 234 233 231 230 228 227 225 224 222 221 201 200 186 185 219 218 198 197 183 182 216 215 210 209 195 194 213 212 207 206 192 191 204 203 189 188 180 179 165 164 177 176 162 161 174 173 166 168 159 158 169 171 156 155 153 152 150 149 147 146 144 143 141 140 138 137 135 134 132 131 129 128 126 125 123 122 120 119 117 116 96 95 81 80 114 113 93 92 78 77 111 110 105 104 90 89 108 107 102 101 87 86 99 98 84 83 75 74 60 59 72 71 57 56 69 68 61 63 54 53 1 64 51 50 48 47 
record          =         660
subp            =    28109081
time            =  3600.12467
