timeout 3600 s
Graph with 1000 vertices and 371746 edges density 0.744236
t = 743492, Enbr = 371746
é k-Plex
lBound1 = 73
é k-Plex
lBound2 = 60
start search
TIMEOUT
best clique: 378 763 283 798 464 226 801 416 777 623 29 636 85 38 819 662 639 988 900 862 608 993 461 65 492 830 538 800 194 122 497 653 997 824 754 489 663 562 370 537 495 330 961 142 992 782 204 192 33 967 688 549 227 504 671 322 641 334 162 8 927 155 705 851 640 253 411 284 394 784 783 719 922 
record          =          73
subp            =  1798753957
time            =  3600.00080
