timeout 3600 s
Graph with 700 vertices and 183010 edges density 0.748048
t = 366020, Enbr = 183010
é k-Plex
lBound1 = 61
é k-Plex
lBound2 = 53
start search
improving solution size 62
improving solution size 63
improving solution size 64
improving solution size 65
improving solution size 66
improving solution size 67
improving solution size 68
improving solution size 69
improving solution size 70
improving solution size 71
TIMEOUT
best clique: 562 649 549 8 19 511 661 240 48 325 437 193 397 361 106 306 579 345 295 348 17 351 252 368 119 459 290 118 149 525 30 350 623 373 612 326 407 387 584 152 129 379 601 285 528 148 107 248 54 619 392 608 495 522 581 122 393 31 156 87 212 537 317 636 587 678 594 76 292 69 660 
record          =          71
subp            =  1669312645
time            =  3600.00180
