timeout 3600 s
Graph with 300 vertices and 21928 edges density 0.488919
t = 43856, Enbr = 21928
é k-Plex
lBound1 = 25
é k-Plex
lBound2 = 21
start search
improving solution size 26
improving solution size 27
improving solution size 28
improving solution size 29
improving solution size 30
TIMEOUT
best clique: 49 75 4 255 237 219 139 89 273 40 296 149 48 205 231 159 235 174 44 252 176 290 190 105 160 291 199 293 56 30 
record          =          30
subp            =  3380759382
time            =  3600.00046
