timeout 3600 s
Graph with 500 vertices and 31569 edges density 0.253058
t = 63138, Enbr = 31569
é k-Plex
lBound1 = 9
é k-Plex
lBound2 = 7
start search
improving solution size 10
improving solution size 11
improving solution size 12
best clique: 349 381 269 63 412 500 300 336 258 231 159 34 
record          =          12
subp            =    48705664
time            =    38.27712
