timeout 3600 s
Graph with 1500 vertices and 568960 edges density 0.506080
t = 1137920, Enbr = 568960
é k-Plex
lBound1 = 67
é k-Plex
lBound2 = 61
start search
improving solution size 68
improving solution size 69
improving solution size 70
improving solution size 71
improving solution size 72
TIMEOUT
best clique: 508 738 826 749 974 1002 214 26 472 1273 521 1321 1265 1464 990 1483 940 72 450 564 540 372 433 274 428 863 1120 838 1333 1072 917 1247 1034 173 562 1121 233 1027 963 537 1385 920 45 1167 819 396 156 1411 403 1460 261 434 1459 392 1039 386 723 561 444 1389 529 131 689 845 878 68 647 240 622 358 31 1344 
record          =          72
subp            =  1649472825
time            =  3600.00233
