timeout 3600 s
Graph with 200 vertices and 13930 edges density 0.700000
t = 27860, Enbr = 13930
é k-Plex
lBound1 = 21
é k-Plex
lBound2 = 15
start search
improving solution size 22
improving solution size 23
improving solution size 24
improving solution size 25
improving solution size 26
improving solution size 27
improving solution size 28
improving solution size 29
improving solution size 30
TIMEOUT
best clique: 17 99 121 97 86 140 134 123 66 127 38 109 148 131 142 118 190 139 98 128 88 199 160 65 74 126 133 161 87 170 
record          =          30
subp            =  13028158143
time            =  3600.00019
