timeout 3600 s
Graph with 200 vertices and 17910 edges density 0.900000
t = 35820, Enbr = 17910
é k-Plex
lBound1 = 42
é k-Plex
lBound2 = 42
start search
improving solution size 43
improving solution size 44
TIMEOUT
best clique: 97 103 45 50 29 86 150 43 33 47 91 176 84 38 173 111 193 140 131 136 46 135 104 196 195 116 7 155 184 194 51 200 130 53 25 101 182 55 68 31 76 11 177 54 
record          =          44
subp            =  3122597478
time            =  3600.00008
