timeout 3600 s
Graph with 400 vertices and 39984 edges density 0.501053
t = 79968, Enbr = 39984
é k-Plex
lBound1 = 10
é k-Plex
lBound2 = 10
start search
improving solution size 11
improving solution size 12
improving solution size 13
improving solution size 14
improving solution size 15
TIMEOUT
best clique: 343 280 209 68 232 27 368 147 350 168 159 359 4 294 28 
record          =          15
subp            =  4432107680
time            =  3600.00024
