timeout 3600 s
Graph with 200 vertices and 17863 edges density 0.897638
t = 35726, Enbr = 17863
é k-Plex
lBound1 = 42
é k-Plex
lBound2 = 37
start search
improving solution size 43
improving solution size 44
TIMEOUT
best clique: 53 149 135 10 12 65 78 187 199 22 28 181 153 102 75 86 130 192 197 175 72 31 152 118 74 30 177 4 80 84 46 27 154 174 93 112 150 43 57 60 71 126 143 100 
record          =          44
subp            =  3281706428
time            =  3600.00075
