timeout 3600 s
Graph with 200 vertices and 13868 edges density 0.696884
t = 27736, Enbr = 13868
é k-Plex
lBound1 = 17
é k-Plex
lBound2 = 15
start search
improving solution size 18
improving solution size 19
improving solution size 20
improving solution size 21
improving solution size 22
TIMEOUT
best clique: 99 88 143 66 89 144 82 179 27 49 85 36 54 200 129 181 71 114 2 196 188 50 
record          =          22
subp            =  4999523529
time            =  3600.00054
