timeout 3600 s
Graph with 800 vertices and 207643 edges density 0.649696
t = 415286, Enbr = 207643
degree[799] = 565, pos[799] = 512
degree[798] = 558, pos[798] = 594
degree[797] = 557, pos[797] = 799
degree[796] = 554, pos[796] = 305
degree[795] = 551, pos[795] = 30
degree[794] = 548, pos[794] = 476
degree[793] = 545, pos[793] = 486
degree[792] = 544, pos[792] = 545
degree[791] = 544, pos[791] = 109
degree[790] = 542, pos[790] = 284
degree[789] = 540, pos[789] = 500
degree[788] = 540, pos[788] = 394
degree[787] = 540, pos[787] = 366
degree[786] = 539, pos[786] = 327
degree[785] = 538, pos[785] = 544
degree[784] = 536, pos[784] = 405
degree[783] = 535, pos[783] = 239
degree[782] = 533, pos[782] = 783
degree[781] = 532, pos[781] = 604
degree[780] = 532, pos[780] = 422
degree[779] = 531, pos[779] = 624
degree[778] = 530, pos[778] = 165
degree[777] = 529, pos[777] = 377
degree[776] = 528, pos[776] = 144
degree[775] = 527, pos[775] = 347
degree[774] = 526, pos[774] = 304
degree[773] = 525, pos[773] = 739
degree[772] = 524, pos[772] = 629
degree[771] = 524, pos[771] = 315
degree[770] = 522, pos[770] = 731
degree[769] = 522, pos[769] = 123
degree[768] = 521, pos[768] = 18
degree[767] = 520, pos[767] = 667
degree[766] = 520, pos[766] = 586
degree[765] = 519, pos[765] = 369
degree[764] = 518, pos[764] = 179
degree[763] = 516, pos[763] = 777
degree[762] = 516, pos[762] = 753
degree[761] = 515, pos[761] = 744
degree[760] = 514, pos[760] = 560
degree[759] = 514, pos[759] = 214
degree[758] = 513, pos[758] = 354
degree[757] = 511, pos[757] = 723
degree[756] = 511, pos[756] = 330
degree[755] = 510, pos[755] = 281
degree[754] = 509, pos[754] = 788
degree[753] = 509, pos[753] = 464
degree[752] = 509, pos[752] = 229
degree[751] = 508, pos[751] = 201
degree[750] = 507, pos[750] = 105
degree[749] = 506, pos[749] = 318
degree[748] = 505, pos[748] = 255
degree[747] = 505, pos[747] = 97
degree[746] = 503, pos[746] = 701
degree[745] = 503, pos[745] = 222
degree[744] = 501, pos[744] = 539
degree[743] = 500, pos[743] = 203
degree[742] = 500, pos[742] = 0
degree[741] = 498, pos[741] = 775
degree[740] = 498, pos[740] = 173
degree[739] = 497, pos[739] = 640
degree[738] = 497, pos[738] = 134
degree[737] = 496, pos[737] = 562
degree[736] = 495, pos[736] = 592
degree[735] = 494, pos[735] = 91
degree[734] = 493, pos[734] = 771
degree[733] = 492, pos[733] = 767
degree[732] = 492, pos[732] = 167
degree[731] = 491, pos[731] = 158
degree[730] = 490, pos[730] = 556
degree[729] = 489, pos[729] = 507
degree[728] = 488, pos[728] = 652
degree[727] = 488, pos[727] = 431
degree[726] = 487, pos[726] = 400
degree[725] = 486, pos[725] = 699
degree[724] = 486, pos[724] = 398
degree[723] = 485, pos[723] = 511
degree[722] = 485, pos[722] = 402
degree[721] = 484, pos[721] = 192
degree[720] = 484, pos[720] = 51
degree[719] = 482, pos[719] = 630
degree[718] = 482, pos[718] = 115
degree[717] = 481, pos[717] = 695
degree[716] = 479, pos[716] = 645
degree[715] = 479, pos[715] = 211
degree[714] = 479, pos[714] = 76
degree[713] = 477, pos[713] = 489
degree[712] = 477, pos[712] = 73
degree[711] = 476, pos[711] = 446
degree[710] = 475, pos[710] = 108
degree[709] = 474, pos[709] = 417
degree[708] = 473, pos[708] = 596
degree[707] = 472, pos[707] = 692
degree[706] = 472, pos[706] = 353
degree[705] = 472, pos[705] = 89
degree[704] = 471, pos[704] = 155
degree[703] = 470, pos[703] = 703
degree[702] = 470, pos[702] = 338
degree[701] = 469, pos[701] = 253
degree[700] = 468, pos[700] = 516
degree[699] = 468, pos[699] = 28
degree[698] = 466, pos[698] = 365
degree[697] = 466, pos[697] = 295
degree[696] = 465, pos[696] = 337
degree[695] = 464, pos[695] = 439
degree[694] = 464, pos[694] = 117
degree[693] = 463, pos[693] = 275
degree[692] = 462, pos[692] = 453
degree[691] = 461, pos[691] = 473
degree[690] = 461, pos[690] = 174
degree[689] = 460, pos[689] = 359
degree[688] = 459, pos[688] = 154
degree[687] = 458, pos[687] = 763
degree[686] = 457, pos[686] = 770
degree[685] = 457, pos[685] = 23
degree[684] = 456, pos[684] = 133
degree[683] = 456, pos[683] = 7
degree[682] = 455, pos[682] = 610
degree[681] = 454, pos[681] = 626
degree[680] = 453, pos[680] = 599
degree[679] = 452, pos[679] = 643
degree[678] = 451, pos[678] = 653
degree[677] = 450, pos[677] = 657
degree[676] = 450, pos[676] = 437
degree[675] = 449, pos[675] = 573
degree[674] = 448, pos[674] = 496
degree[673] = 448, pos[673] = 230
degree[672] = 447, pos[672] = 738
degree[671] = 446, pos[671] = 603
degree[670] = 446, pos[670] = 542
degree[669] = 446, pos[669] = 414
degree[668] = 444, pos[668] = 332
degree[667] = 442, pos[667] = 742
degree[666] = 442, pos[666] = 478
degree[665] = 442, pos[665] = 361
degree[664] = 441, pos[664] = 428
degree[663] = 440, pos[663] = 628
degree[662] = 440, pos[662] = 485
degree[661] = 438, pos[661] = 717
degree[660] = 438, pos[660] = 492
degree[659] = 437, pos[659] = 458
degree[658] = 436, pos[658] = 662
degree[657] = 436, pos[657] = 47
degree[656] = 435, pos[656] = 747
degree[655] = 435, pos[655] = 17
degree[654] = 433, pos[654] = 659
degree[653] = 433, pos[653] = 550
degree[652] = 432, pos[652] = 481
degree[651] = 432, pos[651] = 293
degree[650] = 431, pos[650] = 262
degree[649] = 431, pos[649] = 143
degree[648] = 430, pos[648] = 14
degree[647] = 428, pos[647] = 755
degree[646] = 428, pos[646] = 264
degree[645] = 428, pos[645] = 4
degree[644] = 427, pos[644] = 429
degree[643] = 426, pos[643] = 39
degree[642] = 425, pos[642] = 526
degree[641] = 424, pos[641] = 631
degree[640] = 424, pos[640] = 487
degree[639] = 423, pos[639] = 126
degree[638] = 422, pos[638] = 530
degree[637] = 422, pos[637] = 290
degree[636] = 421, pos[636] = 112
degree[635] = 420, pos[635] = 459
degree[634] = 420, pos[634] = 213
degree[633] = 418, pos[633] = 499
degree[632] = 418, pos[632] = 482
degree[631] = 418, pos[631] = 334
degree[630] = 416, pos[630] = 709
degree[629] = 416, pos[629] = 669
degree[628] = 416, pos[628] = 9
degree[627] = 414, pos[627] = 686
degree[626] = 414, pos[626] = 515
degree[625] = 413, pos[625] = 463
degree[624] = 412, pos[624] = 374
degree[623] = 412, pos[623] = 242
degree[622] = 410, pos[622] = 658
degree[621] = 410, pos[621] = 277
degree[620] = 409, pos[620] = 541
degree[619] = 409, pos[619] = 200
degree[618] = 408, pos[618] = 671
degree[617] = 408, pos[617] = 196
degree[616] = 408, pos[616] = 77
degree[615] = 406, pos[615] = 644
degree[614] = 406, pos[614] = 35
degree[613] = 405, pos[613] = 434
degree[612] = 404, pos[612] = 376
degree[611] = 404, pos[611] = 312
degree[610] = 403, pos[610] = 285
degree[609] = 403, pos[609] = 98
degree[608] = 402, pos[608] = 308
degree[607] = 400, pos[607] = 584
degree[606] = 400, pos[606] = 100
degree[605] = 399, pos[605] = 423
degree[604] = 399, pos[604] = 356
degree[603] = 399, pos[603] = 25
degree[602] = 397, pos[602] = 65
degree[601] = 397, pos[601] = 58
degree[600] = 396, pos[600] = 688
degree[599] = 395, pos[599] = 66
degree[598] = 394, pos[598] = 355
degree[597] = 394, pos[597] = 136
degree[596] = 393, pos[596] = 274
degree[595] = 392, pos[595] = 170
degree[594] = 391, pos[594] = 751
degree[593] = 390, pos[593] = 600
degree[592] = 389, pos[592] = 706
degree[591] = 389, pos[591] = 226
degree[590] = 388, pos[590] = 452
degree[589] = 387, pos[589] = 676
degree[588] = 387, pos[588] = 251
degree[587] = 386, pos[587] = 427
degree[586] = 385, pos[586] = 570
degree[585] = 385, pos[585] = 168
degree[584] = 383, pos[584] = 791
degree[583] = 383, pos[583] = 390
degree[582] = 383, pos[582] = 176
degree[581] = 382, pos[581] = 292
degree[580] = 381, pos[580] = 148
degree[579] = 380, pos[579] = 656
degree[578] = 379, pos[578] = 455
degree[577] = 379, pos[577] = 256
degree[576] = 379, pos[576] = 235
degree[575] = 378, pos[575] = 219
degree[574] = 378, pos[574] = 87
degree[573] = 377, pos[573] = 470
degree[572] = 375, pos[572] = 534
degree[571] = 374, pos[571] = 529
degree[570] = 373, pos[570] = 734
degree[569] = 373, pos[569] = 282
degree[568] = 373, pos[568] = 153
degree[567] = 372, pos[567] = 521
degree[566] = 372, pos[566] = 122
degree[565] = 370, pos[565] = 682
degree[564] = 370, pos[564] = 74
degree[563] = 369, pos[563] = 360
degree[562] = 368, pos[562] = 618
degree[561] = 368, pos[561] = 435
degree[560] = 367, pos[560] = 517
degree[559] = 366, pos[559] = 325
degree[558] = 365, pos[558] = 663
degree[557] = 365, pos[557] = 449
degree[556] = 365, pos[556] = 10
degree[555] = 363, pos[555] = 469
degree[554] = 362, pos[554] = 614
degree[553] = 362, pos[553] = 388
degree[552] = 361, pos[552] = 702
degree[551] = 361, pos[551] = 574
degree[550] = 360, pos[550] = 314
degree[549] = 359, pos[549] = 635
degree[548] = 358, pos[548] = 553
degree[547] = 357, pos[547] = 745
degree[546] = 357, pos[546] = 24
degree[545] = 356, pos[545] = 637
degree[544] = 355, pos[544] = 552
degree[543] = 355, pos[543] = 460
degree[542] = 354, pos[542] = 491
degree[541] = 354, pos[541] = 246
degree[540] = 354, pos[540] = 129
degree[539] = 353, pos[539] = 279
degree[538] = 352, pos[538] = 357
degree[537] = 351, pos[537] = 661
degree[536] = 350, pos[536] = 776
degree[535] = 350, pos[535] = 145
degree[534] = 349, pos[534] = 766
degree[533] = 348, pos[533] = 149
degree[532] = 347, pos[532] = 724
degree[531] = 347, pos[531] = 86
degree[530] = 347, pos[530] = 33
degree[529] = 345, pos[529] = 546
degree[528] = 345, pos[528] = 397
degree[527] = 344, pos[527] = 639
degree[526] = 343, pos[526] = 758
degree[525] = 343, pos[525] = 613
degree[524] = 342, pos[524] = 683
degree[523] = 341, pos[523] = 595
degree[522] = 341, pos[522] = 480
degree[521] = 340, pos[521] = 175
degree[520] = 339, pos[520] = 70
degree[519] = 338, pos[519] = 781
degree[518] = 338, pos[518] = 261
degree[517] = 337, pos[517] = 67
degree[516] = 336, pos[516] = 319
degree[515] = 335, pos[515] = 141
degree[514] = 334, pos[514] = 757
degree[513] = 334, pos[513] = 350
degree[512] = 333, pos[512] = 638
degree[511] = 332, pos[511] = 583
degree[510] = 332, pos[510] = 280
degree[509] = 332, pos[509] = 16
degree[508] = 330, pos[508] = 725
degree[507] = 330, pos[507] = 8
degree[506] = 328, pos[506] = 789
degree[505] = 328, pos[505] = 634
degree[504] = 328, pos[504] = 302
degree[503] = 327, pos[503] = 646
degree[502] = 327, pos[502] = 418
degree[501] = 326, pos[501] = 53
degree[500] = 325, pos[500] = 484
degree[499] = 325, pos[499] = 61
degree[498] = 323, pos[498] = 728
degree[497] = 323, pos[497] = 343
degree[496] = 322, pos[496] = 620
degree[495] = 321, pos[495] = 774
degree[494] = 321, pos[494] = 416
degree[493] = 320, pos[493] = 426
degree[492] = 319, pos[492] = 625
degree[491] = 319, pos[491] = 321
degree[490] = 318, pos[490] = 278
degree[489] = 317, pos[489] = 346
degree[488] = 316, pos[488] = 680
degree[487] = 315, pos[487] = 632
degree[486] = 315, pos[486] = 559
degree[485] = 315, pos[485] = 339
degree[484] = 314, pos[484] = 756
degree[483] = 313, pos[483] = 370
degree[482] = 313, pos[482] = 269
degree[481] = 312, pos[481] = 504
degree[480] = 311, pos[480] = 750
degree[479] = 311, pos[479] = 566
degree[478] = 310, pos[478] = 572
degree[477] = 310, pos[477] = 306
degree[476] = 308, pos[476] = 547
degree[475] = 308, pos[475] = 465
degree[474] = 307, pos[474] = 164
degree[473] = 306, pos[473] = 564
degree[472] = 305, pos[472] = 307
degree[471] = 305, pos[471] = 159
degree[470] = 304, pos[470] = 331
degree[469] = 303, pos[469] = 590
degree[468] = 303, pos[468] = 75
degree[467] = 302, pos[467] = 466
degree[466] = 301, pos[466] = 379
degree[465] = 300, pos[465] = 375
degree[464] = 300, pos[464] = 5
degree[463] = 299, pos[463] = 299
degree[462] = 298, pos[462] = 700
degree[461] = 298, pos[461] = 137
degree[460] = 298, pos[460] = 118
degree[459] = 296, pos[459] = 707
degree[458] = 296, pos[458] = 479
degree[457] = 295, pos[457] = 328
degree[456] = 294, pos[456] = 708
degree[455] = 294, pos[455] = 169
degree[454] = 293, pos[454] = 445
degree[453] = 293, pos[453] = 119
degree[452] = 292, pos[452] = 2
degree[451] = 290, pos[451] = 772
degree[450] = 290, pos[450] = 385
degree[449] = 289, pos[449] = 621
degree[448] = 288, pos[448] = 391
degree[447] = 288, pos[447] = 54
degree[446] = 287, pos[446] = 518
degree[445] = 287, pos[445] = 26
degree[444] = 286, pos[444] = 289
degree[443] = 284, pos[443] = 797
degree[442] = 284, pos[442] = 754
degree[441] = 283, pos[441] = 684
degree[440] = 283, pos[440] = 218
degree[439] = 282, pos[439] = 589
degree[438] = 281, pos[438] = 710
degree[437] = 281, pos[437] = 472
degree[436] = 280, pos[436] = 368
degree[435] = 279, pos[435] = 432
degree[434] = 278, pos[434] = 581
degree[433] = 278, pos[433] = 128
degree[432] = 277, pos[432] = 36
degree[431] = 276, pos[431] = 536
degree[430] = 275, pos[430] = 588
degree[429] = 275, pos[429] = 273
degree[428] = 275, pos[428] = 111
degree[427] = 274, pos[427] = 266
degree[426] = 274, pos[426] = 231
degree[425] = 273, pos[425] = 85
degree[424] = 272, pos[424] = 785
degree[423] = 271, pos[423] = 311
degree[422] = 270, pos[422] = 681
degree[421] = 270, pos[421] = 80
degree[420] = 269, pos[420] = 161
degree[419] = 268, pos[419] = 252
degree[418] = 267, pos[418] = 527
degree[417] = 267, pos[417] = 120
degree[416] = 266, pos[416] = 386
degree[415] = 266, pos[415] = 286
degree[414] = 265, pos[414] = 206
degree[413] = 263, pos[413] = 749
degree[412] = 263, pos[412] = 533
degree[411] = 263, pos[411] = 178
degree[410] = 262, pos[410] = 737
degree[409] = 261, pos[409] = 690
degree[408] = 261, pos[408] = 675
degree[407] = 260, pos[407] = 238
degree[406] = 259, pos[406] = 593
degree[405] = 259, pos[405] = 224
degree[404] = 258, pos[404] = 317
degree[403] = 257, pos[403] = 326
degree[402] = 256, pos[402] = 296
degree[401] = 256, pos[401] = 241
degree[400] = 254, pos[400] = 794
degree[399] = 254, pos[399] = 792
degree[398] = 254, pos[398] = 152
degree[397] = 253, pos[397] = 704
degree[396] = 252, pos[396] = 713
degree[395] = 252, pos[395] = 297
degree[394] = 251, pos[394] = 537
degree[393] = 251, pos[393] = 197
degree[392] = 250, pos[392] = 186
degree[391] = 249, pos[391] = 430
degree[390] = 249, pos[390] = 294
degree[389] = 248, pos[389] = 227
degree[388] = 247, pos[388] = 651
degree[387] = 246, pos[387] = 668
degree[386] = 246, pos[386] = 232
degree[385] = 245, pos[385] = 619
degree[384] = 244, pos[384] = 160
degree[383] = 243, pos[383] = 743
degree[382] = 243, pos[382] = 609
degree[381] = 242, pos[381] = 650
degree[380] = 241, pos[380] = 762
degree[379] = 241, pos[379] = 736
degree[378] = 240, pos[378] = 263
degree[377] = 240, pos[377] = 90
degree[376] = 238, pos[376] = 759
degree[375] = 238, pos[375] = 711
degree[374] = 238, pos[374] = 362
degree[373] = 238, pos[373] = 250
degree[372] = 236, pos[372] = 501
degree[371] = 235, pos[371] = 606
degree[370] = 235, pos[370] = 151
degree[369] = 234, pos[369] = 216
degree[368] = 233, pos[368] = 532
degree[367] = 232, pos[367] = 679
degree[366] = 232, pos[366] = 558
degree[365] = 231, pos[365] = 720
degree[364] = 231, pos[364] = 322
degree[363] = 230, pos[363] = 764
degree[362] = 230, pos[362] = 399
degree[361] = 229, pos[361] = 367
degree[360] = 228, pos[360] = 419
degree[359] = 228, pos[359] = 131
degree[358] = 227, pos[358] = 616
degree[357] = 227, pos[357] = 236
degree[356] = 226, pos[356] = 288
degree[355] = 225, pos[355] = 265
degree[354] = 224, pos[354] = 712
degree[353] = 223, pos[353] = 733
degree[352] = 223, pos[352] = 483
degree[351] = 222, pos[351] = 678
degree[350] = 222, pos[350] = 127
degree[349] = 221, pos[349] = 689
degree[348] = 221, pos[348] = 508
degree[347] = 220, pos[347] = 381
degree[346] = 219, pos[346] = 146
degree[345] = 218, pos[345] = 655
degree[344] = 218, pos[344] = 150
degree[343] = 217, pos[343] = 761
degree[342] = 216, pos[342] = 633
degree[341] = 216, pos[341] = 352
degree[340] = 215, pos[340] = 404
degree[339] = 215, pos[339] = 401
degree[338] = 214, pos[338] = 220
degree[337] = 213, pos[337] = 199
degree[336] = 212, pos[336] = 323
degree[335] = 211, pos[335] = 649
degree[334] = 211, pos[334] = 441
degree[333] = 210, pos[333] = 415
degree[332] = 209, pos[332] = 494
degree[331] = 209, pos[331] = 270
degree[330] = 208, pos[330] = 389
degree[329] = 208, pos[329] = 52
degree[328] = 206, pos[328] = 670
degree[327] = 206, pos[327] = 205
degree[326] = 205, pos[326] = 587
degree[325] = 204, pos[325] = 615
degree[324] = 204, pos[324] = 78
degree[323] = 203, pos[323] = 457
degree[322] = 203, pos[322] = 421
degree[321] = 202, pos[321] = 139
degree[320] = 202, pos[320] = 57
degree[319] = 200, pos[319] = 752
degree[318] = 200, pos[318] = 627
degree[317] = 199, pos[317] = 412
degree[316] = 198, pos[316] = 577
degree[315] = 198, pos[315] = 569
degree[314] = 198, pos[314] = 156
degree[313] = 197, pos[313] = 340
degree[312] = 196, pos[312] = 591
degree[311] = 195, pos[311] = 721
degree[310] = 195, pos[310] = 410
degree[309] = 194, pos[309] = 561
degree[308] = 194, pos[308] = 411
degree[307] = 193, pos[307] = 528
degree[306] = 192, pos[306] = 403
degree[305] = 191, pos[305] = 555
degree[304] = 191, pos[304] = 257
degree[303] = 190, pos[303] = 608
degree[302] = 190, pos[302] = 565
degree[301] = 189, pos[301] = 647
degree[300] = 188, pos[300] = 498
degree[299] = 187, pos[299] = 450
degree[298] = 187, pos[298] = 191
degree[297] = 186, pos[297] = 714
degree[296] = 186, pos[296] = 1
degree[295] = 184, pos[295] = 563
degree[294] = 184, pos[294] = 41
degree[293] = 183, pos[293] = 301
degree[292] = 183, pos[292] = 34
degree[291] = 182, pos[291] = 313
degree[290] = 181, pos[290] = 685
degree[289] = 181, pos[289] = 622
degree[288] = 180, pos[288] = 580
degree[287] = 180, pos[287] = 268
degree[286] = 179, pos[286] = 132
degree[285] = 179, pos[285] = 11
degree[284] = 178, pos[284] = 50
degree[283] = 177, pos[283] = 12
degree[282] = 175, pos[282] = 641
degree[281] = 175, pos[281] = 396
degree[280] = 175, pos[280] = 162
degree[279] = 174, pos[279] = 358
degree[278] = 173, pos[278] = 166
degree[277] = 172, pos[277] = 726
degree[276] = 172, pos[276] = 425
degree[275] = 171, pos[275] = 393
degree[274] = 170, pos[274] = 575
degree[273] = 169, pos[273] = 778
degree[272] = 169, pos[272] = 549
degree[271] = 168, pos[271] = 735
degree[270] = 167, pos[270] = 462
degree[269] = 167, pos[269] = 183
degree[268] = 166, pos[268] = 440
degree[267] = 166, pos[267] = 38
degree[266] = 165, pos[266] = 207
degree[265] = 165, pos[265] = 3
degree[264] = 164, pos[264] = 180
degree[263] = 163, pos[263] = 55
degree[262] = 163, pos[262] = 43
degree[261] = 162, pos[261] = 130
degree[260] = 161, pos[260] = 194
degree[259] = 160, pos[259] = 672
degree[258] = 160, pos[258] = 103
degree[257] = 159, pos[257] = 88
degree[256] = 158, pos[256] = 198
degree[255] = 158, pos[255] = 21
degree[254] = 157, pos[254] = 202
degree[253] = 157, pos[253] = 195
degree[252] = 155, pos[252] = 611
degree[251] = 154, pos[251] = 456
degree[250] = 153, pos[250] = 727
degree[249] = 153, pos[249] = 665
degree[248] = 152, pos[248] = 782
degree[247] = 152, pos[247] = 228
degree[246] = 151, pos[246] = 795
degree[245] = 151, pos[245] = 106
degree[244] = 150, pos[244] = 349
degree[243] = 150, pos[243] = 212
degree[242] = 149, pos[242] = 310
degree[241] = 149, pos[241] = 260
degree[240] = 148, pos[240] = 234
degree[239] = 147, pos[239] = 37
degree[238] = 146, pos[238] = 531
degree[237] = 146, pos[237] = 95
degree[236] = 145, pos[236] = 660
degree[235] = 145, pos[235] = 142
degree[234] = 143, pos[234] = 746
degree[233] = 143, pos[233] = 525
degree[232] = 142, pos[232] = 248
degree[231] = 141, pos[231] = 513
degree[230] = 141, pos[230] = 64
degree[229] = 140, pos[229] = 471
degree[228] = 140, pos[228] = 49
degree[227] = 139, pos[227] = 796
degree[226] = 138, pos[226] = 461
degree[225] = 137, pos[225] = 523
degree[224] = 136, pos[224] = 607
degree[223] = 136, pos[223] = 287
degree[222] = 135, pos[222] = 568
degree[221] = 134, pos[221] = 730
degree[220] = 134, pos[220] = 276
degree[219] = 133, pos[219] = 719
degree[218] = 133, pos[218] = 442
degree[217] = 133, pos[217] = 420
degree[216] = 132, pos[216] = 320
degree[215] = 131, pos[215] = 22
degree[214] = 129, pos[214] = 780
degree[213] = 129, pos[213] = 519
degree[212] = 129, pos[212] = 378
degree[211] = 128, pos[211] = 510
degree[210] = 127, pos[210] = 447
degree[209] = 126, pos[209] = 597
degree[208] = 125, pos[208] = 779
degree[207] = 125, pos[207] = 444
degree[206] = 125, pos[206] = 387
degree[205] = 125, pos[205] = 271
degree[204] = 124, pos[204] = 254
degree[203] = 123, pos[203] = 443
degree[202] = 123, pos[202] = 383
degree[201] = 122, pos[201] = 345
degree[200] = 122, pos[200] = 6
degree[199] = 121, pos[199] = 392
degree[198] = 120, pos[198] = 303
degree[197] = 120, pos[197] = 245
degree[196] = 119, pos[196] = 363
degree[195] = 119, pos[195] = 163
degree[194] = 117, pos[194] = 769
degree[193] = 117, pos[193] = 31
degree[192] = 116, pos[192] = 786
degree[191] = 116, pos[191] = 520
degree[190] = 115, pos[190] = 45
degree[189] = 114, pos[189] = 259
degree[188] = 113, pos[188] = 705
degree[187] = 113, pos[187] = 96
degree[186] = 113, pos[186] = 82
degree[185] = 112, pos[185] = 102
degree[184] = 111, pos[184] = 666
degree[183] = 110, pos[183] = 732
degree[182] = 110, pos[182] = 677
degree[181] = 109, pos[181] = 424
degree[180] = 108, pos[180] = 765
degree[179] = 108, pos[179] = 497
degree[178] = 107, pos[178] = 438
degree[177] = 106, pos[177] = 46
degree[176] = 105, pos[176] = 582
degree[175] = 104, pos[175] = 716
degree[174] = 104, pos[174] = 125
degree[173] = 103, pos[173] = 722
degree[172] = 103, pos[172] = 493
degree[171] = 103, pos[171] = 113
degree[170] = 101, pos[170] = 506
degree[169] = 101, pos[169] = 406
degree[168] = 100, pos[168] = 409
degree[167] = 100, pos[167] = 92
degree[166] = 99, pos[166] = 598
degree[165] = 98, pos[165] = 548
degree[164] = 98, pos[164] = 13
degree[163] = 97, pos[163] = 380
degree[162] = 96, pos[162] = 687
degree[161] = 96, pos[161] = 40
degree[160] = 95, pos[160] = 623
degree[159] = 95, pos[159] = 468
degree[158] = 94, pos[158] = 538
degree[157] = 93, pos[157] = 522
degree[156] = 92, pos[156] = 601
degree[155] = 91, pos[155] = 184
degree[154] = 91, pos[154] = 140
degree[153] = 90, pos[153] = 433
degree[152] = 89, pos[152] = 221
degree[151] = 88, pos[151] = 760
degree[150] = 88, pos[150] = 157
degree[149] = 87, pos[149] = 696
degree[148] = 87, pos[148] = 567
degree[147] = 86, pos[147] = 602
degree[146] = 86, pos[146] = 210
degree[145] = 86, pos[145] = 83
degree[144] = 85, pos[144] = 436
degree[143] = 85, pos[143] = 59
degree[142] = 83, pos[142] = 798
degree[141] = 83, pos[141] = 773
degree[140] = 82, pos[140] = 554
degree[139] = 82, pos[139] = 138
degree[138] = 82, pos[138] = 68
degree[137] = 80, pos[137] = 344
degree[136] = 79, pos[136] = 612
degree[135] = 79, pos[135] = 309
degree[134] = 78, pos[134] = 56
degree[133] = 77, pos[133] = 715
degree[132] = 76, pos[132] = 748
degree[131] = 76, pos[131] = 502
degree[130] = 75, pos[130] = 648
degree[129] = 75, pos[129] = 171
degree[128] = 74, pos[128] = 514
degree[127] = 74, pos[127] = 71
degree[126] = 73, pos[126] = 413
degree[125] = 73, pos[125] = 408
degree[124] = 72, pos[124] = 333
degree[123] = 71, pos[123] = 81
degree[122] = 70, pos[122] = 784
degree[121] = 70, pos[121] = 579
degree[120] = 69, pos[120] = 768
degree[119] = 69, pos[119] = 272
degree[118] = 67, pos[118] = 642
degree[117] = 67, pos[117] = 147
degree[116] = 66, pos[116] = 691
degree[115] = 66, pos[115] = 395
degree[114] = 65, pos[114] = 407
degree[113] = 64, pos[113] = 698
degree[112] = 64, pos[112] = 283
degree[111] = 64, pos[111] = 69
degree[110] = 63, pos[110] = 342
degree[109] = 62, pos[109] = 63
degree[108] = 61, pos[108] = 605
degree[107] = 61, pos[107] = 535
degree[106] = 59, pos[106] = 718
degree[105] = 59, pos[105] = 477
degree[104] = 59, pos[104] = 27
degree[103] = 58, pos[103] = 793
degree[102] = 58, pos[102] = 107
degree[101] = 57, pos[101] = 223
degree[100] = 56, pos[100] = 124
degree[99] = 55, pos[99] = 62
degree[98] = 54, pos[98] = 372
degree[97] = 54, pos[97] = 189
degree[96] = 53, pos[96] = 674
degree[95] = 53, pos[95] = 249
degree[94] = 53, pos[94] = 172
degree[93] = 52, pos[93] = 121
degree[92] = 52, pos[92] = 101
degree[91] = 51, pos[91] = 110
degree[90] = 50, pos[90] = 336
degree[89] = 49, pos[89] = 185
degree[88] = 48, pos[88] = 448
degree[87] = 48, pos[87] = 244
degree[86] = 47, pos[86] = 204
degree[85] = 46, pos[85] = 741
degree[84] = 46, pos[84] = 475
degree[83] = 45, pos[83] = 673
degree[82] = 45, pos[82] = 298
degree[81] = 44, pos[81] = 474
degree[80] = 44, pos[80] = 187
degree[79] = 43, pos[79] = 177
degree[78] = 42, pos[78] = 190
degree[77] = 42, pos[77] = 94
degree[76] = 41, pos[76] = 636
degree[75] = 41, pos[75] = 32
degree[74] = 40, pos[74] = 540
degree[73] = 40, pos[73] = 382
degree[72] = 39, pos[72] = 697
degree[71] = 39, pos[71] = 329
degree[70] = 37, pos[70] = 503
degree[69] = 37, pos[69] = 267
degree[68] = 36, pos[68] = 20
degree[67] = 35, pos[67] = 451
degree[66] = 34, pos[66] = 524
degree[65] = 34, pos[65] = 188
degree[64] = 33, pos[64] = 790
degree[63] = 33, pos[63] = 60
degree[62] = 32, pos[62] = 181
degree[61] = 32, pos[61] = 29
degree[60] = 31, pos[60] = 258
degree[59] = 30, pos[59] = 551
degree[58] = 30, pos[58] = 291
degree[57] = 30, pos[57] = 225
degree[56] = 28, pos[56] = 617
degree[55] = 27, pos[55] = 740
degree[54] = 27, pos[54] = 324
degree[53] = 27, pos[53] = 48
degree[52] = 26, pos[52] = 454
degree[51] = 25, pos[51] = 576
degree[50] = 25, pos[50] = 351
degree[49] = 24, pos[49] = 348
degree[48] = 24, pos[48] = 84
degree[47] = 23, pos[47] = 237
degree[46] = 23, pos[46] = 182
degree[45] = 23, pos[45] = 135
degree[44] = 22, pos[44] = 490
degree[43] = 21, pos[43] = 341
degree[42] = 20, pos[42] = 729
degree[41] = 20, pos[41] = 557
degree[40] = 20, pos[40] = 93
degree[39] = 19, pos[39] = 116
degree[38] = 18, pos[38] = 193
degree[37] = 18, pos[37] = 99
degree[36] = 17, pos[36] = 664
degree[35] = 16, pos[35] = 316
degree[34] = 16, pos[34] = 114
degree[33] = 15, pos[33] = 488
degree[32] = 15, pos[32] = 44
degree[31] = 14, pos[31] = 543
degree[30] = 14, pos[30] = 15
degree[29] = 13, pos[29] = 384
degree[28] = 12, pos[28] = 371
degree[27] = 11, pos[27] = 373
degree[26] = 11, pos[26] = 243
degree[25] = 11, pos[25] = 79
degree[24] = 10, pos[24] = 467
degree[23] = 10, pos[23] = 247
degree[22] = 8, pos[22] = 585
degree[21] = 8, pos[21] = 240
degree[20] = 7, pos[20] = 571
degree[19] = 7, pos[19] = 495
degree[18] = 7, pos[18] = 364
degree[17] = 7, pos[17] = 19
degree[16] = 6, pos[16] = 42
degree[15] = 5, pos[15] = 104
degree[14] = 4, pos[14] = 694
degree[13] = 4, pos[13] = 208
degree[12] = 3, pos[12] = 578
degree[11] = 3, pos[11] = 505
degree[10] = 2, pos[10] = 693
degree[9] = 2, pos[9] = 654
degree[8] = 1, pos[8] = 787
degree[7] = 1, pos[7] = 215
degree[6] = 0, pos[6] = 509
degree[5] = 0, pos[5] = 335
degree[4] = 0, pos[4] = 300
degree[3] = 0, pos[3] = 233
degree[2] = 0, pos[2] = 217
degree[1] = 0, pos[1] = 209
degree[0] = 0, pos[0] = 72
Pos[0] = 72
Pos[1] = 209
Pos[2] = 217
Pos[3] = 233
Pos[4] = 300
Pos[5] = 335
Pos[6] = 509
Pos[7] = 215
Pos[8] = 787
Pos[9] = 654
Pos[10] = 693
Pos[11] = 505
Pos[12] = 578
Pos[13] = 208
Pos[14] = 694
Pos[15] = 104
Pos[16] = 42
Pos[17] = 19
Pos[18] = 364
Pos[19] = 495
Pos[20] = 571
Pos[21] = 240
Pos[22] = 585
Pos[23] = 247
Pos[24] = 467
Pos[25] = 79
Pos[26] = 243
Pos[27] = 373
Pos[28] = 371
Pos[29] = 384
Pos[30] = 15
Pos[31] = 543
Pos[32] = 44
Pos[33] = 488
Pos[34] = 114
Pos[35] = 316
Pos[36] = 664
Pos[37] = 99
Pos[38] = 193
Pos[39] = 116
Pos[40] = 93
Pos[41] = 557
Pos[42] = 729
Pos[43] = 341
Pos[44] = 490
Pos[45] = 135
Pos[46] = 182
Pos[47] = 237
Pos[48] = 84
Pos[49] = 348
Pos[50] = 351
Pos[51] = 576
Pos[52] = 454
Pos[53] = 48
Pos[54] = 324
Pos[55] = 740
Pos[56] = 617
Pos[57] = 225
Pos[58] = 291
Pos[59] = 551
Pos[60] = 258
Pos[61] = 29
Pos[62] = 181
Pos[63] = 60
Pos[64] = 790
Pos[65] = 188
Pos[66] = 524
Pos[67] = 451
Pos[68] = 20
Pos[69] = 267
Pos[70] = 503
Pos[71] = 329
Pos[72] = 697
Pos[73] = 382
Pos[74] = 540
Pos[75] = 32
Pos[76] = 636
Pos[77] = 94
Pos[78] = 190
Pos[79] = 177
Pos[80] = 187
Pos[81] = 474
Pos[82] = 298
Pos[83] = 673
Pos[84] = 475
Pos[85] = 741
Pos[86] = 204
Pos[87] = 244
Pos[88] = 448
Pos[89] = 185
Pos[90] = 336
Pos[91] = 110
Pos[92] = 101
Pos[93] = 121
Pos[94] = 172
Pos[95] = 249
Pos[96] = 674
Pos[97] = 189
Pos[98] = 372
Pos[99] = 62
Pos[100] = 124
Pos[101] = 223
Pos[102] = 107
Pos[103] = 793
Pos[104] = 27
Pos[105] = 477
Pos[106] = 718
Pos[107] = 535
Pos[108] = 605
Pos[109] = 63
Pos[110] = 342
Pos[111] = 69
Pos[112] = 283
Pos[113] = 698
Pos[114] = 407
Pos[115] = 395
Pos[116] = 691
Pos[117] = 147
Pos[118] = 642
Pos[119] = 272
Pos[120] = 768
Pos[121] = 579
Pos[122] = 784
Pos[123] = 81
Pos[124] = 333
Pos[125] = 408
Pos[126] = 413
Pos[127] = 71
Pos[128] = 514
Pos[129] = 171
Pos[130] = 648
Pos[131] = 502
Pos[132] = 748
Pos[133] = 715
Pos[134] = 56
Pos[135] = 309
Pos[136] = 612
Pos[137] = 344
Pos[138] = 68
Pos[139] = 138
Pos[140] = 554
Pos[141] = 773
Pos[142] = 798
Pos[143] = 59
Pos[144] = 436
Pos[145] = 83
Pos[146] = 210
Pos[147] = 602
Pos[148] = 567
Pos[149] = 696
Pos[150] = 157
Pos[151] = 760
Pos[152] = 221
Pos[153] = 433
Pos[154] = 140
Pos[155] = 184
Pos[156] = 601
Pos[157] = 522
Pos[158] = 538
Pos[159] = 468
Pos[160] = 623
Pos[161] = 40
Pos[162] = 687
Pos[163] = 380
Pos[164] = 13
Pos[165] = 548
Pos[166] = 598
Pos[167] = 92
Pos[168] = 409
Pos[169] = 406
Pos[170] = 506
Pos[171] = 113
Pos[172] = 493
Pos[173] = 722
Pos[174] = 125
Pos[175] = 716
Pos[176] = 582
Pos[177] = 46
Pos[178] = 438
Pos[179] = 497
Pos[180] = 765
Pos[181] = 424
Pos[182] = 677
Pos[183] = 732
Pos[184] = 666
Pos[185] = 102
Pos[186] = 82
Pos[187] = 96
Pos[188] = 705
Pos[189] = 259
Pos[190] = 45
Pos[191] = 520
Pos[192] = 786
Pos[193] = 31
Pos[194] = 769
Pos[195] = 163
Pos[196] = 363
Pos[197] = 245
Pos[198] = 303
Pos[199] = 392
Pos[200] = 6
Pos[201] = 345
Pos[202] = 383
Pos[203] = 443
Pos[204] = 254
Pos[205] = 271
Pos[206] = 387
Pos[207] = 444
Pos[208] = 779
Pos[209] = 597
Pos[210] = 447
Pos[211] = 510
Pos[212] = 378
Pos[213] = 519
Pos[214] = 780
Pos[215] = 22
Pos[216] = 320
Pos[217] = 420
Pos[218] = 442
Pos[219] = 719
Pos[220] = 276
Pos[221] = 730
Pos[222] = 568
Pos[223] = 287
Pos[224] = 607
Pos[225] = 523
Pos[226] = 461
Pos[227] = 796
Pos[228] = 49
Pos[229] = 471
Pos[230] = 64
Pos[231] = 513
Pos[232] = 248
Pos[233] = 525
Pos[234] = 746
Pos[235] = 142
Pos[236] = 660
Pos[237] = 95
Pos[238] = 531
Pos[239] = 37
Pos[240] = 234
Pos[241] = 260
Pos[242] = 310
Pos[243] = 212
Pos[244] = 349
Pos[245] = 106
Pos[246] = 795
Pos[247] = 228
Pos[248] = 782
Pos[249] = 665
Pos[250] = 727
Pos[251] = 456
Pos[252] = 611
Pos[253] = 195
Pos[254] = 202
Pos[255] = 21
Pos[256] = 198
Pos[257] = 88
Pos[258] = 103
Pos[259] = 672
Pos[260] = 194
Pos[261] = 130
Pos[262] = 43
Pos[263] = 55
Pos[264] = 180
Pos[265] = 3
Pos[266] = 207
Pos[267] = 38
Pos[268] = 440
Pos[269] = 183
Pos[270] = 462
Pos[271] = 735
Pos[272] = 549
Pos[273] = 778
Pos[274] = 575
Pos[275] = 393
Pos[276] = 425
Pos[277] = 726
Pos[278] = 166
Pos[279] = 358
Pos[280] = 162
Pos[281] = 396
Pos[282] = 641
Pos[283] = 12
Pos[284] = 50
Pos[285] = 11
Pos[286] = 132
Pos[287] = 268
Pos[288] = 580
Pos[289] = 622
Pos[290] = 685
Pos[291] = 313
Pos[292] = 34
Pos[293] = 301
Pos[294] = 41
Pos[295] = 563
Pos[296] = 1
Pos[297] = 714
Pos[298] = 191
Pos[299] = 450
Pos[300] = 498
Pos[301] = 647
Pos[302] = 565
Pos[303] = 608
Pos[304] = 257
Pos[305] = 555
Pos[306] = 403
Pos[307] = 528
Pos[308] = 411
Pos[309] = 561
Pos[310] = 410
Pos[311] = 721
Pos[312] = 591
Pos[313] = 340
Pos[314] = 156
Pos[315] = 569
Pos[316] = 577
Pos[317] = 412
Pos[318] = 627
Pos[319] = 752
Pos[320] = 57
Pos[321] = 139
Pos[322] = 421
Pos[323] = 457
Pos[324] = 78
Pos[325] = 615
Pos[326] = 587
Pos[327] = 205
Pos[328] = 670
Pos[329] = 52
Pos[330] = 389
Pos[331] = 270
Pos[332] = 494
Pos[333] = 415
Pos[334] = 441
Pos[335] = 649
Pos[336] = 323
Pos[337] = 199
Pos[338] = 220
Pos[339] = 401
Pos[340] = 404
Pos[341] = 352
Pos[342] = 633
Pos[343] = 761
Pos[344] = 150
Pos[345] = 655
Pos[346] = 146
Pos[347] = 381
Pos[348] = 508
Pos[349] = 689
Pos[350] = 127
Pos[351] = 678
Pos[352] = 483
Pos[353] = 733
Pos[354] = 712
Pos[355] = 265
Pos[356] = 288
Pos[357] = 236
Pos[358] = 616
Pos[359] = 131
Pos[360] = 419
Pos[361] = 367
Pos[362] = 399
Pos[363] = 764
Pos[364] = 322
Pos[365] = 720
Pos[366] = 558
Pos[367] = 679
Pos[368] = 532
Pos[369] = 216
Pos[370] = 151
Pos[371] = 606
Pos[372] = 501
Pos[373] = 250
Pos[374] = 362
Pos[375] = 711
Pos[376] = 759
Pos[377] = 90
Pos[378] = 263
Pos[379] = 736
Pos[380] = 762
Pos[381] = 650
Pos[382] = 609
Pos[383] = 743
Pos[384] = 160
Pos[385] = 619
Pos[386] = 232
Pos[387] = 668
Pos[388] = 651
Pos[389] = 227
Pos[390] = 294
Pos[391] = 430
Pos[392] = 186
Pos[393] = 197
Pos[394] = 537
Pos[395] = 297
Pos[396] = 713
Pos[397] = 704
Pos[398] = 152
Pos[399] = 792
Pos[400] = 794
Pos[401] = 241
Pos[402] = 296
Pos[403] = 326
Pos[404] = 317
Pos[405] = 224
Pos[406] = 593
Pos[407] = 238
Pos[408] = 675
Pos[409] = 690
Pos[410] = 737
Pos[411] = 178
Pos[412] = 533
Pos[413] = 749
Pos[414] = 206
Pos[415] = 286
Pos[416] = 386
Pos[417] = 120
Pos[418] = 527
Pos[419] = 252
Pos[420] = 161
Pos[421] = 80
Pos[422] = 681
Pos[423] = 311
Pos[424] = 785
Pos[425] = 85
Pos[426] = 231
Pos[427] = 266
Pos[428] = 111
Pos[429] = 273
Pos[430] = 588
Pos[431] = 536
Pos[432] = 36
Pos[433] = 128
Pos[434] = 581
Pos[435] = 432
Pos[436] = 368
Pos[437] = 472
Pos[438] = 710
Pos[439] = 589
Pos[440] = 218
Pos[441] = 684
Pos[442] = 754
Pos[443] = 797
Pos[444] = 289
Pos[445] = 26
Pos[446] = 518
Pos[447] = 54
Pos[448] = 391
Pos[449] = 621
Pos[450] = 385
Pos[451] = 772
Pos[452] = 2
Pos[453] = 119
Pos[454] = 445
Pos[455] = 169
Pos[456] = 708
Pos[457] = 328
Pos[458] = 479
Pos[459] = 707
Pos[460] = 118
Pos[461] = 137
Pos[462] = 700
Pos[463] = 299
Pos[464] = 5
Pos[465] = 375
Pos[466] = 379
Pos[467] = 466
Pos[468] = 75
Pos[469] = 590
Pos[470] = 331
Pos[471] = 159
Pos[472] = 307
Pos[473] = 564
Pos[474] = 164
Pos[475] = 465
Pos[476] = 547
Pos[477] = 306
Pos[478] = 572
Pos[479] = 566
Pos[480] = 750
Pos[481] = 504
Pos[482] = 269
Pos[483] = 370
Pos[484] = 756
Pos[485] = 339
Pos[486] = 559
Pos[487] = 632
Pos[488] = 680
Pos[489] = 346
Pos[490] = 278
Pos[491] = 321
Pos[492] = 625
Pos[493] = 426
Pos[494] = 416
Pos[495] = 774
Pos[496] = 620
Pos[497] = 343
Pos[498] = 728
Pos[499] = 61
Pos[500] = 484
Pos[501] = 53
Pos[502] = 418
Pos[503] = 646
Pos[504] = 302
Pos[505] = 634
Pos[506] = 789
Pos[507] = 8
Pos[508] = 725
Pos[509] = 16
Pos[510] = 280
Pos[511] = 583
Pos[512] = 638
Pos[513] = 350
Pos[514] = 757
Pos[515] = 141
Pos[516] = 319
Pos[517] = 67
Pos[518] = 261
Pos[519] = 781
Pos[520] = 70
Pos[521] = 175
Pos[522] = 480
Pos[523] = 595
Pos[524] = 683
Pos[525] = 613
Pos[526] = 758
Pos[527] = 639
Pos[528] = 397
Pos[529] = 546
Pos[530] = 33
Pos[531] = 86
Pos[532] = 724
Pos[533] = 149
Pos[534] = 766
Pos[535] = 145
Pos[536] = 776
Pos[537] = 661
Pos[538] = 357
Pos[539] = 279
Pos[540] = 129
Pos[541] = 246
Pos[542] = 491
Pos[543] = 460
Pos[544] = 552
Pos[545] = 637
Pos[546] = 24
Pos[547] = 745
Pos[548] = 553
Pos[549] = 635
Pos[550] = 314
Pos[551] = 574
Pos[552] = 702
Pos[553] = 388
Pos[554] = 614
Pos[555] = 469
Pos[556] = 10
Pos[557] = 449
Pos[558] = 663
Pos[559] = 325
Pos[560] = 517
Pos[561] = 435
Pos[562] = 618
Pos[563] = 360
Pos[564] = 74
Pos[565] = 682
Pos[566] = 122
Pos[567] = 521
Pos[568] = 153
Pos[569] = 282
Pos[570] = 734
Pos[571] = 529
Pos[572] = 534
Pos[573] = 470
Pos[574] = 87
Pos[575] = 219
Pos[576] = 235
Pos[577] = 256
Pos[578] = 455
Pos[579] = 656
Pos[580] = 148
Pos[581] = 292
Pos[582] = 176
Pos[583] = 390
Pos[584] = 791
Pos[585] = 168
Pos[586] = 570
Pos[587] = 427
Pos[588] = 251
Pos[589] = 676
Pos[590] = 452
Pos[591] = 226
Pos[592] = 706
Pos[593] = 600
Pos[594] = 751
Pos[595] = 170
Pos[596] = 274
Pos[597] = 136
Pos[598] = 355
Pos[599] = 66
Pos[600] = 688
Pos[601] = 58
Pos[602] = 65
Pos[603] = 25
Pos[604] = 356
Pos[605] = 423
Pos[606] = 100
Pos[607] = 584
Pos[608] = 308
Pos[609] = 98
Pos[610] = 285
Pos[611] = 312
Pos[612] = 376
Pos[613] = 434
Pos[614] = 35
Pos[615] = 644
Pos[616] = 77
Pos[617] = 196
Pos[618] = 671
Pos[619] = 200
Pos[620] = 541
Pos[621] = 277
Pos[622] = 658
Pos[623] = 242
Pos[624] = 374
Pos[625] = 463
Pos[626] = 515
Pos[627] = 686
Pos[628] = 9
Pos[629] = 669
Pos[630] = 709
Pos[631] = 334
Pos[632] = 482
Pos[633] = 499
Pos[634] = 213
Pos[635] = 459
Pos[636] = 112
Pos[637] = 290
Pos[638] = 530
Pos[639] = 126
Pos[640] = 487
Pos[641] = 631
Pos[642] = 526
Pos[643] = 39
Pos[644] = 429
Pos[645] = 4
Pos[646] = 264
Pos[647] = 755
Pos[648] = 14
Pos[649] = 143
Pos[650] = 262
Pos[651] = 293
Pos[652] = 481
Pos[653] = 550
Pos[654] = 659
Pos[655] = 17
Pos[656] = 747
Pos[657] = 47
Pos[658] = 662
Pos[659] = 458
Pos[660] = 492
Pos[661] = 717
Pos[662] = 485
Pos[663] = 628
Pos[664] = 428
Pos[665] = 361
Pos[666] = 478
Pos[667] = 742
Pos[668] = 332
Pos[669] = 414
Pos[670] = 542
Pos[671] = 603
Pos[672] = 738
Pos[673] = 230
Pos[674] = 496
Pos[675] = 573
Pos[676] = 437
Pos[677] = 657
Pos[678] = 653
Pos[679] = 643
Pos[680] = 599
Pos[681] = 626
Pos[682] = 610
Pos[683] = 7
Pos[684] = 133
Pos[685] = 23
Pos[686] = 770
Pos[687] = 763
Pos[688] = 154
Pos[689] = 359
Pos[690] = 174
Pos[691] = 473
Pos[692] = 453
Pos[693] = 275
Pos[694] = 117
Pos[695] = 439
Pos[696] = 337
Pos[697] = 295
Pos[698] = 365
Pos[699] = 28
Pos[700] = 516
Pos[701] = 253
Pos[702] = 338
Pos[703] = 703
Pos[704] = 155
Pos[705] = 89
Pos[706] = 353
Pos[707] = 692
Pos[708] = 596
Pos[709] = 417
Pos[710] = 108
Pos[711] = 446
Pos[712] = 73
Pos[713] = 489
Pos[714] = 76
Pos[715] = 211
Pos[716] = 645
Pos[717] = 695
Pos[718] = 115
Pos[719] = 630
Pos[720] = 51
Pos[721] = 192
Pos[722] = 402
Pos[723] = 511
Pos[724] = 398
Pos[725] = 699
Pos[726] = 400
Pos[727] = 431
Pos[728] = 652
Pos[729] = 507
Pos[730] = 556
Pos[731] = 158
Pos[732] = 167
Pos[733] = 767
Pos[734] = 771
Pos[735] = 91
Pos[736] = 592
Pos[737] = 562
Pos[738] = 134
Pos[739] = 640
Pos[740] = 173
Pos[741] = 775
Pos[742] = 0
Pos[743] = 203
Pos[744] = 539
Pos[745] = 222
Pos[746] = 701
Pos[747] = 97
Pos[748] = 255
Pos[749] = 318
Pos[750] = 105
Pos[751] = 201
Pos[752] = 229
Pos[753] = 464
Pos[754] = 788
Pos[755] = 281
Pos[756] = 330
Pos[757] = 723
Pos[758] = 354
Pos[759] = 214
Pos[760] = 560
Pos[761] = 744
Pos[762] = 753
Pos[763] = 777
Pos[764] = 179
Pos[765] = 369
Pos[766] = 586
Pos[767] = 667
Pos[768] = 18
Pos[769] = 123
Pos[770] = 731
Pos[771] = 315
Pos[772] = 629
Pos[773] = 739
Pos[774] = 304
Pos[775] = 347
Pos[776] = 144
Pos[777] = 377
Pos[778] = 165
Pos[779] = 624
Pos[780] = 422
Pos[781] = 604
Pos[782] = 783
Pos[783] = 239
Pos[784] = 405
Pos[785] = 544
Pos[786] = 327
Pos[787] = 366
Pos[788] = 394
Pos[789] = 500
Pos[790] = 284
Pos[791] = 109
Pos[792] = 545
Pos[793] = 486
Pos[794] = 476
Pos[795] = 30
Pos[796] = 305
Pos[797] = 799
Pos[798] = 594
Pos[799] = 512
Enbr = 207643
start search
improving solution size 1
improving solution size 2
improving solution size 3
improving solution size 4
improving solution size 5
improving solution size 6
improving solution size 7
improving solution size 8
improving solution size 9
improving solution size 10
improving solution size 11
improving solution size 12
improving solution size 13
improving solution size 14
improving solution size 15
improving solution size 16
improving solution size 17
improving solution size 18
improving solution size 19
improving solution size 20
improving solution size 21
improving solution size 22
improving solution size 23
improving solution size 24
improving solution size 25
TIMEOUT
best clique: 513 595 800 306 546 501 378 1 231 26 137 792 71 303 714 431 200 302 598 697 69 612 741 241 336 
record          =          25
subp            =  3760460704
time            =  3600.00084
