timeout 3600 s
Graph with 400 vertices and 59723 edges density 0.748409
t = 119446, Enbr = 59723
degree[399] = 320, pos[399] = 379
degree[398] = 318, pos[398] = 371
degree[397] = 317, pos[397] = 247
degree[396] = 315, pos[396] = 218
degree[395] = 313, pos[395] = 391
degree[394] = 312, pos[394] = 329
degree[393] = 312, pos[393] = 309
degree[392] = 311, pos[392] = 286
degree[391] = 310, pos[391] = 181
degree[390] = 308, pos[390] = 319
degree[389] = 307, pos[389] = 20
degree[388] = 305, pos[388] = 350
degree[387] = 305, pos[387] = 3
degree[386] = 303, pos[386] = 221
degree[385] = 302, pos[385] = 289
degree[384] = 301, pos[384] = 336
degree[383] = 300, pos[383] = 78
degree[382] = 299, pos[382] = 40
degree[381] = 298, pos[381] = 160
degree[380] = 297, pos[380] = 282
degree[379] = 295, pos[379] = 363
degree[378] = 294, pos[378] = 385
degree[377] = 293, pos[377] = 312
degree[376] = 293, pos[376] = 222
degree[375] = 292, pos[375] = 305
degree[374] = 290, pos[374] = 388
degree[373] = 290, pos[373] = 364
degree[372] = 290, pos[372] = 217
degree[371] = 288, pos[371] = 212
degree[370] = 288, pos[370] = 175
degree[369] = 287, pos[369] = 68
degree[368] = 286, pos[368] = 367
degree[367] = 285, pos[367] = 242
degree[366] = 283, pos[366] = 380
degree[365] = 282, pos[365] = 377
degree[364] = 282, pos[364] = 251
degree[363] = 281, pos[363] = 245
degree[362] = 279, pos[362] = 267
degree[361] = 278, pos[361] = 338
degree[360] = 278, pos[360] = 185
degree[359] = 278, pos[359] = 159
degree[358] = 277, pos[358] = 163
degree[357] = 275, pos[357] = 374
degree[356] = 275, pos[356] = 131
degree[355] = 273, pos[355] = 278
degree[354] = 273, pos[354] = 45
degree[353] = 272, pos[353] = 169
degree[352] = 271, pos[352] = 213
degree[351] = 271, pos[351] = 111
degree[350] = 269, pos[350] = 177
degree[349] = 268, pos[349] = 280
degree[348] = 268, pos[348] = 187
degree[347] = 267, pos[347] = 285
degree[346] = 266, pos[346] = 76
degree[345] = 265, pos[345] = 347
degree[344] = 264, pos[344] = 194
degree[343] = 264, pos[343] = 71
degree[342] = 263, pos[342] = 2
degree[341] = 262, pos[341] = 148
degree[340] = 261, pos[340] = 262
degree[339] = 261, pos[339] = 137
degree[338] = 260, pos[338] = 123
degree[337] = 259, pos[337] = 180
degree[336] = 258, pos[336] = 130
degree[335] = 257, pos[335] = 47
degree[334] = 256, pos[334] = 135
degree[333] = 256, pos[333] = 23
degree[332] = 254, pos[332] = 342
degree[331] = 254, pos[331] = 124
degree[330] = 253, pos[330] = 281
degree[329] = 252, pos[329] = 231
degree[328] = 252, pos[328] = 107
degree[327] = 251, pos[327] = 121
degree[326] = 251, pos[326] = 70
degree[325] = 249, pos[325] = 116
degree[324] = 249, pos[324] = 96
degree[323] = 247, pos[323] = 203
degree[322] = 246, pos[322] = 197
degree[321] = 246, pos[321] = 97
degree[320] = 245, pos[320] = 36
degree[319] = 244, pos[319] = 56
degree[318] = 243, pos[318] = 188
degree[317] = 242, pos[317] = 150
degree[316] = 240, pos[316] = 389
degree[315] = 240, pos[315] = 225
degree[314] = 239, pos[314] = 373
degree[313] = 239, pos[313] = 220
degree[312] = 238, pos[312] = 351
degree[311] = 237, pos[311] = 170
degree[310] = 237, pos[310] = 127
degree[309] = 235, pos[309] = 361
degree[308] = 235, pos[308] = 89
degree[307] = 233, pos[307] = 376
degree[306] = 233, pos[306] = 176
degree[305] = 232, pos[305] = 232
degree[304] = 232, pos[304] = 156
degree[303] = 231, pos[303] = 216
degree[302] = 230, pos[302] = 155
degree[301] = 228, pos[301] = 372
degree[300] = 228, pos[300] = 117
degree[299] = 227, pos[299] = 399
degree[298] = 227, pos[298] = 398
degree[297] = 227, pos[297] = 51
degree[296] = 225, pos[296] = 375
degree[295] = 225, pos[295] = 126
degree[294] = 223, pos[294] = 335
degree[293] = 222, pos[293] = 303
degree[292] = 222, pos[292] = 62
degree[291] = 221, pos[291] = 35
degree[290] = 220, pos[290] = 230
degree[289] = 219, pos[289] = 333
degree[288] = 219, pos[288] = 295
degree[287] = 218, pos[287] = 29
degree[286] = 217, pos[286] = 204
degree[285] = 217, pos[285] = 109
degree[284] = 216, pos[284] = 174
degree[283] = 215, pos[283] = 178
degree[282] = 214, pos[282] = 209
degree[281] = 213, pos[281] = 200
degree[280] = 212, pos[280] = 141
degree[279] = 212, pos[279] = 108
degree[278] = 211, pos[278] = 85
degree[277] = 211, pos[277] = 27
degree[276] = 209, pos[276] = 378
degree[275] = 208, pos[275] = 275
degree[274] = 208, pos[274] = 248
degree[273] = 207, pos[273] = 208
degree[272] = 206, pos[272] = 87
degree[271] = 206, pos[271] = 86
degree[270] = 204, pos[270] = 258
degree[269] = 204, pos[269] = 75
degree[268] = 202, pos[268] = 358
degree[267] = 201, pos[267] = 395
degree[266] = 201, pos[266] = 95
degree[265] = 201, pos[265] = 50
degree[264] = 199, pos[264] = 235
degree[263] = 198, pos[263] = 229
degree[262] = 197, pos[262] = 287
degree[261] = 197, pos[261] = 263
degree[260] = 195, pos[260] = 202
degree[259] = 194, pos[259] = 369
degree[258] = 193, pos[258] = 314
degree[257] = 192, pos[257] = 349
degree[256] = 192, pos[256] = 183
degree[255] = 191, pos[255] = 243
degree[254] = 190, pos[254] = 310
degree[253] = 190, pos[253] = 184
degree[252] = 189, pos[252] = 173
degree[251] = 188, pos[251] = 279
degree[250] = 187, pos[250] = 352
degree[249] = 186, pos[249] = 158
degree[248] = 186, pos[248] = 136
degree[247] = 185, pos[247] = 265
degree[246] = 185, pos[246] = 16
degree[245] = 184, pos[245] = 14
degree[244] = 183, pos[244] = 67
degree[243] = 182, pos[243] = 357
degree[242] = 181, pos[242] = 266
degree[241] = 180, pos[241] = 211
degree[240] = 179, pos[240] = 195
degree[239] = 179, pos[239] = 61
degree[238] = 178, pos[238] = 179
degree[237] = 177, pos[237] = 34
degree[236] = 176, pos[236] = 344
degree[235] = 175, pos[235] = 320
degree[234] = 175, pos[234] = 154
degree[233] = 174, pos[233] = 360
degree[232] = 174, pos[232] = 353
degree[231] = 174, pos[231] = 233
degree[230] = 173, pos[230] = 93
degree[229] = 172, pos[229] = 28
degree[228] = 171, pos[228] = 82
degree[227] = 170, pos[227] = 72
degree[226] = 169, pos[226] = 392
degree[225] = 167, pos[225] = 354
degree[224] = 167, pos[224] = 100
degree[223] = 166, pos[223] = 323
degree[222] = 165, pos[222] = 259
degree[221] = 165, pos[221] = 54
degree[220] = 164, pos[220] = 110
degree[219] = 163, pos[219] = 330
degree[218] = 162, pos[218] = 199
degree[217] = 161, pos[217] = 313
degree[216] = 161, pos[216] = 201
degree[215] = 160, pos[215] = 272
degree[214] = 159, pos[214] = 119
degree[213] = 158, pos[213] = 105
degree[212] = 157, pos[212] = 84
degree[211] = 156, pos[211] = 256
degree[210] = 154, pos[210] = 339
degree[209] = 154, pos[209] = 125
degree[208] = 153, pos[208] = 328
degree[207] = 153, pos[207] = 234
degree[206] = 152, pos[206] = 322
degree[205] = 151, pos[205] = 301
degree[204] = 150, pos[204] = 337
degree[203] = 150, pos[203] = 166
degree[202] = 149, pos[202] = 296
degree[201] = 149, pos[201] = 144
degree[200] = 147, pos[200] = 146
degree[199] = 147, pos[199] = 81
degree[198] = 145, pos[198] = 340
degree[197] = 144, pos[197] = 189
degree[196] = 143, pos[196] = 393
degree[195] = 143, pos[195] = 387
degree[194] = 143, pos[194] = 44
degree[193] = 141, pos[193] = 394
degree[192] = 141, pos[192] = 190
degree[191] = 140, pos[191] = 326
degree[190] = 139, pos[190] = 283
degree[189] = 138, pos[189] = 171
degree[188] = 138, pos[188] = 73
degree[187] = 137, pos[187] = 145
degree[186] = 136, pos[186] = 63
degree[185] = 136, pos[185] = 11
degree[184] = 134, pos[184] = 39
degree[183] = 133, pos[183] = 94
degree[182] = 133, pos[182] = 19
degree[181] = 133, pos[181] = 0
degree[180] = 131, pos[180] = 298
degree[179] = 131, pos[179] = 268
degree[178] = 129, pos[178] = 60
degree[177] = 128, pos[177] = 132
degree[176] = 128, pos[176] = 31
degree[175] = 127, pos[175] = 149
degree[174] = 126, pos[174] = 219
degree[173] = 125, pos[173] = 359
degree[172] = 125, pos[172] = 162
degree[171] = 124, pos[171] = 227
degree[170] = 123, pos[170] = 345
degree[169] = 122, pos[169] = 334
degree[168] = 122, pos[168] = 297
degree[167] = 122, pos[167] = 140
degree[166] = 120, pos[166] = 192
degree[165] = 119, pos[165] = 168
degree[164] = 119, pos[164] = 48
degree[163] = 118, pos[163] = 115
degree[162] = 117, pos[162] = 288
degree[161] = 117, pos[161] = 274
degree[160] = 116, pos[160] = 198
degree[159] = 115, pos[159] = 182
degree[158] = 114, pos[158] = 80
degree[157] = 113, pos[157] = 343
degree[156] = 113, pos[156] = 7
degree[155] = 112, pos[155] = 13
degree[154] = 111, pos[154] = 239
degree[153] = 110, pos[153] = 316
degree[152] = 109, pos[152] = 249
degree[151] = 109, pos[151] = 165
degree[150] = 108, pos[150] = 114
degree[149] = 107, pos[149] = 99
degree[148] = 106, pos[148] = 74
degree[147] = 106, pos[147] = 52
degree[146] = 104, pos[146] = 276
degree[145] = 103, pos[145] = 241
degree[144] = 102, pos[144] = 224
degree[143] = 102, pos[143] = 205
degree[142] = 102, pos[142] = 133
degree[141] = 101, pos[141] = 6
degree[140] = 100, pos[140] = 196
degree[139] = 99, pos[139] = 77
degree[138] = 98, pos[138] = 92
degree[137] = 97, pos[137] = 257
degree[136] = 97, pos[136] = 102
degree[135] = 96, pos[135] = 79
degree[134] = 95, pos[134] = 317
degree[133] = 95, pos[133] = 273
degree[132] = 95, pos[132] = 58
degree[131] = 93, pos[131] = 307
degree[130] = 92, pos[130] = 186
degree[129] = 92, pos[129] = 43
degree[128] = 91, pos[128] = 341
degree[127] = 90, pos[127] = 139
degree[126] = 89, pos[126] = 49
degree[125] = 89, pos[125] = 15
degree[124] = 88, pos[124] = 332
degree[123] = 87, pos[123] = 134
degree[122] = 86, pos[122] = 324
degree[121] = 85, pos[121] = 366
degree[120] = 85, pos[120] = 98
degree[119] = 84, pos[119] = 348
degree[118] = 83, pos[118] = 37
degree[117] = 82, pos[117] = 66
degree[116] = 81, pos[116] = 167
degree[115] = 81, pos[115] = 32
degree[114] = 80, pos[114] = 346
degree[113] = 79, pos[113] = 210
degree[112] = 78, pos[112] = 362
degree[111] = 78, pos[111] = 315
degree[110] = 78, pos[110] = 152
degree[109] = 76, pos[109] = 396
degree[108] = 76, pos[108] = 284
degree[107] = 76, pos[107] = 33
degree[106] = 75, pos[106] = 290
degree[105] = 73, pos[105] = 129
degree[104] = 72, pos[104] = 106
degree[103] = 71, pos[103] = 291
degree[102] = 70, pos[102] = 244
degree[101] = 70, pos[101] = 90
degree[100] = 69, pos[100] = 157
degree[99] = 69, pos[99] = 8
degree[98] = 67, pos[98] = 384
degree[97] = 66, pos[97] = 356
degree[96] = 66, pos[96] = 24
degree[95] = 64, pos[95] = 355
degree[94] = 64, pos[94] = 101
degree[93] = 64, pos[93] = 64
degree[92] = 63, pos[92] = 104
degree[91] = 62, pos[91] = 246
degree[90] = 61, pos[90] = 260
degree[89] = 60, pos[89] = 228
degree[88] = 60, pos[88] = 41
degree[87] = 60, pos[87] = 17
degree[86] = 59, pos[86] = 294
degree[85] = 59, pos[85] = 138
degree[84] = 57, pos[84] = 308
degree[83] = 57, pos[83] = 143
degree[82] = 56, pos[82] = 88
degree[81] = 55, pos[81] = 122
degree[80] = 55, pos[80] = 65
degree[79] = 54, pos[79] = 9
degree[78] = 53, pos[78] = 12
degree[77] = 51, pos[77] = 381
degree[76] = 50, pos[76] = 300
degree[75] = 50, pos[75] = 10
degree[74] = 49, pos[74] = 311
degree[73] = 48, pos[73] = 253
degree[72] = 48, pos[72] = 172
degree[71] = 48, pos[71] = 147
degree[70] = 47, pos[70] = 18
degree[69] = 45, pos[69] = 321
degree[68] = 45, pos[68] = 207
degree[67] = 44, pos[67] = 299
degree[66] = 44, pos[66] = 237
degree[65] = 44, pos[65] = 1
degree[64] = 42, pos[64] = 223
degree[63] = 41, pos[63] = 250
degree[62] = 41, pos[62] = 120
degree[61] = 39, pos[61] = 390
degree[60] = 39, pos[60] = 113
degree[59] = 38, pos[59] = 4
degree[58] = 37, pos[58] = 293
degree[57] = 37, pos[57] = 261
degree[56] = 36, pos[56] = 302
degree[55] = 35, pos[55] = 370
degree[54] = 34, pos[54] = 325
degree[53] = 33, pos[53] = 383
degree[52] = 33, pos[52] = 252
degree[51] = 32, pos[51] = 277
degree[50] = 31, pos[50] = 271
degree[49] = 31, pos[49] = 236
degree[48] = 30, pos[48] = 214
degree[47] = 29, pos[47] = 240
degree[46] = 29, pos[46] = 206
degree[45] = 29, pos[45] = 55
degree[44] = 27, pos[44] = 327
degree[43] = 27, pos[43] = 270
degree[42] = 26, pos[42] = 57
degree[41] = 25, pos[41] = 365
degree[40] = 24, pos[40] = 318
degree[39] = 24, pos[39] = 306
degree[38] = 23, pos[38] = 164
degree[37] = 22, pos[37] = 30
degree[36] = 21, pos[36] = 38
degree[35] = 20, pos[35] = 382
degree[34] = 20, pos[34] = 304
degree[33] = 19, pos[33] = 59
degree[32] = 19, pos[32] = 42
degree[31] = 18, pos[31] = 368
degree[30] = 17, pos[30] = 118
degree[29] = 17, pos[29] = 69
degree[28] = 16, pos[28] = 215
degree[27] = 16, pos[27] = 53
degree[26] = 15, pos[26] = 238
degree[25] = 14, pos[25] = 386
degree[24] = 14, pos[24] = 269
degree[23] = 13, pos[23] = 264
degree[22] = 12, pos[22] = 142
degree[21] = 12, pos[21] = 22
degree[20] = 11, pos[20] = 25
degree[19] = 11, pos[19] = 5
degree[18] = 9, pos[18] = 153
degree[17] = 9, pos[17] = 83
degree[16] = 7, pos[16] = 193
degree[15] = 6, pos[15] = 254
degree[14] = 6, pos[14] = 103
degree[13] = 6, pos[13] = 26
degree[12] = 5, pos[12] = 112
degree[11] = 4, pos[11] = 191
degree[10] = 4, pos[10] = 46
degree[9] = 3, pos[9] = 151
degree[8] = 3, pos[8] = 21
degree[7] = 2, pos[7] = 91
degree[6] = 1, pos[6] = 255
degree[5] = 0, pos[5] = 397
degree[4] = 0, pos[4] = 331
degree[3] = 0, pos[3] = 292
degree[2] = 0, pos[2] = 226
degree[1] = 0, pos[1] = 161
degree[0] = 0, pos[0] = 128
Pos[0] = 128
Pos[1] = 161
Pos[2] = 226
Pos[3] = 292
Pos[4] = 331
Pos[5] = 397
Pos[6] = 255
Pos[7] = 91
Pos[8] = 21
Pos[9] = 151
Pos[10] = 46
Pos[11] = 191
Pos[12] = 112
Pos[13] = 26
Pos[14] = 103
Pos[15] = 254
Pos[16] = 193
Pos[17] = 83
Pos[18] = 153
Pos[19] = 5
Pos[20] = 25
Pos[21] = 22
Pos[22] = 142
Pos[23] = 264
Pos[24] = 269
Pos[25] = 386
Pos[26] = 238
Pos[27] = 53
Pos[28] = 215
Pos[29] = 69
Pos[30] = 118
Pos[31] = 368
Pos[32] = 42
Pos[33] = 59
Pos[34] = 304
Pos[35] = 382
Pos[36] = 38
Pos[37] = 30
Pos[38] = 164
Pos[39] = 306
Pos[40] = 318
Pos[41] = 365
Pos[42] = 57
Pos[43] = 270
Pos[44] = 327
Pos[45] = 55
Pos[46] = 206
Pos[47] = 240
Pos[48] = 214
Pos[49] = 236
Pos[50] = 271
Pos[51] = 277
Pos[52] = 252
Pos[53] = 383
Pos[54] = 325
Pos[55] = 370
Pos[56] = 302
Pos[57] = 261
Pos[58] = 293
Pos[59] = 4
Pos[60] = 113
Pos[61] = 390
Pos[62] = 120
Pos[63] = 250
Pos[64] = 223
Pos[65] = 1
Pos[66] = 237
Pos[67] = 299
Pos[68] = 207
Pos[69] = 321
Pos[70] = 18
Pos[71] = 147
Pos[72] = 172
Pos[73] = 253
Pos[74] = 311
Pos[75] = 10
Pos[76] = 300
Pos[77] = 381
Pos[78] = 12
Pos[79] = 9
Pos[80] = 65
Pos[81] = 122
Pos[82] = 88
Pos[83] = 143
Pos[84] = 308
Pos[85] = 138
Pos[86] = 294
Pos[87] = 17
Pos[88] = 41
Pos[89] = 228
Pos[90] = 260
Pos[91] = 246
Pos[92] = 104
Pos[93] = 64
Pos[94] = 101
Pos[95] = 355
Pos[96] = 24
Pos[97] = 356
Pos[98] = 384
Pos[99] = 8
Pos[100] = 157
Pos[101] = 90
Pos[102] = 244
Pos[103] = 291
Pos[104] = 106
Pos[105] = 129
Pos[106] = 290
Pos[107] = 33
Pos[108] = 284
Pos[109] = 396
Pos[110] = 152
Pos[111] = 315
Pos[112] = 362
Pos[113] = 210
Pos[114] = 346
Pos[115] = 32
Pos[116] = 167
Pos[117] = 66
Pos[118] = 37
Pos[119] = 348
Pos[120] = 98
Pos[121] = 366
Pos[122] = 324
Pos[123] = 134
Pos[124] = 332
Pos[125] = 15
Pos[126] = 49
Pos[127] = 139
Pos[128] = 341
Pos[129] = 43
Pos[130] = 186
Pos[131] = 307
Pos[132] = 58
Pos[133] = 273
Pos[134] = 317
Pos[135] = 79
Pos[136] = 102
Pos[137] = 257
Pos[138] = 92
Pos[139] = 77
Pos[140] = 196
Pos[141] = 6
Pos[142] = 133
Pos[143] = 205
Pos[144] = 224
Pos[145] = 241
Pos[146] = 276
Pos[147] = 52
Pos[148] = 74
Pos[149] = 99
Pos[150] = 114
Pos[151] = 165
Pos[152] = 249
Pos[153] = 316
Pos[154] = 239
Pos[155] = 13
Pos[156] = 7
Pos[157] = 343
Pos[158] = 80
Pos[159] = 182
Pos[160] = 198
Pos[161] = 274
Pos[162] = 288
Pos[163] = 115
Pos[164] = 48
Pos[165] = 168
Pos[166] = 192
Pos[167] = 140
Pos[168] = 297
Pos[169] = 334
Pos[170] = 345
Pos[171] = 227
Pos[172] = 162
Pos[173] = 359
Pos[174] = 219
Pos[175] = 149
Pos[176] = 31
Pos[177] = 132
Pos[178] = 60
Pos[179] = 268
Pos[180] = 298
Pos[181] = 0
Pos[182] = 19
Pos[183] = 94
Pos[184] = 39
Pos[185] = 11
Pos[186] = 63
Pos[187] = 145
Pos[188] = 73
Pos[189] = 171
Pos[190] = 283
Pos[191] = 326
Pos[192] = 190
Pos[193] = 394
Pos[194] = 44
Pos[195] = 387
Pos[196] = 393
Pos[197] = 189
Pos[198] = 340
Pos[199] = 81
Pos[200] = 146
Pos[201] = 144
Pos[202] = 296
Pos[203] = 166
Pos[204] = 337
Pos[205] = 301
Pos[206] = 322
Pos[207] = 234
Pos[208] = 328
Pos[209] = 125
Pos[210] = 339
Pos[211] = 256
Pos[212] = 84
Pos[213] = 105
Pos[214] = 119
Pos[215] = 272
Pos[216] = 201
Pos[217] = 313
Pos[218] = 199
Pos[219] = 330
Pos[220] = 110
Pos[221] = 54
Pos[222] = 259
Pos[223] = 323
Pos[224] = 100
Pos[225] = 354
Pos[226] = 392
Pos[227] = 72
Pos[228] = 82
Pos[229] = 28
Pos[230] = 93
Pos[231] = 233
Pos[232] = 353
Pos[233] = 360
Pos[234] = 154
Pos[235] = 320
Pos[236] = 344
Pos[237] = 34
Pos[238] = 179
Pos[239] = 61
Pos[240] = 195
Pos[241] = 211
Pos[242] = 266
Pos[243] = 357
Pos[244] = 67
Pos[245] = 14
Pos[246] = 16
Pos[247] = 265
Pos[248] = 136
Pos[249] = 158
Pos[250] = 352
Pos[251] = 279
Pos[252] = 173
Pos[253] = 184
Pos[254] = 310
Pos[255] = 243
Pos[256] = 183
Pos[257] = 349
Pos[258] = 314
Pos[259] = 369
Pos[260] = 202
Pos[261] = 263
Pos[262] = 287
Pos[263] = 229
Pos[264] = 235
Pos[265] = 50
Pos[266] = 95
Pos[267] = 395
Pos[268] = 358
Pos[269] = 75
Pos[270] = 258
Pos[271] = 86
Pos[272] = 87
Pos[273] = 208
Pos[274] = 248
Pos[275] = 275
Pos[276] = 378
Pos[277] = 27
Pos[278] = 85
Pos[279] = 108
Pos[280] = 141
Pos[281] = 200
Pos[282] = 209
Pos[283] = 178
Pos[284] = 174
Pos[285] = 109
Pos[286] = 204
Pos[287] = 29
Pos[288] = 295
Pos[289] = 333
Pos[290] = 230
Pos[291] = 35
Pos[292] = 62
Pos[293] = 303
Pos[294] = 335
Pos[295] = 126
Pos[296] = 375
Pos[297] = 51
Pos[298] = 398
Pos[299] = 399
Pos[300] = 117
Pos[301] = 372
Pos[302] = 155
Pos[303] = 216
Pos[304] = 156
Pos[305] = 232
Pos[306] = 176
Pos[307] = 376
Pos[308] = 89
Pos[309] = 361
Pos[310] = 127
Pos[311] = 170
Pos[312] = 351
Pos[313] = 220
Pos[314] = 373
Pos[315] = 225
Pos[316] = 389
Pos[317] = 150
Pos[318] = 188
Pos[319] = 56
Pos[320] = 36
Pos[321] = 97
Pos[322] = 197
Pos[323] = 203
Pos[324] = 96
Pos[325] = 116
Pos[326] = 70
Pos[327] = 121
Pos[328] = 107
Pos[329] = 231
Pos[330] = 281
Pos[331] = 124
Pos[332] = 342
Pos[333] = 23
Pos[334] = 135
Pos[335] = 47
Pos[336] = 130
Pos[337] = 180
Pos[338] = 123
Pos[339] = 137
Pos[340] = 262
Pos[341] = 148
Pos[342] = 2
Pos[343] = 71
Pos[344] = 194
Pos[345] = 347
Pos[346] = 76
Pos[347] = 285
Pos[348] = 187
Pos[349] = 280
Pos[350] = 177
Pos[351] = 111
Pos[352] = 213
Pos[353] = 169
Pos[354] = 45
Pos[355] = 278
Pos[356] = 131
Pos[357] = 374
Pos[358] = 163
Pos[359] = 159
Pos[360] = 185
Pos[361] = 338
Pos[362] = 267
Pos[363] = 245
Pos[364] = 251
Pos[365] = 377
Pos[366] = 380
Pos[367] = 242
Pos[368] = 367
Pos[369] = 68
Pos[370] = 175
Pos[371] = 212
Pos[372] = 217
Pos[373] = 364
Pos[374] = 388
Pos[375] = 305
Pos[376] = 222
Pos[377] = 312
Pos[378] = 385
Pos[379] = 363
Pos[380] = 282
Pos[381] = 160
Pos[382] = 40
Pos[383] = 78
Pos[384] = 336
Pos[385] = 289
Pos[386] = 221
Pos[387] = 3
Pos[388] = 350
Pos[389] = 20
Pos[390] = 319
Pos[391] = 181
Pos[392] = 286
Pos[393] = 309
Pos[394] = 329
Pos[395] = 391
Pos[396] = 218
Pos[397] = 247
Pos[398] = 371
Pos[399] = 379
Enbr = 59723
start search
improving solution size 1
improving solution size 2
improving solution size 3
improving solution size 4
improving solution size 5
improving solution size 6
improving solution size 7
improving solution size 8
improving solution size 9
improving solution size 10
improving solution size 11
improving solution size 12
improving solution size 13
improving solution size 14
improving solution size 15
improving solution size 16
improving solution size 17
improving solution size 18
improving solution size 19
improving solution size 20
improving solution size 21
improving solution size 22
improving solution size 23
improving solution size 24
improving solution size 25
improving solution size 26
improving solution size 27
improving solution size 28
improving solution size 29
improving solution size 30
improving solution size 31
improving solution size 32
TIMEOUT
best clique: 380 372 248 219 330 310 287 182 320 351 337 161 313 306 246 218 149 122 390 128 52 336 63 185 267 360 273 344 139 265 27 174 
record          =          32
subp            =  3992109121
time            =  3600.00007
