timeout 3600 s
Graph with 200 vertices and 12048 edges density 0.605427
t = 24096, Enbr = 12048
degree[199] = 134, pos[199] = 175
degree[198] = 133, pos[198] = 164
degree[197] = 133, pos[197] = 85
degree[196] = 130, pos[196] = 141
degree[195] = 130, pos[195] = 6
degree[194] = 128, pos[194] = 100
degree[193] = 127, pos[193] = 111
degree[192] = 126, pos[192] = 188
degree[191] = 125, pos[191] = 137
degree[190] = 125, pos[190] = 64
degree[189] = 124, pos[189] = 150
degree[188] = 123, pos[188] = 10
degree[187] = 122, pos[187] = 59
degree[186] = 121, pos[186] = 191
degree[185] = 120, pos[185] = 105
degree[184] = 119, pos[184] = 35
degree[183] = 118, pos[183] = 197
degree[182] = 118, pos[182] = 192
degree[181] = 118, pos[181] = 183
degree[180] = 116, pos[180] = 179
degree[179] = 115, pos[179] = 194
degree[178] = 115, pos[178] = 91
degree[177] = 114, pos[177] = 172
degree[176] = 114, pos[176] = 124
degree[175] = 113, pos[175] = 30
degree[174] = 113, pos[174] = 19
degree[173] = 112, pos[173] = 27
degree[172] = 109, pos[172] = 193
degree[171] = 109, pos[171] = 189
degree[170] = 108, pos[170] = 173
degree[169] = 108, pos[169] = 17
degree[168] = 107, pos[168] = 80
degree[167] = 106, pos[167] = 55
degree[166] = 105, pos[166] = 114
degree[165] = 105, pos[165] = 24
degree[164] = 104, pos[164] = 40
degree[163] = 103, pos[163] = 161
degree[162] = 103, pos[162] = 139
degree[161] = 103, pos[161] = 28
degree[160] = 103, pos[160] = 20
degree[159] = 100, pos[159] = 145
degree[158] = 99, pos[158] = 154
degree[157] = 99, pos[157] = 102
degree[156] = 98, pos[156] = 79
degree[155] = 97, pos[155] = 153
degree[154] = 96, pos[154] = 152
degree[153] = 95, pos[153] = 112
degree[152] = 95, pos[152] = 44
degree[151] = 94, pos[151] = 84
degree[150] = 94, pos[150] = 67
degree[149] = 93, pos[149] = 60
degree[148] = 92, pos[148] = 122
degree[147] = 92, pos[147] = 3
degree[146] = 91, pos[146] = 26
degree[145] = 89, pos[145] = 166
degree[144] = 89, pos[144] = 82
degree[143] = 88, pos[143] = 72
degree[142] = 88, pos[142] = 8
degree[141] = 87, pos[141] = 162
degree[140] = 86, pos[140] = 110
degree[139] = 85, pos[139] = 104
degree[138] = 84, pos[138] = 160
degree[137] = 84, pos[137] = 103
degree[136] = 83, pos[136] = 120
degree[135] = 83, pos[135] = 93
degree[134] = 82, pos[134] = 146
degree[133] = 82, pos[133] = 83
degree[132] = 81, pos[132] = 50
degree[131] = 80, pos[131] = 133
degree[130] = 80, pos[130] = 94
degree[129] = 78, pos[129] = 181
degree[128] = 78, pos[128] = 116
degree[127] = 77, pos[127] = 126
degree[126] = 76, pos[126] = 180
degree[125] = 76, pos[125] = 87
degree[124] = 75, pos[124] = 165
degree[123] = 75, pos[123] = 11
degree[122] = 74, pos[122] = 89
degree[121] = 73, pos[121] = 71
degree[120] = 73, pos[120] = 58
degree[119] = 72, pos[119] = 31
degree[118] = 70, pos[118] = 186
degree[117] = 70, pos[117] = 169
degree[116] = 69, pos[116] = 167
degree[115] = 69, pos[115] = 140
degree[114] = 68, pos[114] = 119
degree[113] = 67, pos[113] = 174
degree[112] = 67, pos[112] = 138
degree[111] = 67, pos[111] = 41
degree[110] = 66, pos[110] = 65
degree[109] = 65, pos[109] = 199
degree[108] = 65, pos[108] = 147
degree[107] = 64, pos[107] = 106
degree[106] = 62, pos[106] = 159
degree[105] = 62, pos[105] = 18
degree[104] = 61, pos[104] = 70
degree[103] = 61, pos[103] = 66
degree[102] = 60, pos[102] = 149
degree[101] = 60, pos[101] = 33
degree[100] = 59, pos[100] = 143
degree[99] = 58, pos[99] = 56
degree[98] = 57, pos[98] = 74
degree[97] = 57, pos[97] = 51
degree[96] = 55, pos[96] = 190
degree[95] = 55, pos[95] = 77
degree[94] = 54, pos[94] = 185
degree[93] = 54, pos[93] = 109
degree[92] = 54, pos[92] = 92
degree[91] = 54, pos[91] = 21
degree[90] = 52, pos[90] = 115
degree[89] = 50, pos[89] = 129
degree[88] = 50, pos[88] = 125
degree[87] = 50, pos[87] = 78
degree[86] = 49, pos[86] = 48
degree[85] = 49, pos[85] = 16
degree[84] = 48, pos[84] = 107
degree[83] = 48, pos[83] = 97
degree[82] = 47, pos[82] = 99
degree[81] = 45, pos[81] = 187
degree[80] = 45, pos[80] = 168
degree[79] = 45, pos[79] = 38
degree[78] = 44, pos[78] = 4
degree[77] = 44, pos[77] = 1
degree[76] = 43, pos[76] = 156
degree[75] = 43, pos[75] = 136
degree[74] = 41, pos[74] = 128
degree[73] = 41, pos[73] = 108
degree[72] = 40, pos[72] = 49
degree[71] = 39, pos[71] = 135
degree[70] = 39, pos[70] = 53
degree[69] = 38, pos[69] = 123
degree[68] = 37, pos[68] = 131
degree[67] = 37, pos[67] = 88
degree[66] = 36, pos[66] = 32
degree[65] = 35, pos[65] = 182
degree[64] = 35, pos[64] = 46
degree[63] = 35, pos[63] = 34
degree[62] = 34, pos[62] = 68
degree[61] = 33, pos[61] = 62
degree[60] = 32, pos[60] = 142
degree[59] = 31, pos[59] = 157
degree[58] = 31, pos[58] = 7
degree[57] = 31, pos[57] = 2
degree[56] = 30, pos[56] = 96
degree[55] = 30, pos[55] = 73
degree[54] = 28, pos[54] = 170
degree[53] = 28, pos[53] = 95
degree[52] = 28, pos[52] = 54
degree[51] = 27, pos[51] = 163
degree[50] = 26, pos[50] = 90
degree[49] = 26, pos[49] = 13
degree[48] = 25, pos[48] = 86
degree[47] = 24, pos[47] = 57
degree[46] = 24, pos[46] = 47
degree[45] = 23, pos[45] = 52
degree[44] = 22, pos[44] = 134
degree[43] = 22, pos[43] = 36
degree[42] = 21, pos[42] = 132
degree[41] = 21, pos[41] = 45
degree[40] = 21, pos[40] = 0
degree[39] = 20, pos[39] = 177
degree[38] = 19, pos[38] = 171
degree[37] = 18, pos[37] = 151
degree[36] = 17, pos[36] = 195
degree[35] = 17, pos[35] = 130
degree[34] = 16, pos[34] = 113
degree[33] = 15, pos[33] = 176
degree[32] = 15, pos[32] = 158
degree[31] = 14, pos[31] = 43
degree[30] = 14, pos[30] = 42
degree[29] = 13, pos[29] = 144
degree[28] = 13, pos[28] = 29
degree[27] = 13, pos[27] = 15
degree[26] = 11, pos[26] = 178
degree[25] = 11, pos[25] = 148
degree[24] = 10, pos[24] = 81
degree[23] = 10, pos[23] = 37
degree[22] = 10, pos[22] = 23
degree[21] = 9, pos[21] = 9
degree[20] = 8, pos[20] = 155
degree[19] = 8, pos[19] = 127
degree[18] = 6, pos[18] = 196
degree[17] = 6, pos[17] = 63
degree[16] = 6, pos[16] = 5
degree[15] = 4, pos[15] = 76
degree[14] = 4, pos[14] = 61
degree[13] = 3, pos[13] = 184
degree[12] = 3, pos[12] = 118
degree[11] = 3, pos[11] = 101
degree[10] = 2, pos[10] = 198
degree[9] = 2, pos[9] = 25
degree[8] = 2, pos[8] = 14
degree[7] = 1, pos[7] = 69
degree[6] = 0, pos[6] = 121
degree[5] = 0, pos[5] = 117
degree[4] = 0, pos[4] = 98
degree[3] = 0, pos[3] = 75
degree[2] = 0, pos[2] = 39
degree[1] = 0, pos[1] = 22
degree[0] = 0, pos[0] = 12
Pos[0] = 12
Pos[1] = 22
Pos[2] = 39
Pos[3] = 75
Pos[4] = 98
Pos[5] = 117
Pos[6] = 121
Pos[7] = 69
Pos[8] = 14
Pos[9] = 25
Pos[10] = 198
Pos[11] = 101
Pos[12] = 118
Pos[13] = 184
Pos[14] = 61
Pos[15] = 76
Pos[16] = 5
Pos[17] = 63
Pos[18] = 196
Pos[19] = 127
Pos[20] = 155
Pos[21] = 9
Pos[22] = 23
Pos[23] = 37
Pos[24] = 81
Pos[25] = 148
Pos[26] = 178
Pos[27] = 15
Pos[28] = 29
Pos[29] = 144
Pos[30] = 42
Pos[31] = 43
Pos[32] = 158
Pos[33] = 176
Pos[34] = 113
Pos[35] = 130
Pos[36] = 195
Pos[37] = 151
Pos[38] = 171
Pos[39] = 177
Pos[40] = 0
Pos[41] = 45
Pos[42] = 132
Pos[43] = 36
Pos[44] = 134
Pos[45] = 52
Pos[46] = 47
Pos[47] = 57
Pos[48] = 86
Pos[49] = 13
Pos[50] = 90
Pos[51] = 163
Pos[52] = 54
Pos[53] = 95
Pos[54] = 170
Pos[55] = 73
Pos[56] = 96
Pos[57] = 2
Pos[58] = 7
Pos[59] = 157
Pos[60] = 142
Pos[61] = 62
Pos[62] = 68
Pos[63] = 34
Pos[64] = 46
Pos[65] = 182
Pos[66] = 32
Pos[67] = 88
Pos[68] = 131
Pos[69] = 123
Pos[70] = 53
Pos[71] = 135
Pos[72] = 49
Pos[73] = 108
Pos[74] = 128
Pos[75] = 136
Pos[76] = 156
Pos[77] = 1
Pos[78] = 4
Pos[79] = 38
Pos[80] = 168
Pos[81] = 187
Pos[82] = 99
Pos[83] = 97
Pos[84] = 107
Pos[85] = 16
Pos[86] = 48
Pos[87] = 78
Pos[88] = 125
Pos[89] = 129
Pos[90] = 115
Pos[91] = 21
Pos[92] = 92
Pos[93] = 109
Pos[94] = 185
Pos[95] = 77
Pos[96] = 190
Pos[97] = 51
Pos[98] = 74
Pos[99] = 56
Pos[100] = 143
Pos[101] = 33
Pos[102] = 149
Pos[103] = 66
Pos[104] = 70
Pos[105] = 18
Pos[106] = 159
Pos[107] = 106
Pos[108] = 147
Pos[109] = 199
Pos[110] = 65
Pos[111] = 41
Pos[112] = 138
Pos[113] = 174
Pos[114] = 119
Pos[115] = 140
Pos[116] = 167
Pos[117] = 169
Pos[118] = 186
Pos[119] = 31
Pos[120] = 58
Pos[121] = 71
Pos[122] = 89
Pos[123] = 11
Pos[124] = 165
Pos[125] = 87
Pos[126] = 180
Pos[127] = 126
Pos[128] = 116
Pos[129] = 181
Pos[130] = 94
Pos[131] = 133
Pos[132] = 50
Pos[133] = 83
Pos[134] = 146
Pos[135] = 93
Pos[136] = 120
Pos[137] = 103
Pos[138] = 160
Pos[139] = 104
Pos[140] = 110
Pos[141] = 162
Pos[142] = 8
Pos[143] = 72
Pos[144] = 82
Pos[145] = 166
Pos[146] = 26
Pos[147] = 3
Pos[148] = 122
Pos[149] = 60
Pos[150] = 67
Pos[151] = 84
Pos[152] = 44
Pos[153] = 112
Pos[154] = 152
Pos[155] = 153
Pos[156] = 79
Pos[157] = 102
Pos[158] = 154
Pos[159] = 145
Pos[160] = 20
Pos[161] = 28
Pos[162] = 139
Pos[163] = 161
Pos[164] = 40
Pos[165] = 24
Pos[166] = 114
Pos[167] = 55
Pos[168] = 80
Pos[169] = 17
Pos[170] = 173
Pos[171] = 189
Pos[172] = 193
Pos[173] = 27
Pos[174] = 19
Pos[175] = 30
Pos[176] = 124
Pos[177] = 172
Pos[178] = 91
Pos[179] = 194
Pos[180] = 179
Pos[181] = 183
Pos[182] = 192
Pos[183] = 197
Pos[184] = 35
Pos[185] = 105
Pos[186] = 191
Pos[187] = 59
Pos[188] = 10
Pos[189] = 150
Pos[190] = 64
Pos[191] = 137
Pos[192] = 188
Pos[193] = 111
Pos[194] = 100
Pos[195] = 6
Pos[196] = 141
Pos[197] = 85
Pos[198] = 164
Pos[199] = 175
Enbr = 12048
start search
improving solution size 1
improving solution size 2
improving solution size 3
improving solution size 4
improving solution size 5
improving solution size 6
improving solution size 7
improving solution size 8
improving solution size 9
improving solution size 10
improving solution size 11
improving solution size 12
improving solution size 13
improving solution size 14
improving solution size 15
improving solution size 16
improving solution size 17
improving solution size 18
improving solution size 19
improving solution size 20
TIMEOUT
best clique: 176 86 11 192 92 174 41 45 123 9 88 71 126 39 157 33 91 43 156 15 
record          =          20
subp            =  5281208933
time            =  3600.00040
