timeout 3600 s
Graph with 125 vertices and 6963 edges density 0.898452
t = 13926, Enbr = 6963
degree[124] = 119, pos[124] = 113
degree[123] = 118, pos[123] = 59
degree[122] = 117, pos[122] = 53
degree[121] = 115, pos[121] = 110
degree[120] = 115, pos[120] = 44
degree[119] = 113, pos[119] = 103
degree[118] = 112, pos[118] = 100
degree[117] = 111, pos[117] = 18
degree[116] = 109, pos[116] = 109
degree[115] = 109, pos[115] = 7
degree[114] = 107, pos[114] = 98
degree[113] = 106, pos[113] = 97
degree[112] = 105, pos[112] = 79
degree[111] = 104, pos[111] = 39
degree[110] = 103, pos[110] = 23
degree[109] = 102, pos[109] = 6
degree[108] = 100, pos[108] = 124
degree[107] = 99, pos[107] = 91
degree[106] = 98, pos[106] = 66
degree[105] = 97, pos[105] = 57
degree[104] = 96, pos[104] = 48
degree[103] = 95, pos[103] = 58
degree[102] = 95, pos[102] = 10
degree[101] = 93, pos[101] = 64
degree[100] = 93, pos[100] = 17
degree[99] = 92, pos[99] = 5
degree[98] = 90, pos[98] = 69
degree[97] = 90, pos[97] = 40
degree[96] = 88, pos[96] = 46
degree[95] = 87, pos[95] = 81
degree[94] = 87, pos[94] = 38
degree[93] = 85, pos[93] = 29
degree[92] = 84, pos[92] = 28
degree[91] = 83, pos[91] = 45
degree[90] = 82, pos[90] = 51
degree[89] = 81, pos[89] = 9
degree[88] = 80, pos[88] = 33
degree[87] = 78, pos[87] = 123
degree[86] = 78, pos[86] = 106
degree[85] = 77, pos[85] = 76
degree[84] = 75, pos[84] = 122
degree[83] = 75, pos[83] = 85
degree[82] = 74, pos[82] = 71
degree[81] = 72, pos[81] = 121
degree[80] = 72, pos[80] = 104
degree[79] = 71, pos[79] = 83
degree[78] = 69, pos[78] = 120
degree[77] = 69, pos[77] = 105
degree[76] = 68, pos[76] = 42
degree[75] = 67, pos[75] = 36
degree[74] = 67, pos[74] = 21
degree[73] = 65, pos[73] = 90
degree[72] = 64, pos[72] = 52
degree[71] = 63, pos[71] = 43
degree[70] = 62, pos[70] = 118
degree[69] = 61, pos[69] = 116
degree[68] = 60, pos[68] = 117
degree[67] = 60, pos[67] = 56
degree[66] = 59, pos[66] = 0
degree[65] = 58, pos[65] = 108
degree[64] = 57, pos[64] = 47
degree[63] = 56, pos[63] = 12
degree[62] = 55, pos[62] = 77
degree[61] = 53, pos[61] = 111
degree[60] = 53, pos[60] = 84
degree[59] = 52, pos[59] = 61
degree[58] = 51, pos[58] = 20
degree[57] = 50, pos[57] = 101
degree[56] = 49, pos[56] = 26
degree[55] = 48, pos[55] = 25
degree[54] = 47, pos[54] = 11
degree[53] = 46, pos[53] = 8
degree[52] = 45, pos[52] = 73
degree[51] = 44, pos[51] = 19
degree[50] = 43, pos[50] = 4
degree[49] = 42, pos[49] = 96
degree[48] = 41, pos[48] = 94
degree[47] = 41, pos[47] = 22
degree[46] = 39, pos[46] = 68
degree[45] = 39, pos[45] = 3
degree[44] = 37, pos[44] = 102
degree[43] = 37, pos[43] = 15
degree[42] = 36, pos[42] = 24
degree[41] = 35, pos[41] = 37
degree[40] = 33, pos[40] = 112
degree[39] = 32, pos[39] = 99
degree[38] = 32, pos[38] = 82
degree[37] = 31, pos[37] = 75
degree[36] = 30, pos[36] = 70
degree[35] = 29, pos[35] = 65
degree[34] = 28, pos[34] = 63
degree[33] = 28, pos[33] = 27
degree[32] = 27, pos[32] = 30
degree[31] = 25, pos[31] = 95
degree[30] = 24, pos[30] = 93
degree[29] = 24, pos[29] = 14
degree[28] = 22, pos[28] = 114
degree[27] = 22, pos[27] = 32
degree[26] = 21, pos[26] = 88
degree[25] = 20, pos[25] = 49
degree[24] = 19, pos[24] = 16
degree[23] = 18, pos[23] = 67
degree[22] = 17, pos[22] = 87
degree[21] = 16, pos[21] = 115
degree[20] = 16, pos[20] = 86
degree[19] = 15, pos[19] = 92
degree[18] = 14, pos[18] = 55
degree[17] = 13, pos[17] = 54
degree[16] = 12, pos[16] = 2
degree[15] = 12, pos[15] = 1
degree[14] = 10, pos[14] = 119
degree[13] = 9, pos[13] = 60
degree[12] = 8, pos[12] = 41
degree[11] = 7, pos[11] = 80
degree[10] = 7, pos[10] = 34
degree[9] = 6, pos[9] = 13
degree[8] = 4, pos[8] = 107
degree[7] = 4, pos[7] = 31
degree[6] = 3, pos[6] = 74
degree[5] = 2, pos[5] = 89
degree[4] = 2, pos[4] = 62
degree[3] = 1, pos[3] = 78
degree[2] = 0, pos[2] = 72
degree[1] = 0, pos[1] = 50
degree[0] = 0, pos[0] = 35
Pos[0] = 35
Pos[1] = 50
Pos[2] = 72
Pos[3] = 78
Pos[4] = 62
Pos[5] = 89
Pos[6] = 74
Pos[7] = 31
Pos[8] = 107
Pos[9] = 13
Pos[10] = 34
Pos[11] = 80
Pos[12] = 41
Pos[13] = 60
Pos[14] = 119
Pos[15] = 1
Pos[16] = 2
Pos[17] = 54
Pos[18] = 55
Pos[19] = 92
Pos[20] = 86
Pos[21] = 115
Pos[22] = 87
Pos[23] = 67
Pos[24] = 16
Pos[25] = 49
Pos[26] = 88
Pos[27] = 32
Pos[28] = 114
Pos[29] = 14
Pos[30] = 93
Pos[31] = 95
Pos[32] = 30
Pos[33] = 27
Pos[34] = 63
Pos[35] = 65
Pos[36] = 70
Pos[37] = 75
Pos[38] = 82
Pos[39] = 99
Pos[40] = 112
Pos[41] = 37
Pos[42] = 24
Pos[43] = 15
Pos[44] = 102
Pos[45] = 3
Pos[46] = 68
Pos[47] = 22
Pos[48] = 94
Pos[49] = 96
Pos[50] = 4
Pos[51] = 19
Pos[52] = 73
Pos[53] = 8
Pos[54] = 11
Pos[55] = 25
Pos[56] = 26
Pos[57] = 101
Pos[58] = 20
Pos[59] = 61
Pos[60] = 84
Pos[61] = 111
Pos[62] = 77
Pos[63] = 12
Pos[64] = 47
Pos[65] = 108
Pos[66] = 0
Pos[67] = 56
Pos[68] = 117
Pos[69] = 116
Pos[70] = 118
Pos[71] = 43
Pos[72] = 52
Pos[73] = 90
Pos[74] = 21
Pos[75] = 36
Pos[76] = 42
Pos[77] = 105
Pos[78] = 120
Pos[79] = 83
Pos[80] = 104
Pos[81] = 121
Pos[82] = 71
Pos[83] = 85
Pos[84] = 122
Pos[85] = 76
Pos[86] = 106
Pos[87] = 123
Pos[88] = 33
Pos[89] = 9
Pos[90] = 51
Pos[91] = 45
Pos[92] = 28
Pos[93] = 29
Pos[94] = 38
Pos[95] = 81
Pos[96] = 46
Pos[97] = 40
Pos[98] = 69
Pos[99] = 5
Pos[100] = 17
Pos[101] = 64
Pos[102] = 10
Pos[103] = 58
Pos[104] = 48
Pos[105] = 57
Pos[106] = 66
Pos[107] = 91
Pos[108] = 124
Pos[109] = 6
Pos[110] = 23
Pos[111] = 39
Pos[112] = 79
Pos[113] = 97
Pos[114] = 98
Pos[115] = 7
Pos[116] = 109
Pos[117] = 18
Pos[118] = 100
Pos[119] = 103
Pos[120] = 44
Pos[121] = 110
Pos[122] = 53
Pos[123] = 59
Pos[124] = 113
Enbr = 6963
start search
improving solution size 1
improving solution size 2
improving solution size 3
improving solution size 4
improving solution size 5
improving solution size 6
improving solution size 7
improving solution size 8
improving solution size 9
improving solution size 10
improving solution size 11
improving solution size 12
improving solution size 13
improving solution size 14
improving solution size 15
improving solution size 16
improving solution size 17
improving solution size 18
improving solution size 19
improving solution size 20
improving solution size 21
improving solution size 22
improving solution size 23
improving solution size 24
improving solution size 25
improving solution size 26
improving solution size 27
improving solution size 28
improving solution size 29
improving solution size 30
improving solution size 31
improving solution size 32
improving solution size 33
improving solution size 34
improving solution size 35
improving solution size 36
improving solution size 37
improving solution size 38
improving solution size 39
improving solution size 40
improving solution size 41
improving solution size 42
improving solution size 43
improving solution size 44
improving solution size 45
improving solution size 46
improving solution size 47
improving solution size 48
TIMEOUT
best clique: 114 60 54 111 45 104 101 19 110 8 99 98 80 40 24 7 125 67 49 59 18 70 47 82 29 34 77 86 72 22 53 119 118 48 13 85 27 9 20 23 71 115 68 87 56 90 79 51 
record          =          48
subp            =  4613289681
time            =  3600.00007
