timeout 3600 s
Graph with 250 vertices and 27984 edges density 0.899084
t = 55968, Enbr = 27984
degree[249] = 236, pos[249] = 124
degree[248] = 233, pos[248] = 62
degree[247] = 232, pos[247] = 5
degree[246] = 230, pos[246] = 229
degree[245] = 229, pos[245] = 196
degree[244] = 228, pos[244] = 149
degree[243] = 228, pos[243] = 29
degree[242] = 225, pos[242] = 217
degree[241] = 225, pos[241] = 112
degree[240] = 223, pos[240] = 211
degree[239] = 222, pos[239] = 227
degree[238] = 221, pos[238] = 194
degree[237] = 220, pos[237] = 172
degree[236] = 219, pos[236] = 158
degree[235] = 218, pos[235] = 137
degree[234] = 217, pos[234] = 115
degree[233] = 216, pos[233] = 190
degree[232] = 215, pos[232] = 93
degree[231] = 214, pos[231] = 68
degree[230] = 213, pos[230] = 95
degree[229] = 212, pos[229] = 25
degree[228] = 210, pos[228] = 203
degree[227] = 209, pos[227] = 201
degree[226] = 208, pos[226] = 234
degree[225] = 207, pos[225] = 233
degree[224] = 206, pos[224] = 182
degree[223] = 205, pos[223] = 180
degree[222] = 204, pos[222] = 164
degree[221] = 203, pos[221] = 173
degree[220] = 202, pos[220] = 226
degree[219] = 202, pos[219] = 64
degree[218] = 200, pos[218] = 160
degree[217] = 199, pos[217] = 150
degree[216] = 199, pos[216] = 65
degree[215] = 197, pos[215] = 141
degree[214] = 197, pos[214] = 77
degree[213] = 195, pos[213] = 240
degree[212] = 195, pos[212] = 22
degree[211] = 193, pos[211] = 209
degree[210] = 193, pos[210] = 82
degree[209] = 192, pos[209] = 34
degree[208] = 190, pos[208] = 104
degree[207] = 189, pos[207] = 239
degree[206] = 188, pos[206] = 130
degree[205] = 188, pos[205] = 63
degree[204] = 187, pos[204] = 28
degree[203] = 185, pos[203] = 225
degree[202] = 185, pos[202] = 38
degree[201] = 184, pos[201] = 200
degree[200] = 183, pos[200] = 106
degree[199] = 182, pos[199] = 50
degree[198] = 181, pos[198] = 44
degree[197] = 180, pos[197] = 16
degree[196] = 179, pos[196] = 7
degree[195] = 177, pos[195] = 228
degree[194] = 177, pos[194] = 12
degree[193] = 175, pos[193] = 197
degree[192] = 174, pos[192] = 189
degree[191] = 173, pos[191] = 157
degree[190] = 172, pos[190] = 140
degree[189] = 172, pos[189] = 96
degree[188] = 171, pos[188] = 89
degree[187] = 170, pos[187] = 85
degree[186] = 169, pos[186] = 86
degree[185] = 168, pos[185] = 8
degree[184] = 167, pos[184] = 146
degree[183] = 166, pos[183] = 51
degree[182] = 165, pos[182] = 39
degree[181] = 164, pos[181] = 162
degree[180] = 163, pos[180] = 83
degree[179] = 162, pos[179] = 75
degree[178] = 161, pos[178] = 58
degree[177] = 160, pos[177] = 81
degree[176] = 160, pos[176] = 40
degree[175] = 159, pos[175] = 80
degree[174] = 158, pos[174] = 249
degree[173] = 156, pos[173] = 204
degree[172] = 156, pos[172] = 198
degree[171] = 154, pos[171] = 247
degree[170] = 154, pos[170] = 43
degree[169] = 153, pos[169] = 168
degree[168] = 152, pos[168] = 122
degree[167] = 151, pos[167] = 107
degree[166] = 151, pos[166] = 48
degree[165] = 149, pos[165] = 179
degree[164] = 148, pos[164] = 153
degree[163] = 147, pos[163] = 61
degree[162] = 146, pos[162] = 145
degree[161] = 145, pos[161] = 241
degree[160] = 144, pos[160] = 156
degree[159] = 143, pos[159] = 138
degree[158] = 143, pos[158] = 45
degree[157] = 141, pos[157] = 176
degree[156] = 140, pos[156] = 232
degree[155] = 139, pos[155] = 171
degree[154] = 139, pos[154] = 57
degree[153] = 138, pos[153] = 41
degree[152] = 137, pos[152] = 60
degree[151] = 136, pos[151] = 87
degree[150] = 135, pos[150] = 69
degree[149] = 134, pos[149] = 17
degree[148] = 132, pos[148] = 210
degree[147] = 132, pos[147] = 136
degree[146] = 131, pos[146] = 56
degree[145] = 130, pos[145] = 49
degree[144] = 129, pos[144] = 53
degree[143] = 129, pos[143] = 30
degree[142] = 127, pos[142] = 152
degree[141] = 126, pos[141] = 169
degree[140] = 126, pos[140] = 123
degree[139] = 124, pos[139] = 237
degree[138] = 123, pos[138] = 206
degree[137] = 123, pos[137] = 37
degree[136] = 121, pos[136] = 191
degree[135] = 121, pos[135] = 116
degree[134] = 120, pos[134] = 163
degree[133] = 119, pos[133] = 32
degree[132] = 117, pos[132] = 230
degree[131] = 117, pos[131] = 181
degree[130] = 116, pos[130] = 144
degree[129] = 116, pos[129] = 90
degree[128] = 114, pos[128] = 70
degree[127] = 113, pos[127] = 205
degree[126] = 112, pos[126] = 101
degree[125] = 111, pos[125] = 236
degree[124] = 111, pos[124] = 55
degree[123] = 110, pos[123] = 151
degree[122] = 109, pos[122] = 117
degree[121] = 107, pos[121] = 214
degree[120] = 107, pos[120] = 108
degree[119] = 105, pos[119] = 244
degree[118] = 105, pos[118] = 79
degree[117] = 104, pos[117] = 52
degree[116] = 103, pos[116] = 127
degree[115] = 102, pos[115] = 6
degree[114] = 101, pos[114] = 103
degree[113] = 100, pos[113] = 195
degree[112] = 99, pos[112] = 223
degree[111] = 98, pos[111] = 125
degree[110] = 98, pos[110] = 91
degree[109] = 96, pos[109] = 114
degree[108] = 95, pos[108] = 128
degree[107] = 94, pos[107] = 113
degree[106] = 93, pos[106] = 148
degree[105] = 92, pos[105] = 143
degree[104] = 91, pos[104] = 132
degree[103] = 91, pos[103] = 109
degree[102] = 90, pos[102] = 46
degree[101] = 89, pos[101] = 71
degree[100] = 88, pos[100] = 147
degree[99] = 87, pos[99] = 188
degree[98] = 86, pos[98] = 98
degree[97] = 85, pos[97] = 19
degree[96] = 84, pos[96] = 235
degree[95] = 83, pos[95] = 177
degree[94] = 83, pos[94] = 3
degree[93] = 81, pos[93] = 142
degree[92] = 81, pos[92] = 126
degree[91] = 80, pos[91] = 24
degree[90] = 79, pos[90] = 31
degree[89] = 77, pos[89] = 231
degree[88] = 77, pos[88] = 187
degree[87] = 76, pos[87] = 99
degree[86] = 76, pos[86] = 21
degree[85] = 74, pos[85] = 119
degree[84] = 73, pos[84] = 84
degree[83] = 72, pos[83] = 161
degree[82] = 71, pos[82] = 13
degree[81] = 70, pos[81] = 110
degree[80] = 69, pos[80] = 178
degree[79] = 69, pos[79] = 174
degree[78] = 68, pos[78] = 215
degree[77] = 68, pos[77] = 133
degree[76] = 65, pos[76] = 246
degree[75] = 64, pos[75] = 238
degree[74] = 63, pos[74] = 220
degree[73] = 63, pos[73] = 9
degree[72] = 62, pos[72] = 76
degree[71] = 61, pos[71] = 186
degree[70] = 60, pos[70] = 202
degree[69] = 59, pos[69] = 166
degree[68] = 58, pos[68] = 139
degree[67] = 57, pos[67] = 131
degree[66] = 56, pos[66] = 170
degree[65] = 55, pos[65] = 67
degree[64] = 54, pos[64] = 105
degree[63] = 53, pos[63] = 183
degree[62] = 52, pos[62] = 167
degree[61] = 51, pos[61] = 218
degree[60] = 50, pos[60] = 213
degree[59] = 50, pos[59] = 134
degree[58] = 49, pos[58] = 221
degree[57] = 48, pos[57] = 118
degree[56] = 47, pos[56] = 243
degree[55] = 46, pos[55] = 193
degree[54] = 45, pos[54] = 159
degree[53] = 45, pos[53] = 154
degree[52] = 44, pos[52] = 92
degree[51] = 43, pos[51] = 33
degree[50] = 42, pos[50] = 35
degree[49] = 41, pos[49] = 78
degree[48] = 40, pos[48] = 73
degree[47] = 39, pos[47] = 185
degree[46] = 38, pos[46] = 59
degree[45] = 37, pos[45] = 120
degree[44] = 36, pos[44] = 100
degree[43] = 36, pos[43] = 54
degree[42] = 35, pos[42] = 248
degree[41] = 34, pos[41] = 72
degree[40] = 33, pos[40] = 15
degree[39] = 31, pos[39] = 224
degree[38] = 31, pos[38] = 207
degree[37] = 30, pos[37] = 111
degree[36] = 30, pos[36] = 47
degree[35] = 29, pos[35] = 4
degree[34] = 28, pos[34] = 97
degree[33] = 27, pos[33] = 135
degree[32] = 26, pos[32] = 102
degree[31] = 25, pos[31] = 74
degree[30] = 24, pos[30] = 175
degree[29] = 23, pos[29] = 165
degree[28] = 23, pos[28] = 18
degree[27] = 21, pos[27] = 155
degree[26] = 20, pos[26] = 36
degree[25] = 20, pos[25] = 14
degree[24] = 19, pos[24] = 0
degree[23] = 17, pos[23] = 129
degree[22] = 16, pos[22] = 184
degree[21] = 16, pos[21] = 1
degree[20] = 15, pos[20] = 27
degree[19] = 14, pos[19] = 66
degree[18] = 13, pos[18] = 23
degree[17] = 12, pos[17] = 242
degree[16] = 11, pos[16] = 94
degree[15] = 10, pos[15] = 26
degree[14] = 9, pos[14] = 219
degree[13] = 8, pos[13] = 20
degree[12] = 7, pos[12] = 245
degree[11] = 7, pos[11] = 11
degree[10] = 6, pos[10] = 222
degree[9] = 5, pos[9] = 212
degree[8] = 5, pos[8] = 2
degree[7] = 4, pos[7] = 192
degree[6] = 3, pos[6] = 208
degree[5] = 3, pos[5] = 199
degree[4] = 1, pos[4] = 216
degree[3] = 1, pos[3] = 88
degree[2] = 0, pos[2] = 121
degree[1] = 0, pos[1] = 42
degree[0] = 0, pos[0] = 10
Pos[0] = 10
Pos[1] = 42
Pos[2] = 121
Pos[3] = 88
Pos[4] = 216
Pos[5] = 199
Pos[6] = 208
Pos[7] = 192
Pos[8] = 2
Pos[9] = 212
Pos[10] = 222
Pos[11] = 11
Pos[12] = 245
Pos[13] = 20
Pos[14] = 219
Pos[15] = 26
Pos[16] = 94
Pos[17] = 242
Pos[18] = 23
Pos[19] = 66
Pos[20] = 27
Pos[21] = 1
Pos[22] = 184
Pos[23] = 129
Pos[24] = 0
Pos[25] = 14
Pos[26] = 36
Pos[27] = 155
Pos[28] = 18
Pos[29] = 165
Pos[30] = 175
Pos[31] = 74
Pos[32] = 102
Pos[33] = 135
Pos[34] = 97
Pos[35] = 4
Pos[36] = 47
Pos[37] = 111
Pos[38] = 207
Pos[39] = 224
Pos[40] = 15
Pos[41] = 72
Pos[42] = 248
Pos[43] = 54
Pos[44] = 100
Pos[45] = 120
Pos[46] = 59
Pos[47] = 185
Pos[48] = 73
Pos[49] = 78
Pos[50] = 35
Pos[51] = 33
Pos[52] = 92
Pos[53] = 154
Pos[54] = 159
Pos[55] = 193
Pos[56] = 243
Pos[57] = 118
Pos[58] = 221
Pos[59] = 134
Pos[60] = 213
Pos[61] = 218
Pos[62] = 167
Pos[63] = 183
Pos[64] = 105
Pos[65] = 67
Pos[66] = 170
Pos[67] = 131
Pos[68] = 139
Pos[69] = 166
Pos[70] = 202
Pos[71] = 186
Pos[72] = 76
Pos[73] = 9
Pos[74] = 220
Pos[75] = 238
Pos[76] = 246
Pos[77] = 133
Pos[78] = 215
Pos[79] = 174
Pos[80] = 178
Pos[81] = 110
Pos[82] = 13
Pos[83] = 161
Pos[84] = 84
Pos[85] = 119
Pos[86] = 21
Pos[87] = 99
Pos[88] = 187
Pos[89] = 231
Pos[90] = 31
Pos[91] = 24
Pos[92] = 126
Pos[93] = 142
Pos[94] = 3
Pos[95] = 177
Pos[96] = 235
Pos[97] = 19
Pos[98] = 98
Pos[99] = 188
Pos[100] = 147
Pos[101] = 71
Pos[102] = 46
Pos[103] = 109
Pos[104] = 132
Pos[105] = 143
Pos[106] = 148
Pos[107] = 113
Pos[108] = 128
Pos[109] = 114
Pos[110] = 91
Pos[111] = 125
Pos[112] = 223
Pos[113] = 195
Pos[114] = 103
Pos[115] = 6
Pos[116] = 127
Pos[117] = 52
Pos[118] = 79
Pos[119] = 244
Pos[120] = 108
Pos[121] = 214
Pos[122] = 117
Pos[123] = 151
Pos[124] = 55
Pos[125] = 236
Pos[126] = 101
Pos[127] = 205
Pos[128] = 70
Pos[129] = 90
Pos[130] = 144
Pos[131] = 181
Pos[132] = 230
Pos[133] = 32
Pos[134] = 163
Pos[135] = 116
Pos[136] = 191
Pos[137] = 37
Pos[138] = 206
Pos[139] = 237
Pos[140] = 123
Pos[141] = 169
Pos[142] = 152
Pos[143] = 30
Pos[144] = 53
Pos[145] = 49
Pos[146] = 56
Pos[147] = 136
Pos[148] = 210
Pos[149] = 17
Pos[150] = 69
Pos[151] = 87
Pos[152] = 60
Pos[153] = 41
Pos[154] = 57
Pos[155] = 171
Pos[156] = 232
Pos[157] = 176
Pos[158] = 45
Pos[159] = 138
Pos[160] = 156
Pos[161] = 241
Pos[162] = 145
Pos[163] = 61
Pos[164] = 153
Pos[165] = 179
Pos[166] = 48
Pos[167] = 107
Pos[168] = 122
Pos[169] = 168
Pos[170] = 43
Pos[171] = 247
Pos[172] = 198
Pos[173] = 204
Pos[174] = 249
Pos[175] = 80
Pos[176] = 40
Pos[177] = 81
Pos[178] = 58
Pos[179] = 75
Pos[180] = 83
Pos[181] = 162
Pos[182] = 39
Pos[183] = 51
Pos[184] = 146
Pos[185] = 8
Pos[186] = 86
Pos[187] = 85
Pos[188] = 89
Pos[189] = 96
Pos[190] = 140
Pos[191] = 157
Pos[192] = 189
Pos[193] = 197
Pos[194] = 12
Pos[195] = 228
Pos[196] = 7
Pos[197] = 16
Pos[198] = 44
Pos[199] = 50
Pos[200] = 106
Pos[201] = 200
Pos[202] = 38
Pos[203] = 225
Pos[204] = 28
Pos[205] = 63
Pos[206] = 130
Pos[207] = 239
Pos[208] = 104
Pos[209] = 34
Pos[210] = 82
Pos[211] = 209
Pos[212] = 22
Pos[213] = 240
Pos[214] = 77
Pos[215] = 141
Pos[216] = 65
Pos[217] = 150
Pos[218] = 160
Pos[219] = 64
Pos[220] = 226
Pos[221] = 173
Pos[222] = 164
Pos[223] = 180
Pos[224] = 182
Pos[225] = 233
Pos[226] = 234
Pos[227] = 201
Pos[228] = 203
Pos[229] = 25
Pos[230] = 95
Pos[231] = 68
Pos[232] = 93
Pos[233] = 190
Pos[234] = 115
Pos[235] = 137
Pos[236] = 158
Pos[237] = 172
Pos[238] = 194
Pos[239] = 227
Pos[240] = 211
Pos[241] = 112
Pos[242] = 217
Pos[243] = 29
Pos[244] = 149
Pos[245] = 196
Pos[246] = 229
Pos[247] = 5
Pos[248] = 62
Pos[249] = 124
Enbr = 27984
start search
improving solution size 1
improving solution size 2
improving solution size 3
improving solution size 4
improving solution size 5
improving solution size 6
improving solution size 7
improving solution size 8
improving solution size 9
improving solution size 10
improving solution size 11
improving solution size 12
improving solution size 13
improving solution size 14
improving solution size 15
improving solution size 16
improving solution size 17
improving solution size 18
improving solution size 19
improving solution size 20
improving solution size 21
improving solution size 22
improving solution size 23
improving solution size 24
improving solution size 25
improving solution size 26
improving solution size 27
improving solution size 28
improving solution size 29
improving solution size 30
improving solution size 31
improving solution size 32
improving solution size 33
improving solution size 34
improving solution size 35
improving solution size 36
improving solution size 37
improving solution size 38
improving solution size 39
improving solution size 40
improving solution size 41
improving solution size 42
improving solution size 43
improving solution size 44
improving solution size 45
improving solution size 46
improving solution size 47
improving solution size 48
improving solution size 49
improving solution size 50
improving solution size 51
improving solution size 52
improving solution size 53
improving solution size 54
improving solution size 55
improving solution size 56
improving solution size 57
TIMEOUT
best clique: 125 63 6 230 197 150 30 218 113 212 228 195 173 159 138 116 94 96 26 202 235 234 183 165 65 66 131 29 201 8 87 41 248 180 58 153 238 206 245 196 115 189 100 111 77 106 46 114 184 222 244 162 48 176 37 243 3 
record          =          57
subp            =  2898116221
time            =  3600.00092
