timeout 3600 s
Graph with 64 vertices and 704 edges density 0.349206
start search
improving solution size 1
improving solution size 2
improving solution size 3
improving solution size 4
improving solution size 5
improving solution size 6
improving solution size 7
improving solution size 8
best clique: 63 62 61 60 59 58 57 56 
record          =           8
subp            =      111560
time            =     0.05404
