timeout 3600 s
Graph with 1024 vertices and 518656 edges density 0.990225
start search
improving solution size 1
improving solution size 2
improving solution size 3
improving solution size 4
improving solution size 5
improving solution size 6
improving solution size 7
improving solution size 8
improving solution size 9
improving solution size 10
improving solution size 11
improving solution size 12
improving solution size 13
improving solution size 14
improving solution size 15
improving solution size 16
improving solution size 17
improving solution size 18
improving solution size 19
improving solution size 20
improving solution size 21
improving solution size 22
improving solution size 23
improving solution size 24
improving solution size 25
improving solution size 26
improving solution size 27
improving solution size 28
improving solution size 29
improving solution size 30
improving solution size 31
improving solution size 32
improving solution size 33
improving solution size 34
improving solution size 35
improving solution size 36
improving solution size 37
improving solution size 38
improving solution size 39
improving solution size 40
improving solution size 41
improving solution size 42
improving solution size 43
improving solution size 44
improving solution size 45
improving solution size 46
improving solution size 47
improving solution size 48
improving solution size 49
improving solution size 50
improving solution size 51
improving solution size 52
improving solution size 53
improving solution size 54
improving solution size 55
improving solution size 56
improving solution size 57
improving solution size 58
improving solution size 59
improving solution size 60
improving solution size 61
improving solution size 62
improving solution size 63
improving solution size 64
improving solution size 65
improving solution size 66
improving solution size 67
improving solution size 68
improving solution size 69
improving solution size 70
improving solution size 71
improving solution size 72
improving solution size 73
improving solution size 74
improving solution size 75
improving solution size 76
improving solution size 77
improving solution size 78
improving solution size 79
improving solution size 80
improving solution size 81
improving solution size 82
improving solution size 83
improving solution size 84
improving solution size 85
improving solution size 86
improving solution size 87
improving solution size 88
improving solution size 89
improving solution size 90
improving solution size 91
improving solution size 92
improving solution size 93
improving solution size 94
improving solution size 95
improving solution size 96
improving solution size 97
improving solution size 98
improving solution size 99
improving solution size 100
improving solution size 101
improving solution size 102
improving solution size 103
improving solution size 104
improving solution size 105
improving solution size 106
improving solution size 107
improving solution size 108
improving solution size 109
improving solution size 110
improving solution size 111
improving solution size 112
improving solution size 113
improving solution size 114
improving solution size 115
improving solution size 116
improving solution size 117
improving solution size 118
improving solution size 119
improving solution size 120
improving solution size 121
improving solution size 122
improving solution size 123
improving solution size 124
improving solution size 125
improving solution size 126
improving solution size 127
improving solution size 128
improving solution size 129
improving solution size 130
improving solution size 131
improving solution size 132
improving solution size 133
improving solution size 134
improving solution size 135
improving solution size 136
improving solution size 137
improving solution size 138
improving solution size 139
improving solution size 140
improving solution size 141
improving solution size 142
improving solution size 143
improving solution size 144
improving solution size 145
improving solution size 146
improving solution size 147
improving solution size 148
improving solution size 149
improving solution size 150
improving solution size 151
improving solution size 152
improving solution size 153
improving solution size 154
improving solution size 155
improving solution size 156
improving solution size 157
improving solution size 158
improving solution size 159
improving solution size 160
improving solution size 161
improving solution size 162
improving solution size 163
improving solution size 164
improving solution size 165
improving solution size 166
improving solution size 167
improving solution size 168
improving solution size 169
improving solution size 170
improving solution size 171
improving solution size 172
improving solution size 173
improving solution size 174
improving solution size 175
improving solution size 176
improving solution size 177
improving solution size 178
improving solution size 179
improving solution size 180
improving solution size 181
improving solution size 182
improving solution size 183
improving solution size 184
improving solution size 185
improving solution size 186
improving solution size 187
improving solution size 188
improving solution size 189
improving solution size 190
improving solution size 191
improving solution size 192
improving solution size 193
improving solution size 194
improving solution size 195
improving solution size 196
improving solution size 197
improving solution size 198
improving solution size 199
improving solution size 200
improving solution size 201
improving solution size 202
improving solution size 203
improving solution size 204
improving solution size 205
improving solution size 206
improving solution size 207
improving solution size 208
improving solution size 209
improving solution size 210
improving solution size 211
improving solution size 212
improving solution size 213
improving solution size 214
improving solution size 215
improving solution size 216
improving solution size 217
improving solution size 218
improving solution size 219
improving solution size 220
improving solution size 221
improving solution size 222
improving solution size 223
improving solution size 224
improving solution size 225
improving solution size 226
improving solution size 227
improving solution size 228
improving solution size 229
improving solution size 230
improving solution size 231
improving solution size 232
improving solution size 233
improving solution size 234
improving solution size 235
improving solution size 236
improving solution size 237
improving solution size 238
improving solution size 239
improving solution size 240
improving solution size 241
improving solution size 242
improving solution size 243
improving solution size 244
improving solution size 245
improving solution size 246
improving solution size 247
improving solution size 248
improving solution size 249
improving solution size 250
improving solution size 251
improving solution size 252
improving solution size 253
improving solution size 254
improving solution size 255
improving solution size 256
improving solution size 257
improving solution size 258
improving solution size 259
improving solution size 260
improving solution size 261
improving solution size 262
improving solution size 263
improving solution size 264
improving solution size 265
improving solution size 266
improving solution size 267
improving solution size 268
improving solution size 269
improving solution size 270
improving solution size 271
improving solution size 272
improving solution size 273
improving solution size 274
improving solution size 275
improving solution size 276
improving solution size 277
improving solution size 278
improving solution size 279
improving solution size 280
improving solution size 281
improving solution size 282
improving solution size 283
improving solution size 284
improving solution size 285
improving solution size 286
improving solution size 287
improving solution size 288
improving solution size 289
improving solution size 290
improving solution size 291
improving solution size 292
improving solution size 293
improving solution size 294
improving solution size 295
improving solution size 296
improving solution size 297
improving solution size 298
improving solution size 299
improving solution size 300
improving solution size 301
improving solution size 302
improving solution size 303
improving solution size 304
improving solution size 305
improving solution size 306
improving solution size 307
improving solution size 308
improving solution size 309
improving solution size 310
improving solution size 311
improving solution size 312
improving solution size 313
improving solution size 314
improving solution size 315
improving solution size 316
improving solution size 317
improving solution size 318
improving solution size 319
improving solution size 320
improving solution size 321
improving solution size 322
improving solution size 323
improving solution size 324
improving solution size 325
improving solution size 326
improving solution size 327
improving solution size 328
improving solution size 329
improving solution size 330
improving solution size 331
improving solution size 332
improving solution size 333
improving solution size 334
improving solution size 335
improving solution size 336
improving solution size 337
improving solution size 338
improving solution size 339
improving solution size 340
improving solution size 341
improving solution size 342
improving solution size 343
improving solution size 344
improving solution size 345
improving solution size 346
improving solution size 347
improving solution size 348
improving solution size 349
improving solution size 350
improving solution size 351
improving solution size 352
improving solution size 353
improving solution size 354
improving solution size 355
improving solution size 356
improving solution size 357
improving solution size 358
improving solution size 359
improving solution size 360
improving solution size 361
improving solution size 362
improving solution size 363
improving solution size 364
improving solution size 365
improving solution size 366
improving solution size 367
improving solution size 368
improving solution size 369
improving solution size 370
improving solution size 371
improving solution size 372
improving solution size 373
improving solution size 374
improving solution size 375
improving solution size 376
improving solution size 377
improving solution size 378
improving solution size 379
improving solution size 380
improving solution size 381
improving solution size 382
improving solution size 383
improving solution size 384
improving solution size 385
improving solution size 386
improving solution size 387
improving solution size 388
improving solution size 389
improving solution size 390
improving solution size 391
improving solution size 392
improving solution size 393
improving solution size 394
improving solution size 395
improving solution size 396
improving solution size 397
improving solution size 398
improving solution size 399
improving solution size 400
improving solution size 401
improving solution size 402
improving solution size 403
improving solution size 404
improving solution size 405
improving solution size 406
improving solution size 407
improving solution size 408
improving solution size 409
improving solution size 410
improving solution size 411
improving solution size 412
improving solution size 413
improving solution size 414
improving solution size 415
improving solution size 416
improving solution size 417
improving solution size 418
improving solution size 419
improving solution size 420
improving solution size 421
improving solution size 422
improving solution size 423
improving solution size 424
improving solution size 425
improving solution size 426
improving solution size 427
improving solution size 428
improving solution size 429
improving solution size 430
improving solution size 431
improving solution size 432
improving solution size 433
improving solution size 434
improving solution size 435
improving solution size 436
improving solution size 437
improving solution size 438
improving solution size 439
improving solution size 440
improving solution size 441
improving solution size 442
improving solution size 443
improving solution size 444
improving solution size 445
improving solution size 446
improving solution size 447
improving solution size 448
improving solution size 449
improving solution size 450
improving solution size 451
improving solution size 452
improving solution size 453
improving solution size 454
improving solution size 455
improving solution size 456
improving solution size 457
improving solution size 458
improving solution size 459
improving solution size 460
improving solution size 461
improving solution size 462
improving solution size 463
improving solution size 464
improving solution size 465
improving solution size 466
improving solution size 467
improving solution size 468
improving solution size 469
improving solution size 470
improving solution size 471
improving solution size 472
improving solution size 473
improving solution size 474
improving solution size 475
improving solution size 476
improving solution size 477
improving solution size 478
improving solution size 479
improving solution size 480
improving solution size 481
improving solution size 482
improving solution size 483
improving solution size 484
improving solution size 485
improving solution size 486
improving solution size 487
improving solution size 488
improving solution size 489
improving solution size 490
improving solution size 491
improving solution size 492
improving solution size 493
improving solution size 494
improving solution size 495
improving solution size 496
improving solution size 497
improving solution size 498
improving solution size 499
improving solution size 500
improving solution size 501
improving solution size 502
improving solution size 503
improving solution size 504
improving solution size 505
improving solution size 506
improving solution size 507
improving solution size 508
improving solution size 509
improving solution size 510
improving solution size 511
improving solution size 512
TIMEOUT
best clique: 1023 1022 1021 1020 1019 1018 1017 1016 1015 1014 1013 1012 1011 1010 1009 1008 1007 1006 1005 1004 1003 1002 1001 1000 999 998 997 996 995 994 993 992 991 990 989 988 987 986 985 984 983 982 981 980 979 978 977 976 975 974 973 972 971 970 969 968 967 966 965 964 963 962 961 960 959 958 957 956 955 954 953 952 951 950 949 948 947 946 945 944 943 942 941 940 939 938 937 936 935 934 933 932 931 930 929 928 927 926 925 924 923 922 921 920 919 918 917 916 915 914 913 912 911 910 909 908 907 906 905 904 903 902 901 900 899 898 897 896 895 894 893 892 891 890 889 888 887 886 885 884 883 882 881 880 879 878 877 876 875 874 873 872 871 870 869 868 867 866 865 864 863 862 861 860 859 858 857 856 855 854 853 852 851 850 849 848 847 846 845 844 843 842 841 840 839 838 837 836 835 834 833 832 831 830 829 828 827 826 825 824 823 822 821 820 819 818 817 816 815 814 813 812 811 810 809 808 807 806 805 804 803 802 801 800 799 798 797 796 795 794 793 792 791 790 789 788 787 786 785 784 783 782 781 780 779 778 777 776 775 774 773 772 771 770 769 768 767 766 765 764 763 762 761 760 759 758 757 756 755 754 753 752 751 750 749 748 747 746 745 744 743 742 741 740 739 738 737 736 735 734 733 732 731 730 729 728 727 726 725 724 723 722 721 720 719 718 717 716 715 714 713 712 711 710 709 708 707 706 705 704 703 702 701 700 699 698 697 696 695 694 693 692 691 690 689 688 687 686 685 684 683 682 681 680 679 678 677 676 675 674 673 672 671 670 669 668 667 666 665 664 663 662 661 660 659 658 657 656 655 654 653 652 651 650 649 648 647 646 645 644 643 642 641 640 639 638 637 636 635 634 633 632 631 630 629 628 627 626 625 624 623 622 621 620 619 618 617 616 615 614 613 612 611 610 609 608 607 606 605 604 603 602 601 600 599 598 597 596 595 594 593 592 591 590 589 588 587 586 585 584 583 582 581 580 579 578 577 576 575 574 573 572 571 570 569 568 567 566 565 564 563 562 561 560 559 558 557 556 555 554 553 552 551 550 549 548 547 546 545 544 543 542 541 540 539 538 537 536 535 534 533 532 531 530 529 528 527 526 525 524 523 522 521 520 519 518 517 516 515 514 513 512 
record          =         512
subp            =   999864866
time            =  3600.00230
