timeout 3600 s
Graph with 70 vertices and 1855 edges density 0.768116
start search
improving solution size 1
improving solution size 2
improving solution size 3
improving solution size 4
improving solution size 5
improving solution size 6
improving solution size 7
improving solution size 8
improving solution size 9
improving solution size 10
improving solution size 11
improving solution size 12
improving solution size 13
improving solution size 14
improving solution size 15
improving solution size 16
improving solution size 17
improving solution size 18
best clique: 69 68 67 66 65 64 62 60 59 56 53 48 35 33 14 13 10 9 
record          =          18
subp            =  1183444499
time            =   586.60776
