timeout 3600 s
Graph with 28 vertices and 210 edges density 0.555556
start search
improving solution size 1
improving solution size 2
improving solution size 3
improving solution size 4
improving solution size 5
improving solution size 6
improving solution size 7
improving solution size 8
best clique: 27 26 25 24 23 22 21 20 
record          =           8
subp            =       11469
time            =     0.00360
