timeout 3600 s
Graph with 45 vertices and 918 edges density 0.927273
t = 1836, Enbr = 918
é k-Plex
lBound1 = 36
é k-Plex
lBound2 = 36
start search
best clique: 45 44 43 42 41 40 37 39 38 12 11 10 36 35 34 24 23 22 17 18 16 30 29 28 31 33 32 27 26 25 21 19 20 15 14 13 
record          =          36
subp            =      582554
time            =     0.47416
