timeout 3600 s
Graph with 500 vertices and 93800 edges density 0.751904
start search
improving solution size 1
improving solution size 2
improving solution size 3
improving solution size 4
improving solution size 5
improving solution size 6
improving solution size 7
improving solution size 8
improving solution size 9
improving solution size 10
improving solution size 11
improving solution size 12
improving solution size 13
improving solution size 14
improving solution size 15
improving solution size 16
improving solution size 17
improving solution size 18
improving solution size 19
improving solution size 20
improving solution size 21
improving solution size 22
improving solution size 23
improving solution size 24
improving solution size 25
improving solution size 26
improving solution size 27
improving solution size 28
improving solution size 29
improving solution size 30
improving solution size 31
improving solution size 32
improving solution size 33
improving solution size 34
improving solution size 35
improving solution size 36
improving solution size 37
improving solution size 38
TIMEOUT
best clique: 499 498 497 496 494 460 363 238 231 182 147 122 112 97 93 85 79 76 74 68 63 45 44 42 39 64 37 36 113 27 25 24 15 78 14 13 11 0 
record          =          38
subp            =  4589431847
time            =  3600.00018
