timeout 3600 s
Graph with 500 vertices and 62946 edges density 0.504577
start search
improving solution size 1
improving solution size 2
improving solution size 3
improving solution size 4
improving solution size 5
improving solution size 6
improving solution size 7
improving solution size 8
improving solution size 9
improving solution size 10
improving solution size 11
improving solution size 12
improving solution size 13
improving solution size 14
improving solution size 15
improving solution size 16
improving solution size 17
improving solution size 18
improving solution size 19
improving solution size 20
improving solution size 21
improving solution size 22
improving solution size 23
improving solution size 24
improving solution size 25
improving solution size 26
improving solution size 27
TIMEOUT
best clique: 499 486 175 131 119 109 130 89 86 80 94 64 66 56 54 46 36 35 31 44 16 82 14 49 8 58 1 
record          =          27
subp            =  5644127489
time            =  3600.00014
