timeout 3600 s
Graph with 300 vertices and 33390 edges density 0.744482
start search
improving solution size 1
improving solution size 2
improving solution size 3
improving solution size 4
improving solution size 5
improving solution size 6
improving solution size 7
improving solution size 8
improving solution size 9
improving solution size 10
improving solution size 11
improving solution size 12
improving solution size 13
improving solution size 14
improving solution size 15
improving solution size 16
improving solution size 17
improving solution size 18
improving solution size 19
improving solution size 20
improving solution size 21
improving solution size 22
improving solution size 23
improving solution size 24
improving solution size 25
improving solution size 26
improving solution size 27
improving solution size 28
improving solution size 29
improving solution size 30
improving solution size 31
improving solution size 32
improving solution size 33
improving solution size 34
TIMEOUT
best clique: 299 298 297 238 202 136 95 94 92 89 71 69 60 59 56 54 45 38 36 31 28 27 26 50 24 19 63 18 15 10 9 7 1 0 
record          =          34
subp            =  4812238431
time            =  3600.00000
