timeout 3600 s
Graph with 1500 vertices and 284923 edges density 0.253434
start search
improving solution size 1
improving solution size 2
improving solution size 3
improving solution size 4
improving solution size 5
improving solution size 6
improving solution size 7
improving solution size 8
improving solution size 9
improving solution size 10
improving solution size 11
improving solution size 12
improving solution size 13
improving solution size 14
TIMEOUT
best clique: 1498 981 600 248 534 247 237 220 205 83 84 67 60 58 
record          =          14
subp            =  3480698221
time            =  3600.00020
