timeout 3600 s
Graph with 300 vertices and 21928 edges density 0.488919
start search
improving solution size 1
improving solution size 2
improving solution size 3
improving solution size 4
improving solution size 5
improving solution size 6
improving solution size 7
improving solution size 8
improving solution size 9
improving solution size 10
improving solution size 11
improving solution size 12
improving solution size 13
improving solution size 14
improving solution size 15
improving solution size 16
improving solution size 17
improving solution size 18
improving solution size 19
improving solution size 20
improving solution size 21
improving solution size 22
improving solution size 23
improving solution size 24
improving solution size 25
improving solution size 26
TIMEOUT
best clique: 299 173 72 69 70 64 55 47 43 40 36 33 29 27 25 23 21 20 14 12 9 8 7 37 6 31 
record          =          26
subp            =  5302604307
time            =  3600.00017
