timeout 3600 s
Graph with 300 vertices and 10933 edges density 0.243768
start search
improving solution size 1
improving solution size 2
improving solution size 3
improving solution size 4
improving solution size 5
improving solution size 6
improving solution size 7
improving solution size 8
improving solution size 9
improving solution size 10
improving solution size 11
improving solution size 12
best clique: 209 72 29 33 18 17 14 10 13 9 7 4 
record          =          12
subp            =   119056464
time            =    84.47807
