timeout 3600 s
Graph with 400 vertices and 39900 edges density 0.500000
start search
improving solution size 1
improving solution size 2
improving solution size 3
improving solution size 4
improving solution size 5
improving solution size 6
improving solution size 7
improving solution size 8
improving solution size 9
improving solution size 10
improving solution size 11
improving solution size 12
improving solution size 13
improving solution size 14
improving solution size 15
improving solution size 16
improving solution size 17
improving solution size 18
TIMEOUT
best clique: 399 398 397 396 395 394 393 392 391 390 389 388 387 386 385 384 382 380 
record          =          18
subp            =  3036997964
time            =  3600.00031
