timeout 3600 s
Graph with 400 vertices and 55869 edges density 0.700113
start search
improving solution size 1
improving solution size 2
improving solution size 3
improving solution size 4
improving solution size 5
improving solution size 6
improving solution size 7
improving solution size 8
improving solution size 9
improving solution size 10
improving solution size 11
improving solution size 12
improving solution size 13
improving solution size 14
improving solution size 15
improving solution size 16
improving solution size 17
improving solution size 18
improving solution size 19
improving solution size 20
improving solution size 21
improving solution size 22
improving solution size 23
improving solution size 24
improving solution size 25
TIMEOUT
best clique: 399 398 397 396 351 346 339 280 266 262 259 257 231 224 222 221 206 183 177 95 152 80 75 63 85 
record          =          25
subp            =  4751245499
time            =  3600.00010
