timeout 3600 s
Graph with 200 vertices and 13868 edges density 0.696884
start search
improving solution size 1
improving solution size 2
improving solution size 3
improving solution size 4
improving solution size 5
improving solution size 6
improving solution size 7
improving solution size 8
improving solution size 9
improving solution size 10
improving solution size 11
improving solution size 12
improving solution size 13
improving solution size 14
improving solution size 15
improving solution size 16
improving solution size 17
improving solution size 18
improving solution size 19
improving solution size 20
improving solution size 21
improving solution size 22
TIMEOUT
best clique: 199 198 197 181 164 148 147 141 137 124 103 94 76 68 43 32 26 18 17 61 9 0 
record          =          22
subp            =  5687891209
time            =  3600.00009
