timeout 3600 s
Graph with 200 vertices and 9876 edges density 0.496281
t = 19752, Enbr = 9876
pos[199] = 139 degree 78
pos[198] = 19 degree 80
pos[197] = 97 degree 81
pos[196] = 98 degree 82
pos[195] = 192 degree 82
pos[194] = 63 degree 84
pos[193] = 187 degree 84
pos[192] = 134 degree 84
pos[191] = 125 degree 84
pos[190] = 0 degree 83
pos[189] = 100 degree 84
pos[188] = 65 degree 83
pos[187] = 26 degree 83
pos[186] = 152 degree 83
pos[185] = 121 degree 83
pos[184] = 38 degree 83
pos[183] = 113 degree 83
pos[182] = 92 degree 82
pos[181] = 198 degree 82
pos[180] = 159 degree 82
pos[179] = 61 degree 81
pos[178] = 123 degree 81
pos[177] = 94 degree 80
pos[176] = 110 degree 80
pos[175] = 54 degree 79
pos[174] = 132 degree 79
pos[173] = 2 degree 79
pos[172] = 127 degree 79
pos[171] = 77 degree 78
pos[170] = 122 degree 78
pos[169] = 161 degree 78
pos[168] = 73 degree 77
pos[167] = 103 degree 77
pos[166] = 29 degree 77
pos[165] = 4 degree 76
pos[164] = 118 degree 76
pos[163] = 141 degree 76
pos[162] = 78 degree 76
pos[161] = 39 degree 75
pos[160] = 32 degree 74
pos[159] = 17 degree 75
pos[158] = 195 degree 75
pos[157] = 104 degree 75
pos[156] = 76 degree 74
pos[155] = 41 degree 74
pos[154] = 18 degree 73
pos[153] = 42 degree 73
pos[152] = 186 degree 73
pos[151] = 183 degree 73
pos[150] = 102 degree 72
pos[149] = 148 degree 72
pos[148] = 52 degree 71
pos[147] = 167 degree 72
pos[146] = 16 degree 71
pos[145] = 197 degree 72
pos[144] = 144 degree 71
pos[143] = 189 degree 71
pos[142] = 166 degree 70
pos[141] = 90 degree 69
pos[140] = 1 degree 68
pos[139] = 120 degree 68
pos[138] = 145 degree 68
pos[137] = 66 degree 67
pos[136] = 11 degree 66
pos[135] = 25 degree 66
pos[134] = 96 degree 66
pos[133] = 49 degree 65
pos[132] = 106 degree 65
pos[131] = 173 degree 65
pos[130] = 95 degree 65
pos[129] = 88 degree 64
pos[128] = 74 degree 64
pos[127] = 143 degree 64
pos[126] = 3 degree 63
pos[125] = 179 degree 63
pos[124] = 176 degree 62
pos[123] = 175 degree 61
pos[122] = 109 degree 60
pos[121] = 51 degree 60
pos[120] = 50 degree 60
pos[119] = 149 degree 61
pos[118] = 79 degree 60
pos[117] = 174 degree 60
pos[116] = 172 degree 60
pos[115] = 150 degree 59
pos[114] = 24 degree 58
pos[113] = 153 degree 58
pos[112] = 129 degree 58
pos[111] = 81 degree 57
pos[110] = 126 degree 57
pos[109] = 62 degree 56
pos[108] = 20 degree 55
pos[107] = 163 degree 55
pos[106] = 119 degree 54
pos[105] = 156 degree 54
pos[104] = 47 degree 53
pos[103] = 162 degree 53
pos[102] = 193 degree 53
pos[101] = 105 degree 52
pos[100] = 13 degree 52
pos[99] = 191 degree 52
pos[98] = 80 degree 51
pos[97] = 5 degree 50
pos[96] = 196 degree 50
pos[95] = 138 degree 50
pos[94] = 56 degree 49
pos[93] = 181 degree 49
pos[92] = 70 degree 49
pos[91] = 10 degree 48
pos[90] = 136 degree 48
pos[89] = 67 degree 47
pos[88] = 64 degree 47
pos[87] = 147 degree 47
pos[86] = 137 degree 46
pos[85] = 83 degree 45
pos[84] = 135 degree 45
pos[83] = 84 degree 44
pos[82] = 142 degree 44
pos[81] = 114 degree 44
pos[80] = 170 degree 44
pos[79] = 146 degree 43
pos[78] = 128 degree 42
pos[77] = 36 degree 41
pos[76] = 140 degree 41
pos[75] = 194 degree 41
pos[74] = 116 degree 41
pos[73] = 53 degree 40
pos[72] = 22 degree 39
pos[71] = 131 degree 39
pos[70] = 130 degree 39
pos[69] = 31 degree 38
pos[68] = 8 degree 37
pos[67] = 91 degree 37
pos[66] = 34 degree 36
pos[65] = 28 degree 36
pos[64] = 188 degree 36
pos[63] = 158 degree 35
pos[62] = 89 degree 35
pos[61] = 35 degree 34
pos[60] = 124 degree 34
pos[59] = 184 degree 34
pos[58] = 99 degree 33
pos[57] = 111 degree 33
pos[56] = 71 degree 32
pos[55] = 69 degree 31
pos[54] = 45 degree 31
pos[53] = 87 degree 31
pos[52] = 60 degree 30
pos[51] = 112 degree 30
pos[50] = 12 degree 29
pos[49] = 190 degree 29
pos[48] = 7 degree 28
pos[47] = 168 degree 28
pos[46] = 86 degree 27
pos[45] = 21 degree 26
pos[44] = 59 degree 26
pos[43] = 55 degree 25
pos[42] = 178 degree 25
pos[41] = 82 degree 24
pos[40] = 27 degree 23
pos[39] = 46 degree 23
pos[38] = 165 degree 24
pos[37] = 157 degree 23
pos[36] = 107 degree 22
pos[35] = 171 degree 22
pos[34] = 40 degree 21
pos[33] = 182 degree 21
pos[32] = 199 degree 21
pos[31] = 177 degree 20
pos[30] = 101 degree 19
pos[29] = 164 degree 19
pos[28] = 160 degree 18
pos[27] = 169 degree 18
pos[26] = 57 degree 17
pos[25] = 33 degree 16
pos[24] = 14 degree 15
pos[23] = 75 degree 15
pos[22] = 155 degree 15
pos[21] = 43 degree 14
pos[20] = 68 degree 14
pos[19] = 58 degree 13
pos[18] = 154 degree 14
pos[17] = 117 degree 13
pos[16] = 23 degree 12
pos[15] = 180 degree 12
pos[14] = 151 degree 11
pos[13] = 115 degree 10
pos[12] = 37 degree 9
pos[11] = 93 degree 9
pos[10] = 6 degree 8
pos[9] = 133 degree 8
pos[8] = 15 degree 7
pos[7] = 185 degree 7
pos[6] = 108 degree 6
pos[5] = 85 degree 5
pos[4] = 72 degree 4
pos[3] = 48 degree 3
pos[2] = 44 degree 2
pos[1] = 30 degree 1
pos[0] = 9 degree 0
start search
improving solution size 11
improving solution size 12
improving solution size 13
best clique: 10 31 73 152 155 200 118 191 182 131 181 170 94 
record          =          13
subp            =    13653242
time            =    10.72209
