timeout 3600 s
Graph with 400 vertices and 59765 edges density 0.748935
t = 119530, Enbr = 59765
pos[399] = 128 degree 275
pos[398] = 239 degree 277
pos[397] = 306 degree 277
pos[396] = 132 degree 277
pos[395] = 116 degree 276
pos[394] = 221 degree 277
pos[393] = 280 degree 277
pos[392] = 63 degree 276
pos[391] = 83 degree 276
pos[390] = 324 degree 276
pos[389] = 59 degree 275
pos[388] = 267 degree 275
pos[387] = 160 degree 275
pos[386] = 110 degree 274
pos[385] = 65 degree 273
pos[384] = 183 degree 274
pos[383] = 33 degree 273
pos[382] = 395 degree 273
pos[381] = 203 degree 272
pos[380] = 187 degree 271
pos[379] = 146 degree 270
pos[378] = 47 degree 270
pos[377] = 342 degree 270
pos[376] = 92 degree 269
pos[375] = 30 degree 268
pos[374] = 296 degree 269
pos[373] = 77 degree 268
pos[372] = 42 degree 267
pos[371] = 385 degree 268
pos[370] = 284 degree 267
pos[369] = 376 degree 267
pos[368] = 225 degree 266
pos[367] = 24 degree 265
pos[366] = 15 degree 264
pos[365] = 147 degree 264
pos[364] = 126 degree 263
pos[363] = 109 degree 262
pos[362] = 269 degree 262
pos[361] = 222 degree 262
pos[360] = 220 degree 261
pos[359] = 172 degree 260
pos[358] = 381 degree 260
pos[357] = 155 degree 259
pos[356] = 111 degree 258
pos[355] = 79 degree 257
pos[354] = 265 degree 257
pos[353] = 171 degree 256
pos[352] = 23 degree 255
pos[351] = 243 degree 255
pos[350] = 191 degree 255
pos[349] = 140 degree 254
pos[348] = 34 degree 253
pos[347] = 361 degree 253
pos[346] = 49 degree 252
pos[345] = 40 degree 251
pos[344] = 304 degree 251
pos[343] = 245 degree 250
pos[342] = 89 degree 249
pos[341] = 35 degree 248
pos[340] = 58 degree 248
pos[339] = 396 degree 248
pos[338] = 394 degree 247
pos[337] = 230 degree 246
pos[336] = 380 degree 246
pos[335] = 369 degree 245
pos[334] = 332 degree 244
pos[333] = 176 degree 243
pos[332] = 329 degree 243
pos[331] = 305 degree 242
pos[330] = 189 degree 241
pos[329] = 124 degree 240
pos[328] = 26 degree 239
pos[327] = 3 degree 238
pos[326] = 232 degree 238
pos[325] = 354 degree 239
pos[324] = 350 degree 238
pos[323] = 349 degree 237
pos[322] = 202 degree 236
pos[321] = 80 degree 235
pos[320] = 14 degree 234
pos[319] = 212 degree 234
pos[318] = 211 degree 233
pos[317] = 43 degree 232
pos[316] = 250 degree 232
pos[315] = 207 degree 231
pos[314] = 38 degree 230
pos[313] = 5 degree 229
pos[312] = 112 degree 229
pos[311] = 258 degree 229
pos[310] = 173 degree 228
pos[309] = 97 degree 227
pos[308] = 93 degree 226
pos[307] = 197 degree 226
pos[306] = 397 degree 226
pos[305] = 366 degree 225
pos[304] = 330 degree 224
pos[303] = 156 degree 223
pos[302] = 85 degree 222
pos[301] = 271 degree 222
pos[300] = 392 degree 222
pos[299] = 346 degree 221
pos[298] = 234 degree 220
pos[297] = 204 degree 219
pos[296] = 182 degree 218
pos[295] = 285 degree 218
pos[294] = 194 degree 217
pos[293] = 151 degree 216
pos[292] = 87 degree 215
pos[291] = 61 degree 215
pos[290] = 167 degree 215
pos[289] = 81 degree 214
pos[288] = 357 degree 214
pos[287] = 333 degree 214
pos[286] = 217 degree 213
pos[285] = 16 degree 212
pos[284] = 2 degree 211
pos[283] = 210 degree 211
pos[282] = 121 degree 210
pos[281] = 69 degree 209
pos[280] = 358 degree 209
pos[279] = 323 degree 208
pos[278] = 260 degree 207
pos[277] = 145 degree 206
pos[276] = 139 degree 205
pos[275] = 115 degree 204
pos[274] = 106 degree 203
pos[273] = 134 degree 203
pos[272] = 53 degree 202
pos[271] = 298 degree 202
pos[270] = 201 degree 201
pos[269] = 196 degree 200
pos[268] = 367 degree 200
pos[267] = 129 degree 199
pos[266] = 107 degree 198
pos[265] = 99 degree 197
pos[264] = 311 degree 197
pos[263] = 240 degree 196
pos[262] = 393 degree 196
pos[261] = 360 degree 195
pos[260] = 344 degree 194
pos[259] = 101 degree 193
pos[258] = 379 degree 193
pos[257] = 321 degree 192
pos[256] = 56 degree 191
pos[255] = 362 degree 191
pos[254] = 259 degree 190
pos[253] = 168 degree 189
pos[252] = 125 degree 188
pos[251] = 28 degree 187
pos[250] = 133 degree 187
pos[249] = 389 degree 187
pos[248] = 293 degree 186
pos[247] = 233 degree 185
pos[246] = 223 degree 184
pos[245] = 102 degree 183
pos[244] = 8 degree 182
pos[243] = 289 degree 182
pos[242] = 281 degree 181
pos[241] = 206 degree 180
pos[240] = 399 degree 181
pos[239] = 327 degree 180
pos[238] = 270 degree 179
pos[237] = 261 degree 178
pos[236] = 348 degree 178
pos[235] = 328 degree 177
pos[234] = 325 degree 176
pos[233] = 352 degree 176
pos[232] = 317 degree 175
pos[231] = 159 degree 174
pos[230] = 94 degree 173
pos[229] = 365 degree 173
pos[228] = 326 degree 172
pos[227] = 310 degree 171
pos[226] = 302 degree 170
pos[225] = 359 degree 170
pos[224] = 318 degree 169
pos[223] = 254 degree 169
pos[222] = 138 degree 168
pos[221] = 122 degree 167
pos[220] = 303 degree 167
pos[219] = 190 degree 166
pos[218] = 84 degree 165
pos[217] = 345 degree 165
pos[216] = 297 degree 164
pos[215] = 213 degree 163
pos[214] = 123 degree 162
pos[213] = 57 degree 161
pos[212] = 46 degree 160
pos[211] = 256 degree 160
pos[210] = 74 degree 159
pos[209] = 391 degree 159
pos[208] = 231 degree 158
pos[207] = 154 degree 157
pos[206] = 292 degree 157
pos[205] = 238 degree 156
pos[204] = 181 degree 155
pos[203] = 158 degree 154
pos[202] = 200 degree 154
pos[201] = 178 degree 153
pos[200] = 347 degree 153
pos[199] = 331 degree 152
pos[198] = 277 degree 151
pos[197] = 198 degree 150
pos[196] = 163 degree 149
pos[195] = 374 degree 149
pos[194] = 341 degree 148
pos[193] = 351 degree 148
pos[192] = 253 degree 147
pos[191] = 130 degree 146
pos[190] = 78 degree 145
pos[189] = 20 degree 144
pos[188] = 300 degree 144
pos[187] = 229 degree 143
pos[186] = 142 degree 142
pos[185] = 60 degree 141
pos[184] = 31 degree 140
pos[183] = 174 degree 140
pos[182] = 113 degree 139
pos[181] = 95 degree 138
pos[180] = 276 degree 138
pos[179] = 244 degree 138
pos[178] = 150 degree 137
pos[177] = 21 degree 136
pos[176] = 339 degree 136
pos[175] = 242 degree 135
pos[174] = 143 degree 134
pos[173] = 363 degree 134
pos[172] = 91 degree 133
pos[171] = 11 degree 132
pos[170] = 279 degree 132
pos[169] = 249 degree 131
pos[168] = 136 degree 130
pos[167] = 127 degree 129
pos[166] = 66 degree 128
pos[165] = 48 degree 127
pos[164] = 10 degree 127
pos[163] = 383 degree 127
pos[162] = 275 degree 126
pos[161] = 247 degree 125
pos[160] = 149 degree 124
pos[159] = 137 degree 123
pos[158] = 4 degree 122
pos[157] = 162 degree 122
pos[156] = 75 degree 121
pos[155] = 52 degree 120
pos[154] = 336 degree 120
pos[153] = 266 degree 119
pos[152] = 104 degree 118
pos[151] = 388 degree 118
pos[150] = 370 degree 117
pos[149] = 224 degree 116
pos[148] = 37 degree 115
pos[147] = 36 degree 114
pos[146] = 144 degree 114
pos[145] = 27 degree 113
pos[144] = 387 degree 113
pos[143] = 263 degree 112
pos[142] = 166 degree 111
pos[141] = 17 degree 110
pos[140] = 372 degree 110
pos[139] = 141 degree 109
pos[138] = 18 degree 108
pos[137] = 248 degree 108
pos[136] = 368 degree 108
pos[135] = 301 degree 107
pos[134] = 257 degree 106
pos[133] = 199 degree 105
pos[132] = 114 degree 104
pos[131] = 7 degree 103
pos[130] = 382 degree 103
pos[129] = 118 degree 102
pos[128] = 274 degree 102
pos[127] = 235 degree 101
pos[126] = 108 degree 100
pos[125] = 86 degree 99
pos[124] = 337 degree 99
pos[123] = 268 degree 98
pos[122] = 218 degree 97
pos[121] = 152 degree 96
pos[120] = 13 degree 95
pos[119] = 319 degree 95
pos[118] = 208 degree 94
pos[117] = 175 degree 93
pos[116] = 355 degree 93
pos[115] = 291 degree 92
pos[114] = 252 degree 91
pos[113] = 177 degree 90
pos[112] = 98 degree 89
pos[111] = 45 degree 88
pos[110] = 364 degree 88
pos[109] = 286 degree 87
pos[108] = 236 degree 86
pos[107] = 71 degree 85
pos[106] = 44 degree 84
pos[105] = 169 degree 84
pos[104] = 90 degree 83
pos[103] = 82 degree 82
pos[102] = 54 degree 81
pos[101] = 398 degree 81
pos[100] = 335 degree 80
pos[99] = 264 degree 79
pos[98] = 22 degree 78
pos[97] = 322 degree 78
pos[96] = 314 degree 77
pos[95] = 278 degree 76
pos[94] = 251 degree 75
pos[93] = 228 degree 75
pos[92] = 100 degree 74
pos[91] = 215 degree 74
pos[90] = 209 degree 73
pos[89] = 193 degree 72
pos[88] = 192 degree 71
pos[87] = 180 degree 70
pos[86] = 373 degree 70
pos[85] = 157 degree 69
pos[84] = 67 degree 68
pos[83] = 338 degree 68
pos[82] = 312 degree 67
pos[81] = 216 degree 66
pos[80] = 340 degree 66
pos[79] = 316 degree 65
pos[78] = 287 degree 64
pos[77] = 164 degree 63
pos[76] = 295 degree 63
pos[75] = 283 degree 62
pos[74] = 273 degree 61
pos[73] = 161 degree 60
pos[72] = 377 degree 60
pos[71] = 282 degree 59
pos[70] = 205 degree 58
pos[69] = 72 degree 57
pos[68] = 290 degree 57
pos[67] = 185 degree 56
pos[66] = 41 degree 55
pos[65] = 386 degree 55
pos[64] = 241 degree 54
pos[63] = 219 degree 53
pos[62] = 135 degree 52
pos[61] = 70 degree 51
pos[60] = 308 degree 51
pos[59] = 307 degree 50
pos[58] = 288 degree 49
pos[57] = 255 degree 48
pos[56] = 214 degree 47
pos[55] = 51 degree 46
pos[54] = 378 degree 46
pos[53] = 64 degree 45
pos[52] = 19 degree 44
pos[51] = 371 degree 44
pos[50] = 68 degree 43
pos[49] = 50 degree 42
pos[48] = 12 degree 41
pos[47] = 390 degree 41
pos[46] = 315 degree 40
pos[45] = 105 degree 39
pos[44] = 32 degree 38
pos[43] = 25 degree 37
pos[42] = 384 degree 37
pos[41] = 246 degree 36
pos[40] = 237 degree 35
pos[39] = 375 degree 35
pos[38] = 334 degree 34
pos[37] = 170 degree 33
pos[36] = 76 degree 32
pos[35] = 73 degree 31
pos[34] = 356 degree 31
pos[33] = 320 degree 30
pos[32] = 309 degree 29
pos[31] = 226 degree 28
pos[30] = 62 degree 27
pos[29] = 353 degree 27
pos[28] = 313 degree 26
pos[27] = 272 degree 25
pos[26] = 188 degree 24
pos[25] = 165 degree 23
pos[24] = 148 degree 22
pos[23] = 103 degree 21
pos[22] = 262 degree 21
pos[21] = 227 degree 20
pos[20] = 195 degree 19
pos[19] = 131 degree 18
pos[18] = 96 degree 17
pos[17] = 343 degree 17
pos[16] = 299 degree 16
pos[15] = 294 degree 15
pos[14] = 186 degree 14
pos[13] = 184 degree 13
pos[12] = 179 degree 12
pos[11] = 153 degree 11
pos[10] = 120 degree 10
pos[9] = 119 degree 9
pos[8] = 117 degree 8
pos[7] = 88 degree 7
pos[6] = 55 degree 6
pos[5] = 39 degree 5
pos[4] = 29 degree 4
pos[3] = 9 degree 3
pos[2] = 6 degree 2
pos[1] = 1 degree 1
pos[0] = 0 degree 0
start search
improving solution size 25
improving solution size 26
improving solution size 27
improving solution size 28
improving solution size 29
TIMEOUT
best clique: 1 2 7 10 30 40 56 118 227 165 189 317 97 341 77 292 166 49 364 254 232 363 314 344 295 54 196 180 120 
record          =          29
subp            =  3248747502
time            =  3600.00094
