timeout 3600 s
Graph with 200 vertices and 14834 edges density 0.745427
t = 29668, Enbr = 14834
pos[199] = 145 degree 130
pos[198] = 112 degree 134
pos[197] = 195 degree 134
pos[196] = 71 degree 134
pos[195] = 11 degree 133
pos[194] = 133 degree 134
pos[193] = 88 degree 133
pos[192] = 199 degree 134
pos[191] = 53 degree 133
pos[190] = 197 degree 133
pos[189] = 70 degree 132
pos[188] = 150 degree 132
pos[187] = 147 degree 131
pos[186] = 66 degree 130
pos[185] = 135 degree 130
pos[184] = 122 degree 129
pos[183] = 84 degree 129
pos[182] = 161 degree 129
pos[181] = 152 degree 128
pos[180] = 67 degree 128
pos[179] = 38 degree 127
pos[178] = 166 degree 127
pos[177] = 146 degree 126
pos[176] = 40 degree 125
pos[175] = 20 degree 124
pos[174] = 123 degree 124
pos[173] = 90 degree 123
pos[172] = 101 degree 123
pos[171] = 59 degree 122
pos[170] = 149 degree 122
pos[169] = 87 degree 121
pos[168] = 16 degree 120
pos[167] = 132 degree 120
pos[166] = 75 degree 120
pos[165] = 8 degree 119
pos[164] = 4 degree 118
pos[163] = 191 degree 118
pos[162] = 183 degree 117
pos[161] = 36 degree 116
pos[160] = 140 degree 116
pos[159] = 126 degree 115
pos[158] = 50 degree 114
pos[157] = 117 degree 114
pos[156] = 32 degree 113
pos[155] = 22 degree 112
pos[154] = 134 degree 112
pos[153] = 51 degree 111
pos[152] = 5 degree 110
pos[151] = 120 degree 110
pos[150] = 46 degree 109
pos[149] = 30 degree 108
pos[148] = 111 degree 108
pos[147] = 105 degree 107
pos[146] = 91 degree 106
pos[145] = 29 degree 105
pos[144] = 176 degree 106
pos[143] = 109 degree 105
pos[142] = 182 degree 105
pos[141] = 172 degree 104
pos[140] = 62 degree 103
pos[139] = 39 degree 102
pos[138] = 165 degree 102
pos[137] = 89 degree 101
pos[136] = 181 degree 101
pos[135] = 34 degree 100
pos[134] = 144 degree 100
pos[133] = 139 degree 99
pos[132] = 124 degree 98
pos[131] = 13 degree 97
pos[130] = 9 degree 96
pos[129] = 37 degree 96
pos[128] = 18 degree 95
pos[127] = 61 degree 95
pos[126] = 1 degree 94
pos[125] = 194 degree 94
pos[124] = 160 degree 93
pos[123] = 153 degree 92
pos[122] = 136 degree 91
pos[121] = 129 degree 90
pos[120] = 154 degree 90
pos[119] = 106 degree 89
pos[118] = 48 degree 88
pos[117] = 24 degree 88
pos[116] = 190 degree 88
pos[115] = 73 degree 87
pos[114] = 69 degree 86
pos[113] = 141 degree 86
pos[112] = 86 degree 85
pos[111] = 187 degree 85
pos[110] = 157 degree 84
pos[109] = 76 degree 83
pos[108] = 192 degree 83
pos[107] = 162 degree 82
pos[106] = 155 degree 81
pos[105] = 17 degree 80
pos[104] = 119 degree 80
pos[103] = 42 degree 79
pos[102] = 107 degree 79
pos[101] = 54 degree 78
pos[100] = 52 degree 77
pos[99] = 44 degree 76
pos[98] = 193 degree 76
pos[97] = 110 degree 75
pos[96] = 21 degree 74
pos[95] = 178 degree 74
pos[94] = 177 degree 73
pos[93] = 167 degree 72
pos[92] = 108 degree 71
pos[91] = 56 degree 70
pos[90] = 15 degree 69
pos[89] = 83 degree 69
pos[88] = 14 degree 68
pos[87] = 196 degree 68
pos[86] = 104 degree 67
pos[85] = 77 degree 66
pos[84] = 28 degree 65
pos[83] = 6 degree 64
pos[82] = 98 degree 64
pos[81] = 198 degree 64
pos[80] = 188 degree 63
pos[79] = 94 degree 62
pos[78] = 60 degree 61
pos[77] = 186 degree 61
pos[76] = 170 degree 60
pos[75] = 121 degree 59
pos[74] = 97 degree 58
pos[73] = 85 degree 57
pos[72] = 55 degree 56
pos[71] = 95 degree 56
pos[70] = 142 degree 56
pos[69] = 138 degree 55
pos[68] = 131 degree 54
pos[67] = 65 degree 53
pos[66] = 93 degree 53
pos[65] = 92 degree 52
pos[64] = 81 degree 51
pos[63] = 63 degree 50
pos[62] = 173 degree 50
pos[61] = 64 degree 49
pos[60] = 45 degree 48
pos[59] = 10 degree 47
pos[58] = 184 degree 47
pos[57] = 180 degree 46
pos[56] = 116 degree 45
pos[55] = 79 degree 44
pos[54] = 103 degree 44
pos[53] = 41 degree 43
pos[52] = 2 degree 42
pos[51] = 169 degree 42
pos[50] = 159 degree 41
pos[49] = 130 degree 40
pos[48] = 118 degree 39
pos[47] = 96 degree 38
pos[46] = 43 degree 37
pos[45] = 171 degree 37
pos[44] = 125 degree 36
pos[43] = 114 degree 35
pos[42] = 100 degree 34
pos[41] = 25 degree 33
pos[40] = 151 degree 34
pos[39] = 3 degree 33
pos[38] = 168 degree 33
pos[37] = 156 degree 32
pos[36] = 128 degree 31
pos[35] = 185 degree 31
pos[34] = 179 degree 30
pos[33] = 148 degree 29
pos[32] = 82 degree 28
pos[31] = 72 degree 27
pos[30] = 58 degree 26
pos[29] = 164 degree 26
pos[28] = 102 degree 25
pos[27] = 189 degree 25
pos[26] = 175 degree 24
pos[25] = 163 degree 23
pos[24] = 143 degree 22
pos[23] = 49 degree 21
pos[22] = 27 degree 20
pos[21] = 7 degree 19
pos[20] = 158 degree 19
pos[19] = 113 degree 18
pos[18] = 68 degree 17
pos[17] = 174 degree 17
pos[16] = 137 degree 16
pos[15] = 127 degree 15
pos[14] = 115 degree 14
pos[13] = 99 degree 13
pos[12] = 80 degree 12
pos[11] = 78 degree 11
pos[10] = 74 degree 10
pos[9] = 57 degree 9
pos[8] = 47 degree 8
pos[7] = 35 degree 7
pos[6] = 33 degree 6
pos[5] = 31 degree 5
pos[4] = 26 degree 4
pos[3] = 23 degree 3
pos[2] = 19 degree 2
pos[1] = 12 degree 1
pos[0] = 0 degree 0
start search
improving solution size 22
improving solution size 23
improving solution size 24
improving solution size 25
improving solution size 26
TIMEOUT
best clique: 1 13 27 138 175 128 159 116 176 103 144 81 186 190 26 185 199 130 86 59 19 79 58 48 36 32 
record          =          26
subp            =  3576094522
time            =  3600.00010
