timeout 3600 s
Graph with 800 vertices and 208166 edges density 0.651333
t = 416332, Enbr = 208166
pos[799] = 444 degree 472
pos[798] = 582 degree 484
pos[797] = 398 degree 484
pos[796] = 521 degree 485
pos[795] = 737 degree 485
pos[794] = 34 degree 485
pos[793] = 1 degree 485
pos[792] = 708 degree 486
pos[791] = 557 degree 485
pos[790] = 411 degree 485
pos[789] = 511 degree 486
pos[788] = 191 degree 485
pos[787] = 460 degree 485
pos[786] = 47 degree 484
pos[785] = 734 degree 485
pos[784] = 649 degree 484
pos[783] = 699 degree 484
pos[782] = 458 degree 484
pos[781] = 161 degree 483
pos[780] = 405 degree 483
pos[779] = 70 degree 482
pos[778] = 332 degree 482
pos[777] = 425 degree 482
pos[776] = 281 degree 481
pos[775] = 145 degree 480
pos[774] = 23 degree 479
pos[773] = 791 degree 480
pos[772] = 127 degree 479
pos[771] = 638 degree 479
pos[770] = 348 degree 478
pos[769] = 12 degree 477
pos[768] = 368 degree 477
pos[767] = 292 degree 476
pos[766] = 109 degree 475
pos[765] = 391 degree 475
pos[764] = 90 degree 474
pos[763] = 134 degree 474
pos[762] = 52 degree 473
pos[761] = 603 degree 474
pos[760] = 488 degree 473
pos[759] = 233 degree 472
pos[758] = 685 degree 473
pos[757] = 151 degree 472
pos[756] = 58 degree 471
pos[755] = 759 degree 471
pos[754] = 733 degree 470
pos[753] = 725 degree 469
pos[752] = 389 degree 469
pos[751] = 475 degree 469
pos[750] = 724 degree 469
pos[749] = 310 degree 468
pos[748] = 4 degree 467
pos[747] = 160 degree 467
pos[746] = 326 degree 467
pos[745] = 187 degree 466
pos[744] = 683 degree 466
pos[743] = 668 degree 466
pos[742] = 280 degree 465
pos[741] = 578 degree 465
pos[740] = 756 degree 465
pos[739] = 717 degree 464
pos[738] = 629 degree 463
pos[737] = 774 degree 463
pos[736] = 609 degree 462
pos[735] = 436 degree 461
pos[734] = 739 degree 461
pos[733] = 462 degree 460
pos[732] = 799 degree 460
pos[731] = 485 degree 459
pos[730] = 202 degree 458
pos[729] = 78 degree 457
pos[728] = 520 degree 457
pos[727] = 48 degree 456
pos[726] = 465 degree 456
pos[725] = 700 degree 456
pos[724] = 81 degree 455
pos[723] = 625 degree 455
pos[722] = 533 degree 454
pos[721] = 14 degree 453
pos[720] = 558 degree 453
pos[719] = 543 degree 452
pos[718] = 266 degree 451
pos[717] = 457 degree 451
pos[716] = 39 degree 450
pos[715] = 713 degree 450
pos[714] = 738 degree 450
pos[713] = 787 degree 450
pos[712] = 689 degree 449
pos[711] = 155 degree 448
pos[710] = 409 degree 448
pos[709] = 123 degree 447
pos[708] = 776 degree 447
pos[707] = 267 degree 446
pos[706] = 144 degree 445
pos[705] = 596 degree 445
pos[704] = 474 degree 444
pos[703] = 344 degree 444
pos[702] = 250 degree 443
pos[701] = 129 degree 442
pos[700] = 400 degree 442
pos[699] = 314 degree 441
pos[698] = 290 degree 440
pos[697] = 797 degree 440
pos[696] = 541 degree 440
pos[695] = 106 degree 439
pos[694] = 614 degree 439
pos[693] = 128 degree 438
pos[692] = 584 degree 438
pos[691] = 108 degree 437
pos[690] = 385 degree 437
pos[689] = 99 degree 436
pos[688] = 493 degree 436
pos[687] = 402 degree 435
pos[686] = 355 degree 434
pos[685] = 704 degree 434
pos[684] = 168 degree 433
pos[683] = 112 degree 432
pos[682] = 549 degree 432
pos[681] = 478 degree 432
pos[680] = 349 degree 431
pos[679] = 427 degree 431
pos[678] = 247 degree 430
pos[677] = 135 degree 429
pos[676] = 732 degree 429
pos[675] = 246 degree 428
pos[674] = 68 degree 427
pos[673] = 10 degree 426
pos[672] = 503 degree 426
pos[671] = 336 degree 426
pos[670] = 673 degree 426
pos[669] = 445 degree 425
pos[668] = 755 degree 425
pos[667] = 148 degree 424
pos[666] = 104 degree 423
pos[665] = 46 degree 423
pos[664] = 710 degree 423
pos[663] = 604 degree 423
pos[662] = 417 degree 422
pos[661] = 575 degree 422
pos[660] = 152 degree 421
pos[659] = 640 degree 421
pos[658] = 305 degree 420
pos[657] = 690 degree 420
pos[656] = 524 degree 419
pos[655] = 469 degree 418
pos[654] = 434 degree 417
pos[653] = 789 degree 417
pos[652] = 492 degree 416
pos[651] = 373 degree 415
pos[650] = 435 degree 415
pos[649] = 204 degree 414
pos[648] = 449 degree 414
pos[647] = 441 degree 413
pos[646] = 501 degree 413
pos[645] = 547 degree 413
pos[644] = 67 degree 412
pos[643] = 527 degree 412
pos[642] = 495 degree 411
pos[641] = 663 degree 411
pos[640] = 461 degree 410
pos[639] = 338 degree 409
pos[638] = 654 degree 409
pos[637] = 504 degree 408
pos[636] = 497 degree 407
pos[635] = 299 degree 406
pos[634] = 245 degree 405
pos[633] = 388 degree 406
pos[632] = 321 degree 405
pos[631] = 768 degree 405
pos[630] = 630 degree 404
pos[629] = 534 degree 403
pos[628] = 293 degree 402
pos[627] = 514 degree 402
pos[626] = 71 degree 401
pos[625] = 761 degree 401
pos[624] = 374 degree 400
pos[623] = 76 degree 399
pos[622] = 695 degree 399
pos[621] = 686 degree 399
pos[620] = 555 degree 398
pos[619] = 360 degree 397
pos[618] = 61 degree 396
pos[617] = 472 degree 396
pos[616] = 743 degree 396
pos[615] = 288 degree 395
pos[614] = 238 degree 394
pos[613] = 769 degree 394
pos[612] = 156 degree 393
pos[611] = 379 degree 393
pos[610] = 317 degree 392
pos[609] = 291 degree 391
pos[608] = 714 degree 391
pos[607] = 221 degree 390
pos[606] = 18 degree 389
pos[605] = 553 degree 389
pos[604] = 300 degree 388
pos[603] = 494 degree 388
pos[602] = 334 degree 387
pos[601] = 44 degree 386
pos[600] = 502 degree 386
pos[599] = 383 degree 385
pos[598] = 446 degree 385
pos[597] = 408 degree 385
pos[596] = 282 degree 384
pos[595] = 792 degree 384
pos[594] = 381 degree 383
pos[593] = 217 degree 382
pos[592] = 170 degree 381
pos[591] = 610 degree 381
pos[590] = 554 degree 380
pos[589] = 687 degree 380
pos[588] = 324 degree 379
pos[587] = 213 degree 378
pos[586] = 38 degree 377
pos[585] = 30 degree 377
pos[584] = 705 degree 377
pos[583] = 421 degree 376
pos[582] = 721 degree 376
pos[581] = 509 degree 375
pos[580] = 715 degree 375
pos[579] = 583 degree 374
pos[578] = 79 degree 373
pos[577] = 66 degree 372
pos[576] = 339 degree 372
pos[575] = 211 degree 371
pos[574] = 287 degree 371
pos[573] = 74 degree 370
pos[572] = 692 degree 370
pos[571] = 566 degree 369
pos[570] = 522 degree 368
pos[569] = 242 degree 367
pos[568] = 510 degree 367
pos[567] = 111 degree 366
pos[566] = 272 degree 366
pos[565] = 182 degree 365
pos[564] = 615 degree 365
pos[563] = 136 degree 364
pos[562] = 680 degree 364
pos[561] = 568 degree 363
pos[560] = 442 degree 362
pos[559] = 413 degree 362
pos[558] = 410 degree 361
pos[557] = 283 degree 360
pos[556] = 276 degree 359
pos[555] = 115 degree 358
pos[554] = 325 degree 358
pos[553] = 698 degree 358
pos[552] = 244 degree 357
pos[551] = 437 degree 357
pos[550] = 122 degree 356
pos[549] = 570 degree 356
pos[548] = 207 degree 355
pos[547] = 206 degree 354
pos[546] = 664 degree 354
pos[545] = 562 degree 353
pos[544] = 711 degree 353
pos[543] = 538 degree 352
pos[542] = 185 degree 351
pos[541] = 150 degree 350
pos[540] = 587 degree 350
pos[539] = 760 degree 350
pos[538] = 565 degree 349
pos[537] = 530 degree 348
pos[536] = 234 degree 347
pos[535] = 631 degree 347
pos[534] = 357 degree 346
pos[533] = 679 degree 346
pos[532] = 545 degree 345
pos[531] = 138 degree 344
pos[530] = 55 degree 343
pos[529] = 666 degree 343
pos[528] = 662 degree 343
pos[527] = 264 degree 342
pos[526] = 121 degree 341
pos[525] = 542 degree 341
pos[524] = 239 degree 340
pos[523] = 230 degree 339
pos[522] = 216 degree 338
pos[521] = 192 degree 338
pos[520] = 43 degree 337
pos[519] = 777 degree 337
pos[518] = 467 degree 336
pos[517] = 430 degree 335
pos[516] = 27 degree 334
pos[515] = 655 degree 334
pos[514] = 548 degree 334
pos[513] = 164 degree 333
pos[512] = 97 degree 332
pos[511] = 487 degree 332
pos[510] = 235 degree 331
pos[509] = 793 degree 332
pos[508] = 773 degree 331
pos[507] = 622 degree 330
pos[506] = 790 degree 330
pos[505] = 450 degree 329
pos[504] = 682 degree 329
pos[503] = 636 degree 328
pos[502] = 372 degree 327
pos[501] = 251 degree 326
pos[500] = 163 degree 326
pos[499] = 154 degree 325
pos[498] = 414 degree 325
pos[497] = 359 degree 324
pos[496] = 353 degree 323
pos[495] = 651 degree 323
pos[494] = 103 degree 322
pos[493] = 5 degree 321
pos[492] = 350 degree 321
pos[491] = 29 degree 320
pos[490] = 561 degree 320
pos[489] = 85 degree 319
pos[488] = 28 degree 318
pos[487] = 746 degree 318
pos[486] = 323 degree 317
pos[485] = 315 degree 316
pos[484] = 200 degree 316
pos[483] = 199 degree 315
pos[482] = 784 degree 315
pos[481] = 426 degree 314
pos[480] = 394 degree 313
pos[479] = 105 degree 312
pos[478] = 579 degree 312
pos[477] = 65 degree 311
pos[476] = 722 degree 311
pos[475] = 463 degree 310
pos[474] = 214 degree 309
pos[473] = 486 degree 309
pos[472] = 341 degree 308
pos[471] = 451 degree 308
pos[470] = 671 degree 308
pos[469] = 525 degree 307
pos[468] = 392 degree 306
pos[467] = 174 degree 305
pos[466] = 459 degree 305
pos[465] = 420 degree 304
pos[464] = 162 degree 303
pos[463] = 600 degree 303
pos[462] = 573 degree 303
pos[461] = 491 degree 302
pos[460] = 25 degree 301
pos[459] = 758 degree 301
pos[458] = 275 degree 300
pos[457] = 75 degree 299
pos[456] = 516 degree 299
pos[455] = 60 degree 298
pos[454] = 190 degree 298
pos[453] = 757 degree 298
pos[452] = 753 degree 297
pos[451] = 729 degree 297
pos[450] = 519 degree 296
pos[449] = 298 degree 295
pos[448] = 186 degree 294
pos[447] = 98 degree 293
pos[446] = 77 degree 293
pos[445] = 786 degree 293
pos[444] = 763 degree 292
pos[443] = 552 degree 291
pos[442] = 331 degree 291
pos[441] = 306 degree 290
pos[440] = 303 degree 289
pos[439] = 770 degree 289
pos[438] = 512 degree 289
pos[437] = 274 degree 288
pos[436] = 422 degree 288
pos[435] = 289 degree 287
pos[434] = 258 degree 286
pos[433] = 205 degree 285
pos[432] = 15 degree 285
pos[431] = 752 degree 285
pos[430] = 255 degree 284
pos[429] = 159 degree 283
pos[428] = 620 degree 283
pos[427] = 564 degree 282
pos[426] = 119 degree 281
pos[425] = 117 degree 280
pos[424] = 35 degree 279
pos[423] = 694 degree 279
pos[422] = 356 degree 278
pos[421] = 110 degree 277
pos[420] = 498 degree 277
pos[419] = 327 degree 276
pos[418] = 273 degree 275
pos[417] = 209 degree 275
pos[416] = 658 degree 275
pos[415] = 470 degree 274
pos[414] = 308 degree 274
pos[413] = 307 degree 273
pos[412] = 602 degree 273
pos[411] = 591 degree 272
pos[410] = 665 degree 272
pos[409] = 618 degree 271
pos[408] = 576 degree 270
pos[407] = 369 degree 269
pos[406] = 778 degree 269
pos[405] = 706 degree 268
pos[404] = 627 degree 267
pos[403] = 193 degree 266
pos[402] = 208 degree 266
pos[401] = 661 degree 266
pos[400] = 642 degree 265
pos[399] = 454 degree 264
pos[398] = 107 degree 264
pos[397] = 49 degree 263
pos[396] = 794 degree 263
pos[395] = 57 degree 262
pos[394] = 617 degree 262
pos[393] = 92 degree 261
pos[392] = 703 degree 261
pos[391] = 624 degree 260
pos[390] = 203 degree 259
pos[389] = 606 degree 259
pos[388] = 376 degree 258
pos[387] = 194 degree 257
pos[386] = 613 degree 257
pos[385] = 593 degree 256
pos[384] = 320 degree 255
pos[383] = 720 degree 255
pos[382] = 370 degree 254
pos[381] = 697 degree 254
pos[380] = 318 degree 253
pos[379] = 64 degree 252
pos[378] = 515 degree 252
pos[377] = 20 degree 251
pos[376] = 429 degree 251
pos[375] = 131 degree 250
pos[374] = 735 degree 250
pos[373] = 428 degree 249
pos[372] = 572 degree 249
pos[371] = 431 degree 248
pos[370] = 171 degree 247
pos[369] = 8 degree 246
pos[368] = 656 degree 246
pos[367] = 581 degree 245
pos[366] = 362 degree 244
pos[365] = 260 degree 243
pos[364] = 550 degree 243
pos[363] = 63 degree 242
pos[362] = 726 degree 242
pos[361] = 508 degree 241
pos[360] = 496 degree 240
pos[359] = 419 degree 239
pos[358] = 284 degree 238
pos[357] = 312 degree 238
pos[356] = 183 degree 237
pos[355] = 100 degree 236
pos[354] = 337 degree 236
pos[353] = 728 degree 236
pos[352] = 313 degree 235
pos[351] = 740 degree 235
pos[350] = 633 degree 234
pos[349] = 529 degree 233
pos[348] = 601 degree 233
pos[347] = 586 degree 232
pos[346] = 257 degree 231
pos[345] = 113 degree 230
pos[344] = 765 degree 230
pos[343] = 294 degree 229
pos[342] = 189 degree 228
pos[341] = 513 degree 228
pos[340] = 439 degree 227
pos[339] = 343 degree 226
pos[338] = 73 degree 225
pos[337] = 785 degree 226
pos[336] = 147 degree 225
pos[335] = 540 degree 225
pos[334] = 158 degree 224
pos[333] = 126 degree 223
pos[332] = 632 degree 223
pos[331] = 93 degree 222
pos[330] = 19 degree 221
pos[329] = 466 degree 221
pos[328] = 406 degree 220
pos[327] = 0 degree 219
pos[326] = 745 degree 219
pos[325] = 669 degree 218
pos[324] = 169 degree 217
pos[323] = 301 degree 217
pos[322] = 795 degree 217
pos[321] = 751 degree 216
pos[320] = 149 degree 215
pos[319] = 137 degree 214
pos[318] = 749 degree 215
pos[317] = 605 degree 214
pos[316] = 333 degree 213
pos[315] = 781 degree 213
pos[314] = 727 degree 212
pos[313] = 580 degree 211
pos[312] = 712 degree 211
pos[311] = 424 degree 210
pos[310] = 165 degree 209
pos[309] = 241 degree 209
pos[308] = 89 degree 208
pos[307] = 21 degree 207
pos[306] = 9 degree 206
pos[305] = 178 degree 206
pos[304] = 84 degree 205
pos[303] = 41 degree 204
pos[302] = 82 degree 204
pos[301] = 397 degree 204
pos[300] = 286 degree 203
pos[299] = 218 degree 202
pos[298] = 176 degree 202
pos[297] = 589 degree 202
pos[296] = 364 degree 201
pos[295] = 351 degree 200
pos[294] = 96 degree 199
pos[293] = 11 degree 198
pos[292] = 476 degree 198
pos[291] = 767 degree 198
pos[290] = 648 degree 197
pos[289] = 271 degree 196
pos[288] = 645 degree 196
pos[287] = 228 degree 195
pos[286] = 95 degree 194
pos[285] = 24 degree 193
pos[284] = 227 degree 193
pos[283] = 771 degree 193
pos[282] = 652 degree 192
pos[281] = 693 degree 192
pos[280] = 366 degree 191
pos[279] = 297 degree 190
pos[278] = 212 degree 189
pos[277] = 167 degree 189
pos[276] = 69 degree 188
pos[275] = 26 degree 187
pos[274] = 518 degree 187
pos[273] = 453 degree 186
pos[272] = 72 degree 185
pos[271] = 788 degree 185
pos[270] = 416 degree 184
pos[269] = 130 degree 183
pos[268] = 50 degree 182
pos[267] = 412 degree 182
pos[266] = 59 degree 181
pos[265] = 608 degree 181
pos[264] = 328 degree 180
pos[263] = 302 degree 179
pos[262] = 16 degree 178
pos[261] = 254 degree 178
pos[260] = 62 degree 177
pos[259] = 36 degree 176
pos[258] = 775 degree 177
pos[257] = 741 degree 176
pos[256] = 780 degree 176
pos[255] = 731 degree 175
pos[254] = 647 degree 174
pos[253] = 599 degree 173
pos[252] = 730 degree 173
pos[251] = 499 degree 172
pos[250] = 229 degree 171
pos[249] = 141 degree 170
pos[248] = 401 degree 170
pos[247] = 256 degree 169
pos[246] = 17 degree 168
pos[245] = 744 degree 169
pos[244] = 590 degree 168
pos[243] = 559 degree 167
pos[242] = 544 degree 166
pos[241] = 433 degree 165
pos[240] = 537 degree 165
pos[239] = 33 degree 164
pos[238] = 766 degree 164
pos[237] = 532 degree 163
pos[236] = 762 degree 163
pos[235] = 506 degree 162
pos[234] = 225 degree 161
pos[233] = 140 degree 160
pos[232] = 782 degree 160
pos[231] = 172 degree 159
pos[230] = 7 degree 158
pos[229] = 674 degree 158
pos[228] = 210 degree 157
pos[227] = 80 degree 156
pos[226] = 667 degree 156
pos[225] = 125 degree 155
pos[224] = 718 degree 155
pos[223] = 535 degree 154
pos[222] = 268 degree 153
pos[221] = 415 degree 153
pos[220] = 261 degree 152
pos[219] = 42 degree 151
pos[218] = 3 degree 150
pos[217] = 278 degree 150
pos[216] = 263 degree 150
pos[215] = 619 degree 150
pos[214] = 483 degree 149
pos[213] = 177 degree 148
pos[212] = 175 degree 147
pos[211] = 91 degree 146
pos[210] = 798 degree 146
pos[209] = 181 degree 145
pos[208] = 585 degree 145
pos[207] = 380 degree 144
pos[206] = 375 degree 143
pos[205] = 262 degree 142
pos[204] = 265 degree 142
pos[203] = 51 degree 141
pos[202] = 657 degree 141
pos[201] = 237 degree 140
pos[200] = 637 degree 140
pos[199] = 468 degree 139
pos[198] = 232 degree 138
pos[197] = 153 degree 137
pos[196] = 526 degree 137
pos[195] = 173 degree 136
pos[194] = 477 degree 136
pos[193] = 393 degree 135
pos[192] = 347 degree 134
pos[191] = 195 degree 133
pos[190] = 448 degree 133
pos[189] = 384 degree 132
pos[188] = 243 degree 131
pos[187] = 2 degree 130
pos[186] = 319 degree 130
pos[185] = 226 degree 129
pos[184] = 166 degree 129
pos[183] = 143 degree 128
pos[182] = 574 degree 128
pos[181] = 215 degree 127
pos[180] = 650 degree 127
pos[179] = 456 degree 127
pos[178] = 399 degree 126
pos[177] = 371 degree 125
pos[176] = 222 degree 124
pos[175] = 102 degree 123
pos[174] = 83 degree 122
pos[173] = 335 degree 122
pos[172] = 116 degree 121
pos[171] = 754 degree 121
pos[170] = 696 degree 121
pos[169] = 612 degree 120
pos[168] = 432 degree 119
pos[167] = 365 degree 118
pos[166] = 546 degree 118
pos[165] = 452 degree 117
pos[164] = 352 degree 116
pos[163] = 198 degree 115
pos[162] = 88 degree 114
pos[161] = 742 degree 114
pos[160] = 395 degree 113
pos[159] = 86 degree 112
pos[158] = 748 degree 112
pos[157] = 701 degree 111
pos[156] = 361 degree 110
pos[155] = 316 degree 109
pos[154] = 54 degree 109
pos[153] = 747 degree 109
pos[152] = 675 degree 108
pos[151] = 577 degree 107
pos[150] = 736 degree 107
pos[149] = 688 degree 106
pos[148] = 484 degree 105
pos[147] = 382 degree 104
pos[146] = 279 degree 103
pos[145] = 594 degree 103
pos[144] = 157 degree 102
pos[143] = 626 degree 102
pos[142] = 490 degree 101
pos[141] = 120 degree 100
pos[140] = 407 degree 100
pos[139] = 133 degree 99
pos[138] = 796 degree 99
pos[137] = 285 degree 98
pos[136] = 653 degree 98
pos[135] = 639 degree 97
pos[134] = 500 degree 96
pos[133] = 517 degree 96
pos[132] = 473 degree 95
pos[131] = 277 degree 94
pos[130] = 772 degree 94
pos[129] = 598 degree 93
pos[128] = 479 degree 92
pos[127] = 367 degree 91
pos[126] = 677 degree 91
pos[125] = 659 degree 90
pos[124] = 118 degree 89
pos[123] = 783 degree 89
pos[122] = 201 degree 88
pos[121] = 184 degree 87
pos[120] = 114 degree 86
pos[119] = 124 degree 86
pos[118] = 396 degree 86
pos[117] = 188 degree 85
pos[116] = 322 degree 85
pos[115] = 224 degree 84
pos[114] = 779 degree 84
pos[113] = 691 degree 83
pos[112] = 505 degree 82
pos[111] = 363 degree 81
pos[110] = 179 degree 80
pos[109] = 139 degree 79
pos[108] = 94 degree 78
pos[107] = 358 degree 78
pos[106] = 252 degree 77
pos[105] = 571 degree 77
pos[104] = 672 degree 77
pos[103] = 507 degree 76
pos[102] = 471 degree 75
pos[101] = 377 degree 74
pos[100] = 597 degree 74
pos[99] = 539 degree 73
pos[98] = 386 degree 72
pos[97] = 643 degree 72
pos[96] = 447 degree 71
pos[95] = 142 degree 70
pos[94] = 13 degree 69
pos[93] = 551 degree 69
pos[92] = 489 degree 68
pos[91] = 354 degree 67
pos[90] = 219 degree 66
pos[89] = 146 degree 66
pos[88] = 707 degree 66
pos[87] = 556 degree 65
pos[86] = 702 degree 65
pos[85] = 660 degree 64
pos[84] = 249 degree 63
pos[83] = 723 degree 63
pos[82] = 621 degree 62
pos[81] = 455 degree 61
pos[80] = 719 degree 61
pos[79] = 646 degree 60
pos[78] = 611 degree 59
pos[77] = 309 degree 58
pos[76] = 595 degree 58
pos[75] = 536 degree 57
pos[74] = 296 degree 56
pos[73] = 45 degree 55
pos[72] = 716 degree 55
pos[71] = 678 degree 54
pos[70] = 345 degree 53
pos[69] = 329 degree 52
pos[68] = 676 degree 52
pos[67] = 644 degree 51
pos[66] = 180 degree 50
pos[65] = 628 degree 50
pos[64] = 681 degree 50
pos[63] = 482 degree 49
pos[62] = 480 degree 48
pos[61] = 53 degree 47
pos[60] = 764 degree 47
pos[59] = 709 degree 46
pos[58] = 592 degree 45
pos[57] = 31 degree 44
pos[56] = 270 degree 44
pos[55] = 223 degree 43
pos[54] = 132 degree 42
pos[53] = 531 degree 42
pos[52] = 481 degree 41
pos[51] = 269 degree 40
pos[50] = 635 degree 40
pos[49] = 56 degree 39
pos[48] = 32 degree 38
pos[47] = 750 degree 38
pos[46] = 346 degree 37
pos[45] = 101 degree 36
pos[44] = 607 degree 36
pos[43] = 588 degree 35
pos[42] = 563 degree 34
pos[41] = 438 degree 33
pos[40] = 231 degree 32
pos[39] = 304 degree 32
pos[38] = 236 degree 31
pos[37] = 87 degree 30
pos[36] = 641 degree 30
pos[35] = 634 degree 29
pos[34] = 248 degree 28
pos[33] = 560 degree 28
pos[32] = 390 degree 27
pos[31] = 528 degree 27
pos[30] = 404 degree 26
pos[29] = 342 degree 25
pos[28] = 340 degree 24
pos[27] = 670 degree 24
pos[26] = 616 degree 23
pos[25] = 523 degree 22
pos[24] = 464 degree 21
pos[23] = 311 degree 20
pos[22] = 6 degree 19
pos[21] = 569 degree 19
pos[20] = 567 degree 18
pos[19] = 403 degree 17
pos[18] = 259 degree 16
pos[17] = 623 degree 16
pos[16] = 440 degree 15
pos[15] = 423 degree 14
pos[14] = 418 degree 13
pos[13] = 253 degree 12
pos[12] = 684 degree 12
pos[11] = 443 degree 11
pos[10] = 387 degree 10
pos[9] = 378 degree 9
pos[8] = 330 degree 8
pos[7] = 295 degree 7
pos[6] = 240 degree 6
pos[5] = 220 degree 5
pos[4] = 197 degree 4
pos[3] = 196 degree 3
pos[2] = 40 degree 2
pos[1] = 37 degree 1
pos[0] = 22 degree 0
start search
improving solution size 19
improving solution size 20
improving solution size 22
improving solution size 23
TIMEOUT
best clique: 23 38 41 197 221 568 635 765 474 362 84 269 649 365 407 443 404 770 641 330 444 258 388 
record          =          23
subp            =  2819311495
time            =  3600.00051
