timeout 3600 s
Graph with 200 vertices and 3235 edges density 0.162563
t = 6470, Enbr = 3235
pos[199] = 196 degree 32
pos[198] = 195 degree 31
pos[197] = 178 degree 30
pos[196] = 177 degree 29
pos[195] = 160 degree 28
pos[194] = 159 degree 27
pos[193] = 142 degree 26
pos[192] = 141 degree 25
pos[191] = 124 degree 24
pos[190] = 123 degree 23
pos[189] = 106 degree 22
pos[188] = 105 degree 21
pos[187] = 88 degree 20
pos[186] = 87 degree 19
pos[185] = 70 degree 18
pos[184] = 69 degree 17
pos[183] = 52 degree 16
pos[182] = 51 degree 15
pos[181] = 34 degree 14
pos[180] = 33 degree 13
pos[179] = 16 degree 12
pos[178] = 15 degree 11
pos[177] = 194 degree 21
pos[176] = 176 degree 20
pos[175] = 158 degree 19
pos[174] = 140 degree 18
pos[173] = 122 degree 17
pos[172] = 104 degree 16
pos[171] = 86 degree 15
pos[170] = 68 degree 14
pos[169] = 50 degree 13
pos[168] = 32 degree 12
pos[167] = 14 degree 11
pos[166] = 193 degree 21
pos[165] = 175 degree 20
pos[164] = 157 degree 19
pos[163] = 139 degree 18
pos[162] = 121 degree 17
pos[161] = 103 degree 16
pos[160] = 85 degree 15
pos[159] = 67 degree 14
pos[158] = 49 degree 13
pos[157] = 31 degree 12
pos[156] = 13 degree 11
pos[155] = 192 degree 21
pos[154] = 174 degree 20
pos[153] = 156 degree 19
pos[152] = 138 degree 18
pos[151] = 120 degree 17
pos[150] = 102 degree 16
pos[149] = 84 degree 15
pos[148] = 66 degree 14
pos[147] = 48 degree 13
pos[146] = 30 degree 12
pos[145] = 12 degree 11
pos[144] = 191 degree 21
pos[143] = 173 degree 20
pos[142] = 155 degree 19
pos[141] = 137 degree 18
pos[140] = 119 degree 17
pos[139] = 101 degree 16
pos[138] = 83 degree 15
pos[137] = 65 degree 14
pos[136] = 47 degree 13
pos[135] = 29 degree 12
pos[134] = 11 degree 11
pos[133] = 190 degree 21
pos[132] = 172 degree 20
pos[131] = 154 degree 19
pos[130] = 136 degree 18
pos[129] = 118 degree 17
pos[128] = 100 degree 16
pos[127] = 82 degree 15
pos[126] = 64 degree 14
pos[125] = 46 degree 13
pos[124] = 28 degree 12
pos[123] = 10 degree 11
pos[122] = 189 degree 21
pos[121] = 171 degree 20
pos[120] = 153 degree 19
pos[119] = 135 degree 18
pos[118] = 117 degree 17
pos[117] = 99 degree 16
pos[116] = 81 degree 15
pos[115] = 63 degree 14
pos[114] = 45 degree 13
pos[113] = 27 degree 12
pos[112] = 9 degree 11
pos[111] = 188 degree 21
pos[110] = 170 degree 20
pos[109] = 152 degree 19
pos[108] = 134 degree 18
pos[107] = 116 degree 17
pos[106] = 98 degree 16
pos[105] = 80 degree 15
pos[104] = 62 degree 14
pos[103] = 44 degree 13
pos[102] = 26 degree 12
pos[101] = 8 degree 11
pos[100] = 187 degree 21
pos[99] = 169 degree 20
pos[98] = 151 degree 19
pos[97] = 133 degree 18
pos[96] = 115 degree 17
pos[95] = 97 degree 16
pos[94] = 79 degree 15
pos[93] = 61 degree 14
pos[92] = 43 degree 13
pos[91] = 25 degree 12
pos[90] = 7 degree 11
pos[89] = 186 degree 21
pos[88] = 168 degree 20
pos[87] = 150 degree 19
pos[86] = 132 degree 18
pos[85] = 114 degree 17
pos[84] = 96 degree 16
pos[83] = 78 degree 15
pos[82] = 60 degree 14
pos[81] = 42 degree 13
pos[80] = 24 degree 12
pos[79] = 6 degree 11
pos[78] = 185 degree 21
pos[77] = 167 degree 20
pos[76] = 149 degree 19
pos[75] = 131 degree 18
pos[74] = 113 degree 17
pos[73] = 95 degree 16
pos[72] = 77 degree 15
pos[71] = 59 degree 14
pos[70] = 41 degree 13
pos[69] = 23 degree 12
pos[68] = 5 degree 11
pos[67] = 184 degree 21
pos[66] = 166 degree 20
pos[65] = 148 degree 19
pos[64] = 130 degree 18
pos[63] = 112 degree 17
pos[62] = 94 degree 16
pos[61] = 76 degree 15
pos[60] = 58 degree 14
pos[59] = 40 degree 13
pos[58] = 22 degree 12
pos[57] = 4 degree 11
pos[56] = 183 degree 21
pos[55] = 165 degree 20
pos[54] = 147 degree 19
pos[53] = 129 degree 18
pos[52] = 111 degree 17
pos[51] = 93 degree 16
pos[50] = 75 degree 15
pos[49] = 57 degree 14
pos[48] = 39 degree 13
pos[47] = 21 degree 12
pos[46] = 3 degree 11
pos[45] = 197 degree 22
pos[44] = 179 degree 21
pos[43] = 161 degree 20
pos[42] = 143 degree 19
pos[41] = 125 degree 18
pos[40] = 107 degree 17
pos[39] = 89 degree 16
pos[38] = 71 degree 15
pos[37] = 53 degree 14
pos[36] = 35 degree 13
pos[35] = 17 degree 12
pos[34] = 182 degree 22
pos[33] = 164 degree 21
pos[32] = 146 degree 20
pos[31] = 128 degree 19
pos[30] = 110 degree 18
pos[29] = 92 degree 17
pos[28] = 74 degree 16
pos[27] = 56 degree 15
pos[26] = 38 degree 14
pos[25] = 20 degree 13
pos[24] = 2 degree 12
pos[23] = 199 degree 23
pos[22] = 198 degree 22
pos[21] = 181 degree 21
pos[20] = 180 degree 20
pos[19] = 163 degree 19
pos[18] = 162 degree 18
pos[17] = 145 degree 17
pos[16] = 144 degree 16
pos[15] = 127 degree 15
pos[14] = 126 degree 14
pos[13] = 109 degree 13
pos[12] = 108 degree 12
pos[11] = 91 degree 11
pos[10] = 90 degree 10
pos[9] = 73 degree 9
pos[8] = 72 degree 8
pos[7] = 55 degree 7
pos[6] = 54 degree 6
pos[5] = 37 degree 5
pos[4] = 36 degree 4
pos[3] = 19 degree 3
pos[2] = 18 degree 2
pos[1] = 1 degree 1
pos[0] = 0 degree 0
start search
improving solution size 24
best clique: 1 2 19 20 37 38 55 56 73 74 91 92 109 110 127 128 145 146 163 164 181 182 199 200 
record          =          24
subp            =      241661
time            =     0.11130
