timeout 3600 s
Graph with 500 vertices and 4459 edges density 0.035743
t = 8918, Enbr = 4459
pos[499] = 478 degree 17
pos[498] = 477 degree 16
pos[497] = 398 degree 15
pos[496] = 397 degree 14
pos[495] = 318 degree 13
pos[494] = 317 degree 12
pos[493] = 238 degree 11
pos[492] = 237 degree 10
pos[491] = 158 degree 9
pos[490] = 157 degree 8
pos[489] = 78 degree 7
pos[488] = 77 degree 6
pos[487] = 476 degree 11
pos[486] = 396 degree 10
pos[485] = 316 degree 9
pos[484] = 236 degree 8
pos[483] = 156 degree 7
pos[482] = 76 degree 6
pos[481] = 475 degree 11
pos[480] = 395 degree 10
pos[479] = 315 degree 9
pos[478] = 235 degree 8
pos[477] = 155 degree 7
pos[476] = 75 degree 6
pos[475] = 474 degree 11
pos[474] = 394 degree 10
pos[473] = 314 degree 9
pos[472] = 234 degree 8
pos[471] = 154 degree 7
pos[470] = 74 degree 6
pos[469] = 473 degree 11
pos[468] = 393 degree 10
pos[467] = 313 degree 9
pos[466] = 233 degree 8
pos[465] = 153 degree 7
pos[464] = 73 degree 6
pos[463] = 472 degree 11
pos[462] = 392 degree 10
pos[461] = 312 degree 9
pos[460] = 232 degree 8
pos[459] = 152 degree 7
pos[458] = 72 degree 6
pos[457] = 471 degree 11
pos[456] = 391 degree 10
pos[455] = 311 degree 9
pos[454] = 231 degree 8
pos[453] = 151 degree 7
pos[452] = 71 degree 6
pos[451] = 470 degree 11
pos[450] = 390 degree 10
pos[449] = 310 degree 9
pos[448] = 230 degree 8
pos[447] = 150 degree 7
pos[446] = 70 degree 6
pos[445] = 469 degree 11
pos[444] = 389 degree 10
pos[443] = 309 degree 9
pos[442] = 229 degree 8
pos[441] = 149 degree 7
pos[440] = 69 degree 6
pos[439] = 468 degree 11
pos[438] = 388 degree 10
pos[437] = 308 degree 9
pos[436] = 228 degree 8
pos[435] = 148 degree 7
pos[434] = 68 degree 6
pos[433] = 467 degree 11
pos[432] = 387 degree 10
pos[431] = 307 degree 9
pos[430] = 227 degree 8
pos[429] = 147 degree 7
pos[428] = 67 degree 6
pos[427] = 466 degree 11
pos[426] = 386 degree 10
pos[425] = 306 degree 9
pos[424] = 226 degree 8
pos[423] = 146 degree 7
pos[422] = 66 degree 6
pos[421] = 465 degree 11
pos[420] = 385 degree 10
pos[419] = 305 degree 9
pos[418] = 225 degree 8
pos[417] = 145 degree 7
pos[416] = 65 degree 6
pos[415] = 464 degree 11
pos[414] = 384 degree 10
pos[413] = 304 degree 9
pos[412] = 224 degree 8
pos[411] = 144 degree 7
pos[410] = 64 degree 6
pos[409] = 463 degree 11
pos[408] = 383 degree 10
pos[407] = 303 degree 9
pos[406] = 223 degree 8
pos[405] = 143 degree 7
pos[404] = 63 degree 6
pos[403] = 462 degree 11
pos[402] = 382 degree 10
pos[401] = 302 degree 9
pos[400] = 222 degree 8
pos[399] = 142 degree 7
pos[398] = 62 degree 6
pos[397] = 461 degree 11
pos[396] = 381 degree 10
pos[395] = 301 degree 9
pos[394] = 221 degree 8
pos[393] = 141 degree 7
pos[392] = 61 degree 6
pos[391] = 460 degree 11
pos[390] = 380 degree 10
pos[389] = 300 degree 9
pos[388] = 220 degree 8
pos[387] = 140 degree 7
pos[386] = 60 degree 6
pos[385] = 459 degree 11
pos[384] = 379 degree 10
pos[383] = 299 degree 9
pos[382] = 219 degree 8
pos[381] = 139 degree 7
pos[380] = 59 degree 6
pos[379] = 458 degree 11
pos[378] = 378 degree 10
pos[377] = 298 degree 9
pos[376] = 218 degree 8
pos[375] = 138 degree 7
pos[374] = 58 degree 6
pos[373] = 457 degree 11
pos[372] = 377 degree 10
pos[371] = 297 degree 9
pos[370] = 217 degree 8
pos[369] = 137 degree 7
pos[368] = 57 degree 6
pos[367] = 456 degree 11
pos[366] = 376 degree 10
pos[365] = 296 degree 9
pos[364] = 216 degree 8
pos[363] = 136 degree 7
pos[362] = 56 degree 6
pos[361] = 455 degree 11
pos[360] = 375 degree 10
pos[359] = 295 degree 9
pos[358] = 215 degree 8
pos[357] = 135 degree 7
pos[356] = 55 degree 6
pos[355] = 454 degree 11
pos[354] = 374 degree 10
pos[353] = 294 degree 9
pos[352] = 214 degree 8
pos[351] = 134 degree 7
pos[350] = 54 degree 6
pos[349] = 453 degree 11
pos[348] = 373 degree 10
pos[347] = 293 degree 9
pos[346] = 213 degree 8
pos[345] = 133 degree 7
pos[344] = 53 degree 6
pos[343] = 452 degree 11
pos[342] = 372 degree 10
pos[341] = 292 degree 9
pos[340] = 212 degree 8
pos[339] = 132 degree 7
pos[338] = 52 degree 6
pos[337] = 451 degree 11
pos[336] = 371 degree 10
pos[335] = 291 degree 9
pos[334] = 211 degree 8
pos[333] = 131 degree 7
pos[332] = 51 degree 6
pos[331] = 450 degree 11
pos[330] = 370 degree 10
pos[329] = 290 degree 9
pos[328] = 210 degree 8
pos[327] = 130 degree 7
pos[326] = 50 degree 6
pos[325] = 449 degree 11
pos[324] = 369 degree 10
pos[323] = 289 degree 9
pos[322] = 209 degree 8
pos[321] = 129 degree 7
pos[320] = 49 degree 6
pos[319] = 448 degree 11
pos[318] = 368 degree 10
pos[317] = 288 degree 9
pos[316] = 208 degree 8
pos[315] = 128 degree 7
pos[314] = 48 degree 6
pos[313] = 447 degree 11
pos[312] = 367 degree 10
pos[311] = 287 degree 9
pos[310] = 207 degree 8
pos[309] = 127 degree 7
pos[308] = 47 degree 6
pos[307] = 446 degree 11
pos[306] = 366 degree 10
pos[305] = 286 degree 9
pos[304] = 206 degree 8
pos[303] = 126 degree 7
pos[302] = 46 degree 6
pos[301] = 445 degree 11
pos[300] = 365 degree 10
pos[299] = 285 degree 9
pos[298] = 205 degree 8
pos[297] = 125 degree 7
pos[296] = 45 degree 6
pos[295] = 444 degree 11
pos[294] = 364 degree 10
pos[293] = 284 degree 9
pos[292] = 204 degree 8
pos[291] = 124 degree 7
pos[290] = 44 degree 6
pos[289] = 443 degree 11
pos[288] = 363 degree 10
pos[287] = 283 degree 9
pos[286] = 203 degree 8
pos[285] = 123 degree 7
pos[284] = 43 degree 6
pos[283] = 442 degree 11
pos[282] = 362 degree 10
pos[281] = 282 degree 9
pos[280] = 202 degree 8
pos[279] = 122 degree 7
pos[278] = 42 degree 6
pos[277] = 441 degree 11
pos[276] = 361 degree 10
pos[275] = 281 degree 9
pos[274] = 201 degree 8
pos[273] = 121 degree 7
pos[272] = 41 degree 6
pos[271] = 440 degree 11
pos[270] = 360 degree 10
pos[269] = 280 degree 9
pos[268] = 200 degree 8
pos[267] = 120 degree 7
pos[266] = 40 degree 6
pos[265] = 439 degree 11
pos[264] = 359 degree 10
pos[263] = 279 degree 9
pos[262] = 199 degree 8
pos[261] = 119 degree 7
pos[260] = 39 degree 6
pos[259] = 438 degree 11
pos[258] = 358 degree 10
pos[257] = 278 degree 9
pos[256] = 198 degree 8
pos[255] = 118 degree 7
pos[254] = 38 degree 6
pos[253] = 437 degree 11
pos[252] = 357 degree 10
pos[251] = 277 degree 9
pos[250] = 197 degree 8
pos[249] = 117 degree 7
pos[248] = 37 degree 6
pos[247] = 436 degree 11
pos[246] = 356 degree 10
pos[245] = 276 degree 9
pos[244] = 196 degree 8
pos[243] = 116 degree 7
pos[242] = 36 degree 6
pos[241] = 435 degree 11
pos[240] = 355 degree 10
pos[239] = 275 degree 9
pos[238] = 195 degree 8
pos[237] = 115 degree 7
pos[236] = 35 degree 6
pos[235] = 434 degree 11
pos[234] = 354 degree 10
pos[233] = 274 degree 9
pos[232] = 194 degree 8
pos[231] = 114 degree 7
pos[230] = 34 degree 6
pos[229] = 433 degree 11
pos[228] = 353 degree 10
pos[227] = 273 degree 9
pos[226] = 193 degree 8
pos[225] = 113 degree 7
pos[224] = 33 degree 6
pos[223] = 432 degree 11
pos[222] = 352 degree 10
pos[221] = 272 degree 9
pos[220] = 192 degree 8
pos[219] = 112 degree 7
pos[218] = 32 degree 6
pos[217] = 431 degree 11
pos[216] = 351 degree 10
pos[215] = 271 degree 9
pos[214] = 191 degree 8
pos[213] = 111 degree 7
pos[212] = 31 degree 6
pos[211] = 430 degree 11
pos[210] = 350 degree 10
pos[209] = 270 degree 9
pos[208] = 190 degree 8
pos[207] = 110 degree 7
pos[206] = 30 degree 6
pos[205] = 429 degree 11
pos[204] = 349 degree 10
pos[203] = 269 degree 9
pos[202] = 189 degree 8
pos[201] = 109 degree 7
pos[200] = 29 degree 6
pos[199] = 428 degree 11
pos[198] = 348 degree 10
pos[197] = 268 degree 9
pos[196] = 188 degree 8
pos[195] = 108 degree 7
pos[194] = 28 degree 6
pos[193] = 427 degree 11
pos[192] = 347 degree 10
pos[191] = 267 degree 9
pos[190] = 187 degree 8
pos[189] = 107 degree 7
pos[188] = 27 degree 6
pos[187] = 426 degree 11
pos[186] = 346 degree 10
pos[185] = 266 degree 9
pos[184] = 186 degree 8
pos[183] = 106 degree 7
pos[182] = 26 degree 6
pos[181] = 425 degree 11
pos[180] = 345 degree 10
pos[179] = 265 degree 9
pos[178] = 185 degree 8
pos[177] = 105 degree 7
pos[176] = 25 degree 6
pos[175] = 424 degree 11
pos[174] = 344 degree 10
pos[173] = 264 degree 9
pos[172] = 184 degree 8
pos[171] = 104 degree 7
pos[170] = 24 degree 6
pos[169] = 423 degree 11
pos[168] = 343 degree 10
pos[167] = 263 degree 9
pos[166] = 183 degree 8
pos[165] = 103 degree 7
pos[164] = 23 degree 6
pos[163] = 422 degree 11
pos[162] = 342 degree 10
pos[161] = 262 degree 9
pos[160] = 182 degree 8
pos[159] = 102 degree 7
pos[158] = 22 degree 6
pos[157] = 421 degree 11
pos[156] = 341 degree 10
pos[155] = 261 degree 9
pos[154] = 181 degree 8
pos[153] = 101 degree 7
pos[152] = 21 degree 6
pos[151] = 479 degree 12
pos[150] = 399 degree 11
pos[149] = 319 degree 10
pos[148] = 239 degree 9
pos[147] = 159 degree 8
pos[146] = 79 degree 7
pos[145] = 420 degree 12
pos[144] = 340 degree 11
pos[143] = 260 degree 10
pos[142] = 180 degree 9
pos[141] = 100 degree 8
pos[140] = 20 degree 7
pos[139] = 499 degree 13
pos[138] = 419 degree 12
pos[137] = 339 degree 11
pos[136] = 259 degree 10
pos[135] = 179 degree 9
pos[134] = 99 degree 8
pos[133] = 19 degree 7
pos[132] = 498 degree 13
pos[131] = 418 degree 12
pos[130] = 338 degree 11
pos[129] = 258 degree 10
pos[128] = 178 degree 9
pos[127] = 98 degree 8
pos[126] = 18 degree 7
pos[125] = 497 degree 13
pos[124] = 417 degree 12
pos[123] = 337 degree 11
pos[122] = 257 degree 10
pos[121] = 177 degree 9
pos[120] = 97 degree 8
pos[119] = 17 degree 7
pos[118] = 496 degree 13
pos[117] = 416 degree 12
pos[116] = 336 degree 11
pos[115] = 256 degree 10
pos[114] = 176 degree 9
pos[113] = 96 degree 8
pos[112] = 16 degree 7
pos[111] = 495 degree 13
pos[110] = 415 degree 12
pos[109] = 335 degree 11
pos[108] = 255 degree 10
pos[107] = 175 degree 9
pos[106] = 95 degree 8
pos[105] = 15 degree 7
pos[104] = 494 degree 13
pos[103] = 414 degree 12
pos[102] = 334 degree 11
pos[101] = 254 degree 10
pos[100] = 174 degree 9
pos[99] = 94 degree 8
pos[98] = 14 degree 7
pos[97] = 493 degree 13
pos[96] = 413 degree 12
pos[95] = 333 degree 11
pos[94] = 253 degree 10
pos[93] = 173 degree 9
pos[92] = 93 degree 8
pos[91] = 13 degree 7
pos[90] = 492 degree 13
pos[89] = 412 degree 12
pos[88] = 332 degree 11
pos[87] = 252 degree 10
pos[86] = 172 degree 9
pos[85] = 92 degree 8
pos[84] = 12 degree 7
pos[83] = 491 degree 13
pos[82] = 411 degree 12
pos[81] = 331 degree 11
pos[80] = 251 degree 10
pos[79] = 171 degree 9
pos[78] = 91 degree 8
pos[77] = 11 degree 7
pos[76] = 490 degree 13
pos[75] = 410 degree 12
pos[74] = 330 degree 11
pos[73] = 250 degree 10
pos[72] = 170 degree 9
pos[71] = 90 degree 8
pos[70] = 10 degree 7
pos[69] = 489 degree 13
pos[68] = 409 degree 12
pos[67] = 329 degree 11
pos[66] = 249 degree 10
pos[65] = 169 degree 9
pos[64] = 89 degree 8
pos[63] = 9 degree 7
pos[62] = 488 degree 13
pos[61] = 408 degree 12
pos[60] = 328 degree 11
pos[59] = 248 degree 10
pos[58] = 168 degree 9
pos[57] = 88 degree 8
pos[56] = 8 degree 7
pos[55] = 487 degree 13
pos[54] = 407 degree 12
pos[53] = 327 degree 11
pos[52] = 247 degree 10
pos[51] = 167 degree 9
pos[50] = 87 degree 8
pos[49] = 7 degree 7
pos[48] = 486 degree 13
pos[47] = 406 degree 12
pos[46] = 326 degree 11
pos[45] = 246 degree 10
pos[44] = 166 degree 9
pos[43] = 86 degree 8
pos[42] = 6 degree 7
pos[41] = 485 degree 13
pos[40] = 405 degree 12
pos[39] = 325 degree 11
pos[38] = 245 degree 10
pos[37] = 165 degree 9
pos[36] = 85 degree 8
pos[35] = 5 degree 7
pos[34] = 484 degree 13
pos[33] = 404 degree 12
pos[32] = 324 degree 11
pos[31] = 244 degree 10
pos[30] = 164 degree 9
pos[29] = 84 degree 8
pos[28] = 4 degree 7
pos[27] = 483 degree 13
pos[26] = 403 degree 12
pos[25] = 323 degree 11
pos[24] = 243 degree 10
pos[23] = 163 degree 9
pos[22] = 83 degree 8
pos[21] = 3 degree 7
pos[20] = 482 degree 13
pos[19] = 402 degree 12
pos[18] = 322 degree 11
pos[17] = 242 degree 10
pos[16] = 162 degree 9
pos[15] = 82 degree 8
pos[14] = 2 degree 7
pos[13] = 481 degree 13
pos[12] = 480 degree 12
pos[11] = 401 degree 11
pos[10] = 400 degree 10
pos[9] = 321 degree 9
pos[8] = 320 degree 8
pos[7] = 241 degree 7
pos[6] = 240 degree 6
pos[5] = 161 degree 5
pos[4] = 160 degree 4
pos[3] = 81 degree 3
pos[2] = 80 degree 2
pos[1] = 1 degree 1
pos[0] = 0 degree 0
start search
improving solution size 14
best clique: 1 2 81 82 161 162 241 242 321 322 401 402 481 482 
record          =          14
subp            =      129239
time            =     0.26179
