timeout 3600 s
Graph with 500 vertices and 46627 edges density 0.373764
t = 93254, Enbr = 46627
pos[499] = 494 degree 185
pos[498] = 493 degree 184
pos[497] = 486 degree 183
pos[496] = 485 degree 182
pos[495] = 478 degree 181
pos[494] = 477 degree 180
pos[493] = 470 degree 179
pos[492] = 469 degree 178
pos[491] = 462 degree 177
pos[490] = 461 degree 176
pos[489] = 454 degree 175
pos[488] = 453 degree 174
pos[487] = 446 degree 173
pos[486] = 445 degree 172
pos[485] = 438 degree 171
pos[484] = 437 degree 170
pos[483] = 430 degree 169
pos[482] = 429 degree 168
pos[481] = 422 degree 167
pos[480] = 421 degree 166
pos[479] = 414 degree 165
pos[478] = 413 degree 164
pos[477] = 406 degree 163
pos[476] = 405 degree 162
pos[475] = 398 degree 161
pos[474] = 397 degree 160
pos[473] = 390 degree 159
pos[472] = 389 degree 158
pos[471] = 382 degree 157
pos[470] = 381 degree 156
pos[469] = 374 degree 155
pos[468] = 373 degree 154
pos[467] = 366 degree 153
pos[466] = 365 degree 152
pos[465] = 358 degree 151
pos[464] = 357 degree 150
pos[463] = 350 degree 149
pos[462] = 349 degree 148
pos[461] = 342 degree 147
pos[460] = 341 degree 146
pos[459] = 334 degree 145
pos[458] = 333 degree 144
pos[457] = 326 degree 143
pos[456] = 325 degree 142
pos[455] = 318 degree 141
pos[454] = 317 degree 140
pos[453] = 310 degree 139
pos[452] = 309 degree 138
pos[451] = 302 degree 137
pos[450] = 301 degree 136
pos[449] = 294 degree 135
pos[448] = 293 degree 134
pos[447] = 286 degree 133
pos[446] = 285 degree 132
pos[445] = 278 degree 131
pos[444] = 277 degree 130
pos[443] = 270 degree 129
pos[442] = 269 degree 128
pos[441] = 262 degree 127
pos[440] = 261 degree 126
pos[439] = 254 degree 125
pos[438] = 253 degree 124
pos[437] = 246 degree 123
pos[436] = 245 degree 122
pos[435] = 238 degree 121
pos[434] = 237 degree 120
pos[433] = 230 degree 119
pos[432] = 229 degree 118
pos[431] = 222 degree 117
pos[430] = 221 degree 116
pos[429] = 214 degree 115
pos[428] = 213 degree 114
pos[427] = 206 degree 113
pos[426] = 205 degree 112
pos[425] = 198 degree 111
pos[424] = 197 degree 110
pos[423] = 190 degree 109
pos[422] = 189 degree 108
pos[421] = 182 degree 107
pos[420] = 181 degree 106
pos[419] = 174 degree 105
pos[418] = 173 degree 104
pos[417] = 166 degree 103
pos[416] = 165 degree 102
pos[415] = 158 degree 101
pos[414] = 157 degree 100
pos[413] = 150 degree 99
pos[412] = 149 degree 98
pos[411] = 142 degree 97
pos[410] = 141 degree 96
pos[409] = 134 degree 95
pos[408] = 133 degree 94
pos[407] = 126 degree 93
pos[406] = 125 degree 92
pos[405] = 118 degree 91
pos[404] = 117 degree 90
pos[403] = 110 degree 89
pos[402] = 109 degree 88
pos[401] = 102 degree 87
pos[400] = 101 degree 86
pos[399] = 94 degree 85
pos[398] = 93 degree 84
pos[397] = 86 degree 83
pos[396] = 85 degree 82
pos[395] = 78 degree 81
pos[394] = 77 degree 80
pos[393] = 70 degree 79
pos[392] = 69 degree 78
pos[391] = 62 degree 77
pos[390] = 61 degree 76
pos[389] = 54 degree 75
pos[388] = 53 degree 74
pos[387] = 46 degree 73
pos[386] = 45 degree 72
pos[385] = 38 degree 71
pos[384] = 37 degree 70
pos[383] = 30 degree 69
pos[382] = 29 degree 68
pos[381] = 22 degree 67
pos[380] = 21 degree 66
pos[379] = 14 degree 65
pos[378] = 13 degree 64
pos[377] = 6 degree 63
pos[376] = 5 degree 62
pos[375] = 495 degree 124
pos[374] = 487 degree 123
pos[373] = 479 degree 122
pos[372] = 471 degree 121
pos[371] = 463 degree 120
pos[370] = 455 degree 119
pos[369] = 447 degree 118
pos[368] = 439 degree 117
pos[367] = 431 degree 116
pos[366] = 423 degree 115
pos[365] = 415 degree 114
pos[364] = 407 degree 113
pos[363] = 399 degree 112
pos[362] = 391 degree 111
pos[361] = 383 degree 110
pos[360] = 375 degree 109
pos[359] = 367 degree 108
pos[358] = 359 degree 107
pos[357] = 351 degree 106
pos[356] = 343 degree 105
pos[355] = 335 degree 104
pos[354] = 327 degree 103
pos[353] = 319 degree 102
pos[352] = 311 degree 101
pos[351] = 303 degree 100
pos[350] = 295 degree 99
pos[349] = 287 degree 98
pos[348] = 279 degree 97
pos[347] = 271 degree 96
pos[346] = 263 degree 95
pos[345] = 255 degree 94
pos[344] = 247 degree 93
pos[343] = 239 degree 92
pos[342] = 231 degree 91
pos[341] = 223 degree 90
pos[340] = 215 degree 89
pos[339] = 207 degree 88
pos[338] = 199 degree 87
pos[337] = 191 degree 86
pos[336] = 183 degree 85
pos[335] = 175 degree 84
pos[334] = 167 degree 83
pos[333] = 159 degree 82
pos[332] = 151 degree 81
pos[331] = 143 degree 80
pos[330] = 135 degree 79
pos[329] = 127 degree 78
pos[328] = 119 degree 77
pos[327] = 111 degree 76
pos[326] = 103 degree 75
pos[325] = 95 degree 74
pos[324] = 87 degree 73
pos[323] = 79 degree 72
pos[322] = 71 degree 71
pos[321] = 63 degree 70
pos[320] = 55 degree 69
pos[319] = 47 degree 68
pos[318] = 39 degree 67
pos[317] = 31 degree 66
pos[316] = 23 degree 65
pos[315] = 15 degree 64
pos[314] = 7 degree 63
pos[313] = 492 degree 124
pos[312] = 484 degree 123
pos[311] = 476 degree 122
pos[310] = 468 degree 121
pos[309] = 460 degree 120
pos[308] = 452 degree 119
pos[307] = 444 degree 118
pos[306] = 436 degree 117
pos[305] = 428 degree 116
pos[304] = 420 degree 115
pos[303] = 412 degree 114
pos[302] = 404 degree 113
pos[301] = 396 degree 112
pos[300] = 388 degree 111
pos[299] = 380 degree 110
pos[298] = 372 degree 109
pos[297] = 364 degree 108
pos[296] = 356 degree 107
pos[295] = 348 degree 106
pos[294] = 340 degree 105
pos[293] = 332 degree 104
pos[292] = 324 degree 103
pos[291] = 316 degree 102
pos[290] = 308 degree 101
pos[289] = 300 degree 100
pos[288] = 292 degree 99
pos[287] = 284 degree 98
pos[286] = 276 degree 97
pos[285] = 268 degree 96
pos[284] = 260 degree 95
pos[283] = 252 degree 94
pos[282] = 244 degree 93
pos[281] = 236 degree 92
pos[280] = 228 degree 91
pos[279] = 220 degree 90
pos[278] = 212 degree 89
pos[277] = 204 degree 88
pos[276] = 196 degree 87
pos[275] = 188 degree 86
pos[274] = 180 degree 85
pos[273] = 172 degree 84
pos[272] = 164 degree 83
pos[271] = 156 degree 82
pos[270] = 148 degree 81
pos[269] = 140 degree 80
pos[268] = 132 degree 79
pos[267] = 124 degree 78
pos[266] = 116 degree 77
pos[265] = 108 degree 76
pos[264] = 100 degree 75
pos[263] = 92 degree 74
pos[262] = 84 degree 73
pos[261] = 76 degree 72
pos[260] = 68 degree 71
pos[259] = 60 degree 70
pos[258] = 52 degree 69
pos[257] = 44 degree 68
pos[256] = 36 degree 67
pos[255] = 28 degree 66
pos[254] = 20 degree 65
pos[253] = 12 degree 64
pos[252] = 4 degree 63
pos[251] = 499 degree 125
pos[250] = 491 degree 124
pos[249] = 483 degree 123
pos[248] = 475 degree 122
pos[247] = 467 degree 121
pos[246] = 459 degree 120
pos[245] = 451 degree 119
pos[244] = 443 degree 118
pos[243] = 435 degree 117
pos[242] = 427 degree 116
pos[241] = 419 degree 115
pos[240] = 411 degree 114
pos[239] = 403 degree 113
pos[238] = 395 degree 112
pos[237] = 387 degree 111
pos[236] = 379 degree 110
pos[235] = 371 degree 109
pos[234] = 363 degree 108
pos[233] = 355 degree 107
pos[232] = 347 degree 106
pos[231] = 339 degree 105
pos[230] = 331 degree 104
pos[229] = 323 degree 103
pos[228] = 315 degree 102
pos[227] = 307 degree 101
pos[226] = 299 degree 100
pos[225] = 291 degree 99
pos[224] = 283 degree 98
pos[223] = 275 degree 97
pos[222] = 267 degree 96
pos[221] = 259 degree 95
pos[220] = 251 degree 94
pos[219] = 243 degree 93
pos[218] = 235 degree 92
pos[217] = 227 degree 91
pos[216] = 219 degree 90
pos[215] = 211 degree 89
pos[214] = 203 degree 88
pos[213] = 195 degree 87
pos[212] = 187 degree 86
pos[211] = 179 degree 85
pos[210] = 171 degree 84
pos[209] = 163 degree 83
pos[208] = 155 degree 82
pos[207] = 147 degree 81
pos[206] = 139 degree 80
pos[205] = 131 degree 79
pos[204] = 123 degree 78
pos[203] = 115 degree 77
pos[202] = 107 degree 76
pos[201] = 99 degree 75
pos[200] = 91 degree 74
pos[199] = 83 degree 73
pos[198] = 75 degree 72
pos[197] = 67 degree 71
pos[196] = 59 degree 70
pos[195] = 51 degree 69
pos[194] = 43 degree 68
pos[193] = 35 degree 67
pos[192] = 27 degree 66
pos[191] = 19 degree 65
pos[190] = 11 degree 64
pos[189] = 3 degree 63
pos[188] = 498 degree 125
pos[187] = 490 degree 124
pos[186] = 482 degree 123
pos[185] = 474 degree 122
pos[184] = 466 degree 121
pos[183] = 458 degree 120
pos[182] = 450 degree 119
pos[181] = 442 degree 118
pos[180] = 434 degree 117
pos[179] = 426 degree 116
pos[178] = 418 degree 115
pos[177] = 410 degree 114
pos[176] = 402 degree 113
pos[175] = 394 degree 112
pos[174] = 386 degree 111
pos[173] = 378 degree 110
pos[172] = 370 degree 109
pos[171] = 362 degree 108
pos[170] = 354 degree 107
pos[169] = 346 degree 106
pos[168] = 338 degree 105
pos[167] = 330 degree 104
pos[166] = 322 degree 103
pos[165] = 314 degree 102
pos[164] = 306 degree 101
pos[163] = 298 degree 100
pos[162] = 290 degree 99
pos[161] = 282 degree 98
pos[160] = 274 degree 97
pos[159] = 266 degree 96
pos[158] = 258 degree 95
pos[157] = 250 degree 94
pos[156] = 242 degree 93
pos[155] = 234 degree 92
pos[154] = 226 degree 91
pos[153] = 218 degree 90
pos[152] = 210 degree 89
pos[151] = 202 degree 88
pos[150] = 194 degree 87
pos[149] = 186 degree 86
pos[148] = 178 degree 85
pos[147] = 170 degree 84
pos[146] = 162 degree 83
pos[145] = 154 degree 82
pos[144] = 146 degree 81
pos[143] = 138 degree 80
pos[142] = 130 degree 79
pos[141] = 122 degree 78
pos[140] = 114 degree 77
pos[139] = 106 degree 76
pos[138] = 98 degree 75
pos[137] = 90 degree 74
pos[136] = 82 degree 73
pos[135] = 74 degree 72
pos[134] = 66 degree 71
pos[133] = 58 degree 70
pos[132] = 50 degree 69
pos[131] = 42 degree 68
pos[130] = 34 degree 67
pos[129] = 26 degree 66
pos[128] = 18 degree 65
pos[127] = 10 degree 64
pos[126] = 2 degree 63
pos[125] = 497 degree 125
pos[124] = 496 degree 124
pos[123] = 489 degree 123
pos[122] = 488 degree 122
pos[121] = 481 degree 121
pos[120] = 480 degree 120
pos[119] = 473 degree 119
pos[118] = 472 degree 118
pos[117] = 465 degree 117
pos[116] = 464 degree 116
pos[115] = 457 degree 115
pos[114] = 456 degree 114
pos[113] = 449 degree 113
pos[112] = 448 degree 112
pos[111] = 441 degree 111
pos[110] = 440 degree 110
pos[109] = 433 degree 109
pos[108] = 432 degree 108
pos[107] = 425 degree 107
pos[106] = 424 degree 106
pos[105] = 417 degree 105
pos[104] = 416 degree 104
pos[103] = 409 degree 103
pos[102] = 408 degree 102
pos[101] = 401 degree 101
pos[100] = 400 degree 100
pos[99] = 393 degree 99
pos[98] = 392 degree 98
pos[97] = 385 degree 97
pos[96] = 384 degree 96
pos[95] = 377 degree 95
pos[94] = 376 degree 94
pos[93] = 369 degree 93
pos[92] = 368 degree 92
pos[91] = 361 degree 91
pos[90] = 360 degree 90
pos[89] = 353 degree 89
pos[88] = 352 degree 88
pos[87] = 345 degree 87
pos[86] = 344 degree 86
pos[85] = 337 degree 85
pos[84] = 336 degree 84
pos[83] = 329 degree 83
pos[82] = 328 degree 82
pos[81] = 321 degree 81
pos[80] = 320 degree 80
pos[79] = 313 degree 79
pos[78] = 312 degree 78
pos[77] = 305 degree 77
pos[76] = 304 degree 76
pos[75] = 297 degree 75
pos[74] = 296 degree 74
pos[73] = 289 degree 73
pos[72] = 288 degree 72
pos[71] = 281 degree 71
pos[70] = 280 degree 70
pos[69] = 273 degree 69
pos[68] = 272 degree 68
pos[67] = 265 degree 67
pos[66] = 264 degree 66
pos[65] = 257 degree 65
pos[64] = 256 degree 64
pos[63] = 249 degree 63
pos[62] = 248 degree 62
pos[61] = 241 degree 61
pos[60] = 240 degree 60
pos[59] = 233 degree 59
pos[58] = 232 degree 58
pos[57] = 225 degree 57
pos[56] = 224 degree 56
pos[55] = 217 degree 55
pos[54] = 216 degree 54
pos[53] = 209 degree 53
pos[52] = 208 degree 52
pos[51] = 201 degree 51
pos[50] = 200 degree 50
pos[49] = 193 degree 49
pos[48] = 192 degree 48
pos[47] = 185 degree 47
pos[46] = 184 degree 46
pos[45] = 177 degree 45
pos[44] = 176 degree 44
pos[43] = 169 degree 43
pos[42] = 168 degree 42
pos[41] = 161 degree 41
pos[40] = 160 degree 40
pos[39] = 153 degree 39
pos[38] = 152 degree 38
pos[37] = 145 degree 37
pos[36] = 144 degree 36
pos[35] = 137 degree 35
pos[34] = 136 degree 34
pos[33] = 129 degree 33
pos[32] = 128 degree 32
pos[31] = 121 degree 31
pos[30] = 120 degree 30
pos[29] = 113 degree 29
pos[28] = 112 degree 28
pos[27] = 105 degree 27
pos[26] = 104 degree 26
pos[25] = 97 degree 25
pos[24] = 96 degree 24
pos[23] = 89 degree 23
pos[22] = 88 degree 22
pos[21] = 81 degree 21
pos[20] = 80 degree 20
pos[19] = 73 degree 19
pos[18] = 72 degree 18
pos[17] = 65 degree 17
pos[16] = 64 degree 16
pos[15] = 57 degree 15
pos[14] = 56 degree 14
pos[13] = 49 degree 13
pos[12] = 48 degree 12
pos[11] = 41 degree 11
pos[10] = 40 degree 10
pos[9] = 33 degree 9
pos[8] = 32 degree 8
pos[7] = 25 degree 7
pos[6] = 24 degree 6
pos[5] = 17 degree 5
pos[4] = 16 degree 4
pos[3] = 9 degree 3
pos[2] = 8 degree 2
pos[1] = 1 degree 1
pos[0] = 0 degree 0
start search
improving solution size 126
TIMEOUT
best clique: 1 2 9 10 17 18 25 26 33 34 41 42 49 50 57 58 65 66 73 74 81 82 89 90 97 98 105 106 113 114 121 122 129 130 137 138 145 146 153 154 161 162 169 170 177 178 185 186 193 194 201 202 209 210 217 218 225 226 233 234 241 242 249 250 257 258 265 266 273 274 281 282 289 290 297 298 305 306 313 314 321 322 329 330 337 338 345 346 353 354 361 362 369 370 377 378 385 386 393 394 401 402 409 410 417 418 425 426 433 434 441 442 449 450 457 458 465 466 473 474 481 482 489 490 497 498 
record          =         126
subp            =  1402499098
time            =  3600.00149
