timeout 3600 s
Graph with 125 vertices and 6963 edges density 0.898452
t = 13926, Enbr = 6963
pos[124] = 82 degree 102
pos[123] = 35 degree 101
pos[122] = 107 degree 101
pos[121] = 75 degree 102
pos[120] = 94 degree 102
pos[119] = 89 degree 101
pos[118] = 63 degree 100
pos[117] = 14 degree 99
pos[116] = 41 degree 99
pos[115] = 96 degree 99
pos[114] = 87 degree 98
pos[113] = 15 degree 97
pos[112] = 112 degree 97
pos[111] = 101 degree 96
pos[110] = 93 degree 95
pos[109] = 72 degree 94
pos[108] = 111 degree 94
pos[107] = 123 degree 94
pos[106] = 115 degree 93
pos[105] = 102 degree 92
pos[104] = 99 degree 91
pos[103] = 20 degree 90
pos[102] = 120 degree 90
pos[101] = 119 degree 89
pos[100] = 80 degree 88
pos[99] = 55 degree 87
pos[98] = 49 degree 86
pos[97] = 11 degree 85
pos[96] = 104 degree 85
pos[95] = 31 degree 84
pos[94] = 13 degree 83
pos[93] = 2 degree 82
pos[92] = 106 degree 82
pos[91] = 73 degree 81
pos[90] = 36 degree 80
pos[89] = 3 degree 79
pos[88] = 108 degree 79
pos[87] = 71 degree 78
pos[86] = 52 degree 77
pos[85] = 32 degree 76
pos[84] = 26 degree 75
pos[83] = 118 degree 75
pos[82] = 86 degree 74
pos[81] = 60 degree 73
pos[80] = 37 degree 72
pos[79] = 117 degree 72
pos[78] = 105 degree 71
pos[77] = 77 degree 70
pos[76] = 62 degree 69
pos[75] = 61 degree 68
pos[74] = 58 degree 67
pos[73] = 42 degree 66
pos[72] = 29 degree 65
pos[71] = 27 degree 64
pos[70] = 19 degree 63
pos[69] = 110 degree 63
pos[68] = 88 degree 62
pos[67] = 83 degree 61
pos[66] = 57 degree 60
pos[65] = 51 degree 59
pos[64] = 22 degree 58
pos[63] = 5 degree 57
pos[62] = 74 degree 57
pos[61] = 122 degree 57
pos[60] = 114 degree 56
pos[59] = 68 degree 55
pos[58] = 59 degree 54
pos[57] = 56 degree 53
pos[56] = 45 degree 52
pos[55] = 40 degree 51
pos[54] = 38 degree 50
pos[53] = 25 degree 49
pos[52] = 12 degree 48
pos[51] = 9 degree 47
pos[50] = 90 degree 47
pos[49] = 85 degree 46
pos[48] = 50 degree 45
pos[47] = 7 degree 44
pos[46] = 103 degree 44
pos[45] = 98 degree 43
pos[44] = 91 degree 42
pos[43] = 54 degree 41
pos[42] = 34 degree 40
pos[41] = 21 degree 39
pos[40] = 113 degree 39
pos[39] = 100 degree 38
pos[38] = 92 degree 37
pos[37] = 84 degree 36
pos[36] = 81 degree 35
pos[35] = 67 degree 34
pos[34] = 66 degree 33
pos[33] = 65 degree 32
pos[32] = 64 degree 31
pos[31] = 124 degree 31
pos[30] = 121 degree 30
pos[29] = 116 degree 29
pos[28] = 109 degree 28
pos[27] = 97 degree 27
pos[26] = 95 degree 26
pos[25] = 79 degree 25
pos[24] = 78 degree 24
pos[23] = 76 degree 23
pos[22] = 70 degree 22
pos[21] = 69 degree 21
pos[20] = 53 degree 20
pos[19] = 48 degree 19
pos[18] = 47 degree 18
pos[17] = 46 degree 17
pos[16] = 44 degree 16
pos[15] = 43 degree 15
pos[14] = 39 degree 14
pos[13] = 33 degree 13
pos[12] = 30 degree 12
pos[11] = 28 degree 11
pos[10] = 24 degree 10
pos[9] = 23 degree 9
pos[8] = 18 degree 8
pos[7] = 17 degree 7
pos[6] = 16 degree 6
pos[5] = 10 degree 5
pos[4] = 8 degree 4
pos[3] = 6 degree 3
pos[2] = 4 degree 2
pos[1] = 1 degree 1
pos[0] = 0 degree 0
start search
improving solution size 41
improving solution size 42
improving solution size 43
TIMEOUT
best clique: 1 2 5 7 9 11 17 18 19 24 25 29 31 34 40 44 45 49 67 65 68 125 82 122 85 93 117 110 114 55 99 98 101 96 92 80 35 123 77 103 71 70 54 
record          =          43
subp            =  3255832580
time            =  3600.00091
