timeout 3600 s
Graph with 1024 vertices and 518656 edges density 0.990225
t = 1037312, Enbr = 518656
pos[1023] = 1023 degree 1013
pos[1022] = 1020 degree 1012
pos[1021] = 1018 degree 1011
pos[1020] = 1017 degree 1010
pos[1019] = 1014 degree 1009
pos[1018] = 1013 degree 1008
pos[1017] = 1011 degree 1007
pos[1016] = 1008 degree 1006
pos[1015] = 1006 degree 1005
pos[1014] = 1005 degree 1004
pos[1013] = 1003 degree 1003
pos[1012] = 1000 degree 1002
pos[1011] = 999 degree 1001
pos[1010] = 996 degree 1000
pos[1009] = 994 degree 999
pos[1008] = 993 degree 998
pos[1007] = 990 degree 997
pos[1006] = 989 degree 996
pos[1005] = 987 degree 995
pos[1004] = 984 degree 994
pos[1003] = 983 degree 993
pos[1002] = 980 degree 992
pos[1001] = 978 degree 991
pos[1000] = 977 degree 990
pos[999] = 975 degree 989
pos[998] = 972 degree 988
pos[997] = 970 degree 987
pos[996] = 969 degree 986
pos[995] = 966 degree 985
pos[994] = 965 degree 984
pos[993] = 963 degree 983
pos[992] = 960 degree 982
pos[991] = 958 degree 981
pos[990] = 957 degree 980
pos[989] = 955 degree 979
pos[988] = 952 degree 978
pos[987] = 951 degree 977
pos[986] = 948 degree 976
pos[985] = 946 degree 975
pos[984] = 945 degree 974
pos[983] = 943 degree 973
pos[982] = 940 degree 972
pos[981] = 938 degree 971
pos[980] = 937 degree 970
pos[979] = 934 degree 969
pos[978] = 933 degree 968
pos[977] = 931 degree 967
pos[976] = 928 degree 966
pos[975] = 927 degree 965
pos[974] = 924 degree 964
pos[973] = 922 degree 963
pos[972] = 921 degree 962
pos[971] = 918 degree 961
pos[970] = 917 degree 960
pos[969] = 915 degree 959
pos[968] = 912 degree 958
pos[967] = 910 degree 957
pos[966] = 909 degree 956
pos[965] = 907 degree 955
pos[964] = 904 degree 954
pos[963] = 903 degree 953
pos[962] = 900 degree 952
pos[961] = 898 degree 951
pos[960] = 897 degree 950
pos[959] = 894 degree 949
pos[958] = 893 degree 948
pos[957] = 891 degree 947
pos[956] = 888 degree 946
pos[955] = 887 degree 945
pos[954] = 884 degree 944
pos[953] = 882 degree 943
pos[952] = 881 degree 942
pos[951] = 879 degree 941
pos[950] = 876 degree 940
pos[949] = 874 degree 939
pos[948] = 873 degree 938
pos[947] = 870 degree 937
pos[946] = 869 degree 936
pos[945] = 867 degree 935
pos[944] = 864 degree 934
pos[943] = 863 degree 933
pos[942] = 860 degree 932
pos[941] = 858 degree 931
pos[940] = 857 degree 930
pos[939] = 854 degree 929
pos[938] = 853 degree 928
pos[937] = 851 degree 927
pos[936] = 848 degree 926
pos[935] = 846 degree 925
pos[934] = 845 degree 924
pos[933] = 843 degree 923
pos[932] = 840 degree 922
pos[931] = 839 degree 921
pos[930] = 836 degree 920
pos[929] = 834 degree 919
pos[928] = 833 degree 918
pos[927] = 831 degree 917
pos[926] = 828 degree 916
pos[925] = 826 degree 915
pos[924] = 825 degree 914
pos[923] = 822 degree 913
pos[922] = 821 degree 912
pos[921] = 819 degree 911
pos[920] = 816 degree 910
pos[919] = 814 degree 909
pos[918] = 813 degree 908
pos[917] = 811 degree 907
pos[916] = 808 degree 906
pos[915] = 807 degree 905
pos[914] = 804 degree 904
pos[913] = 802 degree 903
pos[912] = 801 degree 902
pos[911] = 798 degree 901
pos[910] = 797 degree 900
pos[909] = 795 degree 899
pos[908] = 792 degree 898
pos[907] = 791 degree 897
pos[906] = 788 degree 896
pos[905] = 786 degree 895
pos[904] = 785 degree 894
pos[903] = 783 degree 893
pos[902] = 780 degree 892
pos[901] = 778 degree 891
pos[900] = 777 degree 890
pos[899] = 774 degree 889
pos[898] = 773 degree 888
pos[897] = 771 degree 887
pos[896] = 768 degree 886
pos[895] = 766 degree 885
pos[894] = 765 degree 884
pos[893] = 763 degree 883
pos[892] = 760 degree 882
pos[891] = 759 degree 881
pos[890] = 756 degree 880
pos[889] = 754 degree 879
pos[888] = 753 degree 878
pos[887] = 751 degree 877
pos[886] = 748 degree 876
pos[885] = 746 degree 875
pos[884] = 745 degree 874
pos[883] = 742 degree 873
pos[882] = 741 degree 872
pos[881] = 739 degree 871
pos[880] = 736 degree 870
pos[879] = 735 degree 869
pos[878] = 732 degree 868
pos[877] = 730 degree 867
pos[876] = 729 degree 866
pos[875] = 726 degree 865
pos[874] = 725 degree 864
pos[873] = 723 degree 863
pos[872] = 720 degree 862
pos[871] = 718 degree 861
pos[870] = 717 degree 860
pos[869] = 715 degree 859
pos[868] = 712 degree 858
pos[867] = 711 degree 857
pos[866] = 708 degree 856
pos[865] = 706 degree 855
pos[864] = 705 degree 854
pos[863] = 703 degree 853
pos[862] = 700 degree 852
pos[861] = 698 degree 851
pos[860] = 697 degree 850
pos[859] = 694 degree 849
pos[858] = 693 degree 848
pos[857] = 691 degree 847
pos[856] = 688 degree 846
pos[855] = 686 degree 845
pos[854] = 685 degree 844
pos[853] = 683 degree 843
pos[852] = 680 degree 842
pos[851] = 679 degree 841
pos[850] = 676 degree 840
pos[849] = 674 degree 839
pos[848] = 673 degree 838
pos[847] = 670 degree 837
pos[846] = 669 degree 836
pos[845] = 667 degree 835
pos[844] = 664 degree 834
pos[843] = 663 degree 833
pos[842] = 660 degree 832
pos[841] = 658 degree 831
pos[840] = 657 degree 830
pos[839] = 655 degree 829
pos[838] = 652 degree 828
pos[837] = 650 degree 827
pos[836] = 649 degree 826
pos[835] = 646 degree 825
pos[834] = 645 degree 824
pos[833] = 643 degree 823
pos[832] = 640 degree 822
pos[831] = 639 degree 821
pos[830] = 636 degree 820
pos[829] = 634 degree 819
pos[828] = 633 degree 818
pos[827] = 630 degree 817
pos[826] = 629 degree 816
pos[825] = 627 degree 815
pos[824] = 624 degree 814
pos[823] = 622 degree 813
pos[822] = 621 degree 812
pos[821] = 619 degree 811
pos[820] = 616 degree 810
pos[819] = 615 degree 809
pos[818] = 612 degree 808
pos[817] = 610 degree 807
pos[816] = 609 degree 806
pos[815] = 606 degree 805
pos[814] = 605 degree 804
pos[813] = 603 degree 803
pos[812] = 600 degree 802
pos[811] = 599 degree 801
pos[810] = 596 degree 800
pos[809] = 594 degree 799
pos[808] = 593 degree 798
pos[807] = 591 degree 797
pos[806] = 588 degree 796
pos[805] = 586 degree 795
pos[804] = 585 degree 794
pos[803] = 582 degree 793
pos[802] = 581 degree 792
pos[801] = 579 degree 791
pos[800] = 576 degree 790
pos[799] = 574 degree 789
pos[798] = 573 degree 788
pos[797] = 571 degree 787
pos[796] = 568 degree 786
pos[795] = 567 degree 785
pos[794] = 564 degree 784
pos[793] = 562 degree 783
pos[792] = 561 degree 782
pos[791] = 559 degree 781
pos[790] = 556 degree 780
pos[789] = 554 degree 779
pos[788] = 553 degree 778
pos[787] = 550 degree 777
pos[786] = 549 degree 776
pos[785] = 547 degree 775
pos[784] = 544 degree 774
pos[783] = 543 degree 773
pos[782] = 540 degree 772
pos[781] = 538 degree 771
pos[780] = 537 degree 770
pos[779] = 534 degree 769
pos[778] = 533 degree 768
pos[777] = 531 degree 767
pos[776] = 528 degree 766
pos[775] = 526 degree 765
pos[774] = 525 degree 764
pos[773] = 523 degree 763
pos[772] = 520 degree 762
pos[771] = 519 degree 761
pos[770] = 516 degree 760
pos[769] = 514 degree 759
pos[768] = 513 degree 758
pos[767] = 510 degree 757
pos[766] = 509 degree 756
pos[765] = 507 degree 755
pos[764] = 504 degree 754
pos[763] = 503 degree 753
pos[762] = 500 degree 752
pos[761] = 498 degree 751
pos[760] = 497 degree 750
pos[759] = 495 degree 749
pos[758] = 492 degree 748
pos[757] = 490 degree 747
pos[756] = 489 degree 746
pos[755] = 486 degree 745
pos[754] = 485 degree 744
pos[753] = 483 degree 743
pos[752] = 480 degree 742
pos[751] = 479 degree 741
pos[750] = 476 degree 740
pos[749] = 474 degree 739
pos[748] = 473 degree 738
pos[747] = 470 degree 737
pos[746] = 469 degree 736
pos[745] = 467 degree 735
pos[744] = 464 degree 734
pos[743] = 462 degree 733
pos[742] = 461 degree 732
pos[741] = 459 degree 731
pos[740] = 456 degree 730
pos[739] = 455 degree 729
pos[738] = 452 degree 728
pos[737] = 450 degree 727
pos[736] = 449 degree 726
pos[735] = 447 degree 725
pos[734] = 444 degree 724
pos[733] = 442 degree 723
pos[732] = 441 degree 722
pos[731] = 438 degree 721
pos[730] = 437 degree 720
pos[729] = 435 degree 719
pos[728] = 432 degree 718
pos[727] = 430 degree 717
pos[726] = 429 degree 716
pos[725] = 427 degree 715
pos[724] = 424 degree 714
pos[723] = 423 degree 713
pos[722] = 420 degree 712
pos[721] = 418 degree 711
pos[720] = 417 degree 710
pos[719] = 414 degree 709
pos[718] = 413 degree 708
pos[717] = 411 degree 707
pos[716] = 408 degree 706
pos[715] = 407 degree 705
pos[714] = 404 degree 704
pos[713] = 402 degree 703
pos[712] = 401 degree 702
pos[711] = 399 degree 701
pos[710] = 396 degree 700
pos[709] = 394 degree 699
pos[708] = 393 degree 698
pos[707] = 390 degree 697
pos[706] = 389 degree 696
pos[705] = 387 degree 695
pos[704] = 384 degree 694
pos[703] = 383 degree 693
pos[702] = 380 degree 692
pos[701] = 378 degree 691
pos[700] = 377 degree 690
pos[699] = 374 degree 689
pos[698] = 373 degree 688
pos[697] = 371 degree 687
pos[696] = 368 degree 686
pos[695] = 366 degree 685
pos[694] = 365 degree 684
pos[693] = 363 degree 683
pos[692] = 360 degree 682
pos[691] = 359 degree 681
pos[690] = 356 degree 680
pos[689] = 354 degree 679
pos[688] = 353 degree 678
pos[687] = 350 degree 677
pos[686] = 349 degree 676
pos[685] = 347 degree 675
pos[684] = 344 degree 674
pos[683] = 343 degree 673
pos[682] = 340 degree 672
pos[681] = 338 degree 671
pos[680] = 337 degree 670
pos[679] = 335 degree 669
pos[678] = 332 degree 668
pos[677] = 330 degree 667
pos[676] = 329 degree 666
pos[675] = 326 degree 665
pos[674] = 325 degree 664
pos[673] = 323 degree 663
pos[672] = 320 degree 662
pos[671] = 318 degree 661
pos[670] = 317 degree 660
pos[669] = 315 degree 659
pos[668] = 312 degree 658
pos[667] = 311 degree 657
pos[666] = 308 degree 656
pos[665] = 306 degree 655
pos[664] = 305 degree 654
pos[663] = 303 degree 653
pos[662] = 300 degree 652
pos[661] = 298 degree 651
pos[660] = 297 degree 650
pos[659] = 294 degree 649
pos[658] = 293 degree 648
pos[657] = 291 degree 647
pos[656] = 288 degree 646
pos[655] = 287 degree 645
pos[654] = 284 degree 644
pos[653] = 282 degree 643
pos[652] = 281 degree 642
pos[651] = 278 degree 641
pos[650] = 277 degree 640
pos[649] = 275 degree 639
pos[648] = 272 degree 638
pos[647] = 270 degree 637
pos[646] = 269 degree 636
pos[645] = 267 degree 635
pos[644] = 264 degree 634
pos[643] = 263 degree 633
pos[642] = 260 degree 632
pos[641] = 258 degree 631
pos[640] = 257 degree 630
pos[639] = 255 degree 629
pos[638] = 252 degree 628
pos[637] = 250 degree 627
pos[636] = 249 degree 626
pos[635] = 246 degree 625
pos[634] = 245 degree 624
pos[633] = 243 degree 623
pos[632] = 240 degree 622
pos[631] = 238 degree 621
pos[630] = 237 degree 620
pos[629] = 235 degree 619
pos[628] = 232 degree 618
pos[627] = 231 degree 617
pos[626] = 228 degree 616
pos[625] = 226 degree 615
pos[624] = 225 degree 614
pos[623] = 222 degree 613
pos[622] = 221 degree 612
pos[621] = 219 degree 611
pos[620] = 216 degree 610
pos[619] = 215 degree 609
pos[618] = 212 degree 608
pos[617] = 210 degree 607
pos[616] = 209 degree 606
pos[615] = 207 degree 605
pos[614] = 204 degree 604
pos[613] = 202 degree 603
pos[612] = 201 degree 602
pos[611] = 198 degree 601
pos[610] = 197 degree 600
pos[609] = 195 degree 599
pos[608] = 192 degree 598
pos[607] = 190 degree 597
pos[606] = 189 degree 596
pos[605] = 187 degree 595
pos[604] = 184 degree 594
pos[603] = 183 degree 593
pos[602] = 180 degree 592
pos[601] = 178 degree 591
pos[600] = 177 degree 590
pos[599] = 175 degree 589
pos[598] = 172 degree 588
pos[597] = 170 degree 587
pos[596] = 169 degree 586
pos[595] = 166 degree 585
pos[594] = 165 degree 584
pos[593] = 163 degree 583
pos[592] = 160 degree 582
pos[591] = 159 degree 581
pos[590] = 156 degree 580
pos[589] = 154 degree 579
pos[588] = 153 degree 578
pos[587] = 150 degree 577
pos[586] = 149 degree 576
pos[585] = 147 degree 575
pos[584] = 144 degree 574
pos[583] = 142 degree 573
pos[582] = 141 degree 572
pos[581] = 139 degree 571
pos[580] = 136 degree 570
pos[579] = 135 degree 569
pos[578] = 132 degree 568
pos[577] = 130 degree 567
pos[576] = 129 degree 566
pos[575] = 126 degree 565
pos[574] = 125 degree 564
pos[573] = 123 degree 563
pos[572] = 120 degree 562
pos[571] = 119 degree 561
pos[570] = 116 degree 560
pos[569] = 114 degree 559
pos[568] = 113 degree 558
pos[567] = 111 degree 557
pos[566] = 108 degree 556
pos[565] = 106 degree 555
pos[564] = 105 degree 554
pos[563] = 102 degree 553
pos[562] = 101 degree 552
pos[561] = 99 degree 551
pos[560] = 96 degree 550
pos[559] = 95 degree 549
pos[558] = 92 degree 548
pos[557] = 90 degree 547
pos[556] = 89 degree 546
pos[555] = 86 degree 545
pos[554] = 85 degree 544
pos[553] = 83 degree 543
pos[552] = 80 degree 542
pos[551] = 78 degree 541
pos[550] = 77 degree 540
pos[549] = 75 degree 539
pos[548] = 72 degree 538
pos[547] = 71 degree 537
pos[546] = 68 degree 536
pos[545] = 66 degree 535
pos[544] = 65 degree 534
pos[543] = 63 degree 533
pos[542] = 60 degree 532
pos[541] = 58 degree 531
pos[540] = 57 degree 530
pos[539] = 54 degree 529
pos[538] = 53 degree 528
pos[537] = 51 degree 527
pos[536] = 48 degree 526
pos[535] = 46 degree 525
pos[534] = 45 degree 524
pos[533] = 43 degree 523
pos[532] = 40 degree 522
pos[531] = 39 degree 521
pos[530] = 36 degree 520
pos[529] = 34 degree 519
pos[528] = 33 degree 518
pos[527] = 30 degree 517
pos[526] = 29 degree 516
pos[525] = 27 degree 515
pos[524] = 24 degree 514
pos[523] = 23 degree 513
pos[522] = 20 degree 512
pos[521] = 18 degree 511
pos[520] = 17 degree 510
pos[519] = 15 degree 509
pos[518] = 12 degree 508
pos[517] = 10 degree 507
pos[516] = 9 degree 506
pos[515] = 6 degree 505
pos[514] = 5 degree 504
pos[513] = 3 degree 503
pos[512] = 0 degree 502
pos[511] = 1022 degree 511
pos[510] = 1021 degree 510
pos[509] = 1019 degree 509
pos[508] = 1016 degree 508
pos[507] = 1015 degree 507
pos[506] = 1012 degree 506
pos[505] = 1010 degree 505
pos[504] = 1009 degree 504
pos[503] = 1007 degree 503
pos[502] = 1004 degree 502
pos[501] = 1002 degree 501
pos[500] = 1001 degree 500
pos[499] = 998 degree 499
pos[498] = 997 degree 498
pos[497] = 995 degree 497
pos[496] = 992 degree 496
pos[495] = 991 degree 495
pos[494] = 988 degree 494
pos[493] = 986 degree 493
pos[492] = 985 degree 492
pos[491] = 982 degree 491
pos[490] = 981 degree 490
pos[489] = 979 degree 489
pos[488] = 976 degree 488
pos[487] = 974 degree 487
pos[486] = 973 degree 486
pos[485] = 971 degree 485
pos[484] = 968 degree 484
pos[483] = 967 degree 483
pos[482] = 964 degree 482
pos[481] = 962 degree 481
pos[480] = 961 degree 480
pos[479] = 959 degree 479
pos[478] = 956 degree 478
pos[477] = 954 degree 477
pos[476] = 953 degree 476
pos[475] = 950 degree 475
pos[474] = 949 degree 474
pos[473] = 947 degree 473
pos[472] = 944 degree 472
pos[471] = 942 degree 471
pos[470] = 941 degree 470
pos[469] = 939 degree 469
pos[468] = 936 degree 468
pos[467] = 935 degree 467
pos[466] = 932 degree 466
pos[465] = 930 degree 465
pos[464] = 929 degree 464
pos[463] = 926 degree 463
pos[462] = 925 degree 462
pos[461] = 923 degree 461
pos[460] = 920 degree 460
pos[459] = 919 degree 459
pos[458] = 916 degree 458
pos[457] = 914 degree 457
pos[456] = 913 degree 456
pos[455] = 911 degree 455
pos[454] = 908 degree 454
pos[453] = 906 degree 453
pos[452] = 905 degree 452
pos[451] = 902 degree 451
pos[450] = 901 degree 450
pos[449] = 899 degree 449
pos[448] = 896 degree 448
pos[447] = 895 degree 447
pos[446] = 892 degree 446
pos[445] = 890 degree 445
pos[444] = 889 degree 444
pos[443] = 886 degree 443
pos[442] = 885 degree 442
pos[441] = 883 degree 441
pos[440] = 880 degree 440
pos[439] = 878 degree 439
pos[438] = 877 degree 438
pos[437] = 875 degree 437
pos[436] = 872 degree 436
pos[435] = 871 degree 435
pos[434] = 868 degree 434
pos[433] = 866 degree 433
pos[432] = 865 degree 432
pos[431] = 862 degree 431
pos[430] = 861 degree 430
pos[429] = 859 degree 429
pos[428] = 856 degree 428
pos[427] = 855 degree 427
pos[426] = 852 degree 426
pos[425] = 850 degree 425
pos[424] = 849 degree 424
pos[423] = 847 degree 423
pos[422] = 844 degree 422
pos[421] = 842 degree 421
pos[420] = 841 degree 420
pos[419] = 838 degree 419
pos[418] = 837 degree 418
pos[417] = 835 degree 417
pos[416] = 832 degree 416
pos[415] = 830 degree 415
pos[414] = 829 degree 414
pos[413] = 827 degree 413
pos[412] = 824 degree 412
pos[411] = 823 degree 411
pos[410] = 820 degree 410
pos[409] = 818 degree 409
pos[408] = 817 degree 408
pos[407] = 815 degree 407
pos[406] = 812 degree 406
pos[405] = 810 degree 405
pos[404] = 809 degree 404
pos[403] = 806 degree 403
pos[402] = 805 degree 402
pos[401] = 803 degree 401
pos[400] = 800 degree 400
pos[399] = 799 degree 399
pos[398] = 796 degree 398
pos[397] = 794 degree 397
pos[396] = 793 degree 396
pos[395] = 790 degree 395
pos[394] = 789 degree 394
pos[393] = 787 degree 393
pos[392] = 784 degree 392
pos[391] = 782 degree 391
pos[390] = 781 degree 390
pos[389] = 779 degree 389
pos[388] = 776 degree 388
pos[387] = 775 degree 387
pos[386] = 772 degree 386
pos[385] = 770 degree 385
pos[384] = 769 degree 384
pos[383] = 767 degree 383
pos[382] = 764 degree 382
pos[381] = 762 degree 381
pos[380] = 761 degree 380
pos[379] = 758 degree 379
pos[378] = 757 degree 378
pos[377] = 755 degree 377
pos[376] = 752 degree 376
pos[375] = 750 degree 375
pos[374] = 749 degree 374
pos[373] = 747 degree 373
pos[372] = 744 degree 372
pos[371] = 743 degree 371
pos[370] = 740 degree 370
pos[369] = 738 degree 369
pos[368] = 737 degree 368
pos[367] = 734 degree 367
pos[366] = 733 degree 366
pos[365] = 731 degree 365
pos[364] = 728 degree 364
pos[363] = 727 degree 363
pos[362] = 724 degree 362
pos[361] = 722 degree 361
pos[360] = 721 degree 360
pos[359] = 719 degree 359
pos[358] = 716 degree 358
pos[357] = 714 degree 357
pos[356] = 713 degree 356
pos[355] = 710 degree 355
pos[354] = 709 degree 354
pos[353] = 707 degree 353
pos[352] = 704 degree 352
pos[351] = 702 degree 351
pos[350] = 701 degree 350
pos[349] = 699 degree 349
pos[348] = 696 degree 348
pos[347] = 695 degree 347
pos[346] = 692 degree 346
pos[345] = 690 degree 345
pos[344] = 689 degree 344
pos[343] = 687 degree 343
pos[342] = 684 degree 342
pos[341] = 682 degree 341
pos[340] = 681 degree 340
pos[339] = 678 degree 339
pos[338] = 677 degree 338
pos[337] = 675 degree 337
pos[336] = 672 degree 336
pos[335] = 671 degree 335
pos[334] = 668 degree 334
pos[333] = 666 degree 333
pos[332] = 665 degree 332
pos[331] = 662 degree 331
pos[330] = 661 degree 330
pos[329] = 659 degree 329
pos[328] = 656 degree 328
pos[327] = 654 degree 327
pos[326] = 653 degree 326
pos[325] = 651 degree 325
pos[324] = 648 degree 324
pos[323] = 647 degree 323
pos[322] = 644 degree 322
pos[321] = 642 degree 321
pos[320] = 641 degree 320
pos[319] = 638 degree 319
pos[318] = 637 degree 318
pos[317] = 635 degree 317
pos[316] = 632 degree 316
pos[315] = 631 degree 315
pos[314] = 628 degree 314
pos[313] = 626 degree 313
pos[312] = 625 degree 312
pos[311] = 623 degree 311
pos[310] = 620 degree 310
pos[309] = 618 degree 309
pos[308] = 617 degree 308
pos[307] = 614 degree 307
pos[306] = 613 degree 306
pos[305] = 611 degree 305
pos[304] = 608 degree 304
pos[303] = 607 degree 303
pos[302] = 604 degree 302
pos[301] = 602 degree 301
pos[300] = 601 degree 300
pos[299] = 598 degree 299
pos[298] = 597 degree 298
pos[297] = 595 degree 297
pos[296] = 592 degree 296
pos[295] = 590 degree 295
pos[294] = 589 degree 294
pos[293] = 587 degree 293
pos[292] = 584 degree 292
pos[291] = 583 degree 291
pos[290] = 580 degree 290
pos[289] = 578 degree 289
pos[288] = 577 degree 288
pos[287] = 575 degree 287
pos[286] = 572 degree 286
pos[285] = 570 degree 285
pos[284] = 569 degree 284
pos[283] = 566 degree 283
pos[282] = 565 degree 282
pos[281] = 563 degree 281
pos[280] = 560 degree 280
pos[279] = 558 degree 279
pos[278] = 557 degree 278
pos[277] = 555 degree 277
pos[276] = 552 degree 276
pos[275] = 551 degree 275
pos[274] = 548 degree 274
pos[273] = 546 degree 273
pos[272] = 545 degree 272
pos[271] = 542 degree 271
pos[270] = 541 degree 270
pos[269] = 539 degree 269
pos[268] = 536 degree 268
pos[267] = 535 degree 267
pos[266] = 532 degree 266
pos[265] = 530 degree 265
pos[264] = 529 degree 264
pos[263] = 527 degree 263
pos[262] = 524 degree 262
pos[261] = 522 degree 261
pos[260] = 521 degree 260
pos[259] = 518 degree 259
pos[258] = 517 degree 258
pos[257] = 515 degree 257
pos[256] = 512 degree 256
pos[255] = 511 degree 255
pos[254] = 508 degree 254
pos[253] = 506 degree 253
pos[252] = 505 degree 252
pos[251] = 502 degree 251
pos[250] = 501 degree 250
pos[249] = 499 degree 249
pos[248] = 496 degree 248
pos[247] = 494 degree 247
pos[246] = 493 degree 246
pos[245] = 491 degree 245
pos[244] = 488 degree 244
pos[243] = 487 degree 243
pos[242] = 484 degree 242
pos[241] = 482 degree 241
pos[240] = 481 degree 240
pos[239] = 478 degree 239
pos[238] = 477 degree 238
pos[237] = 475 degree 237
pos[236] = 472 degree 236
pos[235] = 471 degree 235
pos[234] = 468 degree 234
pos[233] = 466 degree 233
pos[232] = 465 degree 232
pos[231] = 463 degree 231
pos[230] = 460 degree 230
pos[229] = 458 degree 229
pos[228] = 457 degree 228
pos[227] = 454 degree 227
pos[226] = 453 degree 226
pos[225] = 451 degree 225
pos[224] = 448 degree 224
pos[223] = 446 degree 223
pos[222] = 445 degree 222
pos[221] = 443 degree 221
pos[220] = 440 degree 220
pos[219] = 439 degree 219
pos[218] = 436 degree 218
pos[217] = 434 degree 217
pos[216] = 433 degree 216
pos[215] = 431 degree 215
pos[214] = 428 degree 214
pos[213] = 426 degree 213
pos[212] = 425 degree 212
pos[211] = 422 degree 211
pos[210] = 421 degree 210
pos[209] = 419 degree 209
pos[208] = 416 degree 208
pos[207] = 415 degree 207
pos[206] = 412 degree 206
pos[205] = 410 degree 205
pos[204] = 409 degree 204
pos[203] = 406 degree 203
pos[202] = 405 degree 202
pos[201] = 403 degree 201
pos[200] = 400 degree 200
pos[199] = 398 degree 199
pos[198] = 397 degree 198
pos[197] = 395 degree 197
pos[196] = 392 degree 196
pos[195] = 391 degree 195
pos[194] = 388 degree 194
pos[193] = 386 degree 193
pos[192] = 385 degree 192
pos[191] = 382 degree 191
pos[190] = 381 degree 190
pos[189] = 379 degree 189
pos[188] = 376 degree 188
pos[187] = 375 degree 187
pos[186] = 372 degree 186
pos[185] = 370 degree 185
pos[184] = 369 degree 184
pos[183] = 367 degree 183
pos[182] = 364 degree 182
pos[181] = 362 degree 181
pos[180] = 361 degree 180
pos[179] = 358 degree 179
pos[178] = 357 degree 178
pos[177] = 355 degree 177
pos[176] = 352 degree 176
pos[175] = 351 degree 175
pos[174] = 348 degree 174
pos[173] = 346 degree 173
pos[172] = 345 degree 172
pos[171] = 342 degree 171
pos[170] = 341 degree 170
pos[169] = 339 degree 169
pos[168] = 336 degree 168
pos[167] = 334 degree 167
pos[166] = 333 degree 166
pos[165] = 331 degree 165
pos[164] = 328 degree 164
pos[163] = 327 degree 163
pos[162] = 324 degree 162
pos[161] = 322 degree 161
pos[160] = 321 degree 160
pos[159] = 319 degree 159
pos[158] = 316 degree 158
pos[157] = 314 degree 157
pos[156] = 313 degree 156
pos[155] = 310 degree 155
pos[154] = 309 degree 154
pos[153] = 307 degree 153
pos[152] = 304 degree 152
pos[151] = 302 degree 151
pos[150] = 301 degree 150
pos[149] = 299 degree 149
pos[148] = 296 degree 148
pos[147] = 295 degree 147
pos[146] = 292 degree 146
pos[145] = 290 degree 145
pos[144] = 289 degree 144
pos[143] = 286 degree 143
pos[142] = 285 degree 142
pos[141] = 283 degree 141
pos[140] = 280 degree 140
pos[139] = 279 degree 139
pos[138] = 276 degree 138
pos[137] = 274 degree 137
pos[136] = 273 degree 136
pos[135] = 271 degree 135
pos[134] = 268 degree 134
pos[133] = 266 degree 133
pos[132] = 265 degree 132
pos[131] = 262 degree 131
pos[130] = 261 degree 130
pos[129] = 259 degree 129
pos[128] = 256 degree 128
pos[127] = 254 degree 127
pos[126] = 253 degree 126
pos[125] = 251 degree 125
pos[124] = 248 degree 124
pos[123] = 247 degree 123
pos[122] = 244 degree 122
pos[121] = 242 degree 121
pos[120] = 241 degree 120
pos[119] = 239 degree 119
pos[118] = 236 degree 118
pos[117] = 234 degree 117
pos[116] = 233 degree 116
pos[115] = 230 degree 115
pos[114] = 229 degree 114
pos[113] = 227 degree 113
pos[112] = 224 degree 112
pos[111] = 223 degree 111
pos[110] = 220 degree 110
pos[109] = 218 degree 109
pos[108] = 217 degree 108
pos[107] = 214 degree 107
pos[106] = 213 degree 106
pos[105] = 211 degree 105
pos[104] = 208 degree 104
pos[103] = 206 degree 103
pos[102] = 205 degree 102
pos[101] = 203 degree 101
pos[100] = 200 degree 100
pos[99] = 199 degree 99
pos[98] = 196 degree 98
pos[97] = 194 degree 97
pos[96] = 193 degree 96
pos[95] = 191 degree 95
pos[94] = 188 degree 94
pos[93] = 186 degree 93
pos[92] = 185 degree 92
pos[91] = 182 degree 91
pos[90] = 181 degree 90
pos[89] = 179 degree 89
pos[88] = 176 degree 88
pos[87] = 174 degree 87
pos[86] = 173 degree 86
pos[85] = 171 degree 85
pos[84] = 168 degree 84
pos[83] = 167 degree 83
pos[82] = 164 degree 82
pos[81] = 162 degree 81
pos[80] = 161 degree 80
pos[79] = 158 degree 79
pos[78] = 157 degree 78
pos[77] = 155 degree 77
pos[76] = 152 degree 76
pos[75] = 151 degree 75
pos[74] = 148 degree 74
pos[73] = 146 degree 73
pos[72] = 145 degree 72
pos[71] = 143 degree 71
pos[70] = 140 degree 70
pos[69] = 138 degree 69
pos[68] = 137 degree 68
pos[67] = 134 degree 67
pos[66] = 133 degree 66
pos[65] = 131 degree 65
pos[64] = 128 degree 64
pos[63] = 127 degree 63
pos[62] = 124 degree 62
pos[61] = 122 degree 61
pos[60] = 121 degree 60
pos[59] = 118 degree 59
pos[58] = 117 degree 58
pos[57] = 115 degree 57
pos[56] = 112 degree 56
pos[55] = 110 degree 55
pos[54] = 109 degree 54
pos[53] = 107 degree 53
pos[52] = 104 degree 52
pos[51] = 103 degree 51
pos[50] = 100 degree 50
pos[49] = 98 degree 49
pos[48] = 97 degree 48
pos[47] = 94 degree 47
pos[46] = 93 degree 46
pos[45] = 91 degree 45
pos[44] = 88 degree 44
pos[43] = 87 degree 43
pos[42] = 84 degree 42
pos[41] = 82 degree 41
pos[40] = 81 degree 40
pos[39] = 79 degree 39
pos[38] = 76 degree 38
pos[37] = 74 degree 37
pos[36] = 73 degree 36
pos[35] = 70 degree 35
pos[34] = 69 degree 34
pos[33] = 67 degree 33
pos[32] = 64 degree 32
pos[31] = 62 degree 31
pos[30] = 61 degree 30
pos[29] = 59 degree 29
pos[28] = 56 degree 28
pos[27] = 55 degree 27
pos[26] = 52 degree 26
pos[25] = 50 degree 25
pos[24] = 49 degree 24
pos[23] = 47 degree 23
pos[22] = 44 degree 22
pos[21] = 42 degree 21
pos[20] = 41 degree 20
pos[19] = 38 degree 19
pos[18] = 37 degree 18
pos[17] = 35 degree 17
pos[16] = 32 degree 16
pos[15] = 31 degree 15
pos[14] = 28 degree 14
pos[13] = 26 degree 13
pos[12] = 25 degree 12
pos[11] = 22 degree 11
pos[10] = 21 degree 10
pos[9] = 19 degree 9
pos[8] = 16 degree 8
pos[7] = 14 degree 7
pos[6] = 13 degree 6
pos[5] = 11 degree 5
pos[4] = 8 degree 4
pos[3] = 7 degree 3
pos[2] = 4 degree 2
pos[1] = 2 degree 1
pos[0] = 1 degree 0
start search
improving solution size 512
TIMEOUT
best clique: 2 3 5 8 9 12 14 15 17 20 22 23 26 27 29 32 33 36 38 39 42 43 45 48 50 51 53 56 57 60 62 63 65 68 70 71 74 75 77 80 82 83 85 88 89 92 94 95 98 99 101 104 105 108 110 111 113 116 118 119 122 123 125 128 129 132 134 135 138 139 141 144 146 147 149 152 153 156 158 159 162 163 165 168 169 172 174 175 177 180 182 183 186 187 189 192 194 195 197 200 201 204 206 207 209 212 214 215 218 219 221 224 225 228 230 231 234 235 237 240 242 243 245 248 249 252 254 255 257 260 262 263 266 267 269 272 274 275 277 280 281 284 286 287 290 291 293 296 297 300 302 303 305 308 310 311 314 315 317 320 322 323 325 328 329 332 334 335 337 340 342 343 346 347 349 352 353 356 358 359 362 363 365 368 370 371 373 376 377 380 382 383 386 387 389 392 393 396 398 399 401 404 406 407 410 411 413 416 417 420 422 423 426 427 429 432 434 435 437 440 441 444 446 447 449 452 454 455 458 459 461 464 466 467 469 472 473 476 478 479 482 483 485 488 489 492 494 495 497 500 502 503 506 507 509 512 513 516 518 519 522 523 525 528 530 531 533 536 537 540 542 543 546 547 549 552 553 556 558 559 561 564 566 567 570 571 573 576 578 579 581 584 585 588 590 591 593 596 598 599 602 603 605 608 609 612 614 615 618 619 621 624 626 627 629 632 633 636 638 639 642 643 645 648 649 652 654 655 657 660 662 663 666 667 669 672 673 676 678 679 682 683 685 688 690 691 693 696 697 700 702 703 705 708 710 711 714 715 717 720 722 723 725 728 729 732 734 735 738 739 741 744 745 748 750 751 753 756 758 759 762 763 765 768 770 771 773 776 777 780 782 783 785 788 790 791 794 795 797 800 801 804 806 807 810 811 813 816 818 819 821 824 825 828 830 831 833 836 838 839 842 843 845 848 850 851 853 856 857 860 862 863 866 867 869 872 873 876 878 879 881 884 886 887 890 891 893 896 897 900 902 903 906 907 909 912 914 915 917 920 921 924 926 927 930 931 933 936 937 940 942 943 945 948 950 951 954 955 957 960 962 963 965 968 969 972 974 975 977 980 982 983 986 987 989 992 993 996 998 999 1002 1003 1005 1008 1010 1011 1013 1016 1017 1020 1022 1023 
record          =         512
subp            =   369549180
time            =  3600.00739
