timeout 3600 s
Graph with 1035 vertices and 533115 edges density 0.996300
t = 1066230, Enbr = 533115
pos[1034] = 44 degree 1012
pos[1033] = 43 degree 1011
pos[1032] = 42 degree 1010
pos[1031] = 41 degree 1009
pos[1030] = 40 degree 1008
pos[1029] = 39 degree 1007
pos[1028] = 38 degree 1006
pos[1027] = 37 degree 1005
pos[1026] = 36 degree 1004
pos[1025] = 35 degree 1003
pos[1024] = 34 degree 1002
pos[1023] = 33 degree 1001
pos[1022] = 32 degree 1000
pos[1021] = 31 degree 999
pos[1020] = 30 degree 998
pos[1019] = 29 degree 997
pos[1018] = 28 degree 996
pos[1017] = 27 degree 995
pos[1016] = 26 degree 994
pos[1015] = 25 degree 993
pos[1014] = 24 degree 992
pos[1013] = 23 degree 991
pos[1012] = 22 degree 990
pos[1011] = 21 degree 989
pos[1010] = 20 degree 988
pos[1009] = 19 degree 987
pos[1008] = 18 degree 986
pos[1007] = 17 degree 985
pos[1006] = 16 degree 984
pos[1005] = 15 degree 983
pos[1004] = 14 degree 982
pos[1003] = 13 degree 981
pos[1002] = 12 degree 980
pos[1001] = 11 degree 979
pos[1000] = 10 degree 978
pos[999] = 9 degree 977
pos[998] = 8 degree 976
pos[997] = 7 degree 975
pos[996] = 6 degree 974
pos[995] = 5 degree 973
pos[994] = 4 degree 972
pos[993] = 3 degree 971
pos[992] = 2 degree 970
pos[991] = 1 degree 969
pos[990] = 0 degree 968
pos[989] = 1034 degree 987
pos[988] = 1031 degree 986
pos[987] = 1028 degree 985
pos[986] = 1025 degree 984
pos[985] = 1022 degree 983
pos[984] = 1019 degree 982
pos[983] = 1016 degree 981
pos[982] = 1013 degree 980
pos[981] = 1010 degree 979
pos[980] = 1007 degree 978
pos[979] = 1004 degree 977
pos[978] = 1001 degree 976
pos[977] = 998 degree 975
pos[976] = 995 degree 974
pos[975] = 992 degree 973
pos[974] = 989 degree 972
pos[973] = 986 degree 971
pos[972] = 983 degree 970
pos[971] = 980 degree 969
pos[970] = 977 degree 968
pos[969] = 974 degree 967
pos[968] = 971 degree 966
pos[967] = 968 degree 965
pos[966] = 965 degree 964
pos[965] = 962 degree 963
pos[964] = 959 degree 962
pos[963] = 956 degree 961
pos[962] = 953 degree 960
pos[961] = 950 degree 959
pos[960] = 947 degree 958
pos[959] = 944 degree 957
pos[958] = 941 degree 956
pos[957] = 938 degree 955
pos[956] = 935 degree 954
pos[955] = 932 degree 953
pos[954] = 929 degree 952
pos[953] = 926 degree 951
pos[952] = 923 degree 950
pos[951] = 920 degree 949
pos[950] = 917 degree 948
pos[949] = 914 degree 947
pos[948] = 911 degree 946
pos[947] = 908 degree 945
pos[946] = 905 degree 944
pos[945] = 902 degree 943
pos[944] = 899 degree 942
pos[943] = 896 degree 941
pos[942] = 893 degree 940
pos[941] = 890 degree 939
pos[940] = 887 degree 938
pos[939] = 884 degree 937
pos[938] = 881 degree 936
pos[937] = 878 degree 935
pos[936] = 875 degree 934
pos[935] = 872 degree 933
pos[934] = 869 degree 932
pos[933] = 866 degree 931
pos[932] = 863 degree 930
pos[931] = 860 degree 929
pos[930] = 857 degree 928
pos[929] = 854 degree 927
pos[928] = 851 degree 926
pos[927] = 848 degree 925
pos[926] = 845 degree 924
pos[925] = 842 degree 923
pos[924] = 839 degree 922
pos[923] = 836 degree 921
pos[922] = 833 degree 920
pos[921] = 830 degree 919
pos[920] = 827 degree 918
pos[919] = 824 degree 917
pos[918] = 821 degree 916
pos[917] = 818 degree 915
pos[916] = 815 degree 914
pos[915] = 812 degree 913
pos[914] = 809 degree 912
pos[913] = 806 degree 911
pos[912] = 803 degree 910
pos[911] = 800 degree 909
pos[910] = 797 degree 908
pos[909] = 794 degree 907
pos[908] = 791 degree 906
pos[907] = 788 degree 905
pos[906] = 785 degree 904
pos[905] = 782 degree 903
pos[904] = 779 degree 902
pos[903] = 776 degree 901
pos[902] = 773 degree 900
pos[901] = 770 degree 899
pos[900] = 767 degree 898
pos[899] = 764 degree 897
pos[898] = 761 degree 896
pos[897] = 758 degree 895
pos[896] = 755 degree 894
pos[895] = 752 degree 893
pos[894] = 749 degree 892
pos[893] = 746 degree 891
pos[892] = 743 degree 890
pos[891] = 740 degree 889
pos[890] = 737 degree 888
pos[889] = 734 degree 887
pos[888] = 731 degree 886
pos[887] = 728 degree 885
pos[886] = 725 degree 884
pos[885] = 722 degree 883
pos[884] = 719 degree 882
pos[883] = 716 degree 881
pos[882] = 713 degree 880
pos[881] = 710 degree 879
pos[880] = 707 degree 878
pos[879] = 704 degree 877
pos[878] = 701 degree 876
pos[877] = 698 degree 875
pos[876] = 695 degree 874
pos[875] = 692 degree 873
pos[874] = 689 degree 872
pos[873] = 686 degree 871
pos[872] = 683 degree 870
pos[871] = 680 degree 869
pos[870] = 677 degree 868
pos[869] = 674 degree 867
pos[868] = 671 degree 866
pos[867] = 668 degree 865
pos[866] = 665 degree 864
pos[865] = 662 degree 863
pos[864] = 659 degree 862
pos[863] = 656 degree 861
pos[862] = 653 degree 860
pos[861] = 650 degree 859
pos[860] = 647 degree 858
pos[859] = 644 degree 857
pos[858] = 641 degree 856
pos[857] = 638 degree 855
pos[856] = 635 degree 854
pos[855] = 632 degree 853
pos[854] = 629 degree 852
pos[853] = 626 degree 851
pos[852] = 623 degree 850
pos[851] = 620 degree 849
pos[850] = 617 degree 848
pos[849] = 614 degree 847
pos[848] = 611 degree 846
pos[847] = 608 degree 845
pos[846] = 605 degree 844
pos[845] = 602 degree 843
pos[844] = 599 degree 842
pos[843] = 596 degree 841
pos[842] = 593 degree 840
pos[841] = 590 degree 839
pos[840] = 587 degree 838
pos[839] = 584 degree 837
pos[838] = 581 degree 836
pos[837] = 578 degree 835
pos[836] = 575 degree 834
pos[835] = 572 degree 833
pos[834] = 569 degree 832
pos[833] = 566 degree 831
pos[832] = 563 degree 830
pos[831] = 560 degree 829
pos[830] = 557 degree 828
pos[829] = 554 degree 827
pos[828] = 551 degree 826
pos[827] = 548 degree 825
pos[826] = 545 degree 824
pos[825] = 542 degree 823
pos[824] = 539 degree 822
pos[823] = 536 degree 821
pos[822] = 533 degree 820
pos[821] = 530 degree 819
pos[820] = 527 degree 818
pos[819] = 524 degree 817
pos[818] = 521 degree 816
pos[817] = 518 degree 815
pos[816] = 515 degree 814
pos[815] = 512 degree 813
pos[814] = 509 degree 812
pos[813] = 506 degree 811
pos[812] = 503 degree 810
pos[811] = 500 degree 809
pos[810] = 497 degree 808
pos[809] = 494 degree 807
pos[808] = 491 degree 806
pos[807] = 488 degree 805
pos[806] = 485 degree 804
pos[805] = 482 degree 803
pos[804] = 479 degree 802
pos[803] = 476 degree 801
pos[802] = 473 degree 800
pos[801] = 470 degree 799
pos[800] = 467 degree 798
pos[799] = 464 degree 797
pos[798] = 461 degree 796
pos[797] = 458 degree 795
pos[796] = 455 degree 794
pos[795] = 452 degree 793
pos[794] = 449 degree 792
pos[793] = 446 degree 791
pos[792] = 443 degree 790
pos[791] = 440 degree 789
pos[790] = 437 degree 788
pos[789] = 434 degree 787
pos[788] = 431 degree 786
pos[787] = 428 degree 785
pos[786] = 425 degree 784
pos[785] = 422 degree 783
pos[784] = 419 degree 782
pos[783] = 416 degree 781
pos[782] = 413 degree 780
pos[781] = 410 degree 779
pos[780] = 407 degree 778
pos[779] = 404 degree 777
pos[778] = 401 degree 776
pos[777] = 398 degree 775
pos[776] = 395 degree 774
pos[775] = 392 degree 773
pos[774] = 389 degree 772
pos[773] = 386 degree 771
pos[772] = 383 degree 770
pos[771] = 380 degree 769
pos[770] = 377 degree 768
pos[769] = 374 degree 767
pos[768] = 371 degree 766
pos[767] = 368 degree 765
pos[766] = 365 degree 764
pos[765] = 362 degree 763
pos[764] = 359 degree 762
pos[763] = 356 degree 761
pos[762] = 353 degree 760
pos[761] = 350 degree 759
pos[760] = 347 degree 758
pos[759] = 344 degree 757
pos[758] = 341 degree 756
pos[757] = 338 degree 755
pos[756] = 335 degree 754
pos[755] = 332 degree 753
pos[754] = 329 degree 752
pos[753] = 326 degree 751
pos[752] = 323 degree 750
pos[751] = 320 degree 749
pos[750] = 317 degree 748
pos[749] = 314 degree 747
pos[748] = 311 degree 746
pos[747] = 308 degree 745
pos[746] = 305 degree 744
pos[745] = 302 degree 743
pos[744] = 299 degree 742
pos[743] = 296 degree 741
pos[742] = 293 degree 740
pos[741] = 290 degree 739
pos[740] = 287 degree 738
pos[739] = 284 degree 737
pos[738] = 281 degree 736
pos[737] = 278 degree 735
pos[736] = 275 degree 734
pos[735] = 272 degree 733
pos[734] = 269 degree 732
pos[733] = 266 degree 731
pos[732] = 263 degree 730
pos[731] = 260 degree 729
pos[730] = 257 degree 728
pos[729] = 254 degree 727
pos[728] = 251 degree 726
pos[727] = 248 degree 725
pos[726] = 245 degree 724
pos[725] = 242 degree 723
pos[724] = 239 degree 722
pos[723] = 236 degree 721
pos[722] = 233 degree 720
pos[721] = 230 degree 719
pos[720] = 227 degree 718
pos[719] = 224 degree 717
pos[718] = 221 degree 716
pos[717] = 218 degree 715
pos[716] = 215 degree 714
pos[715] = 212 degree 713
pos[714] = 209 degree 712
pos[713] = 206 degree 711
pos[712] = 203 degree 710
pos[711] = 200 degree 709
pos[710] = 197 degree 708
pos[709] = 194 degree 707
pos[708] = 191 degree 706
pos[707] = 188 degree 705
pos[706] = 185 degree 704
pos[705] = 182 degree 703
pos[704] = 179 degree 702
pos[703] = 176 degree 701
pos[702] = 173 degree 700
pos[701] = 170 degree 699
pos[700] = 167 degree 698
pos[699] = 164 degree 697
pos[698] = 161 degree 696
pos[697] = 158 degree 695
pos[696] = 155 degree 694
pos[695] = 152 degree 693
pos[694] = 149 degree 692
pos[693] = 146 degree 691
pos[692] = 143 degree 690
pos[691] = 140 degree 689
pos[690] = 137 degree 688
pos[689] = 134 degree 687
pos[688] = 131 degree 686
pos[687] = 128 degree 685
pos[686] = 125 degree 684
pos[685] = 122 degree 683
pos[684] = 119 degree 682
pos[683] = 116 degree 681
pos[682] = 113 degree 680
pos[681] = 110 degree 679
pos[680] = 107 degree 678
pos[679] = 104 degree 677
pos[678] = 101 degree 676
pos[677] = 98 degree 675
pos[676] = 95 degree 674
pos[675] = 92 degree 673
pos[674] = 89 degree 672
pos[673] = 86 degree 671
pos[672] = 83 degree 670
pos[671] = 80 degree 669
pos[670] = 77 degree 668
pos[669] = 74 degree 667
pos[668] = 71 degree 666
pos[667] = 68 degree 665
pos[666] = 65 degree 664
pos[665] = 62 degree 663
pos[664] = 59 degree 662
pos[663] = 56 degree 661
pos[662] = 53 degree 660
pos[661] = 50 degree 659
pos[660] = 47 degree 658
pos[659] = 1033 degree 658
pos[658] = 1030 degree 657
pos[657] = 1027 degree 656
pos[656] = 1024 degree 655
pos[655] = 1021 degree 654
pos[654] = 1018 degree 653
pos[653] = 1015 degree 652
pos[652] = 1012 degree 651
pos[651] = 1009 degree 650
pos[650] = 1006 degree 649
pos[649] = 1003 degree 648
pos[648] = 1000 degree 647
pos[647] = 997 degree 646
pos[646] = 994 degree 645
pos[645] = 991 degree 644
pos[644] = 988 degree 643
pos[643] = 985 degree 642
pos[642] = 982 degree 641
pos[641] = 979 degree 640
pos[640] = 976 degree 639
pos[639] = 973 degree 638
pos[638] = 970 degree 637
pos[637] = 967 degree 636
pos[636] = 964 degree 635
pos[635] = 961 degree 634
pos[634] = 958 degree 633
pos[633] = 955 degree 632
pos[632] = 952 degree 631
pos[631] = 949 degree 630
pos[630] = 946 degree 629
pos[629] = 943 degree 628
pos[628] = 940 degree 627
pos[627] = 937 degree 626
pos[626] = 934 degree 625
pos[625] = 931 degree 624
pos[624] = 928 degree 623
pos[623] = 925 degree 622
pos[622] = 922 degree 621
pos[621] = 919 degree 620
pos[620] = 916 degree 619
pos[619] = 913 degree 618
pos[618] = 910 degree 617
pos[617] = 907 degree 616
pos[616] = 904 degree 615
pos[615] = 901 degree 614
pos[614] = 898 degree 613
pos[613] = 895 degree 612
pos[612] = 892 degree 611
pos[611] = 889 degree 610
pos[610] = 886 degree 609
pos[609] = 883 degree 608
pos[608] = 880 degree 607
pos[607] = 877 degree 606
pos[606] = 874 degree 605
pos[605] = 871 degree 604
pos[604] = 868 degree 603
pos[603] = 865 degree 602
pos[602] = 862 degree 601
pos[601] = 859 degree 600
pos[600] = 856 degree 599
pos[599] = 853 degree 598
pos[598] = 850 degree 597
pos[597] = 847 degree 596
pos[596] = 844 degree 595
pos[595] = 841 degree 594
pos[594] = 838 degree 593
pos[593] = 835 degree 592
pos[592] = 832 degree 591
pos[591] = 829 degree 590
pos[590] = 826 degree 589
pos[589] = 823 degree 588
pos[588] = 820 degree 587
pos[587] = 817 degree 586
pos[586] = 814 degree 585
pos[585] = 811 degree 584
pos[584] = 808 degree 583
pos[583] = 805 degree 582
pos[582] = 802 degree 581
pos[581] = 799 degree 580
pos[580] = 796 degree 579
pos[579] = 793 degree 578
pos[578] = 790 degree 577
pos[577] = 787 degree 576
pos[576] = 784 degree 575
pos[575] = 781 degree 574
pos[574] = 778 degree 573
pos[573] = 775 degree 572
pos[572] = 772 degree 571
pos[571] = 769 degree 570
pos[570] = 766 degree 569
pos[569] = 763 degree 568
pos[568] = 760 degree 567
pos[567] = 757 degree 566
pos[566] = 754 degree 565
pos[565] = 751 degree 564
pos[564] = 748 degree 563
pos[563] = 745 degree 562
pos[562] = 742 degree 561
pos[561] = 739 degree 560
pos[560] = 736 degree 559
pos[559] = 733 degree 558
pos[558] = 730 degree 557
pos[557] = 727 degree 556
pos[556] = 724 degree 555
pos[555] = 721 degree 554
pos[554] = 718 degree 553
pos[553] = 715 degree 552
pos[552] = 712 degree 551
pos[551] = 709 degree 550
pos[550] = 706 degree 549
pos[549] = 703 degree 548
pos[548] = 700 degree 547
pos[547] = 697 degree 546
pos[546] = 694 degree 545
pos[545] = 691 degree 544
pos[544] = 688 degree 543
pos[543] = 685 degree 542
pos[542] = 682 degree 541
pos[541] = 679 degree 540
pos[540] = 676 degree 539
pos[539] = 673 degree 538
pos[538] = 670 degree 537
pos[537] = 667 degree 536
pos[536] = 664 degree 535
pos[535] = 661 degree 534
pos[534] = 658 degree 533
pos[533] = 655 degree 532
pos[532] = 652 degree 531
pos[531] = 649 degree 530
pos[530] = 646 degree 529
pos[529] = 643 degree 528
pos[528] = 640 degree 527
pos[527] = 637 degree 526
pos[526] = 634 degree 525
pos[525] = 631 degree 524
pos[524] = 628 degree 523
pos[523] = 625 degree 522
pos[522] = 622 degree 521
pos[521] = 619 degree 520
pos[520] = 616 degree 519
pos[519] = 613 degree 518
pos[518] = 610 degree 517
pos[517] = 607 degree 516
pos[516] = 604 degree 515
pos[515] = 601 degree 514
pos[514] = 598 degree 513
pos[513] = 595 degree 512
pos[512] = 592 degree 511
pos[511] = 589 degree 510
pos[510] = 586 degree 509
pos[509] = 583 degree 508
pos[508] = 580 degree 507
pos[507] = 577 degree 506
pos[506] = 574 degree 505
pos[505] = 571 degree 504
pos[504] = 568 degree 503
pos[503] = 565 degree 502
pos[502] = 562 degree 501
pos[501] = 559 degree 500
pos[500] = 556 degree 499
pos[499] = 553 degree 498
pos[498] = 550 degree 497
pos[497] = 547 degree 496
pos[496] = 544 degree 495
pos[495] = 541 degree 494
pos[494] = 538 degree 493
pos[493] = 535 degree 492
pos[492] = 532 degree 491
pos[491] = 529 degree 490
pos[490] = 526 degree 489
pos[489] = 523 degree 488
pos[488] = 520 degree 487
pos[487] = 517 degree 486
pos[486] = 514 degree 485
pos[485] = 511 degree 484
pos[484] = 508 degree 483
pos[483] = 505 degree 482
pos[482] = 502 degree 481
pos[481] = 499 degree 480
pos[480] = 496 degree 479
pos[479] = 493 degree 478
pos[478] = 490 degree 477
pos[477] = 487 degree 476
pos[476] = 484 degree 475
pos[475] = 481 degree 474
pos[474] = 478 degree 473
pos[473] = 475 degree 472
pos[472] = 472 degree 471
pos[471] = 469 degree 470
pos[470] = 466 degree 469
pos[469] = 463 degree 468
pos[468] = 460 degree 467
pos[467] = 457 degree 466
pos[466] = 454 degree 465
pos[465] = 451 degree 464
pos[464] = 448 degree 463
pos[463] = 445 degree 462
pos[462] = 442 degree 461
pos[461] = 439 degree 460
pos[460] = 436 degree 459
pos[459] = 433 degree 458
pos[458] = 430 degree 457
pos[457] = 427 degree 456
pos[456] = 424 degree 455
pos[455] = 421 degree 454
pos[454] = 418 degree 453
pos[453] = 415 degree 452
pos[452] = 412 degree 451
pos[451] = 409 degree 450
pos[450] = 406 degree 449
pos[449] = 403 degree 448
pos[448] = 400 degree 447
pos[447] = 397 degree 446
pos[446] = 394 degree 445
pos[445] = 391 degree 444
pos[444] = 388 degree 443
pos[443] = 385 degree 442
pos[442] = 382 degree 441
pos[441] = 379 degree 440
pos[440] = 376 degree 439
pos[439] = 373 degree 438
pos[438] = 370 degree 437
pos[437] = 367 degree 436
pos[436] = 364 degree 435
pos[435] = 361 degree 434
pos[434] = 358 degree 433
pos[433] = 355 degree 432
pos[432] = 352 degree 431
pos[431] = 349 degree 430
pos[430] = 346 degree 429
pos[429] = 343 degree 428
pos[428] = 340 degree 427
pos[427] = 337 degree 426
pos[426] = 334 degree 425
pos[425] = 331 degree 424
pos[424] = 328 degree 423
pos[423] = 325 degree 422
pos[422] = 322 degree 421
pos[421] = 319 degree 420
pos[420] = 316 degree 419
pos[419] = 313 degree 418
pos[418] = 310 degree 417
pos[417] = 307 degree 416
pos[416] = 304 degree 415
pos[415] = 301 degree 414
pos[414] = 298 degree 413
pos[413] = 295 degree 412
pos[412] = 292 degree 411
pos[411] = 289 degree 410
pos[410] = 286 degree 409
pos[409] = 283 degree 408
pos[408] = 280 degree 407
pos[407] = 277 degree 406
pos[406] = 274 degree 405
pos[405] = 271 degree 404
pos[404] = 268 degree 403
pos[403] = 265 degree 402
pos[402] = 262 degree 401
pos[401] = 259 degree 400
pos[400] = 256 degree 399
pos[399] = 253 degree 398
pos[398] = 250 degree 397
pos[397] = 247 degree 396
pos[396] = 244 degree 395
pos[395] = 241 degree 394
pos[394] = 238 degree 393
pos[393] = 235 degree 392
pos[392] = 232 degree 391
pos[391] = 229 degree 390
pos[390] = 226 degree 389
pos[389] = 223 degree 388
pos[388] = 220 degree 387
pos[387] = 217 degree 386
pos[386] = 214 degree 385
pos[385] = 211 degree 384
pos[384] = 208 degree 383
pos[383] = 205 degree 382
pos[382] = 202 degree 381
pos[381] = 199 degree 380
pos[380] = 196 degree 379
pos[379] = 193 degree 378
pos[378] = 190 degree 377
pos[377] = 187 degree 376
pos[376] = 184 degree 375
pos[375] = 181 degree 374
pos[374] = 178 degree 373
pos[373] = 175 degree 372
pos[372] = 172 degree 371
pos[371] = 169 degree 370
pos[370] = 166 degree 369
pos[369] = 163 degree 368
pos[368] = 160 degree 367
pos[367] = 157 degree 366
pos[366] = 154 degree 365
pos[365] = 151 degree 364
pos[364] = 148 degree 363
pos[363] = 145 degree 362
pos[362] = 142 degree 361
pos[361] = 139 degree 360
pos[360] = 136 degree 359
pos[359] = 133 degree 358
pos[358] = 130 degree 357
pos[357] = 127 degree 356
pos[356] = 124 degree 355
pos[355] = 121 degree 354
pos[354] = 118 degree 353
pos[353] = 115 degree 352
pos[352] = 112 degree 351
pos[351] = 109 degree 350
pos[350] = 106 degree 349
pos[349] = 103 degree 348
pos[348] = 100 degree 347
pos[347] = 97 degree 346
pos[346] = 94 degree 345
pos[345] = 91 degree 344
pos[344] = 88 degree 343
pos[343] = 85 degree 342
pos[342] = 82 degree 341
pos[341] = 79 degree 340
pos[340] = 76 degree 339
pos[339] = 73 degree 338
pos[338] = 70 degree 337
pos[337] = 67 degree 336
pos[336] = 64 degree 335
pos[335] = 61 degree 334
pos[334] = 58 degree 333
pos[333] = 55 degree 332
pos[332] = 52 degree 331
pos[331] = 49 degree 330
pos[330] = 46 degree 329
pos[329] = 1032 degree 329
pos[328] = 1029 degree 328
pos[327] = 1026 degree 327
pos[326] = 1023 degree 326
pos[325] = 1020 degree 325
pos[324] = 1017 degree 324
pos[323] = 1014 degree 323
pos[322] = 1011 degree 322
pos[321] = 1008 degree 321
pos[320] = 1005 degree 320
pos[319] = 1002 degree 319
pos[318] = 999 degree 318
pos[317] = 996 degree 317
pos[316] = 993 degree 316
pos[315] = 990 degree 315
pos[314] = 987 degree 314
pos[313] = 984 degree 313
pos[312] = 981 degree 312
pos[311] = 978 degree 311
pos[310] = 975 degree 310
pos[309] = 972 degree 309
pos[308] = 969 degree 308
pos[307] = 966 degree 307
pos[306] = 963 degree 306
pos[305] = 960 degree 305
pos[304] = 957 degree 304
pos[303] = 954 degree 303
pos[302] = 951 degree 302
pos[301] = 948 degree 301
pos[300] = 945 degree 300
pos[299] = 942 degree 299
pos[298] = 939 degree 298
pos[297] = 936 degree 297
pos[296] = 933 degree 296
pos[295] = 930 degree 295
pos[294] = 927 degree 294
pos[293] = 924 degree 293
pos[292] = 921 degree 292
pos[291] = 918 degree 291
pos[290] = 915 degree 290
pos[289] = 912 degree 289
pos[288] = 909 degree 288
pos[287] = 906 degree 287
pos[286] = 903 degree 286
pos[285] = 900 degree 285
pos[284] = 897 degree 284
pos[283] = 894 degree 283
pos[282] = 891 degree 282
pos[281] = 888 degree 281
pos[280] = 885 degree 280
pos[279] = 882 degree 279
pos[278] = 879 degree 278
pos[277] = 876 degree 277
pos[276] = 873 degree 276
pos[275] = 870 degree 275
pos[274] = 867 degree 274
pos[273] = 864 degree 273
pos[272] = 861 degree 272
pos[271] = 858 degree 271
pos[270] = 855 degree 270
pos[269] = 852 degree 269
pos[268] = 849 degree 268
pos[267] = 846 degree 267
pos[266] = 843 degree 266
pos[265] = 840 degree 265
pos[264] = 837 degree 264
pos[263] = 834 degree 263
pos[262] = 831 degree 262
pos[261] = 828 degree 261
pos[260] = 825 degree 260
pos[259] = 822 degree 259
pos[258] = 819 degree 258
pos[257] = 816 degree 257
pos[256] = 813 degree 256
pos[255] = 810 degree 255
pos[254] = 807 degree 254
pos[253] = 804 degree 253
pos[252] = 801 degree 252
pos[251] = 798 degree 251
pos[250] = 795 degree 250
pos[249] = 792 degree 249
pos[248] = 789 degree 248
pos[247] = 786 degree 247
pos[246] = 783 degree 246
pos[245] = 780 degree 245
pos[244] = 777 degree 244
pos[243] = 774 degree 243
pos[242] = 771 degree 242
pos[241] = 768 degree 241
pos[240] = 765 degree 240
pos[239] = 762 degree 239
pos[238] = 759 degree 238
pos[237] = 756 degree 237
pos[236] = 753 degree 236
pos[235] = 750 degree 235
pos[234] = 747 degree 234
pos[233] = 744 degree 233
pos[232] = 741 degree 232
pos[231] = 738 degree 231
pos[230] = 735 degree 230
pos[229] = 732 degree 229
pos[228] = 729 degree 228
pos[227] = 726 degree 227
pos[226] = 723 degree 226
pos[225] = 720 degree 225
pos[224] = 717 degree 224
pos[223] = 714 degree 223
pos[222] = 711 degree 222
pos[221] = 708 degree 221
pos[220] = 705 degree 220
pos[219] = 702 degree 219
pos[218] = 699 degree 218
pos[217] = 696 degree 217
pos[216] = 693 degree 216
pos[215] = 690 degree 215
pos[214] = 687 degree 214
pos[213] = 684 degree 213
pos[212] = 681 degree 212
pos[211] = 678 degree 211
pos[210] = 675 degree 210
pos[209] = 672 degree 209
pos[208] = 669 degree 208
pos[207] = 666 degree 207
pos[206] = 663 degree 206
pos[205] = 660 degree 205
pos[204] = 657 degree 204
pos[203] = 654 degree 203
pos[202] = 651 degree 202
pos[201] = 648 degree 201
pos[200] = 645 degree 200
pos[199] = 642 degree 199
pos[198] = 639 degree 198
pos[197] = 636 degree 197
pos[196] = 633 degree 196
pos[195] = 630 degree 195
pos[194] = 627 degree 194
pos[193] = 624 degree 193
pos[192] = 621 degree 192
pos[191] = 618 degree 191
pos[190] = 615 degree 190
pos[189] = 612 degree 189
pos[188] = 609 degree 188
pos[187] = 606 degree 187
pos[186] = 603 degree 186
pos[185] = 600 degree 185
pos[184] = 597 degree 184
pos[183] = 594 degree 183
pos[182] = 591 degree 182
pos[181] = 588 degree 181
pos[180] = 585 degree 180
pos[179] = 582 degree 179
pos[178] = 579 degree 178
pos[177] = 576 degree 177
pos[176] = 573 degree 176
pos[175] = 570 degree 175
pos[174] = 567 degree 174
pos[173] = 564 degree 173
pos[172] = 561 degree 172
pos[171] = 558 degree 171
pos[170] = 555 degree 170
pos[169] = 552 degree 169
pos[168] = 549 degree 168
pos[167] = 546 degree 167
pos[166] = 543 degree 166
pos[165] = 540 degree 165
pos[164] = 537 degree 164
pos[163] = 534 degree 163
pos[162] = 531 degree 162
pos[161] = 528 degree 161
pos[160] = 525 degree 160
pos[159] = 522 degree 159
pos[158] = 519 degree 158
pos[157] = 516 degree 157
pos[156] = 513 degree 156
pos[155] = 510 degree 155
pos[154] = 507 degree 154
pos[153] = 504 degree 153
pos[152] = 501 degree 152
pos[151] = 498 degree 151
pos[150] = 495 degree 150
pos[149] = 492 degree 149
pos[148] = 489 degree 148
pos[147] = 486 degree 147
pos[146] = 483 degree 146
pos[145] = 480 degree 145
pos[144] = 477 degree 144
pos[143] = 474 degree 143
pos[142] = 471 degree 142
pos[141] = 468 degree 141
pos[140] = 465 degree 140
pos[139] = 462 degree 139
pos[138] = 459 degree 138
pos[137] = 456 degree 137
pos[136] = 453 degree 136
pos[135] = 450 degree 135
pos[134] = 447 degree 134
pos[133] = 444 degree 133
pos[132] = 441 degree 132
pos[131] = 438 degree 131
pos[130] = 435 degree 130
pos[129] = 432 degree 129
pos[128] = 429 degree 128
pos[127] = 426 degree 127
pos[126] = 423 degree 126
pos[125] = 420 degree 125
pos[124] = 417 degree 124
pos[123] = 414 degree 123
pos[122] = 411 degree 122
pos[121] = 408 degree 121
pos[120] = 405 degree 120
pos[119] = 402 degree 119
pos[118] = 399 degree 118
pos[117] = 396 degree 117
pos[116] = 393 degree 116
pos[115] = 390 degree 115
pos[114] = 387 degree 114
pos[113] = 384 degree 113
pos[112] = 381 degree 112
pos[111] = 378 degree 111
pos[110] = 375 degree 110
pos[109] = 372 degree 109
pos[108] = 369 degree 108
pos[107] = 366 degree 107
pos[106] = 363 degree 106
pos[105] = 360 degree 105
pos[104] = 357 degree 104
pos[103] = 354 degree 103
pos[102] = 351 degree 102
pos[101] = 348 degree 101
pos[100] = 345 degree 100
pos[99] = 342 degree 99
pos[98] = 339 degree 98
pos[97] = 336 degree 97
pos[96] = 333 degree 96
pos[95] = 330 degree 95
pos[94] = 327 degree 94
pos[93] = 324 degree 93
pos[92] = 321 degree 92
pos[91] = 318 degree 91
pos[90] = 315 degree 90
pos[89] = 312 degree 89
pos[88] = 309 degree 88
pos[87] = 306 degree 87
pos[86] = 303 degree 86
pos[85] = 300 degree 85
pos[84] = 297 degree 84
pos[83] = 294 degree 83
pos[82] = 291 degree 82
pos[81] = 288 degree 81
pos[80] = 285 degree 80
pos[79] = 282 degree 79
pos[78] = 279 degree 78
pos[77] = 276 degree 77
pos[76] = 273 degree 76
pos[75] = 270 degree 75
pos[74] = 267 degree 74
pos[73] = 264 degree 73
pos[72] = 261 degree 72
pos[71] = 258 degree 71
pos[70] = 255 degree 70
pos[69] = 252 degree 69
pos[68] = 249 degree 68
pos[67] = 246 degree 67
pos[66] = 243 degree 66
pos[65] = 240 degree 65
pos[64] = 237 degree 64
pos[63] = 234 degree 63
pos[62] = 231 degree 62
pos[61] = 228 degree 61
pos[60] = 225 degree 60
pos[59] = 222 degree 59
pos[58] = 219 degree 58
pos[57] = 216 degree 57
pos[56] = 213 degree 56
pos[55] = 210 degree 55
pos[54] = 207 degree 54
pos[53] = 204 degree 53
pos[52] = 201 degree 52
pos[51] = 198 degree 51
pos[50] = 195 degree 50
pos[49] = 192 degree 49
pos[48] = 189 degree 48
pos[47] = 186 degree 47
pos[46] = 183 degree 46
pos[45] = 180 degree 45
pos[44] = 177 degree 44
pos[43] = 174 degree 43
pos[42] = 171 degree 42
pos[41] = 168 degree 41
pos[40] = 165 degree 40
pos[39] = 162 degree 39
pos[38] = 159 degree 38
pos[37] = 156 degree 37
pos[36] = 153 degree 36
pos[35] = 150 degree 35
pos[34] = 147 degree 34
pos[33] = 144 degree 33
pos[32] = 141 degree 32
pos[31] = 138 degree 31
pos[30] = 135 degree 30
pos[29] = 132 degree 29
pos[28] = 129 degree 28
pos[27] = 126 degree 27
pos[26] = 123 degree 26
pos[25] = 120 degree 25
pos[24] = 117 degree 24
pos[23] = 114 degree 23
pos[22] = 111 degree 22
pos[21] = 108 degree 21
pos[20] = 105 degree 20
pos[19] = 102 degree 19
pos[18] = 99 degree 18
pos[17] = 96 degree 17
pos[16] = 93 degree 16
pos[15] = 90 degree 15
pos[14] = 87 degree 14
pos[13] = 84 degree 13
pos[12] = 81 degree 12
pos[11] = 78 degree 11
pos[10] = 75 degree 10
pos[9] = 72 degree 9
pos[8] = 69 degree 8
pos[7] = 66 degree 7
pos[6] = 63 degree 6
pos[5] = 60 degree 5
pos[4] = 57 degree 4
pos[3] = 54 degree 3
pos[2] = 51 degree 2
pos[1] = 48 degree 1
pos[0] = 45 degree 0
start search
improving solution size 661
TIMEOUT
best clique: 46 49 52 55 58 61 64 67 70 73 76 79 82 85 88 91 94 97 100 103 106 109 112 115 118 121 124 127 130 133 136 139 142 145 148 151 154 157 160 163 166 169 172 175 178 181 184 187 190 193 196 199 202 205 208 211 214 217 220 223 226 229 232 235 238 241 244 247 250 253 256 259 262 265 268 271 274 277 280 283 286 289 292 295 298 301 304 307 310 313 316 319 322 325 328 331 334 337 340 343 346 349 352 355 358 361 364 367 370 373 376 379 382 385 388 391 394 397 400 403 406 409 412 415 418 421 424 427 430 433 436 439 442 445 448 451 454 457 460 463 466 469 472 475 478 481 484 487 490 493 496 499 502 505 508 511 514 517 520 523 526 529 532 535 538 541 544 547 550 553 556 559 562 565 568 571 574 577 580 583 586 589 592 595 598 601 604 607 610 613 616 619 622 625 628 631 634 637 640 643 646 649 652 655 658 661 664 667 670 673 676 679 682 685 688 691 694 697 700 703 706 709 712 715 718 721 724 727 730 733 736 739 742 745 748 751 754 757 760 763 766 769 772 775 778 781 784 787 790 793 796 799 802 805 808 811 814 817 820 823 826 829 832 835 838 841 844 847 850 853 856 859 862 865 868 871 874 877 880 883 886 889 892 895 898 901 904 907 910 913 916 919 922 925 928 931 934 937 940 943 946 949 952 955 958 961 964 967 970 973 976 979 982 985 988 991 994 997 1000 1003 1006 1009 1012 1015 1018 1021 1024 1027 1030 1033 47 50 53 56 59 62 65 68 71 74 77 80 83 86 89 92 95 98 101 104 107 110 113 116 119 122 125 128 131 134 137 140 143 146 149 152 155 158 161 164 167 170 173 176 179 182 185 188 191 194 197 200 203 206 209 212 215 218 221 224 227 230 233 236 239 242 245 248 251 254 257 260 263 266 269 272 275 278 281 284 287 290 293 296 299 302 305 308 311 314 317 320 323 326 329 332 335 338 341 344 347 350 353 356 359 362 365 368 371 374 377 380 383 386 389 392 395 398 401 404 407 410 413 416 419 422 425 428 431 434 437 440 443 446 449 452 455 458 461 464 467 470 473 476 479 482 485 488 491 494 497 500 503 506 509 512 515 518 521 524 527 530 533 536 539 542 545 548 551 554 557 560 563 566 569 572 575 578 581 584 587 590 593 596 599 602 605 608 611 614 617 620 623 626 629 632 635 638 641 644 647 650 653 656 659 662 665 668 671 674 677 680 683 686 689 692 695 698 701 704 707 710 713 716 719 722 725 728 731 734 737 740 743 746 749 752 755 758 761 764 767 770 773 776 779 782 785 788 791 794 797 800 803 806 809 812 815 818 821 824 827 830 833 836 839 842 845 848 851 854 857 860 863 866 869 872 875 878 881 884 887 890 893 896 899 902 905 908 911 914 917 920 923 926 929 932 935 938 941 944 947 950 953 956 959 962 965 968 971 974 977 980 983 986 989 992 995 998 1001 1004 1007 1010 1013 1016 1019 1022 1025 1028 1031 1034 45 
record          =         661
subp            =   413373961
time            =  3600.00049
