timeout 3600 s
Graph with 3321 vertices and 5506380 edges density 0.998825
t = 11012760, Enbr = 5506380
pos[3320] = 80 degree 3280
pos[3319] = 79 degree 3279
pos[3318] = 78 degree 3278
pos[3317] = 77 degree 3277
pos[3316] = 76 degree 3276
pos[3315] = 75 degree 3275
pos[3314] = 74 degree 3274
pos[3313] = 73 degree 3273
pos[3312] = 72 degree 3272
pos[3311] = 71 degree 3271
pos[3310] = 70 degree 3270
pos[3309] = 69 degree 3269
pos[3308] = 68 degree 3268
pos[3307] = 67 degree 3267
pos[3306] = 66 degree 3266
pos[3305] = 65 degree 3265
pos[3304] = 64 degree 3264
pos[3303] = 63 degree 3263
pos[3302] = 62 degree 3262
pos[3301] = 61 degree 3261
pos[3300] = 60 degree 3260
pos[3299] = 59 degree 3259
pos[3298] = 58 degree 3258
pos[3297] = 57 degree 3257
pos[3296] = 56 degree 3256
pos[3295] = 55 degree 3255
pos[3294] = 54 degree 3254
pos[3293] = 53 degree 3253
pos[3292] = 52 degree 3252
pos[3291] = 51 degree 3251
pos[3290] = 50 degree 3250
pos[3289] = 49 degree 3249
pos[3288] = 48 degree 3248
pos[3287] = 47 degree 3247
pos[3286] = 46 degree 3246
pos[3285] = 45 degree 3245
pos[3284] = 44 degree 3244
pos[3283] = 43 degree 3243
pos[3282] = 42 degree 3242
pos[3281] = 41 degree 3241
pos[3280] = 40 degree 3240
pos[3279] = 39 degree 3239
pos[3278] = 38 degree 3238
pos[3277] = 37 degree 3237
pos[3276] = 36 degree 3236
pos[3275] = 35 degree 3235
pos[3274] = 34 degree 3234
pos[3273] = 33 degree 3233
pos[3272] = 32 degree 3232
pos[3271] = 31 degree 3231
pos[3270] = 30 degree 3230
pos[3269] = 29 degree 3229
pos[3268] = 28 degree 3228
pos[3267] = 27 degree 3227
pos[3266] = 26 degree 3226
pos[3265] = 25 degree 3225
pos[3264] = 24 degree 3224
pos[3263] = 23 degree 3223
pos[3262] = 22 degree 3222
pos[3261] = 21 degree 3221
pos[3260] = 20 degree 3220
pos[3259] = 19 degree 3219
pos[3258] = 18 degree 3218
pos[3257] = 17 degree 3217
pos[3256] = 16 degree 3216
pos[3255] = 15 degree 3215
pos[3254] = 14 degree 3214
pos[3253] = 13 degree 3213
pos[3252] = 12 degree 3212
pos[3251] = 11 degree 3211
pos[3250] = 10 degree 3210
pos[3249] = 9 degree 3209
pos[3248] = 8 degree 3208
pos[3247] = 7 degree 3207
pos[3246] = 6 degree 3206
pos[3245] = 5 degree 3205
pos[3244] = 4 degree 3204
pos[3243] = 3 degree 3203
pos[3242] = 2 degree 3202
pos[3241] = 1 degree 3201
pos[3240] = 0 degree 3200
pos[3239] = 3320 degree 3237
pos[3238] = 3317 degree 3236
pos[3237] = 3314 degree 3235
pos[3236] = 3311 degree 3234
pos[3235] = 3308 degree 3233
pos[3234] = 3305 degree 3232
pos[3233] = 3302 degree 3231
pos[3232] = 3299 degree 3230
pos[3231] = 3296 degree 3229
pos[3230] = 3293 degree 3228
pos[3229] = 3290 degree 3227
pos[3228] = 3287 degree 3226
pos[3227] = 3284 degree 3225
pos[3226] = 3281 degree 3224
pos[3225] = 3278 degree 3223
pos[3224] = 3275 degree 3222
pos[3223] = 3272 degree 3221
pos[3222] = 3269 degree 3220
pos[3221] = 3266 degree 3219
pos[3220] = 3263 degree 3218
pos[3219] = 3260 degree 3217
pos[3218] = 3257 degree 3216
pos[3217] = 3254 degree 3215
pos[3216] = 3251 degree 3214
pos[3215] = 3248 degree 3213
pos[3214] = 3245 degree 3212
pos[3213] = 3242 degree 3211
pos[3212] = 3239 degree 3210
pos[3211] = 3236 degree 3209
pos[3210] = 3233 degree 3208
pos[3209] = 3230 degree 3207
pos[3208] = 3227 degree 3206
pos[3207] = 3224 degree 3205
pos[3206] = 3221 degree 3204
pos[3205] = 3218 degree 3203
pos[3204] = 3215 degree 3202
pos[3203] = 3212 degree 3201
pos[3202] = 3209 degree 3200
pos[3201] = 3206 degree 3199
pos[3200] = 3203 degree 3198
pos[3199] = 3200 degree 3197
pos[3198] = 3197 degree 3196
pos[3197] = 3194 degree 3195
pos[3196] = 3191 degree 3194
pos[3195] = 3188 degree 3193
pos[3194] = 3185 degree 3192
pos[3193] = 3182 degree 3191
pos[3192] = 3179 degree 3190
pos[3191] = 3176 degree 3189
pos[3190] = 3173 degree 3188
pos[3189] = 3170 degree 3187
pos[3188] = 3167 degree 3186
pos[3187] = 3164 degree 3185
pos[3186] = 3161 degree 3184
pos[3185] = 3158 degree 3183
pos[3184] = 3155 degree 3182
pos[3183] = 3152 degree 3181
pos[3182] = 3149 degree 3180
pos[3181] = 3146 degree 3179
pos[3180] = 3143 degree 3178
pos[3179] = 3140 degree 3177
pos[3178] = 3137 degree 3176
pos[3177] = 3134 degree 3175
pos[3176] = 3131 degree 3174
pos[3175] = 3128 degree 3173
pos[3174] = 3125 degree 3172
pos[3173] = 3122 degree 3171
pos[3172] = 3119 degree 3170
pos[3171] = 3116 degree 3169
pos[3170] = 3113 degree 3168
pos[3169] = 3110 degree 3167
pos[3168] = 3107 degree 3166
pos[3167] = 3104 degree 3165
pos[3166] = 3101 degree 3164
pos[3165] = 3098 degree 3163
pos[3164] = 3095 degree 3162
pos[3163] = 3092 degree 3161
pos[3162] = 3089 degree 3160
pos[3161] = 3086 degree 3159
pos[3160] = 3083 degree 3158
pos[3159] = 3080 degree 3157
pos[3158] = 3077 degree 3156
pos[3157] = 3074 degree 3155
pos[3156] = 3071 degree 3154
pos[3155] = 3068 degree 3153
pos[3154] = 3065 degree 3152
pos[3153] = 3062 degree 3151
pos[3152] = 3059 degree 3150
pos[3151] = 3056 degree 3149
pos[3150] = 3053 degree 3148
pos[3149] = 3050 degree 3147
pos[3148] = 3047 degree 3146
pos[3147] = 3044 degree 3145
pos[3146] = 3041 degree 3144
pos[3145] = 3038 degree 3143
pos[3144] = 3035 degree 3142
pos[3143] = 3032 degree 3141
pos[3142] = 3029 degree 3140
pos[3141] = 3026 degree 3139
pos[3140] = 3023 degree 3138
pos[3139] = 3020 degree 3137
pos[3138] = 3017 degree 3136
pos[3137] = 3014 degree 3135
pos[3136] = 3011 degree 3134
pos[3135] = 3008 degree 3133
pos[3134] = 3005 degree 3132
pos[3133] = 3002 degree 3131
pos[3132] = 2999 degree 3130
pos[3131] = 2996 degree 3129
pos[3130] = 2993 degree 3128
pos[3129] = 2990 degree 3127
pos[3128] = 2987 degree 3126
pos[3127] = 2984 degree 3125
pos[3126] = 2981 degree 3124
pos[3125] = 2978 degree 3123
pos[3124] = 2975 degree 3122
pos[3123] = 2972 degree 3121
pos[3122] = 2969 degree 3120
pos[3121] = 2966 degree 3119
pos[3120] = 2963 degree 3118
pos[3119] = 2960 degree 3117
pos[3118] = 2957 degree 3116
pos[3117] = 2954 degree 3115
pos[3116] = 2951 degree 3114
pos[3115] = 2948 degree 3113
pos[3114] = 2945 degree 3112
pos[3113] = 2942 degree 3111
pos[3112] = 2939 degree 3110
pos[3111] = 2936 degree 3109
pos[3110] = 2933 degree 3108
pos[3109] = 2930 degree 3107
pos[3108] = 2927 degree 3106
pos[3107] = 2924 degree 3105
pos[3106] = 2921 degree 3104
pos[3105] = 2918 degree 3103
pos[3104] = 2915 degree 3102
pos[3103] = 2912 degree 3101
pos[3102] = 2909 degree 3100
pos[3101] = 2906 degree 3099
pos[3100] = 2903 degree 3098
pos[3099] = 2900 degree 3097
pos[3098] = 2897 degree 3096
pos[3097] = 2894 degree 3095
pos[3096] = 2891 degree 3094
pos[3095] = 2888 degree 3093
pos[3094] = 2885 degree 3092
pos[3093] = 2882 degree 3091
pos[3092] = 2879 degree 3090
pos[3091] = 2876 degree 3089
pos[3090] = 2873 degree 3088
pos[3089] = 2870 degree 3087
pos[3088] = 2867 degree 3086
pos[3087] = 2864 degree 3085
pos[3086] = 2861 degree 3084
pos[3085] = 2858 degree 3083
pos[3084] = 2855 degree 3082
pos[3083] = 2852 degree 3081
pos[3082] = 2849 degree 3080
pos[3081] = 2846 degree 3079
pos[3080] = 2843 degree 3078
pos[3079] = 2840 degree 3077
pos[3078] = 2837 degree 3076
pos[3077] = 2834 degree 3075
pos[3076] = 2831 degree 3074
pos[3075] = 2828 degree 3073
pos[3074] = 2825 degree 3072
pos[3073] = 2822 degree 3071
pos[3072] = 2819 degree 3070
pos[3071] = 2816 degree 3069
pos[3070] = 2813 degree 3068
pos[3069] = 2810 degree 3067
pos[3068] = 2807 degree 3066
pos[3067] = 2804 degree 3065
pos[3066] = 2801 degree 3064
pos[3065] = 2798 degree 3063
pos[3064] = 2795 degree 3062
pos[3063] = 2792 degree 3061
pos[3062] = 2789 degree 3060
pos[3061] = 2786 degree 3059
pos[3060] = 2783 degree 3058
pos[3059] = 2780 degree 3057
pos[3058] = 2777 degree 3056
pos[3057] = 2774 degree 3055
pos[3056] = 2771 degree 3054
pos[3055] = 2768 degree 3053
pos[3054] = 2765 degree 3052
pos[3053] = 2762 degree 3051
pos[3052] = 2759 degree 3050
pos[3051] = 2756 degree 3049
pos[3050] = 2753 degree 3048
pos[3049] = 2750 degree 3047
pos[3048] = 2747 degree 3046
pos[3047] = 2744 degree 3045
pos[3046] = 2741 degree 3044
pos[3045] = 2738 degree 3043
pos[3044] = 2735 degree 3042
pos[3043] = 2732 degree 3041
pos[3042] = 2729 degree 3040
pos[3041] = 2726 degree 3039
pos[3040] = 2723 degree 3038
pos[3039] = 2720 degree 3037
pos[3038] = 2717 degree 3036
pos[3037] = 2714 degree 3035
pos[3036] = 2711 degree 3034
pos[3035] = 2708 degree 3033
pos[3034] = 2705 degree 3032
pos[3033] = 2702 degree 3031
pos[3032] = 2699 degree 3030
pos[3031] = 2696 degree 3029
pos[3030] = 2693 degree 3028
pos[3029] = 2690 degree 3027
pos[3028] = 2687 degree 3026
pos[3027] = 2684 degree 3025
pos[3026] = 2681 degree 3024
pos[3025] = 2678 degree 3023
pos[3024] = 2675 degree 3022
pos[3023] = 2672 degree 3021
pos[3022] = 2669 degree 3020
pos[3021] = 2666 degree 3019
pos[3020] = 2663 degree 3018
pos[3019] = 2660 degree 3017
pos[3018] = 2657 degree 3016
pos[3017] = 2654 degree 3015
pos[3016] = 2651 degree 3014
pos[3015] = 2648 degree 3013
pos[3014] = 2645 degree 3012
pos[3013] = 2642 degree 3011
pos[3012] = 2639 degree 3010
pos[3011] = 2636 degree 3009
pos[3010] = 2633 degree 3008
pos[3009] = 2630 degree 3007
pos[3008] = 2627 degree 3006
pos[3007] = 2624 degree 3005
pos[3006] = 2621 degree 3004
pos[3005] = 2618 degree 3003
pos[3004] = 2615 degree 3002
pos[3003] = 2612 degree 3001
pos[3002] = 2609 degree 3000
pos[3001] = 2606 degree 2999
pos[3000] = 2603 degree 2998
pos[2999] = 2600 degree 2997
pos[2998] = 2597 degree 2996
pos[2997] = 2594 degree 2995
pos[2996] = 2591 degree 2994
pos[2995] = 2588 degree 2993
pos[2994] = 2585 degree 2992
pos[2993] = 2582 degree 2991
pos[2992] = 2579 degree 2990
pos[2991] = 2576 degree 2989
pos[2990] = 2573 degree 2988
pos[2989] = 2570 degree 2987
pos[2988] = 2567 degree 2986
pos[2987] = 2564 degree 2985
pos[2986] = 2561 degree 2984
pos[2985] = 2558 degree 2983
pos[2984] = 2555 degree 2982
pos[2983] = 2552 degree 2981
pos[2982] = 2549 degree 2980
pos[2981] = 2546 degree 2979
pos[2980] = 2543 degree 2978
pos[2979] = 2540 degree 2977
pos[2978] = 2537 degree 2976
pos[2977] = 2534 degree 2975
pos[2976] = 2531 degree 2974
pos[2975] = 2528 degree 2973
pos[2974] = 2525 degree 2972
pos[2973] = 2522 degree 2971
pos[2972] = 2519 degree 2970
pos[2971] = 2516 degree 2969
pos[2970] = 2513 degree 2968
pos[2969] = 2510 degree 2967
pos[2968] = 2507 degree 2966
pos[2967] = 2504 degree 2965
pos[2966] = 2501 degree 2964
pos[2965] = 2498 degree 2963
pos[2964] = 2495 degree 2962
pos[2963] = 2492 degree 2961
pos[2962] = 2489 degree 2960
pos[2961] = 2486 degree 2959
pos[2960] = 2483 degree 2958
pos[2959] = 2480 degree 2957
pos[2958] = 2477 degree 2956
pos[2957] = 2474 degree 2955
pos[2956] = 2471 degree 2954
pos[2955] = 2468 degree 2953
pos[2954] = 2465 degree 2952
pos[2953] = 2462 degree 2951
pos[2952] = 2459 degree 2950
pos[2951] = 2456 degree 2949
pos[2950] = 2453 degree 2948
pos[2949] = 2450 degree 2947
pos[2948] = 2447 degree 2946
pos[2947] = 2444 degree 2945
pos[2946] = 2441 degree 2944
pos[2945] = 2438 degree 2943
pos[2944] = 2435 degree 2942
pos[2943] = 2432 degree 2941
pos[2942] = 2429 degree 2940
pos[2941] = 2426 degree 2939
pos[2940] = 2423 degree 2938
pos[2939] = 2420 degree 2937
pos[2938] = 2417 degree 2936
pos[2937] = 2414 degree 2935
pos[2936] = 2411 degree 2934
pos[2935] = 2408 degree 2933
pos[2934] = 2405 degree 2932
pos[2933] = 2402 degree 2931
pos[2932] = 2399 degree 2930
pos[2931] = 2396 degree 2929
pos[2930] = 2393 degree 2928
pos[2929] = 2390 degree 2927
pos[2928] = 2387 degree 2926
pos[2927] = 2384 degree 2925
pos[2926] = 2381 degree 2924
pos[2925] = 2378 degree 2923
pos[2924] = 2375 degree 2922
pos[2923] = 2372 degree 2921
pos[2922] = 2369 degree 2920
pos[2921] = 2366 degree 2919
pos[2920] = 2363 degree 2918
pos[2919] = 2360 degree 2917
pos[2918] = 2357 degree 2916
pos[2917] = 2354 degree 2915
pos[2916] = 2351 degree 2914
pos[2915] = 2348 degree 2913
pos[2914] = 2345 degree 2912
pos[2913] = 2342 degree 2911
pos[2912] = 2339 degree 2910
pos[2911] = 2336 degree 2909
pos[2910] = 2333 degree 2908
pos[2909] = 2330 degree 2907
pos[2908] = 2327 degree 2906
pos[2907] = 2324 degree 2905
pos[2906] = 2321 degree 2904
pos[2905] = 2318 degree 2903
pos[2904] = 2315 degree 2902
pos[2903] = 2312 degree 2901
pos[2902] = 2309 degree 2900
pos[2901] = 2306 degree 2899
pos[2900] = 2303 degree 2898
pos[2899] = 2300 degree 2897
pos[2898] = 2297 degree 2896
pos[2897] = 2294 degree 2895
pos[2896] = 2291 degree 2894
pos[2895] = 2288 degree 2893
pos[2894] = 2285 degree 2892
pos[2893] = 2282 degree 2891
pos[2892] = 2279 degree 2890
pos[2891] = 2276 degree 2889
pos[2890] = 2273 degree 2888
pos[2889] = 2270 degree 2887
pos[2888] = 2267 degree 2886
pos[2887] = 2264 degree 2885
pos[2886] = 2261 degree 2884
pos[2885] = 2258 degree 2883
pos[2884] = 2255 degree 2882
pos[2883] = 2252 degree 2881
pos[2882] = 2249 degree 2880
pos[2881] = 2246 degree 2879
pos[2880] = 2243 degree 2878
pos[2879] = 2240 degree 2877
pos[2878] = 2237 degree 2876
pos[2877] = 2234 degree 2875
pos[2876] = 2231 degree 2874
pos[2875] = 2228 degree 2873
pos[2874] = 2225 degree 2872
pos[2873] = 2222 degree 2871
pos[2872] = 2219 degree 2870
pos[2871] = 2216 degree 2869
pos[2870] = 2213 degree 2868
pos[2869] = 2210 degree 2867
pos[2868] = 2207 degree 2866
pos[2867] = 2204 degree 2865
pos[2866] = 2201 degree 2864
pos[2865] = 2198 degree 2863
pos[2864] = 2195 degree 2862
pos[2863] = 2192 degree 2861
pos[2862] = 2189 degree 2860
pos[2861] = 2186 degree 2859
pos[2860] = 2183 degree 2858
pos[2859] = 2180 degree 2857
pos[2858] = 2177 degree 2856
pos[2857] = 2174 degree 2855
pos[2856] = 2171 degree 2854
pos[2855] = 2168 degree 2853
pos[2854] = 2165 degree 2852
pos[2853] = 2162 degree 2851
pos[2852] = 2159 degree 2850
pos[2851] = 2156 degree 2849
pos[2850] = 2153 degree 2848
pos[2849] = 2150 degree 2847
pos[2848] = 2147 degree 2846
pos[2847] = 2144 degree 2845
pos[2846] = 2141 degree 2844
pos[2845] = 2138 degree 2843
pos[2844] = 2135 degree 2842
pos[2843] = 2132 degree 2841
pos[2842] = 2129 degree 2840
pos[2841] = 2126 degree 2839
pos[2840] = 2123 degree 2838
pos[2839] = 2120 degree 2837
pos[2838] = 2117 degree 2836
pos[2837] = 2114 degree 2835
pos[2836] = 2111 degree 2834
pos[2835] = 2108 degree 2833
pos[2834] = 2105 degree 2832
pos[2833] = 2102 degree 2831
pos[2832] = 2099 degree 2830
pos[2831] = 2096 degree 2829
pos[2830] = 2093 degree 2828
pos[2829] = 2090 degree 2827
pos[2828] = 2087 degree 2826
pos[2827] = 2084 degree 2825
pos[2826] = 2081 degree 2824
pos[2825] = 2078 degree 2823
pos[2824] = 2075 degree 2822
pos[2823] = 2072 degree 2821
pos[2822] = 2069 degree 2820
pos[2821] = 2066 degree 2819
pos[2820] = 2063 degree 2818
pos[2819] = 2060 degree 2817
pos[2818] = 2057 degree 2816
pos[2817] = 2054 degree 2815
pos[2816] = 2051 degree 2814
pos[2815] = 2048 degree 2813
pos[2814] = 2045 degree 2812
pos[2813] = 2042 degree 2811
pos[2812] = 2039 degree 2810
pos[2811] = 2036 degree 2809
pos[2810] = 2033 degree 2808
pos[2809] = 2030 degree 2807
pos[2808] = 2027 degree 2806
pos[2807] = 2024 degree 2805
pos[2806] = 2021 degree 2804
pos[2805] = 2018 degree 2803
pos[2804] = 2015 degree 2802
pos[2803] = 2012 degree 2801
pos[2802] = 2009 degree 2800
pos[2801] = 2006 degree 2799
pos[2800] = 2003 degree 2798
pos[2799] = 2000 degree 2797
pos[2798] = 1997 degree 2796
pos[2797] = 1994 degree 2795
pos[2796] = 1991 degree 2794
pos[2795] = 1988 degree 2793
pos[2794] = 1985 degree 2792
pos[2793] = 1982 degree 2791
pos[2792] = 1979 degree 2790
pos[2791] = 1976 degree 2789
pos[2790] = 1973 degree 2788
pos[2789] = 1970 degree 2787
pos[2788] = 1967 degree 2786
pos[2787] = 1964 degree 2785
pos[2786] = 1961 degree 2784
pos[2785] = 1958 degree 2783
pos[2784] = 1955 degree 2782
pos[2783] = 1952 degree 2781
pos[2782] = 1949 degree 2780
pos[2781] = 1946 degree 2779
pos[2780] = 1943 degree 2778
pos[2779] = 1940 degree 2777
pos[2778] = 1937 degree 2776
pos[2777] = 1934 degree 2775
pos[2776] = 1931 degree 2774
pos[2775] = 1928 degree 2773
pos[2774] = 1925 degree 2772
pos[2773] = 1922 degree 2771
pos[2772] = 1919 degree 2770
pos[2771] = 1916 degree 2769
pos[2770] = 1913 degree 2768
pos[2769] = 1910 degree 2767
pos[2768] = 1907 degree 2766
pos[2767] = 1904 degree 2765
pos[2766] = 1901 degree 2764
pos[2765] = 1898 degree 2763
pos[2764] = 1895 degree 2762
pos[2763] = 1892 degree 2761
pos[2762] = 1889 degree 2760
pos[2761] = 1886 degree 2759
pos[2760] = 1883 degree 2758
pos[2759] = 1880 degree 2757
pos[2758] = 1877 degree 2756
pos[2757] = 1874 degree 2755
pos[2756] = 1871 degree 2754
pos[2755] = 1868 degree 2753
pos[2754] = 1865 degree 2752
pos[2753] = 1862 degree 2751
pos[2752] = 1859 degree 2750
pos[2751] = 1856 degree 2749
pos[2750] = 1853 degree 2748
pos[2749] = 1850 degree 2747
pos[2748] = 1847 degree 2746
pos[2747] = 1844 degree 2745
pos[2746] = 1841 degree 2744
pos[2745] = 1838 degree 2743
pos[2744] = 1835 degree 2742
pos[2743] = 1832 degree 2741
pos[2742] = 1829 degree 2740
pos[2741] = 1826 degree 2739
pos[2740] = 1823 degree 2738
pos[2739] = 1820 degree 2737
pos[2738] = 1817 degree 2736
pos[2737] = 1814 degree 2735
pos[2736] = 1811 degree 2734
pos[2735] = 1808 degree 2733
pos[2734] = 1805 degree 2732
pos[2733] = 1802 degree 2731
pos[2732] = 1799 degree 2730
pos[2731] = 1796 degree 2729
pos[2730] = 1793 degree 2728
pos[2729] = 1790 degree 2727
pos[2728] = 1787 degree 2726
pos[2727] = 1784 degree 2725
pos[2726] = 1781 degree 2724
pos[2725] = 1778 degree 2723
pos[2724] = 1775 degree 2722
pos[2723] = 1772 degree 2721
pos[2722] = 1769 degree 2720
pos[2721] = 1766 degree 2719
pos[2720] = 1763 degree 2718
pos[2719] = 1760 degree 2717
pos[2718] = 1757 degree 2716
pos[2717] = 1754 degree 2715
pos[2716] = 1751 degree 2714
pos[2715] = 1748 degree 2713
pos[2714] = 1745 degree 2712
pos[2713] = 1742 degree 2711
pos[2712] = 1739 degree 2710
pos[2711] = 1736 degree 2709
pos[2710] = 1733 degree 2708
pos[2709] = 1730 degree 2707
pos[2708] = 1727 degree 2706
pos[2707] = 1724 degree 2705
pos[2706] = 1721 degree 2704
pos[2705] = 1718 degree 2703
pos[2704] = 1715 degree 2702
pos[2703] = 1712 degree 2701
pos[2702] = 1709 degree 2700
pos[2701] = 1706 degree 2699
pos[2700] = 1703 degree 2698
pos[2699] = 1700 degree 2697
pos[2698] = 1697 degree 2696
pos[2697] = 1694 degree 2695
pos[2696] = 1691 degree 2694
pos[2695] = 1688 degree 2693
pos[2694] = 1685 degree 2692
pos[2693] = 1682 degree 2691
pos[2692] = 1679 degree 2690
pos[2691] = 1676 degree 2689
pos[2690] = 1673 degree 2688
pos[2689] = 1670 degree 2687
pos[2688] = 1667 degree 2686
pos[2687] = 1664 degree 2685
pos[2686] = 1661 degree 2684
pos[2685] = 1658 degree 2683
pos[2684] = 1655 degree 2682
pos[2683] = 1652 degree 2681
pos[2682] = 1649 degree 2680
pos[2681] = 1646 degree 2679
pos[2680] = 1643 degree 2678
pos[2679] = 1640 degree 2677
pos[2678] = 1637 degree 2676
pos[2677] = 1634 degree 2675
pos[2676] = 1631 degree 2674
pos[2675] = 1628 degree 2673
pos[2674] = 1625 degree 2672
pos[2673] = 1622 degree 2671
pos[2672] = 1619 degree 2670
pos[2671] = 1616 degree 2669
pos[2670] = 1613 degree 2668
pos[2669] = 1610 degree 2667
pos[2668] = 1607 degree 2666
pos[2667] = 1604 degree 2665
pos[2666] = 1601 degree 2664
pos[2665] = 1598 degree 2663
pos[2664] = 1595 degree 2662
pos[2663] = 1592 degree 2661
pos[2662] = 1589 degree 2660
pos[2661] = 1586 degree 2659
pos[2660] = 1583 degree 2658
pos[2659] = 1580 degree 2657
pos[2658] = 1577 degree 2656
pos[2657] = 1574 degree 2655
pos[2656] = 1571 degree 2654
pos[2655] = 1568 degree 2653
pos[2654] = 1565 degree 2652
pos[2653] = 1562 degree 2651
pos[2652] = 1559 degree 2650
pos[2651] = 1556 degree 2649
pos[2650] = 1553 degree 2648
pos[2649] = 1550 degree 2647
pos[2648] = 1547 degree 2646
pos[2647] = 1544 degree 2645
pos[2646] = 1541 degree 2644
pos[2645] = 1538 degree 2643
pos[2644] = 1535 degree 2642
pos[2643] = 1532 degree 2641
pos[2642] = 1529 degree 2640
pos[2641] = 1526 degree 2639
pos[2640] = 1523 degree 2638
pos[2639] = 1520 degree 2637
pos[2638] = 1517 degree 2636
pos[2637] = 1514 degree 2635
pos[2636] = 1511 degree 2634
pos[2635] = 1508 degree 2633
pos[2634] = 1505 degree 2632
pos[2633] = 1502 degree 2631
pos[2632] = 1499 degree 2630
pos[2631] = 1496 degree 2629
pos[2630] = 1493 degree 2628
pos[2629] = 1490 degree 2627
pos[2628] = 1487 degree 2626
pos[2627] = 1484 degree 2625
pos[2626] = 1481 degree 2624
pos[2625] = 1478 degree 2623
pos[2624] = 1475 degree 2622
pos[2623] = 1472 degree 2621
pos[2622] = 1469 degree 2620
pos[2621] = 1466 degree 2619
pos[2620] = 1463 degree 2618
pos[2619] = 1460 degree 2617
pos[2618] = 1457 degree 2616
pos[2617] = 1454 degree 2615
pos[2616] = 1451 degree 2614
pos[2615] = 1448 degree 2613
pos[2614] = 1445 degree 2612
pos[2613] = 1442 degree 2611
pos[2612] = 1439 degree 2610
pos[2611] = 1436 degree 2609
pos[2610] = 1433 degree 2608
pos[2609] = 1430 degree 2607
pos[2608] = 1427 degree 2606
pos[2607] = 1424 degree 2605
pos[2606] = 1421 degree 2604
pos[2605] = 1418 degree 2603
pos[2604] = 1415 degree 2602
pos[2603] = 1412 degree 2601
pos[2602] = 1409 degree 2600
pos[2601] = 1406 degree 2599
pos[2600] = 1403 degree 2598
pos[2599] = 1400 degree 2597
pos[2598] = 1397 degree 2596
pos[2597] = 1394 degree 2595
pos[2596] = 1391 degree 2594
pos[2595] = 1388 degree 2593
pos[2594] = 1385 degree 2592
pos[2593] = 1382 degree 2591
pos[2592] = 1379 degree 2590
pos[2591] = 1376 degree 2589
pos[2590] = 1373 degree 2588
pos[2589] = 1370 degree 2587
pos[2588] = 1367 degree 2586
pos[2587] = 1364 degree 2585
pos[2586] = 1361 degree 2584
pos[2585] = 1358 degree 2583
pos[2584] = 1355 degree 2582
pos[2583] = 1352 degree 2581
pos[2582] = 1349 degree 2580
pos[2581] = 1346 degree 2579
pos[2580] = 1343 degree 2578
pos[2579] = 1340 degree 2577
pos[2578] = 1337 degree 2576
pos[2577] = 1334 degree 2575
pos[2576] = 1331 degree 2574
pos[2575] = 1328 degree 2573
pos[2574] = 1325 degree 2572
pos[2573] = 1322 degree 2571
pos[2572] = 1319 degree 2570
pos[2571] = 1316 degree 2569
pos[2570] = 1313 degree 2568
pos[2569] = 1310 degree 2567
pos[2568] = 1307 degree 2566
pos[2567] = 1304 degree 2565
pos[2566] = 1301 degree 2564
pos[2565] = 1298 degree 2563
pos[2564] = 1295 degree 2562
pos[2563] = 1292 degree 2561
pos[2562] = 1289 degree 2560
pos[2561] = 1286 degree 2559
pos[2560] = 1283 degree 2558
pos[2559] = 1280 degree 2557
pos[2558] = 1277 degree 2556
pos[2557] = 1274 degree 2555
pos[2556] = 1271 degree 2554
pos[2555] = 1268 degree 2553
pos[2554] = 1265 degree 2552
pos[2553] = 1262 degree 2551
pos[2552] = 1259 degree 2550
pos[2551] = 1256 degree 2549
pos[2550] = 1253 degree 2548
pos[2549] = 1250 degree 2547
pos[2548] = 1247 degree 2546
pos[2547] = 1244 degree 2545
pos[2546] = 1241 degree 2544
pos[2545] = 1238 degree 2543
pos[2544] = 1235 degree 2542
pos[2543] = 1232 degree 2541
pos[2542] = 1229 degree 2540
pos[2541] = 1226 degree 2539
pos[2540] = 1223 degree 2538
pos[2539] = 1220 degree 2537
pos[2538] = 1217 degree 2536
pos[2537] = 1214 degree 2535
pos[2536] = 1211 degree 2534
pos[2535] = 1208 degree 2533
pos[2534] = 1205 degree 2532
pos[2533] = 1202 degree 2531
pos[2532] = 1199 degree 2530
pos[2531] = 1196 degree 2529
pos[2530] = 1193 degree 2528
pos[2529] = 1190 degree 2527
pos[2528] = 1187 degree 2526
pos[2527] = 1184 degree 2525
pos[2526] = 1181 degree 2524
pos[2525] = 1178 degree 2523
pos[2524] = 1175 degree 2522
pos[2523] = 1172 degree 2521
pos[2522] = 1169 degree 2520
pos[2521] = 1166 degree 2519
pos[2520] = 1163 degree 2518
pos[2519] = 1160 degree 2517
pos[2518] = 1157 degree 2516
pos[2517] = 1154 degree 2515
pos[2516] = 1151 degree 2514
pos[2515] = 1148 degree 2513
pos[2514] = 1145 degree 2512
pos[2513] = 1142 degree 2511
pos[2512] = 1139 degree 2510
pos[2511] = 1136 degree 2509
pos[2510] = 1133 degree 2508
pos[2509] = 1130 degree 2507
pos[2508] = 1127 degree 2506
pos[2507] = 1124 degree 2505
pos[2506] = 1121 degree 2504
pos[2505] = 1118 degree 2503
pos[2504] = 1115 degree 2502
pos[2503] = 1112 degree 2501
pos[2502] = 1109 degree 2500
pos[2501] = 1106 degree 2499
pos[2500] = 1103 degree 2498
pos[2499] = 1100 degree 2497
pos[2498] = 1097 degree 2496
pos[2497] = 1094 degree 2495
pos[2496] = 1091 degree 2494
pos[2495] = 1088 degree 2493
pos[2494] = 1085 degree 2492
pos[2493] = 1082 degree 2491
pos[2492] = 1079 degree 2490
pos[2491] = 1076 degree 2489
pos[2490] = 1073 degree 2488
pos[2489] = 1070 degree 2487
pos[2488] = 1067 degree 2486
pos[2487] = 1064 degree 2485
pos[2486] = 1061 degree 2484
pos[2485] = 1058 degree 2483
pos[2484] = 1055 degree 2482
pos[2483] = 1052 degree 2481
pos[2482] = 1049 degree 2480
pos[2481] = 1046 degree 2479
pos[2480] = 1043 degree 2478
pos[2479] = 1040 degree 2477
pos[2478] = 1037 degree 2476
pos[2477] = 1034 degree 2475
pos[2476] = 1031 degree 2474
pos[2475] = 1028 degree 2473
pos[2474] = 1025 degree 2472
pos[2473] = 1022 degree 2471
pos[2472] = 1019 degree 2470
pos[2471] = 1016 degree 2469
pos[2470] = 1013 degree 2468
pos[2469] = 1010 degree 2467
pos[2468] = 1007 degree 2466
pos[2467] = 1004 degree 2465
pos[2466] = 1001 degree 2464
pos[2465] = 998 degree 2463
pos[2464] = 995 degree 2462
pos[2463] = 992 degree 2461
pos[2462] = 989 degree 2460
pos[2461] = 986 degree 2459
pos[2460] = 983 degree 2458
pos[2459] = 980 degree 2457
pos[2458] = 977 degree 2456
pos[2457] = 974 degree 2455
pos[2456] = 971 degree 2454
pos[2455] = 968 degree 2453
pos[2454] = 965 degree 2452
pos[2453] = 962 degree 2451
pos[2452] = 959 degree 2450
pos[2451] = 956 degree 2449
pos[2450] = 953 degree 2448
pos[2449] = 950 degree 2447
pos[2448] = 947 degree 2446
pos[2447] = 944 degree 2445
pos[2446] = 941 degree 2444
pos[2445] = 938 degree 2443
pos[2444] = 935 degree 2442
pos[2443] = 932 degree 2441
pos[2442] = 929 degree 2440
pos[2441] = 926 degree 2439
pos[2440] = 923 degree 2438
pos[2439] = 920 degree 2437
pos[2438] = 917 degree 2436
pos[2437] = 914 degree 2435
pos[2436] = 911 degree 2434
pos[2435] = 908 degree 2433
pos[2434] = 905 degree 2432
pos[2433] = 902 degree 2431
pos[2432] = 899 degree 2430
pos[2431] = 896 degree 2429
pos[2430] = 893 degree 2428
pos[2429] = 890 degree 2427
pos[2428] = 887 degree 2426
pos[2427] = 884 degree 2425
pos[2426] = 881 degree 2424
pos[2425] = 878 degree 2423
pos[2424] = 875 degree 2422
pos[2423] = 872 degree 2421
pos[2422] = 869 degree 2420
pos[2421] = 866 degree 2419
pos[2420] = 863 degree 2418
pos[2419] = 860 degree 2417
pos[2418] = 857 degree 2416
pos[2417] = 854 degree 2415
pos[2416] = 851 degree 2414
pos[2415] = 848 degree 2413
pos[2414] = 845 degree 2412
pos[2413] = 842 degree 2411
pos[2412] = 839 degree 2410
pos[2411] = 836 degree 2409
pos[2410] = 833 degree 2408
pos[2409] = 830 degree 2407
pos[2408] = 827 degree 2406
pos[2407] = 824 degree 2405
pos[2406] = 821 degree 2404
pos[2405] = 818 degree 2403
pos[2404] = 815 degree 2402
pos[2403] = 812 degree 2401
pos[2402] = 809 degree 2400
pos[2401] = 806 degree 2399
pos[2400] = 803 degree 2398
pos[2399] = 800 degree 2397
pos[2398] = 797 degree 2396
pos[2397] = 794 degree 2395
pos[2396] = 791 degree 2394
pos[2395] = 788 degree 2393
pos[2394] = 785 degree 2392
pos[2393] = 782 degree 2391
pos[2392] = 779 degree 2390
pos[2391] = 776 degree 2389
pos[2390] = 773 degree 2388
pos[2389] = 770 degree 2387
pos[2388] = 767 degree 2386
pos[2387] = 764 degree 2385
pos[2386] = 761 degree 2384
pos[2385] = 758 degree 2383
pos[2384] = 755 degree 2382
pos[2383] = 752 degree 2381
pos[2382] = 749 degree 2380
pos[2381] = 746 degree 2379
pos[2380] = 743 degree 2378
pos[2379] = 740 degree 2377
pos[2378] = 737 degree 2376
pos[2377] = 734 degree 2375
pos[2376] = 731 degree 2374
pos[2375] = 728 degree 2373
pos[2374] = 725 degree 2372
pos[2373] = 722 degree 2371
pos[2372] = 719 degree 2370
pos[2371] = 716 degree 2369
pos[2370] = 713 degree 2368
pos[2369] = 710 degree 2367
pos[2368] = 707 degree 2366
pos[2367] = 704 degree 2365
pos[2366] = 701 degree 2364
pos[2365] = 698 degree 2363
pos[2364] = 695 degree 2362
pos[2363] = 692 degree 2361
pos[2362] = 689 degree 2360
pos[2361] = 686 degree 2359
pos[2360] = 683 degree 2358
pos[2359] = 680 degree 2357
pos[2358] = 677 degree 2356
pos[2357] = 674 degree 2355
pos[2356] = 671 degree 2354
pos[2355] = 668 degree 2353
pos[2354] = 665 degree 2352
pos[2353] = 662 degree 2351
pos[2352] = 659 degree 2350
pos[2351] = 656 degree 2349
pos[2350] = 653 degree 2348
pos[2349] = 650 degree 2347
pos[2348] = 647 degree 2346
pos[2347] = 644 degree 2345
pos[2346] = 641 degree 2344
pos[2345] = 638 degree 2343
pos[2344] = 635 degree 2342
pos[2343] = 632 degree 2341
pos[2342] = 629 degree 2340
pos[2341] = 626 degree 2339
pos[2340] = 623 degree 2338
pos[2339] = 620 degree 2337
pos[2338] = 617 degree 2336
pos[2337] = 614 degree 2335
pos[2336] = 611 degree 2334
pos[2335] = 608 degree 2333
pos[2334] = 605 degree 2332
pos[2333] = 602 degree 2331
pos[2332] = 599 degree 2330
pos[2331] = 596 degree 2329
pos[2330] = 593 degree 2328
pos[2329] = 590 degree 2327
pos[2328] = 587 degree 2326
pos[2327] = 584 degree 2325
pos[2326] = 581 degree 2324
pos[2325] = 578 degree 2323
pos[2324] = 575 degree 2322
pos[2323] = 572 degree 2321
pos[2322] = 569 degree 2320
pos[2321] = 566 degree 2319
pos[2320] = 563 degree 2318
pos[2319] = 560 degree 2317
pos[2318] = 557 degree 2316
pos[2317] = 554 degree 2315
pos[2316] = 551 degree 2314
pos[2315] = 548 degree 2313
pos[2314] = 545 degree 2312
pos[2313] = 542 degree 2311
pos[2312] = 539 degree 2310
pos[2311] = 536 degree 2309
pos[2310] = 533 degree 2308
pos[2309] = 530 degree 2307
pos[2308] = 527 degree 2306
pos[2307] = 524 degree 2305
pos[2306] = 521 degree 2304
pos[2305] = 518 degree 2303
pos[2304] = 515 degree 2302
pos[2303] = 512 degree 2301
pos[2302] = 509 degree 2300
pos[2301] = 506 degree 2299
pos[2300] = 503 degree 2298
pos[2299] = 500 degree 2297
pos[2298] = 497 degree 2296
pos[2297] = 494 degree 2295
pos[2296] = 491 degree 2294
pos[2295] = 488 degree 2293
pos[2294] = 485 degree 2292
pos[2293] = 482 degree 2291
pos[2292] = 479 degree 2290
pos[2291] = 476 degree 2289
pos[2290] = 473 degree 2288
pos[2289] = 470 degree 2287
pos[2288] = 467 degree 2286
pos[2287] = 464 degree 2285
pos[2286] = 461 degree 2284
pos[2285] = 458 degree 2283
pos[2284] = 455 degree 2282
pos[2283] = 452 degree 2281
pos[2282] = 449 degree 2280
pos[2281] = 446 degree 2279
pos[2280] = 443 degree 2278
pos[2279] = 440 degree 2277
pos[2278] = 437 degree 2276
pos[2277] = 434 degree 2275
pos[2276] = 431 degree 2274
pos[2275] = 428 degree 2273
pos[2274] = 425 degree 2272
pos[2273] = 422 degree 2271
pos[2272] = 419 degree 2270
pos[2271] = 416 degree 2269
pos[2270] = 413 degree 2268
pos[2269] = 410 degree 2267
pos[2268] = 407 degree 2266
pos[2267] = 404 degree 2265
pos[2266] = 401 degree 2264
pos[2265] = 398 degree 2263
pos[2264] = 395 degree 2262
pos[2263] = 392 degree 2261
pos[2262] = 389 degree 2260
pos[2261] = 386 degree 2259
pos[2260] = 383 degree 2258
pos[2259] = 380 degree 2257
pos[2258] = 377 degree 2256
pos[2257] = 374 degree 2255
pos[2256] = 371 degree 2254
pos[2255] = 368 degree 2253
pos[2254] = 365 degree 2252
pos[2253] = 362 degree 2251
pos[2252] = 359 degree 2250
pos[2251] = 356 degree 2249
pos[2250] = 353 degree 2248
pos[2249] = 350 degree 2247
pos[2248] = 347 degree 2246
pos[2247] = 344 degree 2245
pos[2246] = 341 degree 2244
pos[2245] = 338 degree 2243
pos[2244] = 335 degree 2242
pos[2243] = 332 degree 2241
pos[2242] = 329 degree 2240
pos[2241] = 326 degree 2239
pos[2240] = 323 degree 2238
pos[2239] = 320 degree 2237
pos[2238] = 317 degree 2236
pos[2237] = 314 degree 2235
pos[2236] = 311 degree 2234
pos[2235] = 308 degree 2233
pos[2234] = 305 degree 2232
pos[2233] = 302 degree 2231
pos[2232] = 299 degree 2230
pos[2231] = 296 degree 2229
pos[2230] = 293 degree 2228
pos[2229] = 290 degree 2227
pos[2228] = 287 degree 2226
pos[2227] = 284 degree 2225
pos[2226] = 281 degree 2224
pos[2225] = 278 degree 2223
pos[2224] = 275 degree 2222
pos[2223] = 272 degree 2221
pos[2222] = 269 degree 2220
pos[2221] = 266 degree 2219
pos[2220] = 263 degree 2218
pos[2219] = 260 degree 2217
pos[2218] = 257 degree 2216
pos[2217] = 254 degree 2215
pos[2216] = 251 degree 2214
pos[2215] = 248 degree 2213
pos[2214] = 245 degree 2212
pos[2213] = 242 degree 2211
pos[2212] = 239 degree 2210
pos[2211] = 236 degree 2209
pos[2210] = 233 degree 2208
pos[2209] = 230 degree 2207
pos[2208] = 227 degree 2206
pos[2207] = 224 degree 2205
pos[2206] = 221 degree 2204
pos[2205] = 218 degree 2203
pos[2204] = 215 degree 2202
pos[2203] = 212 degree 2201
pos[2202] = 209 degree 2200
pos[2201] = 206 degree 2199
pos[2200] = 203 degree 2198
pos[2199] = 200 degree 2197
pos[2198] = 197 degree 2196
pos[2197] = 194 degree 2195
pos[2196] = 191 degree 2194
pos[2195] = 188 degree 2193
pos[2194] = 185 degree 2192
pos[2193] = 182 degree 2191
pos[2192] = 179 degree 2190
pos[2191] = 176 degree 2189
pos[2190] = 173 degree 2188
pos[2189] = 170 degree 2187
pos[2188] = 167 degree 2186
pos[2187] = 164 degree 2185
pos[2186] = 161 degree 2184
pos[2185] = 158 degree 2183
pos[2184] = 155 degree 2182
pos[2183] = 152 degree 2181
pos[2182] = 149 degree 2180
pos[2181] = 146 degree 2179
pos[2180] = 143 degree 2178
pos[2179] = 140 degree 2177
pos[2178] = 137 degree 2176
pos[2177] = 134 degree 2175
pos[2176] = 131 degree 2174
pos[2175] = 128 degree 2173
pos[2174] = 125 degree 2172
pos[2173] = 122 degree 2171
pos[2172] = 119 degree 2170
pos[2171] = 116 degree 2169
pos[2170] = 113 degree 2168
pos[2169] = 110 degree 2167
pos[2168] = 107 degree 2166
pos[2167] = 104 degree 2165
pos[2166] = 101 degree 2164
pos[2165] = 98 degree 2163
pos[2164] = 95 degree 2162
pos[2163] = 92 degree 2161
pos[2162] = 89 degree 2160
pos[2161] = 86 degree 2159
pos[2160] = 83 degree 2158
pos[2159] = 3319 degree 2158
pos[2158] = 3316 degree 2157
pos[2157] = 3313 degree 2156
pos[2156] = 3310 degree 2155
pos[2155] = 3307 degree 2154
pos[2154] = 3304 degree 2153
pos[2153] = 3301 degree 2152
pos[2152] = 3298 degree 2151
pos[2151] = 3295 degree 2150
pos[2150] = 3292 degree 2149
pos[2149] = 3289 degree 2148
pos[2148] = 3286 degree 2147
pos[2147] = 3283 degree 2146
pos[2146] = 3280 degree 2145
pos[2145] = 3277 degree 2144
pos[2144] = 3274 degree 2143
pos[2143] = 3271 degree 2142
pos[2142] = 3268 degree 2141
pos[2141] = 3265 degree 2140
pos[2140] = 3262 degree 2139
pos[2139] = 3259 degree 2138
pos[2138] = 3256 degree 2137
pos[2137] = 3253 degree 2136
pos[2136] = 3250 degree 2135
pos[2135] = 3247 degree 2134
pos[2134] = 3244 degree 2133
pos[2133] = 3241 degree 2132
pos[2132] = 3238 degree 2131
pos[2131] = 3235 degree 2130
pos[2130] = 3232 degree 2129
pos[2129] = 3229 degree 2128
pos[2128] = 3226 degree 2127
pos[2127] = 3223 degree 2126
pos[2126] = 3220 degree 2125
pos[2125] = 3217 degree 2124
pos[2124] = 3214 degree 2123
pos[2123] = 3211 degree 2122
pos[2122] = 3208 degree 2121
pos[2121] = 3205 degree 2120
pos[2120] = 3202 degree 2119
pos[2119] = 3199 degree 2118
pos[2118] = 3196 degree 2117
pos[2117] = 3193 degree 2116
pos[2116] = 3190 degree 2115
pos[2115] = 3187 degree 2114
pos[2114] = 3184 degree 2113
pos[2113] = 3181 degree 2112
pos[2112] = 3178 degree 2111
pos[2111] = 3175 degree 2110
pos[2110] = 3172 degree 2109
pos[2109] = 3169 degree 2108
pos[2108] = 3166 degree 2107
pos[2107] = 3163 degree 2106
pos[2106] = 3160 degree 2105
pos[2105] = 3157 degree 2104
pos[2104] = 3154 degree 2103
pos[2103] = 3151 degree 2102
pos[2102] = 3148 degree 2101
pos[2101] = 3145 degree 2100
pos[2100] = 3142 degree 2099
pos[2099] = 3139 degree 2098
pos[2098] = 3136 degree 2097
pos[2097] = 3133 degree 2096
pos[2096] = 3130 degree 2095
pos[2095] = 3127 degree 2094
pos[2094] = 3124 degree 2093
pos[2093] = 3121 degree 2092
pos[2092] = 3118 degree 2091
pos[2091] = 3115 degree 2090
pos[2090] = 3112 degree 2089
pos[2089] = 3109 degree 2088
pos[2088] = 3106 degree 2087
pos[2087] = 3103 degree 2086
pos[2086] = 3100 degree 2085
pos[2085] = 3097 degree 2084
pos[2084] = 3094 degree 2083
pos[2083] = 3091 degree 2082
pos[2082] = 3088 degree 2081
pos[2081] = 3085 degree 2080
pos[2080] = 3082 degree 2079
pos[2079] = 3079 degree 2078
pos[2078] = 3076 degree 2077
pos[2077] = 3073 degree 2076
pos[2076] = 3070 degree 2075
pos[2075] = 3067 degree 2074
pos[2074] = 3064 degree 2073
pos[2073] = 3061 degree 2072
pos[2072] = 3058 degree 2071
pos[2071] = 3055 degree 2070
pos[2070] = 3052 degree 2069
pos[2069] = 3049 degree 2068
pos[2068] = 3046 degree 2067
pos[2067] = 3043 degree 2066
pos[2066] = 3040 degree 2065
pos[2065] = 3037 degree 2064
pos[2064] = 3034 degree 2063
pos[2063] = 3031 degree 2062
pos[2062] = 3028 degree 2061
pos[2061] = 3025 degree 2060
pos[2060] = 3022 degree 2059
pos[2059] = 3019 degree 2058
pos[2058] = 3016 degree 2057
pos[2057] = 3013 degree 2056
pos[2056] = 3010 degree 2055
pos[2055] = 3007 degree 2054
pos[2054] = 3004 degree 2053
pos[2053] = 3001 degree 2052
pos[2052] = 2998 degree 2051
pos[2051] = 2995 degree 2050
pos[2050] = 2992 degree 2049
pos[2049] = 2989 degree 2048
pos[2048] = 2986 degree 2047
pos[2047] = 2983 degree 2046
pos[2046] = 2980 degree 2045
pos[2045] = 2977 degree 2044
pos[2044] = 2974 degree 2043
pos[2043] = 2971 degree 2042
pos[2042] = 2968 degree 2041
pos[2041] = 2965 degree 2040
pos[2040] = 2962 degree 2039
pos[2039] = 2959 degree 2038
pos[2038] = 2956 degree 2037
pos[2037] = 2953 degree 2036
pos[2036] = 2950 degree 2035
pos[2035] = 2947 degree 2034
pos[2034] = 2944 degree 2033
pos[2033] = 2941 degree 2032
pos[2032] = 2938 degree 2031
pos[2031] = 2935 degree 2030
pos[2030] = 2932 degree 2029
pos[2029] = 2929 degree 2028
pos[2028] = 2926 degree 2027
pos[2027] = 2923 degree 2026
pos[2026] = 2920 degree 2025
pos[2025] = 2917 degree 2024
pos[2024] = 2914 degree 2023
pos[2023] = 2911 degree 2022
pos[2022] = 2908 degree 2021
pos[2021] = 2905 degree 2020
pos[2020] = 2902 degree 2019
pos[2019] = 2899 degree 2018
pos[2018] = 2896 degree 2017
pos[2017] = 2893 degree 2016
pos[2016] = 2890 degree 2015
pos[2015] = 2887 degree 2014
pos[2014] = 2884 degree 2013
pos[2013] = 2881 degree 2012
pos[2012] = 2878 degree 2011
pos[2011] = 2875 degree 2010
pos[2010] = 2872 degree 2009
pos[2009] = 2869 degree 2008
pos[2008] = 2866 degree 2007
pos[2007] = 2863 degree 2006
pos[2006] = 2860 degree 2005
pos[2005] = 2857 degree 2004
pos[2004] = 2854 degree 2003
pos[2003] = 2851 degree 2002
pos[2002] = 2848 degree 2001
pos[2001] = 2845 degree 2000
pos[2000] = 2842 degree 1999
pos[1999] = 2839 degree 1998
pos[1998] = 2836 degree 1997
pos[1997] = 2833 degree 1996
pos[1996] = 2830 degree 1995
pos[1995] = 2827 degree 1994
pos[1994] = 2824 degree 1993
pos[1993] = 2821 degree 1992
pos[1992] = 2818 degree 1991
pos[1991] = 2815 degree 1990
pos[1990] = 2812 degree 1989
pos[1989] = 2809 degree 1988
pos[1988] = 2806 degree 1987
pos[1987] = 2803 degree 1986
pos[1986] = 2800 degree 1985
pos[1985] = 2797 degree 1984
pos[1984] = 2794 degree 1983
pos[1983] = 2791 degree 1982
pos[1982] = 2788 degree 1981
pos[1981] = 2785 degree 1980
pos[1980] = 2782 degree 1979
pos[1979] = 2779 degree 1978
pos[1978] = 2776 degree 1977
pos[1977] = 2773 degree 1976
pos[1976] = 2770 degree 1975
pos[1975] = 2767 degree 1974
pos[1974] = 2764 degree 1973
pos[1973] = 2761 degree 1972
pos[1972] = 2758 degree 1971
pos[1971] = 2755 degree 1970
pos[1970] = 2752 degree 1969
pos[1969] = 2749 degree 1968
pos[1968] = 2746 degree 1967
pos[1967] = 2743 degree 1966
pos[1966] = 2740 degree 1965
pos[1965] = 2737 degree 1964
pos[1964] = 2734 degree 1963
pos[1963] = 2731 degree 1962
pos[1962] = 2728 degree 1961
pos[1961] = 2725 degree 1960
pos[1960] = 2722 degree 1959
pos[1959] = 2719 degree 1958
pos[1958] = 2716 degree 1957
pos[1957] = 2713 degree 1956
pos[1956] = 2710 degree 1955
pos[1955] = 2707 degree 1954
pos[1954] = 2704 degree 1953
pos[1953] = 2701 degree 1952
pos[1952] = 2698 degree 1951
pos[1951] = 2695 degree 1950
pos[1950] = 2692 degree 1949
pos[1949] = 2689 degree 1948
pos[1948] = 2686 degree 1947
pos[1947] = 2683 degree 1946
pos[1946] = 2680 degree 1945
pos[1945] = 2677 degree 1944
pos[1944] = 2674 degree 1943
pos[1943] = 2671 degree 1942
pos[1942] = 2668 degree 1941
pos[1941] = 2665 degree 1940
pos[1940] = 2662 degree 1939
pos[1939] = 2659 degree 1938
pos[1938] = 2656 degree 1937
pos[1937] = 2653 degree 1936
pos[1936] = 2650 degree 1935
pos[1935] = 2647 degree 1934
pos[1934] = 2644 degree 1933
pos[1933] = 2641 degree 1932
pos[1932] = 2638 degree 1931
pos[1931] = 2635 degree 1930
pos[1930] = 2632 degree 1929
pos[1929] = 2629 degree 1928
pos[1928] = 2626 degree 1927
pos[1927] = 2623 degree 1926
pos[1926] = 2620 degree 1925
pos[1925] = 2617 degree 1924
pos[1924] = 2614 degree 1923
pos[1923] = 2611 degree 1922
pos[1922] = 2608 degree 1921
pos[1921] = 2605 degree 1920
pos[1920] = 2602 degree 1919
pos[1919] = 2599 degree 1918
pos[1918] = 2596 degree 1917
pos[1917] = 2593 degree 1916
pos[1916] = 2590 degree 1915
pos[1915] = 2587 degree 1914
pos[1914] = 2584 degree 1913
pos[1913] = 2581 degree 1912
pos[1912] = 2578 degree 1911
pos[1911] = 2575 degree 1910
pos[1910] = 2572 degree 1909
pos[1909] = 2569 degree 1908
pos[1908] = 2566 degree 1907
pos[1907] = 2563 degree 1906
pos[1906] = 2560 degree 1905
pos[1905] = 2557 degree 1904
pos[1904] = 2554 degree 1903
pos[1903] = 2551 degree 1902
pos[1902] = 2548 degree 1901
pos[1901] = 2545 degree 1900
pos[1900] = 2542 degree 1899
pos[1899] = 2539 degree 1898
pos[1898] = 2536 degree 1897
pos[1897] = 2533 degree 1896
pos[1896] = 2530 degree 1895
pos[1895] = 2527 degree 1894
pos[1894] = 2524 degree 1893
pos[1893] = 2521 degree 1892
pos[1892] = 2518 degree 1891
pos[1891] = 2515 degree 1890
pos[1890] = 2512 degree 1889
pos[1889] = 2509 degree 1888
pos[1888] = 2506 degree 1887
pos[1887] = 2503 degree 1886
pos[1886] = 2500 degree 1885
pos[1885] = 2497 degree 1884
pos[1884] = 2494 degree 1883
pos[1883] = 2491 degree 1882
pos[1882] = 2488 degree 1881
pos[1881] = 2485 degree 1880
pos[1880] = 2482 degree 1879
pos[1879] = 2479 degree 1878
pos[1878] = 2476 degree 1877
pos[1877] = 2473 degree 1876
pos[1876] = 2470 degree 1875
pos[1875] = 2467 degree 1874
pos[1874] = 2464 degree 1873
pos[1873] = 2461 degree 1872
pos[1872] = 2458 degree 1871
pos[1871] = 2455 degree 1870
pos[1870] = 2452 degree 1869
pos[1869] = 2449 degree 1868
pos[1868] = 2446 degree 1867
pos[1867] = 2443 degree 1866
pos[1866] = 2440 degree 1865
pos[1865] = 2437 degree 1864
pos[1864] = 2434 degree 1863
pos[1863] = 2431 degree 1862
pos[1862] = 2428 degree 1861
pos[1861] = 2425 degree 1860
pos[1860] = 2422 degree 1859
pos[1859] = 2419 degree 1858
pos[1858] = 2416 degree 1857
pos[1857] = 2413 degree 1856
pos[1856] = 2410 degree 1855
pos[1855] = 2407 degree 1854
pos[1854] = 2404 degree 1853
pos[1853] = 2401 degree 1852
pos[1852] = 2398 degree 1851
pos[1851] = 2395 degree 1850
pos[1850] = 2392 degree 1849
pos[1849] = 2389 degree 1848
pos[1848] = 2386 degree 1847
pos[1847] = 2383 degree 1846
pos[1846] = 2380 degree 1845
pos[1845] = 2377 degree 1844
pos[1844] = 2374 degree 1843
pos[1843] = 2371 degree 1842
pos[1842] = 2368 degree 1841
pos[1841] = 2365 degree 1840
pos[1840] = 2362 degree 1839
pos[1839] = 2359 degree 1838
pos[1838] = 2356 degree 1837
pos[1837] = 2353 degree 1836
pos[1836] = 2350 degree 1835
pos[1835] = 2347 degree 1834
pos[1834] = 2344 degree 1833
pos[1833] = 2341 degree 1832
pos[1832] = 2338 degree 1831
pos[1831] = 2335 degree 1830
pos[1830] = 2332 degree 1829
pos[1829] = 2329 degree 1828
pos[1828] = 2326 degree 1827
pos[1827] = 2323 degree 1826
pos[1826] = 2320 degree 1825
pos[1825] = 2317 degree 1824
pos[1824] = 2314 degree 1823
pos[1823] = 2311 degree 1822
pos[1822] = 2308 degree 1821
pos[1821] = 2305 degree 1820
pos[1820] = 2302 degree 1819
pos[1819] = 2299 degree 1818
pos[1818] = 2296 degree 1817
pos[1817] = 2293 degree 1816
pos[1816] = 2290 degree 1815
pos[1815] = 2287 degree 1814
pos[1814] = 2284 degree 1813
pos[1813] = 2281 degree 1812
pos[1812] = 2278 degree 1811
pos[1811] = 2275 degree 1810
pos[1810] = 2272 degree 1809
pos[1809] = 2269 degree 1808
pos[1808] = 2266 degree 1807
pos[1807] = 2263 degree 1806
pos[1806] = 2260 degree 1805
pos[1805] = 2257 degree 1804
pos[1804] = 2254 degree 1803
pos[1803] = 2251 degree 1802
pos[1802] = 2248 degree 1801
pos[1801] = 2245 degree 1800
pos[1800] = 2242 degree 1799
pos[1799] = 2239 degree 1798
pos[1798] = 2236 degree 1797
pos[1797] = 2233 degree 1796
pos[1796] = 2230 degree 1795
pos[1795] = 2227 degree 1794
pos[1794] = 2224 degree 1793
pos[1793] = 2221 degree 1792
pos[1792] = 2218 degree 1791
pos[1791] = 2215 degree 1790
pos[1790] = 2212 degree 1789
pos[1789] = 2209 degree 1788
pos[1788] = 2206 degree 1787
pos[1787] = 2203 degree 1786
pos[1786] = 2200 degree 1785
pos[1785] = 2197 degree 1784
pos[1784] = 2194 degree 1783
pos[1783] = 2191 degree 1782
pos[1782] = 2188 degree 1781
pos[1781] = 2185 degree 1780
pos[1780] = 2182 degree 1779
pos[1779] = 2179 degree 1778
pos[1778] = 2176 degree 1777
pos[1777] = 2173 degree 1776
pos[1776] = 2170 degree 1775
pos[1775] = 2167 degree 1774
pos[1774] = 2164 degree 1773
pos[1773] = 2161 degree 1772
pos[1772] = 2158 degree 1771
pos[1771] = 2155 degree 1770
pos[1770] = 2152 degree 1769
pos[1769] = 2149 degree 1768
pos[1768] = 2146 degree 1767
pos[1767] = 2143 degree 1766
pos[1766] = 2140 degree 1765
pos[1765] = 2137 degree 1764
pos[1764] = 2134 degree 1763
pos[1763] = 2131 degree 1762
pos[1762] = 2128 degree 1761
pos[1761] = 2125 degree 1760
pos[1760] = 2122 degree 1759
pos[1759] = 2119 degree 1758
pos[1758] = 2116 degree 1757
pos[1757] = 2113 degree 1756
pos[1756] = 2110 degree 1755
pos[1755] = 2107 degree 1754
pos[1754] = 2104 degree 1753
pos[1753] = 2101 degree 1752
pos[1752] = 2098 degree 1751
pos[1751] = 2095 degree 1750
pos[1750] = 2092 degree 1749
pos[1749] = 2089 degree 1748
pos[1748] = 2086 degree 1747
pos[1747] = 2083 degree 1746
pos[1746] = 2080 degree 1745
pos[1745] = 2077 degree 1744
pos[1744] = 2074 degree 1743
pos[1743] = 2071 degree 1742
pos[1742] = 2068 degree 1741
pos[1741] = 2065 degree 1740
pos[1740] = 2062 degree 1739
pos[1739] = 2059 degree 1738
pos[1738] = 2056 degree 1737
pos[1737] = 2053 degree 1736
pos[1736] = 2050 degree 1735
pos[1735] = 2047 degree 1734
pos[1734] = 2044 degree 1733
pos[1733] = 2041 degree 1732
pos[1732] = 2038 degree 1731
pos[1731] = 2035 degree 1730
pos[1730] = 2032 degree 1729
pos[1729] = 2029 degree 1728
pos[1728] = 2026 degree 1727
pos[1727] = 2023 degree 1726
pos[1726] = 2020 degree 1725
pos[1725] = 2017 degree 1724
pos[1724] = 2014 degree 1723
pos[1723] = 2011 degree 1722
pos[1722] = 2008 degree 1721
pos[1721] = 2005 degree 1720
pos[1720] = 2002 degree 1719
pos[1719] = 1999 degree 1718
pos[1718] = 1996 degree 1717
pos[1717] = 1993 degree 1716
pos[1716] = 1990 degree 1715
pos[1715] = 1987 degree 1714
pos[1714] = 1984 degree 1713
pos[1713] = 1981 degree 1712
pos[1712] = 1978 degree 1711
pos[1711] = 1975 degree 1710
pos[1710] = 1972 degree 1709
pos[1709] = 1969 degree 1708
pos[1708] = 1966 degree 1707
pos[1707] = 1963 degree 1706
pos[1706] = 1960 degree 1705
pos[1705] = 1957 degree 1704
pos[1704] = 1954 degree 1703
pos[1703] = 1951 degree 1702
pos[1702] = 1948 degree 1701
pos[1701] = 1945 degree 1700
pos[1700] = 1942 degree 1699
pos[1699] = 1939 degree 1698
pos[1698] = 1936 degree 1697
pos[1697] = 1933 degree 1696
pos[1696] = 1930 degree 1695
pos[1695] = 1927 degree 1694
pos[1694] = 1924 degree 1693
pos[1693] = 1921 degree 1692
pos[1692] = 1918 degree 1691
pos[1691] = 1915 degree 1690
pos[1690] = 1912 degree 1689
pos[1689] = 1909 degree 1688
pos[1688] = 1906 degree 1687
pos[1687] = 1903 degree 1686
pos[1686] = 1900 degree 1685
pos[1685] = 1897 degree 1684
pos[1684] = 1894 degree 1683
pos[1683] = 1891 degree 1682
pos[1682] = 1888 degree 1681
pos[1681] = 1885 degree 1680
pos[1680] = 1882 degree 1679
pos[1679] = 1879 degree 1678
pos[1678] = 1876 degree 1677
pos[1677] = 1873 degree 1676
pos[1676] = 1870 degree 1675
pos[1675] = 1867 degree 1674
pos[1674] = 1864 degree 1673
pos[1673] = 1861 degree 1672
pos[1672] = 1858 degree 1671
pos[1671] = 1855 degree 1670
pos[1670] = 1852 degree 1669
pos[1669] = 1849 degree 1668
pos[1668] = 1846 degree 1667
pos[1667] = 1843 degree 1666
pos[1666] = 1840 degree 1665
pos[1665] = 1837 degree 1664
pos[1664] = 1834 degree 1663
pos[1663] = 1831 degree 1662
pos[1662] = 1828 degree 1661
pos[1661] = 1825 degree 1660
pos[1660] = 1822 degree 1659
pos[1659] = 1819 degree 1658
pos[1658] = 1816 degree 1657
pos[1657] = 1813 degree 1656
pos[1656] = 1810 degree 1655
pos[1655] = 1807 degree 1654
pos[1654] = 1804 degree 1653
pos[1653] = 1801 degree 1652
pos[1652] = 1798 degree 1651
pos[1651] = 1795 degree 1650
pos[1650] = 1792 degree 1649
pos[1649] = 1789 degree 1648
pos[1648] = 1786 degree 1647
pos[1647] = 1783 degree 1646
pos[1646] = 1780 degree 1645
pos[1645] = 1777 degree 1644
pos[1644] = 1774 degree 1643
pos[1643] = 1771 degree 1642
pos[1642] = 1768 degree 1641
pos[1641] = 1765 degree 1640
pos[1640] = 1762 degree 1639
pos[1639] = 1759 degree 1638
pos[1638] = 1756 degree 1637
pos[1637] = 1753 degree 1636
pos[1636] = 1750 degree 1635
pos[1635] = 1747 degree 1634
pos[1634] = 1744 degree 1633
pos[1633] = 1741 degree 1632
pos[1632] = 1738 degree 1631
pos[1631] = 1735 degree 1630
pos[1630] = 1732 degree 1629
pos[1629] = 1729 degree 1628
pos[1628] = 1726 degree 1627
pos[1627] = 1723 degree 1626
pos[1626] = 1720 degree 1625
pos[1625] = 1717 degree 1624
pos[1624] = 1714 degree 1623
pos[1623] = 1711 degree 1622
pos[1622] = 1708 degree 1621
pos[1621] = 1705 degree 1620
pos[1620] = 1702 degree 1619
pos[1619] = 1699 degree 1618
pos[1618] = 1696 degree 1617
pos[1617] = 1693 degree 1616
pos[1616] = 1690 degree 1615
pos[1615] = 1687 degree 1614
pos[1614] = 1684 degree 1613
pos[1613] = 1681 degree 1612
pos[1612] = 1678 degree 1611
pos[1611] = 1675 degree 1610
pos[1610] = 1672 degree 1609
pos[1609] = 1669 degree 1608
pos[1608] = 1666 degree 1607
pos[1607] = 1663 degree 1606
pos[1606] = 1660 degree 1605
pos[1605] = 1657 degree 1604
pos[1604] = 1654 degree 1603
pos[1603] = 1651 degree 1602
pos[1602] = 1648 degree 1601
pos[1601] = 1645 degree 1600
pos[1600] = 1642 degree 1599
pos[1599] = 1639 degree 1598
pos[1598] = 1636 degree 1597
pos[1597] = 1633 degree 1596
pos[1596] = 1630 degree 1595
pos[1595] = 1627 degree 1594
pos[1594] = 1624 degree 1593
pos[1593] = 1621 degree 1592
pos[1592] = 1618 degree 1591
pos[1591] = 1615 degree 1590
pos[1590] = 1612 degree 1589
pos[1589] = 1609 degree 1588
pos[1588] = 1606 degree 1587
pos[1587] = 1603 degree 1586
pos[1586] = 1600 degree 1585
pos[1585] = 1597 degree 1584
pos[1584] = 1594 degree 1583
pos[1583] = 1591 degree 1582
pos[1582] = 1588 degree 1581
pos[1581] = 1585 degree 1580
pos[1580] = 1582 degree 1579
pos[1579] = 1579 degree 1578
pos[1578] = 1576 degree 1577
pos[1577] = 1573 degree 1576
pos[1576] = 1570 degree 1575
pos[1575] = 1567 degree 1574
pos[1574] = 1564 degree 1573
pos[1573] = 1561 degree 1572
pos[1572] = 1558 degree 1571
pos[1571] = 1555 degree 1570
pos[1570] = 1552 degree 1569
pos[1569] = 1549 degree 1568
pos[1568] = 1546 degree 1567
pos[1567] = 1543 degree 1566
pos[1566] = 1540 degree 1565
pos[1565] = 1537 degree 1564
pos[1564] = 1534 degree 1563
pos[1563] = 1531 degree 1562
pos[1562] = 1528 degree 1561
pos[1561] = 1525 degree 1560
pos[1560] = 1522 degree 1559
pos[1559] = 1519 degree 1558
pos[1558] = 1516 degree 1557
pos[1557] = 1513 degree 1556
pos[1556] = 1510 degree 1555
pos[1555] = 1507 degree 1554
pos[1554] = 1504 degree 1553
pos[1553] = 1501 degree 1552
pos[1552] = 1498 degree 1551
pos[1551] = 1495 degree 1550
pos[1550] = 1492 degree 1549
pos[1549] = 1489 degree 1548
pos[1548] = 1486 degree 1547
pos[1547] = 1483 degree 1546
pos[1546] = 1480 degree 1545
pos[1545] = 1477 degree 1544
pos[1544] = 1474 degree 1543
pos[1543] = 1471 degree 1542
pos[1542] = 1468 degree 1541
pos[1541] = 1465 degree 1540
pos[1540] = 1462 degree 1539
pos[1539] = 1459 degree 1538
pos[1538] = 1456 degree 1537
pos[1537] = 1453 degree 1536
pos[1536] = 1450 degree 1535
pos[1535] = 1447 degree 1534
pos[1534] = 1444 degree 1533
pos[1533] = 1441 degree 1532
pos[1532] = 1438 degree 1531
pos[1531] = 1435 degree 1530
pos[1530] = 1432 degree 1529
pos[1529] = 1429 degree 1528
pos[1528] = 1426 degree 1527
pos[1527] = 1423 degree 1526
pos[1526] = 1420 degree 1525
pos[1525] = 1417 degree 1524
pos[1524] = 1414 degree 1523
pos[1523] = 1411 degree 1522
pos[1522] = 1408 degree 1521
pos[1521] = 1405 degree 1520
pos[1520] = 1402 degree 1519
pos[1519] = 1399 degree 1518
pos[1518] = 1396 degree 1517
pos[1517] = 1393 degree 1516
pos[1516] = 1390 degree 1515
pos[1515] = 1387 degree 1514
pos[1514] = 1384 degree 1513
pos[1513] = 1381 degree 1512
pos[1512] = 1378 degree 1511
pos[1511] = 1375 degree 1510
pos[1510] = 1372 degree 1509
pos[1509] = 1369 degree 1508
pos[1508] = 1366 degree 1507
pos[1507] = 1363 degree 1506
pos[1506] = 1360 degree 1505
pos[1505] = 1357 degree 1504
pos[1504] = 1354 degree 1503
pos[1503] = 1351 degree 1502
pos[1502] = 1348 degree 1501
pos[1501] = 1345 degree 1500
pos[1500] = 1342 degree 1499
pos[1499] = 1339 degree 1498
pos[1498] = 1336 degree 1497
pos[1497] = 1333 degree 1496
pos[1496] = 1330 degree 1495
pos[1495] = 1327 degree 1494
pos[1494] = 1324 degree 1493
pos[1493] = 1321 degree 1492
pos[1492] = 1318 degree 1491
pos[1491] = 1315 degree 1490
pos[1490] = 1312 degree 1489
pos[1489] = 1309 degree 1488
pos[1488] = 1306 degree 1487
pos[1487] = 1303 degree 1486
pos[1486] = 1300 degree 1485
pos[1485] = 1297 degree 1484
pos[1484] = 1294 degree 1483
pos[1483] = 1291 degree 1482
pos[1482] = 1288 degree 1481
pos[1481] = 1285 degree 1480
pos[1480] = 1282 degree 1479
pos[1479] = 1279 degree 1478
pos[1478] = 1276 degree 1477
pos[1477] = 1273 degree 1476
pos[1476] = 1270 degree 1475
pos[1475] = 1267 degree 1474
pos[1474] = 1264 degree 1473
pos[1473] = 1261 degree 1472
pos[1472] = 1258 degree 1471
pos[1471] = 1255 degree 1470
pos[1470] = 1252 degree 1469
pos[1469] = 1249 degree 1468
pos[1468] = 1246 degree 1467
pos[1467] = 1243 degree 1466
pos[1466] = 1240 degree 1465
pos[1465] = 1237 degree 1464
pos[1464] = 1234 degree 1463
pos[1463] = 1231 degree 1462
pos[1462] = 1228 degree 1461
pos[1461] = 1225 degree 1460
pos[1460] = 1222 degree 1459
pos[1459] = 1219 degree 1458
pos[1458] = 1216 degree 1457
pos[1457] = 1213 degree 1456
pos[1456] = 1210 degree 1455
pos[1455] = 1207 degree 1454
pos[1454] = 1204 degree 1453
pos[1453] = 1201 degree 1452
pos[1452] = 1198 degree 1451
pos[1451] = 1195 degree 1450
pos[1450] = 1192 degree 1449
pos[1449] = 1189 degree 1448
pos[1448] = 1186 degree 1447
pos[1447] = 1183 degree 1446
pos[1446] = 1180 degree 1445
pos[1445] = 1177 degree 1444
pos[1444] = 1174 degree 1443
pos[1443] = 1171 degree 1442
pos[1442] = 1168 degree 1441
pos[1441] = 1165 degree 1440
pos[1440] = 1162 degree 1439
pos[1439] = 1159 degree 1438
pos[1438] = 1156 degree 1437
pos[1437] = 1153 degree 1436
pos[1436] = 1150 degree 1435
pos[1435] = 1147 degree 1434
pos[1434] = 1144 degree 1433
pos[1433] = 1141 degree 1432
pos[1432] = 1138 degree 1431
pos[1431] = 1135 degree 1430
pos[1430] = 1132 degree 1429
pos[1429] = 1129 degree 1428
pos[1428] = 1126 degree 1427
pos[1427] = 1123 degree 1426
pos[1426] = 1120 degree 1425
pos[1425] = 1117 degree 1424
pos[1424] = 1114 degree 1423
pos[1423] = 1111 degree 1422
pos[1422] = 1108 degree 1421
pos[1421] = 1105 degree 1420
pos[1420] = 1102 degree 1419
pos[1419] = 1099 degree 1418
pos[1418] = 1096 degree 1417
pos[1417] = 1093 degree 1416
pos[1416] = 1090 degree 1415
pos[1415] = 1087 degree 1414
pos[1414] = 1084 degree 1413
pos[1413] = 1081 degree 1412
pos[1412] = 1078 degree 1411
pos[1411] = 1075 degree 1410
pos[1410] = 1072 degree 1409
pos[1409] = 1069 degree 1408
pos[1408] = 1066 degree 1407
pos[1407] = 1063 degree 1406
pos[1406] = 1060 degree 1405
pos[1405] = 1057 degree 1404
pos[1404] = 1054 degree 1403
pos[1403] = 1051 degree 1402
pos[1402] = 1048 degree 1401
pos[1401] = 1045 degree 1400
pos[1400] = 1042 degree 1399
pos[1399] = 1039 degree 1398
pos[1398] = 1036 degree 1397
pos[1397] = 1033 degree 1396
pos[1396] = 1030 degree 1395
pos[1395] = 1027 degree 1394
pos[1394] = 1024 degree 1393
pos[1393] = 1021 degree 1392
pos[1392] = 1018 degree 1391
pos[1391] = 1015 degree 1390
pos[1390] = 1012 degree 1389
pos[1389] = 1009 degree 1388
pos[1388] = 1006 degree 1387
pos[1387] = 1003 degree 1386
pos[1386] = 1000 degree 1385
pos[1385] = 997 degree 1384
pos[1384] = 994 degree 1383
pos[1383] = 991 degree 1382
pos[1382] = 988 degree 1381
pos[1381] = 985 degree 1380
pos[1380] = 982 degree 1379
pos[1379] = 979 degree 1378
pos[1378] = 976 degree 1377
pos[1377] = 973 degree 1376
pos[1376] = 970 degree 1375
pos[1375] = 967 degree 1374
pos[1374] = 964 degree 1373
pos[1373] = 961 degree 1372
pos[1372] = 958 degree 1371
pos[1371] = 955 degree 1370
pos[1370] = 952 degree 1369
pos[1369] = 949 degree 1368
pos[1368] = 946 degree 1367
pos[1367] = 943 degree 1366
pos[1366] = 940 degree 1365
pos[1365] = 937 degree 1364
pos[1364] = 934 degree 1363
pos[1363] = 931 degree 1362
pos[1362] = 928 degree 1361
pos[1361] = 925 degree 1360
pos[1360] = 922 degree 1359
pos[1359] = 919 degree 1358
pos[1358] = 916 degree 1357
pos[1357] = 913 degree 1356
pos[1356] = 910 degree 1355
pos[1355] = 907 degree 1354
pos[1354] = 904 degree 1353
pos[1353] = 901 degree 1352
pos[1352] = 898 degree 1351
pos[1351] = 895 degree 1350
pos[1350] = 892 degree 1349
pos[1349] = 889 degree 1348
pos[1348] = 886 degree 1347
pos[1347] = 883 degree 1346
pos[1346] = 880 degree 1345
pos[1345] = 877 degree 1344
pos[1344] = 874 degree 1343
pos[1343] = 871 degree 1342
pos[1342] = 868 degree 1341
pos[1341] = 865 degree 1340
pos[1340] = 862 degree 1339
pos[1339] = 859 degree 1338
pos[1338] = 856 degree 1337
pos[1337] = 853 degree 1336
pos[1336] = 850 degree 1335
pos[1335] = 847 degree 1334
pos[1334] = 844 degree 1333
pos[1333] = 841 degree 1332
pos[1332] = 838 degree 1331
pos[1331] = 835 degree 1330
pos[1330] = 832 degree 1329
pos[1329] = 829 degree 1328
pos[1328] = 826 degree 1327
pos[1327] = 823 degree 1326
pos[1326] = 820 degree 1325
pos[1325] = 817 degree 1324
pos[1324] = 814 degree 1323
pos[1323] = 811 degree 1322
pos[1322] = 808 degree 1321
pos[1321] = 805 degree 1320
pos[1320] = 802 degree 1319
pos[1319] = 799 degree 1318
pos[1318] = 796 degree 1317
pos[1317] = 793 degree 1316
pos[1316] = 790 degree 1315
pos[1315] = 787 degree 1314
pos[1314] = 784 degree 1313
pos[1313] = 781 degree 1312
pos[1312] = 778 degree 1311
pos[1311] = 775 degree 1310
pos[1310] = 772 degree 1309
pos[1309] = 769 degree 1308
pos[1308] = 766 degree 1307
pos[1307] = 763 degree 1306
pos[1306] = 760 degree 1305
pos[1305] = 757 degree 1304
pos[1304] = 754 degree 1303
pos[1303] = 751 degree 1302
pos[1302] = 748 degree 1301
pos[1301] = 745 degree 1300
pos[1300] = 742 degree 1299
pos[1299] = 739 degree 1298
pos[1298] = 736 degree 1297
pos[1297] = 733 degree 1296
pos[1296] = 730 degree 1295
pos[1295] = 727 degree 1294
pos[1294] = 724 degree 1293
pos[1293] = 721 degree 1292
pos[1292] = 718 degree 1291
pos[1291] = 715 degree 1290
pos[1290] = 712 degree 1289
pos[1289] = 709 degree 1288
pos[1288] = 706 degree 1287
pos[1287] = 703 degree 1286
pos[1286] = 700 degree 1285
pos[1285] = 697 degree 1284
pos[1284] = 694 degree 1283
pos[1283] = 691 degree 1282
pos[1282] = 688 degree 1281
pos[1281] = 685 degree 1280
pos[1280] = 682 degree 1279
pos[1279] = 679 degree 1278
pos[1278] = 676 degree 1277
pos[1277] = 673 degree 1276
pos[1276] = 670 degree 1275
pos[1275] = 667 degree 1274
pos[1274] = 664 degree 1273
pos[1273] = 661 degree 1272
pos[1272] = 658 degree 1271
pos[1271] = 655 degree 1270
pos[1270] = 652 degree 1269
pos[1269] = 649 degree 1268
pos[1268] = 646 degree 1267
pos[1267] = 643 degree 1266
pos[1266] = 640 degree 1265
pos[1265] = 637 degree 1264
pos[1264] = 634 degree 1263
pos[1263] = 631 degree 1262
pos[1262] = 628 degree 1261
pos[1261] = 625 degree 1260
pos[1260] = 622 degree 1259
pos[1259] = 619 degree 1258
pos[1258] = 616 degree 1257
pos[1257] = 613 degree 1256
pos[1256] = 610 degree 1255
pos[1255] = 607 degree 1254
pos[1254] = 604 degree 1253
pos[1253] = 601 degree 1252
pos[1252] = 598 degree 1251
pos[1251] = 595 degree 1250
pos[1250] = 592 degree 1249
pos[1249] = 589 degree 1248
pos[1248] = 586 degree 1247
pos[1247] = 583 degree 1246
pos[1246] = 580 degree 1245
pos[1245] = 577 degree 1244
pos[1244] = 574 degree 1243
pos[1243] = 571 degree 1242
pos[1242] = 568 degree 1241
pos[1241] = 565 degree 1240
pos[1240] = 562 degree 1239
pos[1239] = 559 degree 1238
pos[1238] = 556 degree 1237
pos[1237] = 553 degree 1236
pos[1236] = 550 degree 1235
pos[1235] = 547 degree 1234
pos[1234] = 544 degree 1233
pos[1233] = 541 degree 1232
pos[1232] = 538 degree 1231
pos[1231] = 535 degree 1230
pos[1230] = 532 degree 1229
pos[1229] = 529 degree 1228
pos[1228] = 526 degree 1227
pos[1227] = 523 degree 1226
pos[1226] = 520 degree 1225
pos[1225] = 517 degree 1224
pos[1224] = 514 degree 1223
pos[1223] = 511 degree 1222
pos[1222] = 508 degree 1221
pos[1221] = 505 degree 1220
pos[1220] = 502 degree 1219
pos[1219] = 499 degree 1218
pos[1218] = 496 degree 1217
pos[1217] = 493 degree 1216
pos[1216] = 490 degree 1215
pos[1215] = 487 degree 1214
pos[1214] = 484 degree 1213
pos[1213] = 481 degree 1212
pos[1212] = 478 degree 1211
pos[1211] = 475 degree 1210
pos[1210] = 472 degree 1209
pos[1209] = 469 degree 1208
pos[1208] = 466 degree 1207
pos[1207] = 463 degree 1206
pos[1206] = 460 degree 1205
pos[1205] = 457 degree 1204
pos[1204] = 454 degree 1203
pos[1203] = 451 degree 1202
pos[1202] = 448 degree 1201
pos[1201] = 445 degree 1200
pos[1200] = 442 degree 1199
pos[1199] = 439 degree 1198
pos[1198] = 436 degree 1197
pos[1197] = 433 degree 1196
pos[1196] = 430 degree 1195
pos[1195] = 427 degree 1194
pos[1194] = 424 degree 1193
pos[1193] = 421 degree 1192
pos[1192] = 418 degree 1191
pos[1191] = 415 degree 1190
pos[1190] = 412 degree 1189
pos[1189] = 409 degree 1188
pos[1188] = 406 degree 1187
pos[1187] = 403 degree 1186
pos[1186] = 400 degree 1185
pos[1185] = 397 degree 1184
pos[1184] = 394 degree 1183
pos[1183] = 391 degree 1182
pos[1182] = 388 degree 1181
pos[1181] = 385 degree 1180
pos[1180] = 382 degree 1179
pos[1179] = 379 degree 1178
pos[1178] = 376 degree 1177
pos[1177] = 373 degree 1176
pos[1176] = 370 degree 1175
pos[1175] = 367 degree 1174
pos[1174] = 364 degree 1173
pos[1173] = 361 degree 1172
pos[1172] = 358 degree 1171
pos[1171] = 355 degree 1170
pos[1170] = 352 degree 1169
pos[1169] = 349 degree 1168
pos[1168] = 346 degree 1167
pos[1167] = 343 degree 1166
pos[1166] = 340 degree 1165
pos[1165] = 337 degree 1164
pos[1164] = 334 degree 1163
pos[1163] = 331 degree 1162
pos[1162] = 328 degree 1161
pos[1161] = 325 degree 1160
pos[1160] = 322 degree 1159
pos[1159] = 319 degree 1158
pos[1158] = 316 degree 1157
pos[1157] = 313 degree 1156
pos[1156] = 310 degree 1155
pos[1155] = 307 degree 1154
pos[1154] = 304 degree 1153
pos[1153] = 301 degree 1152
pos[1152] = 298 degree 1151
pos[1151] = 295 degree 1150
pos[1150] = 292 degree 1149
pos[1149] = 289 degree 1148
pos[1148] = 286 degree 1147
pos[1147] = 283 degree 1146
pos[1146] = 280 degree 1145
pos[1145] = 277 degree 1144
pos[1144] = 274 degree 1143
pos[1143] = 271 degree 1142
pos[1142] = 268 degree 1141
pos[1141] = 265 degree 1140
pos[1140] = 262 degree 1139
pos[1139] = 259 degree 1138
pos[1138] = 256 degree 1137
pos[1137] = 253 degree 1136
pos[1136] = 250 degree 1135
pos[1135] = 247 degree 1134
pos[1134] = 244 degree 1133
pos[1133] = 241 degree 1132
pos[1132] = 238 degree 1131
pos[1131] = 235 degree 1130
pos[1130] = 232 degree 1129
pos[1129] = 229 degree 1128
pos[1128] = 226 degree 1127
pos[1127] = 223 degree 1126
pos[1126] = 220 degree 1125
pos[1125] = 217 degree 1124
pos[1124] = 214 degree 1123
pos[1123] = 211 degree 1122
pos[1122] = 208 degree 1121
pos[1121] = 205 degree 1120
pos[1120] = 202 degree 1119
pos[1119] = 199 degree 1118
pos[1118] = 196 degree 1117
pos[1117] = 193 degree 1116
pos[1116] = 190 degree 1115
pos[1115] = 187 degree 1114
pos[1114] = 184 degree 1113
pos[1113] = 181 degree 1112
pos[1112] = 178 degree 1111
pos[1111] = 175 degree 1110
pos[1110] = 172 degree 1109
pos[1109] = 169 degree 1108
pos[1108] = 166 degree 1107
pos[1107] = 163 degree 1106
pos[1106] = 160 degree 1105
pos[1105] = 157 degree 1104
pos[1104] = 154 degree 1103
pos[1103] = 151 degree 1102
pos[1102] = 148 degree 1101
pos[1101] = 145 degree 1100
pos[1100] = 142 degree 1099
pos[1099] = 139 degree 1098
pos[1098] = 136 degree 1097
pos[1097] = 133 degree 1096
pos[1096] = 130 degree 1095
pos[1095] = 127 degree 1094
pos[1094] = 124 degree 1093
pos[1093] = 121 degree 1092
pos[1092] = 118 degree 1091
pos[1091] = 115 degree 1090
pos[1090] = 112 degree 1089
pos[1089] = 109 degree 1088
pos[1088] = 106 degree 1087
pos[1087] = 103 degree 1086
pos[1086] = 100 degree 1085
pos[1085] = 97 degree 1084
pos[1084] = 94 degree 1083
pos[1083] = 91 degree 1082
pos[1082] = 88 degree 1081
pos[1081] = 85 degree 1080
pos[1080] = 82 degree 1079
pos[1079] = 3318 degree 1079
pos[1078] = 3315 degree 1078
pos[1077] = 3312 degree 1077
pos[1076] = 3309 degree 1076
pos[1075] = 3306 degree 1075
pos[1074] = 3303 degree 1074
pos[1073] = 3300 degree 1073
pos[1072] = 3297 degree 1072
pos[1071] = 3294 degree 1071
pos[1070] = 3291 degree 1070
pos[1069] = 3288 degree 1069
pos[1068] = 3285 degree 1068
pos[1067] = 3282 degree 1067
pos[1066] = 3279 degree 1066
pos[1065] = 3276 degree 1065
pos[1064] = 3273 degree 1064
pos[1063] = 3270 degree 1063
pos[1062] = 3267 degree 1062
pos[1061] = 3264 degree 1061
pos[1060] = 3261 degree 1060
pos[1059] = 3258 degree 1059
pos[1058] = 3255 degree 1058
pos[1057] = 3252 degree 1057
pos[1056] = 3249 degree 1056
pos[1055] = 3246 degree 1055
pos[1054] = 3243 degree 1054
pos[1053] = 3240 degree 1053
pos[1052] = 3237 degree 1052
pos[1051] = 3234 degree 1051
pos[1050] = 3231 degree 1050
pos[1049] = 3228 degree 1049
pos[1048] = 3225 degree 1048
pos[1047] = 3222 degree 1047
pos[1046] = 3219 degree 1046
pos[1045] = 3216 degree 1045
pos[1044] = 3213 degree 1044
pos[1043] = 3210 degree 1043
pos[1042] = 3207 degree 1042
pos[1041] = 3204 degree 1041
pos[1040] = 3201 degree 1040
pos[1039] = 3198 degree 1039
pos[1038] = 3195 degree 1038
pos[1037] = 3192 degree 1037
pos[1036] = 3189 degree 1036
pos[1035] = 3186 degree 1035
pos[1034] = 3183 degree 1034
pos[1033] = 3180 degree 1033
pos[1032] = 3177 degree 1032
pos[1031] = 3174 degree 1031
pos[1030] = 3171 degree 1030
pos[1029] = 3168 degree 1029
pos[1028] = 3165 degree 1028
pos[1027] = 3162 degree 1027
pos[1026] = 3159 degree 1026
pos[1025] = 3156 degree 1025
pos[1024] = 3153 degree 1024
pos[1023] = 3150 degree 1023
pos[1022] = 3147 degree 1022
pos[1021] = 3144 degree 1021
pos[1020] = 3141 degree 1020
pos[1019] = 3138 degree 1019
pos[1018] = 3135 degree 1018
pos[1017] = 3132 degree 1017
pos[1016] = 3129 degree 1016
pos[1015] = 3126 degree 1015
pos[1014] = 3123 degree 1014
pos[1013] = 3120 degree 1013
pos[1012] = 3117 degree 1012
pos[1011] = 3114 degree 1011
pos[1010] = 3111 degree 1010
pos[1009] = 3108 degree 1009
pos[1008] = 3105 degree 1008
pos[1007] = 3102 degree 1007
pos[1006] = 3099 degree 1006
pos[1005] = 3096 degree 1005
pos[1004] = 3093 degree 1004
pos[1003] = 3090 degree 1003
pos[1002] = 3087 degree 1002
pos[1001] = 3084 degree 1001
pos[1000] = 3081 degree 1000
pos[999] = 3078 degree 999
pos[998] = 3075 degree 998
pos[997] = 3072 degree 997
pos[996] = 3069 degree 996
pos[995] = 3066 degree 995
pos[994] = 3063 degree 994
pos[993] = 3060 degree 993
pos[992] = 3057 degree 992
pos[991] = 3054 degree 991
pos[990] = 3051 degree 990
pos[989] = 3048 degree 989
pos[988] = 3045 degree 988
pos[987] = 3042 degree 987
pos[986] = 3039 degree 986
pos[985] = 3036 degree 985
pos[984] = 3033 degree 984
pos[983] = 3030 degree 983
pos[982] = 3027 degree 982
pos[981] = 3024 degree 981
pos[980] = 3021 degree 980
pos[979] = 3018 degree 979
pos[978] = 3015 degree 978
pos[977] = 3012 degree 977
pos[976] = 3009 degree 976
pos[975] = 3006 degree 975
pos[974] = 3003 degree 974
pos[973] = 3000 degree 973
pos[972] = 2997 degree 972
pos[971] = 2994 degree 971
pos[970] = 2991 degree 970
pos[969] = 2988 degree 969
pos[968] = 2985 degree 968
pos[967] = 2982 degree 967
pos[966] = 2979 degree 966
pos[965] = 2976 degree 965
pos[964] = 2973 degree 964
pos[963] = 2970 degree 963
pos[962] = 2967 degree 962
pos[961] = 2964 degree 961
pos[960] = 2961 degree 960
pos[959] = 2958 degree 959
pos[958] = 2955 degree 958
pos[957] = 2952 degree 957
pos[956] = 2949 degree 956
pos[955] = 2946 degree 955
pos[954] = 2943 degree 954
pos[953] = 2940 degree 953
pos[952] = 2937 degree 952
pos[951] = 2934 degree 951
pos[950] = 2931 degree 950
pos[949] = 2928 degree 949
pos[948] = 2925 degree 948
pos[947] = 2922 degree 947
pos[946] = 2919 degree 946
pos[945] = 2916 degree 945
pos[944] = 2913 degree 944
pos[943] = 2910 degree 943
pos[942] = 2907 degree 942
pos[941] = 2904 degree 941
pos[940] = 2901 degree 940
pos[939] = 2898 degree 939
pos[938] = 2895 degree 938
pos[937] = 2892 degree 937
pos[936] = 2889 degree 936
pos[935] = 2886 degree 935
pos[934] = 2883 degree 934
pos[933] = 2880 degree 933
pos[932] = 2877 degree 932
pos[931] = 2874 degree 931
pos[930] = 2871 degree 930
pos[929] = 2868 degree 929
pos[928] = 2865 degree 928
pos[927] = 2862 degree 927
pos[926] = 2859 degree 926
pos[925] = 2856 degree 925
pos[924] = 2853 degree 924
pos[923] = 2850 degree 923
pos[922] = 2847 degree 922
pos[921] = 2844 degree 921
pos[920] = 2841 degree 920
pos[919] = 2838 degree 919
pos[918] = 2835 degree 918
pos[917] = 2832 degree 917
pos[916] = 2829 degree 916
pos[915] = 2826 degree 915
pos[914] = 2823 degree 914
pos[913] = 2820 degree 913
pos[912] = 2817 degree 912
pos[911] = 2814 degree 911
pos[910] = 2811 degree 910
pos[909] = 2808 degree 909
pos[908] = 2805 degree 908
pos[907] = 2802 degree 907
pos[906] = 2799 degree 906
pos[905] = 2796 degree 905
pos[904] = 2793 degree 904
pos[903] = 2790 degree 903
pos[902] = 2787 degree 902
pos[901] = 2784 degree 901
pos[900] = 2781 degree 900
pos[899] = 2778 degree 899
pos[898] = 2775 degree 898
pos[897] = 2772 degree 897
pos[896] = 2769 degree 896
pos[895] = 2766 degree 895
pos[894] = 2763 degree 894
pos[893] = 2760 degree 893
pos[892] = 2757 degree 892
pos[891] = 2754 degree 891
pos[890] = 2751 degree 890
pos[889] = 2748 degree 889
pos[888] = 2745 degree 888
pos[887] = 2742 degree 887
pos[886] = 2739 degree 886
pos[885] = 2736 degree 885
pos[884] = 2733 degree 884
pos[883] = 2730 degree 883
pos[882] = 2727 degree 882
pos[881] = 2724 degree 881
pos[880] = 2721 degree 880
pos[879] = 2718 degree 879
pos[878] = 2715 degree 878
pos[877] = 2712 degree 877
pos[876] = 2709 degree 876
pos[875] = 2706 degree 875
pos[874] = 2703 degree 874
pos[873] = 2700 degree 873
pos[872] = 2697 degree 872
pos[871] = 2694 degree 871
pos[870] = 2691 degree 870
pos[869] = 2688 degree 869
pos[868] = 2685 degree 868
pos[867] = 2682 degree 867
pos[866] = 2679 degree 866
pos[865] = 2676 degree 865
pos[864] = 2673 degree 864
pos[863] = 2670 degree 863
pos[862] = 2667 degree 862
pos[861] = 2664 degree 861
pos[860] = 2661 degree 860
pos[859] = 2658 degree 859
pos[858] = 2655 degree 858
pos[857] = 2652 degree 857
pos[856] = 2649 degree 856
pos[855] = 2646 degree 855
pos[854] = 2643 degree 854
pos[853] = 2640 degree 853
pos[852] = 2637 degree 852
pos[851] = 2634 degree 851
pos[850] = 2631 degree 850
pos[849] = 2628 degree 849
pos[848] = 2625 degree 848
pos[847] = 2622 degree 847
pos[846] = 2619 degree 846
pos[845] = 2616 degree 845
pos[844] = 2613 degree 844
pos[843] = 2610 degree 843
pos[842] = 2607 degree 842
pos[841] = 2604 degree 841
pos[840] = 2601 degree 840
pos[839] = 2598 degree 839
pos[838] = 2595 degree 838
pos[837] = 2592 degree 837
pos[836] = 2589 degree 836
pos[835] = 2586 degree 835
pos[834] = 2583 degree 834
pos[833] = 2580 degree 833
pos[832] = 2577 degree 832
pos[831] = 2574 degree 831
pos[830] = 2571 degree 830
pos[829] = 2568 degree 829
pos[828] = 2565 degree 828
pos[827] = 2562 degree 827
pos[826] = 2559 degree 826
pos[825] = 2556 degree 825
pos[824] = 2553 degree 824
pos[823] = 2550 degree 823
pos[822] = 2547 degree 822
pos[821] = 2544 degree 821
pos[820] = 2541 degree 820
pos[819] = 2538 degree 819
pos[818] = 2535 degree 818
pos[817] = 2532 degree 817
pos[816] = 2529 degree 816
pos[815] = 2526 degree 815
pos[814] = 2523 degree 814
pos[813] = 2520 degree 813
pos[812] = 2517 degree 812
pos[811] = 2514 degree 811
pos[810] = 2511 degree 810
pos[809] = 2508 degree 809
pos[808] = 2505 degree 808
pos[807] = 2502 degree 807
pos[806] = 2499 degree 806
pos[805] = 2496 degree 805
pos[804] = 2493 degree 804
pos[803] = 2490 degree 803
pos[802] = 2487 degree 802
pos[801] = 2484 degree 801
pos[800] = 2481 degree 800
pos[799] = 2478 degree 799
pos[798] = 2475 degree 798
pos[797] = 2472 degree 797
pos[796] = 2469 degree 796
pos[795] = 2466 degree 795
pos[794] = 2463 degree 794
pos[793] = 2460 degree 793
pos[792] = 2457 degree 792
pos[791] = 2454 degree 791
pos[790] = 2451 degree 790
pos[789] = 2448 degree 789
pos[788] = 2445 degree 788
pos[787] = 2442 degree 787
pos[786] = 2439 degree 786
pos[785] = 2436 degree 785
pos[784] = 2433 degree 784
pos[783] = 2430 degree 783
pos[782] = 2427 degree 782
pos[781] = 2424 degree 781
pos[780] = 2421 degree 780
pos[779] = 2418 degree 779
pos[778] = 2415 degree 778
pos[777] = 2412 degree 777
pos[776] = 2409 degree 776
pos[775] = 2406 degree 775
pos[774] = 2403 degree 774
pos[773] = 2400 degree 773
pos[772] = 2397 degree 772
pos[771] = 2394 degree 771
pos[770] = 2391 degree 770
pos[769] = 2388 degree 769
pos[768] = 2385 degree 768
pos[767] = 2382 degree 767
pos[766] = 2379 degree 766
pos[765] = 2376 degree 765
pos[764] = 2373 degree 764
pos[763] = 2370 degree 763
pos[762] = 2367 degree 762
pos[761] = 2364 degree 761
pos[760] = 2361 degree 760
pos[759] = 2358 degree 759
pos[758] = 2355 degree 758
pos[757] = 2352 degree 757
pos[756] = 2349 degree 756
pos[755] = 2346 degree 755
pos[754] = 2343 degree 754
pos[753] = 2340 degree 753
pos[752] = 2337 degree 752
pos[751] = 2334 degree 751
pos[750] = 2331 degree 750
pos[749] = 2328 degree 749
pos[748] = 2325 degree 748
pos[747] = 2322 degree 747
pos[746] = 2319 degree 746
pos[745] = 2316 degree 745
pos[744] = 2313 degree 744
pos[743] = 2310 degree 743
pos[742] = 2307 degree 742
pos[741] = 2304 degree 741
pos[740] = 2301 degree 740
pos[739] = 2298 degree 739
pos[738] = 2295 degree 738
pos[737] = 2292 degree 737
pos[736] = 2289 degree 736
pos[735] = 2286 degree 735
pos[734] = 2283 degree 734
pos[733] = 2280 degree 733
pos[732] = 2277 degree 732
pos[731] = 2274 degree 731
pos[730] = 2271 degree 730
pos[729] = 2268 degree 729
pos[728] = 2265 degree 728
pos[727] = 2262 degree 727
pos[726] = 2259 degree 726
pos[725] = 2256 degree 725
pos[724] = 2253 degree 724
pos[723] = 2250 degree 723
pos[722] = 2247 degree 722
pos[721] = 2244 degree 721
pos[720] = 2241 degree 720
pos[719] = 2238 degree 719
pos[718] = 2235 degree 718
pos[717] = 2232 degree 717
pos[716] = 2229 degree 716
pos[715] = 2226 degree 715
pos[714] = 2223 degree 714
pos[713] = 2220 degree 713
pos[712] = 2217 degree 712
pos[711] = 2214 degree 711
pos[710] = 2211 degree 710
pos[709] = 2208 degree 709
pos[708] = 2205 degree 708
pos[707] = 2202 degree 707
pos[706] = 2199 degree 706
pos[705] = 2196 degree 705
pos[704] = 2193 degree 704
pos[703] = 2190 degree 703
pos[702] = 2187 degree 702
pos[701] = 2184 degree 701
pos[700] = 2181 degree 700
pos[699] = 2178 degree 699
pos[698] = 2175 degree 698
pos[697] = 2172 degree 697
pos[696] = 2169 degree 696
pos[695] = 2166 degree 695
pos[694] = 2163 degree 694
pos[693] = 2160 degree 693
pos[692] = 2157 degree 692
pos[691] = 2154 degree 691
pos[690] = 2151 degree 690
pos[689] = 2148 degree 689
pos[688] = 2145 degree 688
pos[687] = 2142 degree 687
pos[686] = 2139 degree 686
pos[685] = 2136 degree 685
pos[684] = 2133 degree 684
pos[683] = 2130 degree 683
pos[682] = 2127 degree 682
pos[681] = 2124 degree 681
pos[680] = 2121 degree 680
pos[679] = 2118 degree 679
pos[678] = 2115 degree 678
pos[677] = 2112 degree 677
pos[676] = 2109 degree 676
pos[675] = 2106 degree 675
pos[674] = 2103 degree 674
pos[673] = 2100 degree 673
pos[672] = 2097 degree 672
pos[671] = 2094 degree 671
pos[670] = 2091 degree 670
pos[669] = 2088 degree 669
pos[668] = 2085 degree 668
pos[667] = 2082 degree 667
pos[666] = 2079 degree 666
pos[665] = 2076 degree 665
pos[664] = 2073 degree 664
pos[663] = 2070 degree 663
pos[662] = 2067 degree 662
pos[661] = 2064 degree 661
pos[660] = 2061 degree 660
pos[659] = 2058 degree 659
pos[658] = 2055 degree 658
pos[657] = 2052 degree 657
pos[656] = 2049 degree 656
pos[655] = 2046 degree 655
pos[654] = 2043 degree 654
pos[653] = 2040 degree 653
pos[652] = 2037 degree 652
pos[651] = 2034 degree 651
pos[650] = 2031 degree 650
pos[649] = 2028 degree 649
pos[648] = 2025 degree 648
pos[647] = 2022 degree 647
pos[646] = 2019 degree 646
pos[645] = 2016 degree 645
pos[644] = 2013 degree 644
pos[643] = 2010 degree 643
pos[642] = 2007 degree 642
pos[641] = 2004 degree 641
pos[640] = 2001 degree 640
pos[639] = 1998 degree 639
pos[638] = 1995 degree 638
pos[637] = 1992 degree 637
pos[636] = 1989 degree 636
pos[635] = 1986 degree 635
pos[634] = 1983 degree 634
pos[633] = 1980 degree 633
pos[632] = 1977 degree 632
pos[631] = 1974 degree 631
pos[630] = 1971 degree 630
pos[629] = 1968 degree 629
pos[628] = 1965 degree 628
pos[627] = 1962 degree 627
pos[626] = 1959 degree 626
pos[625] = 1956 degree 625
pos[624] = 1953 degree 624
pos[623] = 1950 degree 623
pos[622] = 1947 degree 622
pos[621] = 1944 degree 621
pos[620] = 1941 degree 620
pos[619] = 1938 degree 619
pos[618] = 1935 degree 618
pos[617] = 1932 degree 617
pos[616] = 1929 degree 616
pos[615] = 1926 degree 615
pos[614] = 1923 degree 614
pos[613] = 1920 degree 613
pos[612] = 1917 degree 612
pos[611] = 1914 degree 611
pos[610] = 1911 degree 610
pos[609] = 1908 degree 609
pos[608] = 1905 degree 608
pos[607] = 1902 degree 607
pos[606] = 1899 degree 606
pos[605] = 1896 degree 605
pos[604] = 1893 degree 604
pos[603] = 1890 degree 603
pos[602] = 1887 degree 602
pos[601] = 1884 degree 601
pos[600] = 1881 degree 600
pos[599] = 1878 degree 599
pos[598] = 1875 degree 598
pos[597] = 1872 degree 597
pos[596] = 1869 degree 596
pos[595] = 1866 degree 595
pos[594] = 1863 degree 594
pos[593] = 1860 degree 593
pos[592] = 1857 degree 592
pos[591] = 1854 degree 591
pos[590] = 1851 degree 590
pos[589] = 1848 degree 589
pos[588] = 1845 degree 588
pos[587] = 1842 degree 587
pos[586] = 1839 degree 586
pos[585] = 1836 degree 585
pos[584] = 1833 degree 584
pos[583] = 1830 degree 583
pos[582] = 1827 degree 582
pos[581] = 1824 degree 581
pos[580] = 1821 degree 580
pos[579] = 1818 degree 579
pos[578] = 1815 degree 578
pos[577] = 1812 degree 577
pos[576] = 1809 degree 576
pos[575] = 1806 degree 575
pos[574] = 1803 degree 574
pos[573] = 1800 degree 573
pos[572] = 1797 degree 572
pos[571] = 1794 degree 571
pos[570] = 1791 degree 570
pos[569] = 1788 degree 569
pos[568] = 1785 degree 568
pos[567] = 1782 degree 567
pos[566] = 1779 degree 566
pos[565] = 1776 degree 565
pos[564] = 1773 degree 564
pos[563] = 1770 degree 563
pos[562] = 1767 degree 562
pos[561] = 1764 degree 561
pos[560] = 1761 degree 560
pos[559] = 1758 degree 559
pos[558] = 1755 degree 558
pos[557] = 1752 degree 557
pos[556] = 1749 degree 556
pos[555] = 1746 degree 555
pos[554] = 1743 degree 554
pos[553] = 1740 degree 553
pos[552] = 1737 degree 552
pos[551] = 1734 degree 551
pos[550] = 1731 degree 550
pos[549] = 1728 degree 549
pos[548] = 1725 degree 548
pos[547] = 1722 degree 547
pos[546] = 1719 degree 546
pos[545] = 1716 degree 545
pos[544] = 1713 degree 544
pos[543] = 1710 degree 543
pos[542] = 1707 degree 542
pos[541] = 1704 degree 541
pos[540] = 1701 degree 540
pos[539] = 1698 degree 539
pos[538] = 1695 degree 538
pos[537] = 1692 degree 537
pos[536] = 1689 degree 536
pos[535] = 1686 degree 535
pos[534] = 1683 degree 534
pos[533] = 1680 degree 533
pos[532] = 1677 degree 532
pos[531] = 1674 degree 531
pos[530] = 1671 degree 530
pos[529] = 1668 degree 529
pos[528] = 1665 degree 528
pos[527] = 1662 degree 527
pos[526] = 1659 degree 526
pos[525] = 1656 degree 525
pos[524] = 1653 degree 524
pos[523] = 1650 degree 523
pos[522] = 1647 degree 522
pos[521] = 1644 degree 521
pos[520] = 1641 degree 520
pos[519] = 1638 degree 519
pos[518] = 1635 degree 518
pos[517] = 1632 degree 517
pos[516] = 1629 degree 516
pos[515] = 1626 degree 515
pos[514] = 1623 degree 514
pos[513] = 1620 degree 513
pos[512] = 1617 degree 512
pos[511] = 1614 degree 511
pos[510] = 1611 degree 510
pos[509] = 1608 degree 509
pos[508] = 1605 degree 508
pos[507] = 1602 degree 507
pos[506] = 1599 degree 506
pos[505] = 1596 degree 505
pos[504] = 1593 degree 504
pos[503] = 1590 degree 503
pos[502] = 1587 degree 502
pos[501] = 1584 degree 501
pos[500] = 1581 degree 500
pos[499] = 1578 degree 499
pos[498] = 1575 degree 498
pos[497] = 1572 degree 497
pos[496] = 1569 degree 496
pos[495] = 1566 degree 495
pos[494] = 1563 degree 494
pos[493] = 1560 degree 493
pos[492] = 1557 degree 492
pos[491] = 1554 degree 491
pos[490] = 1551 degree 490
pos[489] = 1548 degree 489
pos[488] = 1545 degree 488
pos[487] = 1542 degree 487
pos[486] = 1539 degree 486
pos[485] = 1536 degree 485
pos[484] = 1533 degree 484
pos[483] = 1530 degree 483
pos[482] = 1527 degree 482
pos[481] = 1524 degree 481
pos[480] = 1521 degree 480
pos[479] = 1518 degree 479
pos[478] = 1515 degree 478
pos[477] = 1512 degree 477
pos[476] = 1509 degree 476
pos[475] = 1506 degree 475
pos[474] = 1503 degree 474
pos[473] = 1500 degree 473
pos[472] = 1497 degree 472
pos[471] = 1494 degree 471
pos[470] = 1491 degree 470
pos[469] = 1488 degree 469
pos[468] = 1485 degree 468
pos[467] = 1482 degree 467
pos[466] = 1479 degree 466
pos[465] = 1476 degree 465
pos[464] = 1473 degree 464
pos[463] = 1470 degree 463
pos[462] = 1467 degree 462
pos[461] = 1464 degree 461
pos[460] = 1461 degree 460
pos[459] = 1458 degree 459
pos[458] = 1455 degree 458
pos[457] = 1452 degree 457
pos[456] = 1449 degree 456
pos[455] = 1446 degree 455
pos[454] = 1443 degree 454
pos[453] = 1440 degree 453
pos[452] = 1437 degree 452
pos[451] = 1434 degree 451
pos[450] = 1431 degree 450
pos[449] = 1428 degree 449
pos[448] = 1425 degree 448
pos[447] = 1422 degree 447
pos[446] = 1419 degree 446
pos[445] = 1416 degree 445
pos[444] = 1413 degree 444
pos[443] = 1410 degree 443
pos[442] = 1407 degree 442
pos[441] = 1404 degree 441
pos[440] = 1401 degree 440
pos[439] = 1398 degree 439
pos[438] = 1395 degree 438
pos[437] = 1392 degree 437
pos[436] = 1389 degree 436
pos[435] = 1386 degree 435
pos[434] = 1383 degree 434
pos[433] = 1380 degree 433
pos[432] = 1377 degree 432
pos[431] = 1374 degree 431
pos[430] = 1371 degree 430
pos[429] = 1368 degree 429
pos[428] = 1365 degree 428
pos[427] = 1362 degree 427
pos[426] = 1359 degree 426
pos[425] = 1356 degree 425
pos[424] = 1353 degree 424
pos[423] = 1350 degree 423
pos[422] = 1347 degree 422
pos[421] = 1344 degree 421
pos[420] = 1341 degree 420
pos[419] = 1338 degree 419
pos[418] = 1335 degree 418
pos[417] = 1332 degree 417
pos[416] = 1329 degree 416
pos[415] = 1326 degree 415
pos[414] = 1323 degree 414
pos[413] = 1320 degree 413
pos[412] = 1317 degree 412
pos[411] = 1314 degree 411
pos[410] = 1311 degree 410
pos[409] = 1308 degree 409
pos[408] = 1305 degree 408
pos[407] = 1302 degree 407
pos[406] = 1299 degree 406
pos[405] = 1296 degree 405
pos[404] = 1293 degree 404
pos[403] = 1290 degree 403
pos[402] = 1287 degree 402
pos[401] = 1284 degree 401
pos[400] = 1281 degree 400
pos[399] = 1278 degree 399
pos[398] = 1275 degree 398
pos[397] = 1272 degree 397
pos[396] = 1269 degree 396
pos[395] = 1266 degree 395
pos[394] = 1263 degree 394
pos[393] = 1260 degree 393
pos[392] = 1257 degree 392
pos[391] = 1254 degree 391
pos[390] = 1251 degree 390
pos[389] = 1248 degree 389
pos[388] = 1245 degree 388
pos[387] = 1242 degree 387
pos[386] = 1239 degree 386
pos[385] = 1236 degree 385
pos[384] = 1233 degree 384
pos[383] = 1230 degree 383
pos[382] = 1227 degree 382
pos[381] = 1224 degree 381
pos[380] = 1221 degree 380
pos[379] = 1218 degree 379
pos[378] = 1215 degree 378
pos[377] = 1212 degree 377
pos[376] = 1209 degree 376
pos[375] = 1206 degree 375
pos[374] = 1203 degree 374
pos[373] = 1200 degree 373
pos[372] = 1197 degree 372
pos[371] = 1194 degree 371
pos[370] = 1191 degree 370
pos[369] = 1188 degree 369
pos[368] = 1185 degree 368
pos[367] = 1182 degree 367
pos[366] = 1179 degree 366
pos[365] = 1176 degree 365
pos[364] = 1173 degree 364
pos[363] = 1170 degree 363
pos[362] = 1167 degree 362
pos[361] = 1164 degree 361
pos[360] = 1161 degree 360
pos[359] = 1158 degree 359
pos[358] = 1155 degree 358
pos[357] = 1152 degree 357
pos[356] = 1149 degree 356
pos[355] = 1146 degree 355
pos[354] = 1143 degree 354
pos[353] = 1140 degree 353
pos[352] = 1137 degree 352
pos[351] = 1134 degree 351
pos[350] = 1131 degree 350
pos[349] = 1128 degree 349
pos[348] = 1125 degree 348
pos[347] = 1122 degree 347
pos[346] = 1119 degree 346
pos[345] = 1116 degree 345
pos[344] = 1113 degree 344
pos[343] = 1110 degree 343
pos[342] = 1107 degree 342
pos[341] = 1104 degree 341
pos[340] = 1101 degree 340
pos[339] = 1098 degree 339
pos[338] = 1095 degree 338
pos[337] = 1092 degree 337
pos[336] = 1089 degree 336
pos[335] = 1086 degree 335
pos[334] = 1083 degree 334
pos[333] = 1080 degree 333
pos[332] = 1077 degree 332
pos[331] = 1074 degree 331
pos[330] = 1071 degree 330
pos[329] = 1068 degree 329
pos[328] = 1065 degree 328
pos[327] = 1062 degree 327
pos[326] = 1059 degree 326
pos[325] = 1056 degree 325
pos[324] = 1053 degree 324
pos[323] = 1050 degree 323
pos[322] = 1047 degree 322
pos[321] = 1044 degree 321
pos[320] = 1041 degree 320
pos[319] = 1038 degree 319
pos[318] = 1035 degree 318
pos[317] = 1032 degree 317
pos[316] = 1029 degree 316
pos[315] = 1026 degree 315
pos[314] = 1023 degree 314
pos[313] = 1020 degree 313
pos[312] = 1017 degree 312
pos[311] = 1014 degree 311
pos[310] = 1011 degree 310
pos[309] = 1008 degree 309
pos[308] = 1005 degree 308
pos[307] = 1002 degree 307
pos[306] = 999 degree 306
pos[305] = 996 degree 305
pos[304] = 993 degree 304
pos[303] = 990 degree 303
pos[302] = 987 degree 302
pos[301] = 984 degree 301
pos[300] = 981 degree 300
pos[299] = 978 degree 299
pos[298] = 975 degree 298
pos[297] = 972 degree 297
pos[296] = 969 degree 296
pos[295] = 966 degree 295
pos[294] = 963 degree 294
pos[293] = 960 degree 293
pos[292] = 957 degree 292
pos[291] = 954 degree 291
pos[290] = 951 degree 290
pos[289] = 948 degree 289
pos[288] = 945 degree 288
pos[287] = 942 degree 287
pos[286] = 939 degree 286
pos[285] = 936 degree 285
pos[284] = 933 degree 284
pos[283] = 930 degree 283
pos[282] = 927 degree 282
pos[281] = 924 degree 281
pos[280] = 921 degree 280
pos[279] = 918 degree 279
pos[278] = 915 degree 278
pos[277] = 912 degree 277
pos[276] = 909 degree 276
pos[275] = 906 degree 275
pos[274] = 903 degree 274
pos[273] = 900 degree 273
pos[272] = 897 degree 272
pos[271] = 894 degree 271
pos[270] = 891 degree 270
pos[269] = 888 degree 269
pos[268] = 885 degree 268
pos[267] = 882 degree 267
pos[266] = 879 degree 266
pos[265] = 876 degree 265
pos[264] = 873 degree 264
pos[263] = 870 degree 263
pos[262] = 867 degree 262
pos[261] = 864 degree 261
pos[260] = 861 degree 260
pos[259] = 858 degree 259
pos[258] = 855 degree 258
pos[257] = 852 degree 257
pos[256] = 849 degree 256
pos[255] = 846 degree 255
pos[254] = 843 degree 254
pos[253] = 840 degree 253
pos[252] = 837 degree 252
pos[251] = 834 degree 251
pos[250] = 831 degree 250
pos[249] = 828 degree 249
pos[248] = 825 degree 248
pos[247] = 822 degree 247
pos[246] = 819 degree 246
pos[245] = 816 degree 245
pos[244] = 813 degree 244
pos[243] = 810 degree 243
pos[242] = 807 degree 242
pos[241] = 804 degree 241
pos[240] = 801 degree 240
pos[239] = 798 degree 239
pos[238] = 795 degree 238
pos[237] = 792 degree 237
pos[236] = 789 degree 236
pos[235] = 786 degree 235
pos[234] = 783 degree 234
pos[233] = 780 degree 233
pos[232] = 777 degree 232
pos[231] = 774 degree 231
pos[230] = 771 degree 230
pos[229] = 768 degree 229
pos[228] = 765 degree 228
pos[227] = 762 degree 227
pos[226] = 759 degree 226
pos[225] = 756 degree 225
pos[224] = 753 degree 224
pos[223] = 750 degree 223
pos[222] = 747 degree 222
pos[221] = 744 degree 221
pos[220] = 741 degree 220
pos[219] = 738 degree 219
pos[218] = 735 degree 218
pos[217] = 732 degree 217
pos[216] = 729 degree 216
pos[215] = 726 degree 215
pos[214] = 723 degree 214
pos[213] = 720 degree 213
pos[212] = 717 degree 212
pos[211] = 714 degree 211
pos[210] = 711 degree 210
pos[209] = 708 degree 209
pos[208] = 705 degree 208
pos[207] = 702 degree 207
pos[206] = 699 degree 206
pos[205] = 696 degree 205
pos[204] = 693 degree 204
pos[203] = 690 degree 203
pos[202] = 687 degree 202
pos[201] = 684 degree 201
pos[200] = 681 degree 200
pos[199] = 678 degree 199
pos[198] = 675 degree 198
pos[197] = 672 degree 197
pos[196] = 669 degree 196
pos[195] = 666 degree 195
pos[194] = 663 degree 194
pos[193] = 660 degree 193
pos[192] = 657 degree 192
pos[191] = 654 degree 191
pos[190] = 651 degree 190
pos[189] = 648 degree 189
pos[188] = 645 degree 188
pos[187] = 642 degree 187
pos[186] = 639 degree 186
pos[185] = 636 degree 185
pos[184] = 633 degree 184
pos[183] = 630 degree 183
pos[182] = 627 degree 182
pos[181] = 624 degree 181
pos[180] = 621 degree 180
pos[179] = 618 degree 179
pos[178] = 615 degree 178
pos[177] = 612 degree 177
pos[176] = 609 degree 176
pos[175] = 606 degree 175
pos[174] = 603 degree 174
pos[173] = 600 degree 173
pos[172] = 597 degree 172
pos[171] = 594 degree 171
pos[170] = 591 degree 170
pos[169] = 588 degree 169
pos[168] = 585 degree 168
pos[167] = 582 degree 167
pos[166] = 579 degree 166
pos[165] = 576 degree 165
pos[164] = 573 degree 164
pos[163] = 570 degree 163
pos[162] = 567 degree 162
pos[161] = 564 degree 161
pos[160] = 561 degree 160
pos[159] = 558 degree 159
pos[158] = 555 degree 158
pos[157] = 552 degree 157
pos[156] = 549 degree 156
pos[155] = 546 degree 155
pos[154] = 543 degree 154
pos[153] = 540 degree 153
pos[152] = 537 degree 152
pos[151] = 534 degree 151
pos[150] = 531 degree 150
pos[149] = 528 degree 149
pos[148] = 525 degree 148
pos[147] = 522 degree 147
pos[146] = 519 degree 146
pos[145] = 516 degree 145
pos[144] = 513 degree 144
pos[143] = 510 degree 143
pos[142] = 507 degree 142
pos[141] = 504 degree 141
pos[140] = 501 degree 140
pos[139] = 498 degree 139
pos[138] = 495 degree 138
pos[137] = 492 degree 137
pos[136] = 489 degree 136
pos[135] = 486 degree 135
pos[134] = 483 degree 134
pos[133] = 480 degree 133
pos[132] = 477 degree 132
pos[131] = 474 degree 131
pos[130] = 471 degree 130
pos[129] = 468 degree 129
pos[128] = 465 degree 128
pos[127] = 462 degree 127
pos[126] = 459 degree 126
pos[125] = 456 degree 125
pos[124] = 453 degree 124
pos[123] = 450 degree 123
