timeout 3600 s
Graph with 500 vertices and 93800 edges density 0.751904
t = 187600, Enbr = 93800
pos[499] = 124 degree 293
pos[498] = 432 degree 298
pos[497] = 471 degree 300
pos[496] = 188 degree 301
pos[495] = 395 degree 302
pos[494] = 235 degree 302
pos[493] = 154 degree 303
pos[492] = 129 degree 302
pos[491] = 496 degree 303
pos[490] = 57 degree 302
pos[489] = 366 degree 303
pos[488] = 362 degree 302
pos[487] = 342 degree 302
pos[486] = 190 degree 303
pos[485] = 174 degree 302
pos[484] = 186 degree 302
pos[483] = 95 degree 302
pos[482] = 184 degree 302
pos[481] = 381 degree 302
pos[480] = 178 degree 301
pos[479] = 408 degree 302
pos[478] = 346 degree 301
pos[477] = 415 degree 302
pos[476] = 175 degree 301
pos[475] = 461 degree 303
pos[474] = 419 degree 303
pos[473] = 15 degree 303
pos[472] = 163 degree 303
pos[471] = 16 degree 302
pos[470] = 157 degree 302
pos[469] = 420 degree 302
pos[468] = 217 degree 301
pos[467] = 26 degree 301
pos[466] = 39 degree 301
pos[465] = 475 degree 302
pos[464] = 272 degree 301
pos[463] = 141 degree 300
pos[462] = 176 degree 300
pos[461] = 294 degree 301
pos[460] = 156 degree 300
pos[459] = 130 degree 299
pos[458] = 318 degree 299
pos[457] = 302 degree 299
pos[456] = 458 degree 300
pos[455] = 14 degree 299
pos[454] = 389 degree 300
pos[453] = 317 degree 299
pos[452] = 61 degree 298
pos[451] = 492 degree 298
pos[450] = 150 degree 297
pos[449] = 356 degree 297
pos[448] = 225 degree 296
pos[447] = 363 degree 296
pos[446] = 413 degree 296
pos[445] = 254 degree 296
pos[444] = 52 degree 295
pos[443] = 484 degree 295
pos[442] = 447 degree 295
pos[441] = 487 degree 295
pos[440] = 166 degree 294
pos[439] = 24 degree 293
pos[438] = 263 degree 294
pos[437] = 13 degree 293
pos[436] = 112 degree 293
pos[435] = 259 degree 293
pos[434] = 392 degree 293
pos[433] = 292 degree 292
pos[432] = 207 degree 291
pos[431] = 260 degree 291
pos[430] = 243 degree 291
pos[429] = 310 degree 291
pos[428] = 134 degree 290
pos[427] = 8 degree 289
pos[426] = 306 degree 289
pos[425] = 144 degree 288
pos[424] = 422 degree 289
pos[423] = 211 degree 288
pos[422] = 421 degree 288
pos[421] = 365 degree 288
pos[420] = 187 degree 287
pos[419] = 126 degree 287
pos[418] = 30 degree 286
pos[417] = 336 degree 286
pos[416] = 135 degree 285
pos[415] = 284 degree 285
pos[414] = 385 degree 285
pos[413] = 79 degree 284
pos[412] = 386 degree 286
pos[411] = 204 degree 285
pos[410] = 450 degree 285
pos[409] = 277 degree 284
pos[408] = 203 degree 283
pos[407] = 105 degree 283
pos[406] = 76 degree 282
pos[405] = 63 degree 281
pos[404] = 440 degree 282
pos[403] = 103 degree 281
pos[402] = 19 degree 280
pos[401] = 316 degree 281
pos[400] = 397 degree 281
pos[399] = 232 degree 280
pos[398] = 304 degree 280
pos[397] = 298 degree 279
pos[396] = 359 degree 279
pos[395] = 71 degree 278
pos[394] = 5 degree 278
pos[393] = 430 degree 278
pos[392] = 416 degree 277
pos[391] = 337 degree 276
pos[390] = 100 degree 276
pos[389] = 23 degree 275
pos[388] = 354 degree 275
pos[387] = 173 degree 274
pos[386] = 40 degree 273
pos[385] = 334 degree 274
pos[384] = 241 degree 273
pos[383] = 476 degree 274
pos[382] = 283 degree 273
pos[381] = 253 degree 272
pos[380] = 229 degree 271
pos[379] = 48 degree 271
pos[378] = 493 degree 271
pos[377] = 255 degree 270
pos[376] = 92 degree 269
pos[375] = 151 degree 269
pos[374] = 251 degree 269
pos[373] = 466 degree 269
pos[372] = 152 degree 268
pos[371] = 113 degree 267
pos[370] = 256 degree 268
pos[369] = 86 degree 267
pos[368] = 118 degree 268
pos[367] = 41 degree 267
pos[366] = 25 degree 267
pos[365] = 4 degree 266
pos[364] = 423 degree 266
pos[363] = 191 degree 266
pos[362] = 267 degree 266
pos[361] = 139 degree 265
pos[360] = 330 degree 265
pos[359] = 55 degree 264
pos[358] = 457 degree 265
pos[357] = 250 degree 264
pos[356] = 400 degree 264
pos[355] = 239 degree 263
pos[354] = 171 degree 262
pos[353] = 405 degree 262
pos[352] = 181 degree 261
pos[351] = 394 degree 261
pos[350] = 378 degree 260
pos[349] = 437 degree 260
pos[348] = 206 degree 259
pos[347] = 371 degree 259
pos[346] = 72 degree 258
pos[345] = 361 degree 258
pos[344] = 355 degree 257
pos[343] = 104 degree 256
pos[342] = 449 degree 256
pos[341] = 418 degree 255
pos[340] = 53 degree 254
pos[339] = 111 degree 254
pos[338] = 77 degree 253
pos[337] = 245 degree 253
pos[336] = 44 degree 252
pos[335] = 425 degree 252
pos[334] = 164 degree 252
pos[333] = 453 degree 252
pos[332] = 429 degree 251
pos[331] = 37 degree 250
pos[330] = 375 degree 250
pos[329] = 231 degree 249
pos[328] = 472 degree 249
pos[327] = 155 degree 248
pos[326] = 121 degree 247
pos[325] = 289 degree 247
pos[324] = 167 degree 247
pos[323] = 91 degree 246
pos[322] = 494 degree 246
pos[321] = 399 degree 245
pos[320] = 240 degree 244
pos[319] = 125 degree 243
pos[318] = 349 degree 243
pos[317] = 391 degree 243
pos[316] = 387 degree 243
pos[315] = 114 degree 242
pos[314] = 3 degree 241
pos[313] = 452 degree 241
pos[312] = 10 degree 240
pos[311] = 305 degree 240
pos[310] = 273 degree 240
pos[309] = 160 degree 239
pos[308] = 12 degree 238
pos[307] = 497 degree 238
pos[306] = 404 degree 237
pos[305] = 107 degree 236
pos[304] = 213 degree 236
pos[303] = 110 degree 235
pos[302] = 360 degree 235
pos[301] = 59 degree 234
pos[300] = 435 degree 234
pos[299] = 89 degree 233
pos[298] = 410 degree 234
pos[297] = 406 degree 233
pos[296] = 384 degree 232
pos[295] = 216 degree 231
pos[294] = 198 degree 230
pos[293] = 455 degree 230
pos[292] = 279 degree 229
pos[291] = 287 degree 229
pos[290] = 35 degree 228
pos[289] = 7 degree 227
pos[288] = 353 degree 227
pos[287] = 288 degree 226
pos[286] = 238 degree 226
pos[285] = 303 degree 226
pos[284] = 73 degree 225
pos[283] = 312 degree 225
pos[282] = 200 degree 224
pos[281] = 99 degree 223
pos[280] = 266 degree 223
pos[279] = 195 degree 222
pos[278] = 333 degree 222
pos[277] = 119 degree 221
pos[276] = 483 degree 221
pos[275] = 478 degree 220
pos[274] = 426 degree 219
pos[273] = 47 degree 218
pos[272] = 368 degree 218
pos[271] = 297 degree 217
pos[270] = 445 degree 217
pos[269] = 285 degree 216
pos[268] = 379 degree 216
pos[267] = 351 degree 215
pos[266] = 324 degree 214
pos[265] = 274 degree 213
pos[264] = 17 degree 212
pos[263] = 6 degree 211
pos[262] = 376 degree 212
pos[261] = 311 degree 211
pos[260] = 300 degree 211
pos[259] = 43 degree 210
pos[258] = 32 degree 209
pos[257] = 96 degree 209
pos[256] = 460 degree 209
pos[255] = 264 degree 208
pos[254] = 262 degree 207
pos[253] = 328 degree 207
pos[252] = 282 degree 206
pos[251] = 469 degree 206
pos[250] = 248 degree 205
pos[249] = 212 degree 204
pos[248] = 146 degree 203
pos[247] = 51 degree 202
pos[246] = 481 degree 203
pos[245] = 234 degree 202
pos[244] = 194 degree 201
pos[243] = 31 degree 200
pos[242] = 290 degree 200
pos[241] = 142 degree 199
pos[240] = 81 degree 198
pos[239] = 219 degree 198
pos[238] = 117 degree 197
pos[237] = 331 degree 197
pos[236] = 133 degree 196
pos[235] = 88 degree 195
pos[234] = 327 degree 195
pos[233] = 209 degree 194
pos[232] = 138 degree 193
pos[231] = 87 degree 192
pos[230] = 21 degree 191
pos[229] = 94 degree 191
pos[228] = 45 degree 190
pos[227] = 11 degree 189
pos[226] = 252 degree 189
pos[225] = 462 degree 189
pos[224] = 321 degree 188
pos[223] = 320 degree 187
pos[222] = 148 degree 186
pos[221] = 49 degree 185
pos[220] = 278 degree 185
pos[219] = 244 degree 184
pos[218] = 249 degree 184
pos[217] = 27 degree 183
pos[216] = 276 degree 183
pos[215] = 180 degree 182
pos[214] = 97 degree 181
pos[213] = 441 degree 181
pos[212] = 323 degree 180
pos[211] = 271 degree 179
pos[210] = 224 degree 178
pos[209] = 143 degree 178
pos[208] = 50 degree 177
pos[207] = 42 degree 176
pos[206] = 438 degree 176
pos[205] = 75 degree 175
pos[204] = 313 degree 175
pos[203] = 196 degree 174
pos[202] = 85 degree 173
pos[201] = 65 degree 172
pos[200] = 485 degree 172
pos[199] = 344 degree 171
pos[198] = 343 degree 170
pos[197] = 345 degree 170
pos[196] = 326 degree 169
pos[195] = 69 degree 168
pos[194] = 1 degree 167
pos[193] = 127 degree 167
pos[192] = 109 degree 166
pos[191] = 473 degree 166
pos[190] = 402 degree 165
pos[189] = 329 degree 164
pos[188] = 308 degree 163
pos[187] = 227 degree 162
pos[186] = 46 degree 161
pos[185] = 377 degree 161
pos[184] = 314 degree 160
pos[183] = 116 degree 159
pos[182] = 373 degree 159
pos[181] = 315 degree 158
pos[180] = 228 degree 157
pos[179] = 490 degree 157
pos[178] = 401 degree 156
pos[177] = 295 degree 155
pos[176] = 33 degree 154
pos[175] = 477 degree 154
pos[174] = 222 degree 153
pos[173] = 208 degree 152
pos[172] = 106 degree 151
pos[171] = 486 degree 151
pos[170] = 448 degree 150
pos[169] = 433 degree 149
pos[168] = 108 degree 148
pos[167] = 459 degree 148
pos[166] = 325 degree 147
pos[165] = 280 degree 146
pos[164] = 74 degree 145
pos[163] = 498 degree 145
pos[162] = 482 degree 144
pos[161] = 309 degree 143
pos[160] = 242 degree 142
pos[159] = 210 degree 141
pos[158] = 170 degree 140
pos[157] = 443 degree 140
pos[156] = 140 degree 139
pos[155] = 465 degree 139
pos[154] = 246 degree 138
pos[153] = 177 degree 137
pos[152] = 102 degree 136
pos[151] = 491 degree 136
pos[150] = 226 degree 135
pos[149] = 223 degree 134
pos[148] = 179 degree 133
pos[147] = 357 degree 133
pos[146] = 350 degree 132
pos[145] = 275 degree 131
pos[144] = 169 degree 130
pos[143] = 165 degree 129
pos[142] = 82 degree 128
pos[141] = 2 degree 127
pos[140] = 332 degree 127
pos[139] = 153 degree 126
pos[138] = 120 degree 125
pos[137] = 20 degree 124
pos[136] = 470 degree 124
pos[135] = 393 degree 123
pos[134] = 372 degree 122
pos[133] = 369 degree 121
pos[132] = 352 degree 120
pos[131] = 233 degree 119
pos[130] = 78 degree 118
pos[129] = 436 degree 118
pos[128] = 409 degree 117
pos[127] = 374 degree 116
pos[126] = 84 degree 115
pos[125] = 56 degree 114
pos[124] = 293 degree 114
pos[123] = 215 degree 113
pos[122] = 193 degree 112
pos[121] = 66 degree 111
pos[120] = 428 degree 111
pos[119] = 364 degree 110
pos[118] = 338 degree 109
pos[117] = 270 degree 108
pos[116] = 258 degree 107
pos[115] = 183 degree 106
pos[114] = 158 degree 105
pos[113] = 467 degree 105
pos[112] = 463 degree 104
pos[111] = 451 degree 103
pos[110] = 339 degree 102
pos[109] = 197 degree 101
pos[108] = 189 degree 100
pos[107] = 34 degree 99
pos[106] = 480 degree 99
pos[105] = 474 degree 98
pos[104] = 286 degree 97
pos[103] = 192 degree 96
pos[102] = 185 degree 95
pos[101] = 90 degree 94
pos[100] = 0 degree 93
pos[99] = 446 degree 93
pos[98] = 370 degree 92
pos[97] = 182 degree 91
pos[96] = 128 degree 90
pos[95] = 60 degree 89
pos[94] = 28 degree 88
pos[93] = 22 degree 87
pos[92] = 18 degree 86
pos[91] = 464 degree 86
pos[90] = 427 degree 85
pos[89] = 412 degree 84
pos[88] = 340 degree 83
pos[87] = 291 degree 82
pos[86] = 172 degree 81
pos[85] = 101 degree 80
pos[84] = 93 degree 79
pos[83] = 83 degree 78
pos[82] = 70 degree 77
pos[81] = 434 degree 77
pos[80] = 390 degree 76
pos[79] = 261 degree 75
pos[78] = 247 degree 74
pos[77] = 218 degree 73
pos[76] = 123 degree 72
pos[75] = 442 degree 72
pos[74] = 439 degree 71
pos[73] = 383 degree 70
pos[72] = 322 degree 69
pos[71] = 307 degree 68
pos[70] = 281 degree 67
pos[69] = 220 degree 66
pos[68] = 115 degree 65
pos[67] = 80 degree 64
pos[66] = 488 degree 64
pos[65] = 414 degree 63
pos[64] = 398 degree 62
pos[63] = 396 degree 61
pos[62] = 367 degree 60
pos[61] = 348 degree 59
pos[60] = 341 degree 58
pos[59] = 257 degree 57
pos[58] = 237 degree 56
pos[57] = 214 degree 55
pos[56] = 137 degree 54
pos[55] = 499 degree 54
pos[54] = 495 degree 53
pos[53] = 456 degree 52
pos[52] = 444 degree 51
pos[51] = 388 degree 50
pos[50] = 319 degree 49
pos[49] = 268 degree 48
pos[48] = 236 degree 47
pos[47] = 205 degree 46
pos[46] = 162 degree 45
pos[45] = 131 degree 44
pos[44] = 98 degree 43
pos[43] = 489 degree 43
pos[42] = 479 degree 42
pos[41] = 468 degree 41
pos[40] = 454 degree 40
pos[39] = 431 degree 39
pos[38] = 424 degree 38
pos[37] = 417 degree 37
pos[36] = 411 degree 36
pos[35] = 407 degree 35
pos[34] = 403 degree 34
pos[33] = 382 degree 33
pos[32] = 380 degree 32
pos[31] = 358 degree 31
pos[30] = 347 degree 30
pos[29] = 335 degree 29
pos[28] = 301 degree 28
pos[27] = 299 degree 27
pos[26] = 296 degree 26
pos[25] = 269 degree 25
pos[24] = 265 degree 24
pos[23] = 230 degree 23
pos[22] = 221 degree 22
pos[21] = 202 degree 21
pos[20] = 201 degree 20
pos[19] = 199 degree 19
pos[18] = 168 degree 18
pos[17] = 161 degree 17
pos[16] = 159 degree 16
pos[15] = 149 degree 15
pos[14] = 147 degree 14
pos[13] = 145 degree 13
pos[12] = 136 degree 12
pos[11] = 132 degree 11
pos[10] = 122 degree 10
pos[9] = 68 degree 9
pos[8] = 67 degree 8
pos[7] = 64 degree 7
pos[6] = 62 degree 6
pos[5] = 58 degree 5
pos[4] = 54 degree 4
pos[3] = 38 degree 3
pos[2] = 36 degree 2
pos[1] = 29 degree 1
pos[0] = 9 degree 0
start search
improving solution size 58
improving solution size 59
improving solution size 60
TIMEOUT
best clique: 10 30 37 39 55 59 63 65 68 69 123 133 137 146 148 150 160 162 169 200 202 203 222 231 266 270 300 99 490 132 163 206 480 469 237 455 269 432 320 389 445 425 500 418 412 457 408 349 323 404 399 383 496 381 465 359 348 336 198 302 
record          =          60
subp            =  2256771517
time            =  3600.00111
