timeout 3600 s
Graph with 1000 vertices and 244799 edges density 0.490088
t = 489598, Enbr = 244799
pos[999] = 30 degree 232
pos[998] = 344 degree 236
pos[997] = 984 degree 237
pos[996] = 739 degree 237
pos[995] = 469 degree 237
pos[994] = 69 degree 238
pos[993] = 702 degree 239
pos[992] = 432 degree 239
pos[991] = 764 degree 242
pos[990] = 234 degree 242
pos[989] = 167 degree 243
pos[988] = 309 degree 244
pos[987] = 845 degree 245
pos[986] = 476 degree 245
pos[985] = 355 degree 246
pos[984] = 155 degree 246
pos[983] = 315 degree 247
pos[982] = 307 degree 248
pos[981] = 184 degree 248
pos[980] = 168 degree 249
pos[979] = 41 degree 249
pos[978] = 316 degree 250
pos[977] = 236 degree 250
pos[976] = 513 degree 251
pos[975] = 769 degree 252
pos[974] = 675 degree 252
pos[973] = 352 degree 252
pos[972] = 874 degree 253
pos[971] = 864 degree 253
pos[970] = 555 degree 253
pos[969] = 300 degree 253
pos[968] = 197 degree 253
pos[967] = 988 degree 254
pos[966] = 483 degree 254
pos[965] = 243 degree 254
pos[964] = 182 degree 254
pos[963] = 559 degree 255
pos[962] = 837 degree 256
pos[961] = 757 degree 256
pos[960] = 5 degree 257
pos[959] = 78 degree 258
pos[958] = 667 degree 259
pos[957] = 626 degree 259
pos[956] = 398 degree 259
pos[955] = 320 degree 260
pos[954] = 563 degree 261
pos[953] = 833 degree 262
pos[952] = 228 degree 262
pos[951] = 169 degree 262
pos[950] = 327 degree 263
pos[949] = 550 degree 264
pos[948] = 299 degree 264
pos[947] = 57 degree 264
pos[946] = 588 degree 266
pos[945] = 459 degree 266
pos[944] = 955 degree 267
pos[943] = 430 degree 268
pos[942] = 383 degree 268
pos[941] = 230 degree 268
pos[940] = 72 degree 268
pos[939] = 852 degree 269
pos[938] = 55 degree 269
pos[937] = 914 degree 270
pos[936] = 646 degree 270
pos[935] = 413 degree 270
pos[934] = 989 degree 271
pos[933] = 931 degree 271
pos[932] = 660 degree 273
pos[931] = 609 degree 273
pos[930] = 879 degree 274
pos[929] = 596 degree 274
pos[928] = 912 degree 275
pos[927] = 417 degree 275
pos[926] = 391 degree 275
pos[925] = 380 degree 275
pos[924] = 358 degree 275
pos[923] = 628 degree 276
pos[922] = 506 degree 275
pos[921] = 231 degree 275
pos[920] = 347 degree 275
pos[919] = 95 degree 275
pos[918] = 936 degree 277
pos[917] = 602 degree 277
pos[916] = 120 degree 278
pos[915] = 819 degree 279
pos[914] = 916 degree 280
pos[913] = 882 degree 280
pos[912] = 449 degree 279
pos[911] = 324 degree 279
pos[910] = 188 degree 280
pos[909] = 12 degree 280
pos[908] = 371 degree 280
pos[907] = 48 degree 280
pos[906] = 851 degree 281
pos[905] = 717 degree 281
pos[904] = 657 degree 281
pos[903] = 200 degree 280
pos[902] = 397 degree 281
pos[901] = 349 degree 281
pos[900] = 190 degree 281
pos[899] = 381 degree 283
pos[898] = 116 degree 283
pos[897] = 768 degree 283
pos[896] = 106 degree 283
pos[895] = 980 degree 284
pos[894] = 886 degree 286
pos[893] = 268 degree 286
pos[892] = 260 degree 287
pos[891] = 946 degree 287
pos[890] = 650 degree 287
pos[889] = 551 degree 287
pos[888] = 108 degree 287
pos[887] = 789 degree 287
pos[886] = 935 degree 287
pos[885] = 25 degree 287
pos[884] = 216 degree 287
pos[883] = 653 degree 288
pos[882] = 303 degree 289
pos[881] = 403 degree 289
pos[880] = 272 degree 288
pos[879] = 255 degree 289
pos[878] = 326 degree 290
pos[877] = 364 degree 290
pos[876] = 312 degree 290
pos[875] = 101 degree 289
pos[874] = 995 degree 291
pos[873] = 728 degree 291
pos[872] = 868 degree 291
pos[871] = 543 degree 291
pos[870] = 49 degree 291
pos[869] = 973 degree 292
pos[868] = 807 degree 291
pos[867] = 713 degree 292
pos[866] = 595 degree 293
pos[865] = 763 degree 294
pos[864] = 538 degree 294
pos[863] = 854 degree 295
pos[862] = 505 degree 295
pos[861] = 267 degree 295
pos[860] = 145 degree 295
pos[859] = 621 degree 296
pos[858] = 865 degree 297
pos[857] = 859 degree 297
pos[856] = 530 degree 297
pos[855] = 490 degree 297
pos[854] = 386 degree 296
pos[853] = 356 degree 296
pos[852] = 552 degree 297
pos[851] = 700 degree 299
pos[850] = 654 degree 298
pos[849] = 693 degree 298
pos[848] = 721 degree 299
pos[847] = 487 degree 299
pos[846] = 520 degree 300
pos[845] = 495 degree 300
pos[844] = 475 degree 299
pos[843] = 545 degree 300
pos[842] = 477 degree 300
pos[841] = 92 degree 300
pos[840] = 157 degree 300
pos[839] = 372 degree 300
pos[838] = 560 degree 301
pos[837] = 436 degree 303
pos[836] = 967 degree 304
pos[835] = 264 degree 304
pos[834] = 330 degree 304
pos[833] = 770 degree 304
pos[832] = 223 degree 304
pos[831] = 94 degree 304
pos[830] = 608 degree 304
pos[829] = 54 degree 304
pos[828] = 751 degree 305
pos[827] = 123 degree 305
pos[826] = 885 degree 307
pos[825] = 515 degree 306
pos[824] = 164 degree 306
pos[823] = 761 degree 306
pos[822] = 950 degree 307
pos[821] = 964 degree 307
pos[820] = 522 degree 306
pos[819] = 711 degree 307
pos[818] = 281 degree 307
pos[817] = 244 degree 306
pos[816] = 731 degree 308
pos[815] = 665 degree 308
pos[814] = 222 degree 307
pos[813] = 399 degree 307
pos[812] = 219 degree 307
pos[811] = 218 degree 307
pos[810] = 458 degree 308
pos[809] = 210 degree 308
pos[808] = 917 degree 308
pos[807] = 183 degree 309
pos[806] = 900 degree 309
pos[805] = 499 degree 308
pos[804] = 767 degree 309
pos[803] = 109 degree 310
pos[802] = 426 degree 311
pos[801] = 339 degree 311
pos[800] = 293 degree 311
pos[799] = 481 degree 311
pos[798] = 304 degree 311
pos[797] = 269 degree 311
pos[796] = 181 degree 311
pos[795] = 13 degree 311
pos[794] = 539 degree 312
pos[793] = 461 degree 311
pos[792] = 110 degree 312
pos[791] = 651 degree 312
pos[790] = 553 degree 311
pos[789] = 224 degree 312
pos[788] = 735 degree 312
pos[787] = 440 degree 311
pos[786] = 447 degree 312
pos[785] = 525 degree 313
pos[784] = 209 degree 313
pos[783] = 118 degree 312
pos[782] = 44 degree 313
pos[781] = 979 degree 314
pos[780] = 679 degree 314
pos[779] = 211 degree 314
pos[778] = 887 degree 314
pos[777] = 722 degree 315
pos[776] = 804 degree 316
pos[775] = 40 degree 315
pos[774] = 774 degree 316
pos[773] = 361 degree 316
pos[772] = 133 degree 317
pos[771] = 485 degree 317
pos[770] = 736 degree 317
pos[769] = 780 degree 318
pos[768] = 462 degree 317
pos[767] = 998 degree 318
pos[766] = 277 degree 317
pos[765] = 15 degree 317
pos[764] = 360 degree 318
pos[763] = 933 degree 318
pos[762] = 420 degree 318
pos[761] = 213 degree 318
pos[760] = 150 degree 318
pos[759] = 843 degree 318
pos[758] = 99 degree 317
pos[757] = 664 degree 317
pos[756] = 486 degree 317
pos[755] = 594 degree 318
pos[754] = 375 degree 318
pos[753] = 860 degree 319
pos[752] = 726 degree 319
pos[751] = 508 degree 319
pos[750] = 166 degree 319
pos[749] = 382 degree 320
pos[748] = 690 degree 320
pos[747] = 587 degree 319
pos[746] = 883 degree 320
pos[745] = 742 degree 321
pos[744] = 455 degree 320
pos[743] = 221 degree 319
pos[742] = 747 degree 321
pos[741] = 245 degree 321
pos[740] = 972 degree 322
pos[739] = 904 degree 322
pos[738] = 516 degree 322
pos[737] = 453 degree 321
pos[736] = 468 degree 321
pos[735] = 431 degree 321
pos[734] = 699 degree 321
pos[733] = 389 degree 321
pos[732] = 572 degree 321
pos[731] = 703 degree 321
pos[730] = 429 degree 321
pos[729] = 591 degree 321
pos[728] = 402 degree 320
pos[727] = 354 degree 320
pos[726] = 480 degree 321
pos[725] = 179 degree 321
pos[724] = 39 degree 320
pos[723] = 29 degree 321
pos[722] = 645 degree 322
pos[721] = 353 degree 322
pos[720] = 625 degree 322
pos[719] = 630 degree 322
pos[718] = 778 degree 323
pos[717] = 251 degree 322
pos[716] = 884 degree 323
pos[715] = 590 degree 323
pos[714] = 613 degree 323
pos[713] = 9 degree 322
pos[712] = 202 degree 322
pos[711] = 692 degree 324
pos[710] = 589 degree 324
pos[709] = 378 degree 323
pos[708] = 75 degree 324
pos[707] = 204 degree 324
pos[706] = 107 degree 324
pos[705] = 617 degree 325
pos[704] = 407 degree 325
pos[703] = 206 degree 324
pos[702] = 53 degree 325
pos[701] = 923 degree 325
pos[700] = 247 degree 325
pos[699] = 519 degree 325
pos[698] = 831 degree 325
pos[697] = 21 degree 325
pos[696] = 501 degree 325
pos[695] = 257 degree 325
pos[694] = 233 degree 325
pos[693] = 68 degree 324
pos[692] = 593 degree 325
pos[691] = 683 degree 325
pos[690] = 659 degree 324
pos[689] = 0 degree 324
pos[688] = 880 degree 325
pos[687] = 592 degree 325
pos[686] = 497 degree 324
pos[685] = 633 degree 324
pos[684] = 337 degree 324
pos[683] = 870 degree 324
pos[682] = 985 degree 325
pos[681] = 6 degree 324
pos[680] = 672 degree 324
pos[679] = 43 degree 324
pos[678] = 406 degree 324
pos[677] = 428 degree 325
pos[676] = 63 degree 324
pos[675] = 275 degree 324
pos[674] = 418 degree 324
pos[673] = 828 degree 324
pos[672] = 366 degree 324
pos[671] = 60 degree 323
pos[670] = 473 degree 323
pos[669] = 390 degree 324
pos[668] = 655 degree 325
pos[667] = 766 degree 326
pos[666] = 689 degree 326
pos[665] = 571 degree 326
pos[664] = 340 degree 326
pos[663] = 604 degree 326
pos[662] = 925 degree 327
pos[661] = 825 degree 326
pos[660] = 842 degree 326
pos[659] = 634 degree 326
pos[658] = 792 degree 326
pos[657] = 52 degree 325
pos[656] = 697 degree 327
pos[655] = 3 degree 326
pos[654] = 773 degree 327
pos[653] = 546 degree 326
pos[652] = 186 degree 326
pos[651] = 712 degree 326
pos[650] = 706 degree 326
pos[649] = 673 degree 325
pos[648] = 510 degree 325
pos[647] = 126 degree 325
pos[646] = 978 degree 326
pos[645] = 937 degree 326
pos[644] = 696 degree 326
pos[643] = 724 degree 326
pos[642] = 159 degree 325
pos[641] = 656 degree 326
pos[640] = 290 degree 326
pos[639] = 732 degree 326
pos[638] = 518 degree 325
pos[637] = 254 degree 325
pos[636] = 806 degree 326
pos[635] = 489 degree 326
pos[634] = 425 degree 326
pos[633] = 31 degree 325
pos[632] = 433 degree 325
pos[631] = 574 degree 325
pos[630] = 974 degree 326
pos[629] = 680 degree 326
pos[628] = 384 degree 325
pos[627] = 929 degree 326
pos[626] = 345 degree 325
pos[625] = 237 degree 326
pos[624] = 2 degree 326
pos[623] = 890 degree 327
pos[622] = 500 degree 327
pos[621] = 466 degree 326
pos[620] = 357 degree 325
pos[619] = 294 degree 325
pos[618] = 624 degree 325
pos[617] = 404 degree 325
pos[616] = 175 degree 324
pos[615] = 857 degree 325
pos[614] = 212 degree 325
pos[613] = 474 degree 325
pos[612] = 790 degree 325
pos[611] = 647 degree 325
pos[610] = 67 degree 324
pos[609] = 82 degree 324
pos[608] = 38 degree 323
pos[607] = 826 degree 324
pos[606] = 930 degree 324
pos[605] = 434 degree 323
pos[604] = 165 degree 323
pos[603] = 45 degree 323
pos[602] = 898 degree 323
pos[601] = 586 degree 323
pos[600] = 862 degree 323
pos[599] = 765 degree 322
pos[598] = 35 degree 322
pos[597] = 734 degree 323
pos[596] = 993 degree 323
pos[595] = 815 degree 323
pos[594] = 719 degree 323
pos[593] = 285 degree 322
pos[592] = 65 degree 322
pos[591] = 127 degree 322
pos[590] = 317 degree 322
pos[589] = 909 degree 323
pos[588] = 580 degree 322
pos[587] = 803 degree 323
pos[586] = 341 degree 322
pos[585] = 214 degree 321
pos[584] = 305 degree 321
pos[583] = 944 degree 321
pos[582] = 927 degree 321
pos[581] = 858 degree 321
pos[580] = 802 degree 320
pos[579] = 196 degree 320
pos[578] = 583 degree 320
pos[577] = 87 degree 319
pos[576] = 73 degree 320
pos[575] = 839 degree 321
pos[574] = 435 degree 320
pos[573] = 772 degree 321
pos[572] = 396 degree 320
pos[571] = 793 degree 320
pos[570] = 821 degree 320
pos[569] = 741 degree 319
pos[568] = 585 degree 319
pos[567] = 511 degree 320
pos[566] = 942 degree 320
pos[565] = 795 degree 319
pos[564] = 33 degree 318
pos[563] = 682 degree 319
pos[562] = 677 degree 318
pos[561] = 20 degree 318
pos[560] = 493 degree 319
pos[559] = 332 degree 318
pos[558] = 478 degree 319
pos[557] = 36 degree 318
pos[556] = 343 degree 318
pos[555] = 306 degree 318
pos[554] = 945 degree 318
pos[553] = 705 degree 317
pos[552] = 4 degree 317
pos[551] = 873 degree 317
pos[550] = 720 degree 317
pos[549] = 314 degree 317
pos[548] = 816 degree 317
pos[547] = 540 degree 316
pos[546] = 336 degree 316
pos[545] = 758 degree 316
pos[544] = 392 degree 316
pos[543] = 98 degree 315
pos[542] = 56 degree 315
pos[541] = 951 degree 316
pos[540] = 740 degree 316
pos[539] = 678 degree 315
pos[538] = 59 degree 314
pos[537] = 18 degree 313
pos[536] = 642 degree 314
pos[535] = 322 degree 314
pos[534] = 220 degree 313
pos[533] = 844 degree 313
pos[532] = 981 degree 313
pos[531] = 346 degree 313
pos[530] = 146 degree 313
pos[529] = 144 degree 312
pos[528] = 674 degree 312
pos[527] = 848 degree 312
pos[526] = 93 degree 311
pos[525] = 365 degree 312
pos[524] = 130 degree 311
pos[523] = 915 degree 312
pos[522] = 714 degree 312
pos[521] = 250 degree 311
pos[520] = 173 degree 311
pos[519] = 117 degree 311
pos[518] = 387 degree 311
pos[517] = 627 degree 312
pos[516] = 605 degree 311
pos[515] = 266 degree 312
pos[514] = 158 degree 312
pos[513] = 484 degree 312
pos[512] = 199 degree 311
pos[511] = 124 degree 310
pos[510] = 977 degree 311
pos[509] = 872 degree 311
pos[508] = 292 degree 311
pos[507] = 135 degree 310
pos[506] = 947 degree 311
pos[505] = 535 degree 310
pos[504] = 521 degree 310
pos[503] = 77 degree 310
pos[502] = 922 degree 310
pos[501] = 544 degree 309
pos[500] = 606 degree 309
pos[499] = 600 degree 308
pos[498] = 965 degree 310
pos[497] = 240 degree 309
pos[496] = 817 degree 309
pos[495] = 952 degree 310
pos[494] = 791 degree 309
pos[493] = 514 degree 309
pos[492] = 464 degree 309
pos[491] = 385 degree 308
pos[490] = 27 degree 308
pos[489] = 419 degree 308
pos[488] = 830 degree 308
pos[487] = 379 degree 307
pos[486] = 566 degree 307
pos[485] = 113 degree 307
pos[484] = 611 degree 307
pos[483] = 134 degree 306
pos[482] = 610 degree 306
pos[481] = 529 degree 305
pos[480] = 215 degree 304
pos[479] = 681 degree 306
pos[478] = 492 degree 305
pos[477] = 232 degree 305
pos[476] = 131 degree 304
pos[475] = 114 degree 304
pos[474] = 941 degree 304
pos[473] = 556 degree 303
pos[472] = 888 degree 304
pos[471] = 528 degree 303
pos[470] = 295 degree 302
pos[469] = 976 degree 303
pos[468] = 147 degree 302
pos[467] = 918 degree 302
pos[466] = 578 degree 301
pos[465] = 749 degree 301
pos[464] = 895 degree 301
pos[463] = 441 degree 300
pos[462] = 11 degree 299
pos[461] = 787 degree 300
pos[460] = 953 degree 300
pos[459] = 395 degree 299
pos[458] = 374 degree 298
pos[457] = 51 degree 297
pos[456] = 631 degree 297
pos[455] = 61 degree 297
pos[454] = 541 degree 297
pos[453] = 246 degree 297
pos[452] = 958 degree 297
pos[451] = 239 degree 297
pos[450] = 80 degree 296
pos[449] = 58 degree 296
pos[448] = 472 degree 296
pos[447] = 924 degree 296
pos[446] = 46 degree 295
pos[445] = 908 degree 296
pos[444] = 798 degree 295
pos[443] = 695 degree 295
pos[442] = 812 degree 295
pos[441] = 744 degree 294
pos[440] = 573 degree 293
pos[439] = 701 degree 293
pos[438] = 939 degree 293
pos[437] = 373 degree 292
pos[436] = 467 degree 292
pos[435] = 208 degree 292
pos[434] = 174 degree 291
pos[433] = 853 degree 291
pos[432] = 142 degree 291
pos[431] = 990 degree 291
pos[430] = 22 degree 290
pos[429] = 876 degree 290
pos[428] = 509 degree 290
pos[427] = 89 degree 289
pos[426] = 752 degree 289
pos[425] = 676 degree 288
pos[424] = 424 degree 287
pos[423] = 685 degree 288
pos[422] = 85 degree 287
pos[421] = 227 degree 287
pos[420] = 70 degree 286
pos[419] = 643 degree 286
pos[418] = 88 degree 285
pos[417] = 105 degree 285
pos[416] = 746 degree 285
pos[415] = 338 degree 284
pos[414] = 71 degree 284
pos[413] = 919 degree 284
pos[412] = 23 degree 283
pos[411] = 832 degree 283
pos[410] = 771 degree 282
pos[409] = 301 degree 282
pos[408] = 986 degree 282
pos[407] = 727 degree 281
pos[406] = 180 degree 280
pos[405] = 901 degree 280
pos[404] = 897 degree 279
pos[403] = 892 degree 278
pos[402] = 820 degree 278
pos[401] = 846 degree 278
pos[400] = 707 degree 278
pos[399] = 569 degree 277
pos[398] = 686 degree 277
pos[397] = 542 degree 276
pos[396] = 512 degree 275
pos[395] = 641 degree 276
pos[394] = 422 degree 275
pos[393] = 409 degree 274
pos[392] = 104 degree 274
pos[391] = 582 degree 275
pos[390] = 471 degree 274
pos[389] = 335 degree 273
pos[388] = 1 degree 273
pos[387] = 694 degree 273
pos[386] = 367 degree 272
pos[385] = 16 degree 271
pos[384] = 615 degree 271
pos[383] = 549 degree 270
pos[382] = 465 degree 269
pos[381] = 311 degree 268
pos[380] = 278 degree 269
pos[379] = 24 degree 268
pos[378] = 971 degree 269
pos[377] = 906 degree 268
pos[376] = 869 degree 267
pos[375] = 723 degree 266
pos[374] = 827 degree 266
pos[373] = 983 degree 266
pos[372] = 808 degree 265
pos[371] = 581 degree 265
pos[370] = 149 degree 264
pos[369] = 788 degree 264
pos[368] = 445 degree 263
pos[367] = 957 degree 264
pos[366] = 669 degree 263
pos[365] = 187 degree 262
pos[364] = 119 degree 261
pos[363] = 14 degree 261
pos[362] = 421 degree 261
pos[361] = 809 degree 261
pos[360] = 648 degree 260
pos[359] = 889 degree 260
pos[358] = 785 degree 259
pos[357] = 959 degree 259
pos[356] = 934 degree 258
pos[355] = 743 degree 257
pos[354] = 482 degree 256
pos[353] = 450 degree 255
pos[352] = 479 degree 255
pos[351] = 684 degree 255
pos[350] = 576 degree 254
pos[349] = 66 degree 253
pos[348] = 881 degree 254
pos[347] = 557 degree 253
pos[346] = 756 degree 254
pos[345] = 507 degree 253
pos[344] = 454 degree 252
pos[343] = 362 degree 251
pos[342] = 176 degree 250
pos[341] = 287 degree 250
pos[340] = 437 degree 250
pos[339] = 348 degree 249
pos[338] = 10 degree 248
pos[337] = 620 degree 248
pos[336] = 363 degree 247
pos[335] = 698 degree 247
pos[334] = 156 degree 247
pos[333] = 470 degree 247
pos[332] = 318 degree 246
pos[331] = 122 degree 245
pos[330] = 50 degree 245
pos[329] = 438 degree 245
pos[328] = 192 degree 244
pos[327] = 877 degree 244
pos[326] = 111 degree 243
pos[325] = 949 degree 243
pos[324] = 456 degree 243
pos[323] = 745 degree 243
pos[322] = 579 degree 242
pos[321] = 416 degree 241
pos[320] = 128 degree 240
pos[319] = 323 degree 240
pos[318] = 982 degree 241
pos[317] = 612 degree 240
pos[316] = 217 degree 239
pos[315] = 263 degree 239
pos[314] = 577 degree 239
pos[313] = 412 degree 238
pos[312] = 786 degree 238
pos[311] = 663 degree 237
pos[310] = 137 degree 236
pos[309] = 76 degree 235
pos[308] = 814 degree 235
pos[307] = 794 degree 235
pos[306] = 907 degree 235
pos[305] = 903 degree 234
pos[304] = 948 degree 234
pos[303] = 632 degree 233
pos[302] = 205 degree 232
pos[301] = 189 degree 231
pos[300] = 840 degree 231
pos[299] = 688 degree 230
pos[298] = 822 degree 230
pos[297] = 452 degree 229
pos[296] = 834 degree 229
pos[295] = 737 degree 228
pos[294] = 276 degree 227
pos[293] = 394 degree 227
pos[292] = 313 degree 226
pos[291] = 151 degree 225
pos[290] = 866 degree 225
pos[289] = 849 degree 224
pos[288] = 893 degree 224
pos[287] = 288 degree 223
pos[286] = 444 degree 223
pos[285] = 310 degree 222
pos[284] = 279 degree 221
pos[283] = 194 degree 220
pos[282] = 273 degree 220
pos[281] = 125 degree 219
pos[280] = 90 degree 218
pos[279] = 911 degree 218
pos[278] = 271 degree 217
pos[277] = 401 degree 217
pos[276] = 940 degree 217
pos[275] = 446 degree 216
pos[274] = 289 degree 215
pos[273] = 256 degree 214
pos[272] = 878 degree 214
pos[271] = 716 degree 213
pos[270] = 253 degree 212
pos[269] = 738 degree 212
pos[268] = 448 degree 211
pos[267] = 308 degree 210
pos[266] = 938 degree 210
pos[265] = 750 degree 209
pos[264] = 616 degree 209
pos[263] = 201 degree 208
pos[262] = 943 degree 208
pos[261] = 603 degree 207
pos[260] = 517 degree 206
pos[259] = 17 degree 205
pos[258] = 779 degree 205
pos[257] = 504 degree 204
pos[256] = 138 degree 203
pos[255] = 81 degree 202
pos[254] = 249 degree 202
pos[253] = 920 degree 202
pos[252] = 152 degree 201
pos[251] = 760 degree 201
pos[250] = 319 degree 200
pos[249] = 140 degree 199
pos[248] = 136 degree 198
pos[247] = 601 degree 198
pos[246] = 975 degree 198
pos[245] = 841 degree 197
pos[244] = 658 degree 196
pos[243] = 523 degree 195
pos[242] = 554 degree 195
pos[241] = 143 degree 194
pos[240] = 62 degree 193
pos[239] = 423 degree 193
pos[238] = 274 degree 192
pos[237] = 637 degree 192
pos[236] = 351 degree 192
pos[235] = 331 degree 191
pos[234] = 258 degree 190
pos[233] = 148 degree 189
pos[232] = 229 degree 189
pos[231] = 910 degree 189
pos[230] = 198 degree 188
pos[229] = 42 degree 187
pos[228] = 805 degree 187
pos[227] = 970 degree 187
pos[226] = 370 degree 186
pos[225] = 163 degree 185
pos[224] = 962 degree 185
pos[223] = 710 degree 184
pos[222] = 855 degree 184
pos[221] = 649 degree 183
pos[220] = 575 degree 182
pos[219] = 265 degree 181
pos[218] = 597 degree 181
pos[217] = 368 degree 180
pos[216] = 238 degree 179
pos[215] = 801 degree 179
pos[214] = 619 degree 178
pos[213] = 298 degree 177
pos[212] = 259 degree 176
pos[211] = 894 degree 176
pos[210] = 644 degree 175
pos[209] = 526 degree 174
pos[208] = 733 degree 174
pos[207] = 725 degree 173
pos[206] = 666 degree 172
pos[205] = 171 degree 171
pos[204] = 921 degree 171
pos[203] = 47 degree 170
pos[202] = 902 degree 170
pos[201] = 813 degree 169
pos[200] = 502 degree 168
pos[199] = 442 degree 167
pos[198] = 691 degree 167
pos[197] = 112 degree 166
pos[196] = 954 degree 166
pos[195] = 547 degree 165
pos[194] = 328 degree 164
pos[193] = 100 degree 163
pos[192] = 997 degree 163
pos[191] = 350 degree 162
pos[190] = 34 degree 161
pos[189] = 836 degree 161
pos[188] = 704 degree 160
pos[187] = 443 degree 159
pos[186] = 261 degree 158
pos[185] = 102 degree 157
pos[184] = 748 degree 157
pos[183] = 280 degree 156
pos[182] = 755 degree 156
pos[181] = 729 degree 156
pos[180] = 709 degree 155
pos[179] = 671 degree 154
pos[178] = 291 degree 153
pos[177] = 195 degree 152
pos[176] = 79 degree 151
pos[175] = 969 degree 151
pos[174] = 891 degree 150
pos[173] = 835 degree 149
pos[172] = 527 degree 148
pos[171] = 457 degree 147
pos[170] = 963 degree 147
pos[169] = 871 degree 146
pos[168] = 811 degree 145
pos[167] = 565 degree 144
pos[166] = 498 degree 143
pos[165] = 19 degree 142
pos[164] = 905 degree 142
pos[163] = 414 degree 141
pos[162] = 408 degree 140
pos[161] = 856 degree 140
pos[160] = 207 degree 139
pos[159] = 867 degree 139
pos[158] = 564 degree 138
pos[157] = 235 degree 137
pos[156] = 994 degree 137
pos[155] = 824 degree 136
pos[154] = 584 degree 135
pos[153] = 568 degree 134
pos[152] = 599 degree 134
pos[151] = 567 degree 133
pos[150] = 129 degree 132
pos[149] = 618 degree 132
pos[148] = 451 degree 131
pos[147] = 405 degree 130
pos[146] = 393 degree 129
pos[145] = 115 degree 128
pos[144] = 26 degree 127
pos[143] = 913 degree 127
pos[142] = 570 degree 126
pos[141] = 533 degree 125
pos[140] = 248 degree 124
pos[139] = 103 degree 123
pos[138] = 427 degree 123
pos[137] = 400 degree 122
pos[136] = 270 degree 121
pos[135] = 708 degree 121
pos[134] = 524 degree 120
pos[133] = 410 degree 119
pos[132] = 334 degree 118
pos[131] = 160 degree 117
pos[130] = 999 degree 117
pos[129] = 636 degree 116
pos[128] = 598 degree 115
pos[127] = 359 degree 114
pos[126] = 329 degree 113
pos[125] = 242 degree 112
pos[124] = 97 degree 111
pos[123] = 896 degree 111
pos[122] = 777 degree 110
pos[121] = 388 degree 109
pos[120] = 302 degree 108
pos[119] = 796 degree 108
pos[118] = 782 degree 107
pos[117] = 754 degree 106
pos[116] = 531 degree 105
pos[115] = 262 degree 104
pos[114] = 753 degree 104
pos[113] = 668 degree 103
pos[112] = 411 degree 102
pos[111] = 333 degree 101
pos[110] = 283 degree 100
pos[109] = 241 degree 99
pos[108] = 661 degree 99
pos[107] = 369 degree 98
pos[106] = 177 degree 97
pos[105] = 91 degree 96
pos[104] = 8 degree 95
pos[103] = 968 degree 95
pos[102] = 759 degree 94
pos[101] = 562 degree 93
pos[100] = 534 degree 92
pos[99] = 662 degree 92
pos[98] = 558 degree 91
pos[97] = 325 degree 90
pos[96] = 932 degree 90
pos[95] = 928 degree 89
pos[94] = 863 degree 88
pos[93] = 784 degree 87
pos[92] = 730 degree 86
pos[91] = 718 degree 85
pos[90] = 376 degree 84
pos[89] = 284 degree 83
pos[88] = 86 degree 82
pos[87] = 926 degree 82
pos[86] = 847 degree 81
pos[85] = 762 degree 80
pos[84] = 623 degree 79
pos[83] = 614 degree 78
pos[82] = 439 degree 77
pos[81] = 342 degree 76
pos[80] = 286 degree 75
pos[79] = 172 degree 74
pos[78] = 162 degree 73
pos[77] = 991 degree 73
pos[76] = 960 degree 72
pos[75] = 956 degree 71
pos[74] = 829 degree 70
pos[73] = 810 degree 69
pos[72] = 687 degree 68
pos[71] = 193 degree 67
pos[70] = 96 degree 66
pos[69] = 37 degree 65
pos[68] = 32 degree 64
pos[67] = 861 degree 64
pos[66] = 775 degree 63
pos[65] = 537 degree 62
pos[64] = 532 degree 61
pos[63] = 141 degree 60
pos[62] = 139 degree 59
pos[61] = 132 degree 58
pos[60] = 966 degree 58
pos[59] = 875 degree 57
pos[58] = 850 degree 56
pos[57] = 823 degree 55
pos[56] = 640 degree 54
pos[55] = 503 degree 53
pos[54] = 496 degree 52
pos[53] = 377 degree 51
pos[52] = 203 degree 50
pos[51] = 191 degree 49
pos[50] = 996 degree 49
pos[49] = 899 degree 48
pos[48] = 799 degree 47
pos[47] = 783 degree 46
pos[46] = 776 degree 45
pos[45] = 715 degree 44
pos[44] = 629 degree 43
pos[43] = 460 degree 42
pos[42] = 282 degree 41
pos[41] = 225 degree 40
pos[40] = 992 degree 40
pos[39] = 987 degree 39
pos[38] = 961 degree 38
pos[37] = 838 degree 37
pos[36] = 818 degree 36
pos[35] = 800 degree 35
pos[34] = 797 degree 34
pos[33] = 781 degree 33
pos[32] = 670 degree 32
pos[31] = 652 degree 31
pos[30] = 639 degree 30
pos[29] = 638 degree 29
pos[28] = 635 degree 28
pos[27] = 622 degree 27
pos[26] = 607 degree 26
pos[25] = 561 degree 25
pos[24] = 548 degree 24
pos[23] = 536 degree 23
pos[22] = 494 degree 22
pos[21] = 491 degree 21
pos[20] = 488 degree 20
pos[19] = 463 degree 19
pos[18] = 415 degree 18
pos[17] = 321 degree 17
pos[16] = 297 degree 16
pos[15] = 296 degree 15
pos[14] = 252 degree 14
pos[13] = 226 degree 13
pos[12] = 185 degree 12
pos[11] = 178 degree 11
pos[10] = 170 degree 10
pos[9] = 161 degree 9
pos[8] = 154 degree 8
pos[7] = 153 degree 7
pos[6] = 121 degree 6
pos[5] = 84 degree 5
pos[4] = 83 degree 4
pos[3] = 74 degree 3
pos[2] = 64 degree 2
pos[1] = 28 degree 1
pos[0] = 7 degree 0
start search
improving solution size 54
improving solution size 55
TIMEOUT
best clique: 8 29 65 75 84 85 122 154 155 162 171 179 186 227 253 297 298 322 416 464 489 492 495 537 562 226 993 461 988 630 777 962 900 839 862 819 287 801 370 401 798 782 906 671 716 20 710 199 971 571 640 639 636 784 623 
record          =          55
subp            =  2020602584
time            =  3600.00055
