timeout 3600 s
Graph with 1500 vertices and 284923 edges density 0.253434
t = 569846, Enbr = 284923
pos[1499] = 765 degree 157
pos[1498] = 940 degree 169
pos[1497] = 1040 degree 173
pos[1496] = 184 degree 175
pos[1495] = 954 degree 181
pos[1494] = 798 degree 182
pos[1493] = 769 degree 182
pos[1492] = 399 degree 182
pos[1491] = 1205 degree 183
pos[1490] = 679 degree 183
pos[1489] = 416 degree 185
pos[1488] = 1450 degree 186
pos[1487] = 393 degree 186
pos[1486] = 1058 degree 187
pos[1485] = 811 degree 187
pos[1484] = 1307 degree 188
pos[1483] = 1287 degree 189
pos[1482] = 517 degree 189
pos[1481] = 1275 degree 190
pos[1480] = 1152 degree 190
pos[1479] = 608 degree 190
pos[1478] = 452 degree 190
pos[1477] = 1400 degree 191
pos[1476] = 243 degree 191
pos[1475] = 1239 degree 192
pos[1474] = 730 degree 192
pos[1473] = 1247 degree 193
pos[1472] = 1047 degree 193
pos[1471] = 140 degree 193
pos[1470] = 1363 degree 194
pos[1469] = 488 degree 194
pos[1468] = 653 degree 195
pos[1467] = 559 degree 196
pos[1466] = 226 degree 196
pos[1465] = 65 degree 196
pos[1464] = 57 degree 196
pos[1463] = 1485 degree 197
pos[1462] = 936 degree 197
pos[1461] = 1215 degree 198
pos[1460] = 742 degree 198
pos[1459] = 523 degree 198
pos[1458] = 1454 degree 199
pos[1457] = 1301 degree 198
pos[1456] = 881 degree 199
pos[1455] = 492 degree 199
pos[1454] = 1439 degree 200
pos[1453] = 1394 degree 200
pos[1452] = 1216 degree 200
pos[1451] = 1214 degree 200
pos[1450] = 785 degree 200
pos[1449] = 630 degree 200
pos[1448] = 475 degree 200
pos[1447] = 430 degree 200
pos[1446] = 426 degree 200
pos[1445] = 1253 degree 202
pos[1444] = 791 degree 202
pos[1443] = 1178 degree 203
pos[1442] = 1050 degree 203
pos[1441] = 838 degree 203
pos[1440] = 783 degree 203
pos[1439] = 423 degree 203
pos[1438] = 152 degree 203
pos[1437] = 886 degree 204
pos[1436] = 743 degree 204
pos[1435] = 375 degree 204
pos[1434] = 61 degree 204
pos[1433] = 1083 degree 205
pos[1432] = 329 degree 205
pos[1431] = 1354 degree 206
pos[1430] = 1278 degree 206
pos[1429] = 1082 degree 206
pos[1428] = 573 degree 206
pos[1427] = 179 degree 206
pos[1426] = 23 degree 206
pos[1425] = 1460 degree 207
pos[1424] = 1207 degree 207
pos[1423] = 161 degree 207
pos[1422] = 17 degree 207
pos[1421] = 1387 degree 208
pos[1420] = 429 degree 208
pos[1419] = 82 degree 208
pos[1418] = 1367 degree 208
pos[1417] = 33 degree 208
pos[1416] = 21 degree 208
pos[1415] = 678 degree 208
pos[1414] = 827 degree 210
pos[1413] = 739 degree 210
pos[1412] = 105 degree 209
pos[1411] = 325 degree 210
pos[1410] = 118 degree 210
pos[1409] = 931 degree 211
pos[1408] = 813 degree 211
pos[1407] = 532 degree 211
pos[1406] = 381 degree 211
pos[1405] = 360 degree 211
pos[1404] = 307 degree 211
pos[1403] = 219 degree 211
pos[1402] = 95 degree 211
pos[1401] = 1097 degree 212
pos[1400] = 777 degree 212
pos[1399] = 702 degree 212
pos[1398] = 577 degree 212
pos[1397] = 318 degree 212
pos[1396] = 188 degree 212
pos[1395] = 1356 degree 213
pos[1394] = 1265 degree 213
pos[1393] = 981 degree 213
pos[1392] = 1252 degree 213
pos[1391] = 749 degree 213
pos[1390] = 851 degree 213
pos[1389] = 693 degree 213
pos[1388] = 685 degree 213
pos[1387] = 733 degree 213
pos[1386] = 398 degree 213
pos[1385] = 271 degree 213
pos[1384] = 158 degree 213
pos[1383] = 1299 degree 214
pos[1382] = 738 degree 213
pos[1381] = 744 degree 214
pos[1380] = 417 degree 214
pos[1379] = 64 degree 214
pos[1378] = 854 degree 215
pos[1377] = 508 degree 215
pos[1376] = 861 degree 216
pos[1375] = 413 degree 216
pos[1374] = 1489 degree 217
pos[1373] = 658 degree 217
pos[1372] = 1126 degree 217
pos[1371] = 606 degree 217
pos[1370] = 194 degree 217
pos[1369] = 98 degree 218
pos[1368] = 31 degree 218
pos[1367] = 1334 degree 219
pos[1366] = 1333 degree 219
pos[1365] = 1244 degree 219
pos[1364] = 1065 degree 219
pos[1363] = 695 degree 219
pos[1362] = 380 degree 219
pos[1361] = 1308 degree 220
pos[1360] = 960 degree 220
pos[1359] = 1117 degree 220
pos[1358] = 847 degree 220
pos[1357] = 784 degree 220
pos[1356] = 367 degree 220
pos[1355] = 84 degree 220
pos[1354] = 78 degree 220
pos[1353] = 386 degree 220
pos[1352] = 209 degree 220
pos[1351] = 1391 degree 221
pos[1350] = 1262 degree 221
pos[1349] = 979 degree 221
pos[1348] = 717 degree 221
pos[1347] = 557 degree 221
pos[1346] = 301 degree 221
pos[1345] = 74 degree 221
pos[1344] = 48 degree 221
pos[1343] = 1449 degree 222
pos[1342] = 1090 degree 221
pos[1341] = 473 degree 221
pos[1340] = 522 degree 222
pos[1339] = 501 degree 222
pos[1338] = 421 degree 222
pos[1337] = 1002 degree 223
pos[1336] = 1480 degree 223
pos[1335] = 464 degree 223
pos[1334] = 196 degree 223
pos[1333] = 1327 degree 224
pos[1332] = 994 degree 224
pos[1331] = 649 degree 224
pos[1330] = 58 degree 224
pos[1329] = 1164 degree 225
pos[1328] = 1127 degree 225
pos[1327] = 933 degree 225
pos[1326] = 867 degree 225
pos[1325] = 812 degree 225
pos[1324] = 634 degree 225
pos[1323] = 238 degree 225
pos[1322] = 147 degree 225
pos[1321] = 18 degree 225
pos[1320] = 1406 degree 226
pos[1319] = 1462 degree 227
pos[1318] = 1360 degree 227
pos[1317] = 727 degree 227
pos[1316] = 662 degree 227
pos[1315] = 956 degree 228
pos[1314] = 814 degree 228
pos[1313] = 43 degree 227
pos[1312] = 6 degree 228
pos[1311] = 816 degree 228
pos[1310] = 2 degree 228
pos[1309] = 895 degree 229
pos[1308] = 285 degree 228
pos[1307] = 556 degree 229
pos[1306] = 495 degree 229
pos[1305] = 1368 degree 230
pos[1304] = 1254 degree 229
pos[1303] = 454 degree 229
pos[1302] = 1319 degree 230
pos[1301] = 1181 degree 230
pos[1300] = 996 degree 230
pos[1299] = 904 degree 229
pos[1298] = 534 degree 230
pos[1297] = 280 degree 229
pos[1296] = 119 degree 230
pos[1295] = 1198 degree 231
pos[1294] = 1147 degree 231
pos[1293] = 230 degree 231
pos[1292] = 181 degree 231
pos[1291] = 1316 degree 232
pos[1290] = 56 degree 231
pos[1289] = 1018 degree 232
pos[1288] = 728 degree 232
pos[1287] = 555 degree 232
pos[1286] = 286 degree 232
pos[1285] = 162 degree 232
pos[1284] = 45 degree 232
pos[1283] = 1098 degree 232
pos[1282] = 455 degree 232
pos[1281] = 596 degree 232
pos[1280] = 1326 degree 233
pos[1279] = 297 degree 232
pos[1278] = 1094 degree 234
pos[1277] = 424 degree 234
pos[1276] = 190 degree 234
pos[1275] = 663 degree 234
pos[1274] = 1258 degree 235
pos[1273] = 1150 degree 235
pos[1272] = 986 degree 235
pos[1271] = 671 degree 235
pos[1270] = 549 degree 235
pos[1269] = 715 degree 235
pos[1268] = 661 degree 235
pos[1267] = 451 degree 235
pos[1266] = 425 degree 234
pos[1265] = 1182 degree 235
pos[1264] = 332 degree 235
pos[1263] = 832 degree 235
pos[1262] = 1024 degree 235
pos[1261] = 304 degree 235
pos[1260] = 274 degree 235
pos[1259] = 654 degree 235
pos[1258] = 242 degree 235
pos[1257] = 107 degree 234
pos[1256] = 843 degree 235
pos[1255] = 1396 degree 235
pos[1254] = 1116 degree 236
pos[1253] = 1189 degree 236
pos[1252] = 1075 degree 236
pos[1251] = 157 degree 235
pos[1250] = 833 degree 236
pos[1249] = 458 degree 236
pos[1248] = 610 degree 236
pos[1247] = 93 degree 236
pos[1246] = 1428 degree 237
pos[1245] = 127 degree 236
pos[1244] = 1362 degree 237
pos[1243] = 384 degree 237
pos[1242] = 187 degree 237
pos[1241] = 176 degree 237
pos[1240] = 1237 degree 238
pos[1239] = 809 degree 237
pos[1238] = 946 degree 238
pos[1237] = 1111 degree 238
pos[1236] = 363 degree 238
pos[1235] = 290 degree 237
pos[1234] = 228 degree 238
pos[1233] = 1283 degree 239
pos[1232] = 1077 degree 239
pos[1231] = 1444 degree 240
pos[1230] = 1317 degree 240
pos[1229] = 1267 degree 240
pos[1228] = 923 degree 240
pos[1227] = 969 degree 240
pos[1226] = 907 degree 240
pos[1225] = 279 degree 240
pos[1224] = 1112 degree 241
pos[1223] = 1049 degree 241
pos[1222] = 53 degree 241
pos[1221] = 942 degree 241
pos[1220] = 1114 degree 241
pos[1219] = 24 degree 241
pos[1218] = 1074 degree 241
pos[1217] = 450 degree 241
pos[1216] = 652 degree 241
pos[1215] = 1446 degree 241
pos[1214] = 1399 degree 242
pos[1213] = 262 degree 241
pos[1212] = 1355 degree 242
pos[1211] = 602 degree 241
pos[1210] = 1251 degree 242
pos[1209] = 1201 degree 242
pos[1208] = 998 degree 242
pos[1207] = 497 degree 241
pos[1206] = 14 degree 241
pos[1205] = 826 degree 242
pos[1204] = 639 degree 241
pos[1203] = 1032 degree 242
pos[1202] = 354 degree 241
pos[1201] = 321 degree 242
pos[1200] = 251 degree 242
pos[1199] = 1280 degree 243
pos[1198] = 1062 degree 243
pos[1197] = 665 degree 243
pos[1196] = 864 degree 243
pos[1195] = 550 degree 242
pos[1194] = 815 degree 243
pos[1193] = 566 degree 242
pos[1192] = 793 degree 243
pos[1191] = 636 degree 243
pos[1190] = 1233 degree 243
pos[1189] = 333 degree 242
pos[1188] = 1179 degree 243
pos[1187] = 272 degree 243
pos[1186] = 1486 degree 243
pos[1185] = 211 degree 243
pos[1184] = 28 degree 243
pos[1183] = 353 degree 243
pos[1182] = 69 degree 243
pos[1181] = 418 degree 243
pos[1180] = 1035 degree 244
pos[1179] = 1029 degree 244
pos[1178] = 530 degree 244
pos[1177] = 1027 degree 245
pos[1176] = 828 degree 245
pos[1175] = 457 degree 244
pos[1174] = 800 degree 245
pos[1173] = 757 degree 245
pos[1172] = 1236 degree 245
pos[1171] = 246 degree 244
pos[1170] = 1443 degree 245
pos[1169] = 368 degree 244
pos[1168] = 578 degree 244
pos[1167] = 1042 degree 245
pos[1166] = 911 degree 245
pos[1165] = 708 degree 245
pos[1164] = 406 degree 244
pos[1163] = 1228 degree 245
pos[1162] = 572 degree 245
pos[1161] = 362 degree 244
pos[1160] = 328 degree 244
pos[1159] = 80 degree 244
pos[1158] = 1310 degree 245
pos[1157] = 461 degree 244
pos[1156] = 177 degree 244
pos[1155] = 580 degree 245
pos[1154] = 256 degree 245
pos[1153] = 166 degree 245
pos[1152] = 1468 degree 246
pos[1151] = 1357 degree 245
pos[1150] = 797 degree 246
pos[1149] = 675 degree 245
pos[1148] = 156 degree 245
pos[1147] = 753 degree 246
pos[1146] = 441 degree 246
pos[1145] = 1009 degree 246
pos[1144] = 403 degree 246
pos[1143] = 1268 degree 246
pos[1142] = 394 degree 246
pos[1141] = 352 degree 246
pos[1140] = 299 degree 246
pos[1139] = 1311 degree 246
pos[1138] = 1377 degree 246
pos[1137] = 169 degree 246
pos[1136] = 63 degree 246
pos[1135] = 1270 degree 247
pos[1134] = 358 degree 246
pos[1133] = 526 degree 247
pos[1132] = 47 degree 246
pos[1131] = 868 degree 247
pos[1130] = 633 degree 248
pos[1129] = 505 degree 248
pos[1128] = 504 degree 248
pos[1127] = 35 degree 247
pos[1126] = 1078 degree 248
pos[1125] = 725 degree 248
pos[1124] = 553 degree 248
pos[1123] = 514 degree 248
pos[1122] = 782 degree 248
pos[1121] = 1070 degree 248
pos[1120] = 1217 degree 248
pos[1119] = 453 degree 247
pos[1118] = 215 degree 247
pos[1117] = 1379 degree 248
pos[1116] = 356 degree 247
pos[1115] = 168 degree 247
pos[1114] = 1365 degree 248
pos[1113] = 361 degree 247
pos[1112] = 1206 degree 247
pos[1111] = 1129 degree 247
pos[1110] = 1279 degree 248
pos[1109] = 182 degree 248
pos[1108] = 378 degree 248
pos[1107] = 1324 degree 249
pos[1106] = 16 degree 249
pos[1105] = 1431 degree 250
pos[1104] = 538 degree 249
pos[1103] = 377 degree 249
pos[1102] = 1392 degree 250
pos[1101] = 1191 degree 250
pos[1100] = 729 degree 249
pos[1099] = 193 degree 249
pos[1098] = 840 degree 249
pos[1097] = 281 degree 249
pos[1096] = 259 degree 249
pos[1095] = 470 degree 249
pos[1094] = 212 degree 249
pos[1093] = 1469 degree 250
pos[1092] = 283 degree 249
pos[1091] = 865 degree 250
pos[1090] = 601 degree 249
pos[1089] = 807 degree 249
pos[1088] = 799 degree 250
pos[1087] = 206 degree 250
pos[1086] = 252 degree 251
pos[1085] = 1381 degree 252
pos[1084] = 794 degree 251
pos[1083] = 149 degree 251
pos[1082] = 1012 degree 252
pos[1081] = 648 degree 251
pos[1080] = 170 degree 251
pos[1079] = 1176 degree 252
pos[1078] = 600 degree 251
pos[1077] = 1107 degree 252
pos[1076] = 875 degree 252
pos[1075] = 1330 degree 252
pos[1074] = 834 degree 252
pos[1073] = 660 degree 252
pos[1072] = 618 degree 251
pos[1071] = 131 degree 251
pos[1070] = 983 degree 251
pos[1069] = 829 degree 252
pos[1068] = 780 degree 252
pos[1067] = 444 degree 252
pos[1066] = 87 degree 251
pos[1065] = 335 degree 251
pos[1064] = 277 degree 251
pos[1063] = 1081 degree 251
pos[1062] = 953 degree 251
pos[1061] = 902 degree 250
pos[1060] = 898 degree 250
pos[1059] = 568 degree 251
pos[1058] = 1403 degree 251
pos[1057] = 1210 degree 252
pos[1056] = 1168 degree 252
pos[1055] = 857 degree 252
pos[1054] = 746 degree 252
pos[1053] = 404 degree 251
pos[1052] = 637 degree 252
pos[1051] = 830 degree 252
pos[1050] = 1312 degree 252
pos[1049] = 248 degree 251
pos[1048] = 1209 degree 252
pos[1047] = 1121 degree 252
pos[1046] = 1043 degree 252
pos[1045] = 125 degree 251
pos[1044] = 890 degree 251
pos[1043] = 1276 degree 251
pos[1042] = 988 degree 251
pos[1041] = 909 degree 252
pos[1040] = 666 degree 252
pos[1039] = 595 degree 252
pos[1038] = 323 degree 252
pos[1037] = 436 degree 252
pos[1036] = 97 degree 251
pos[1035] = 1269 degree 251
pos[1034] = 616 degree 251
pos[1033] = 1102 degree 252
pos[1032] = 171 degree 251
pos[1031] = 1436 degree 251
pos[1030] = 924 degree 252
pos[1029] = 322 degree 252
pos[1028] = 314 degree 251
pos[1027] = 310 degree 251
pos[1026] = 13 degree 251
pos[1025] = 1238 degree 252
pos[1024] = 611 degree 251
pos[1023] = 96 degree 251
pos[1022] = 948 degree 251
pos[1021] = 217 degree 251
pos[1020] = 338 degree 251
pos[1019] = 1345 degree 252
pos[1018] = 1255 degree 251
pos[1017] = 521 degree 251
pos[1016] = 151 degree 250
pos[1015] = 535 degree 251
pos[1014] = 1325 degree 251
pos[1013] = 635 degree 251
pos[1012] = 493 degree 251
pos[1011] = 703 degree 251
pos[1010] = 198 degree 250
pos[1009] = 1372 degree 251
pos[1008] = 1118 degree 251
pos[1007] = 1093 degree 251
pos[1006] = 236 degree 251
pos[1005] = 1080 degree 251
pos[1004] = 734 degree 251
pos[1003] = 673 degree 251
pos[1002] = 199 degree 250
pos[1001] = 1453 degree 250
pos[1000] = 750 degree 252
pos[999] = 1053 degree 252
pos[998] = 723 degree 252
pos[997] = 410 degree 252
pos[996] = 20 degree 251
pos[995] = 1451 degree 252
pos[994] = 359 degree 251
pos[993] = 609 degree 251
pos[992] = 120 degree 250
pos[991] = 460 degree 250
pos[990] = 1419 degree 251
pos[989] = 337 degree 251
pos[988] = 1220 degree 252
pos[987] = 900 degree 251
pos[986] = 1297 degree 252
pos[985] = 298 degree 251
pos[984] = 1226 degree 252
pos[983] = 1141 degree 251
pos[982] = 459 degree 251
pos[981] = 293 degree 251
pos[980] = 1159 degree 251
pos[979] = 943 degree 251
pos[978] = 1122 degree 251
pos[977] = 913 degree 250
pos[976] = 872 degree 250
pos[975] = 1203 degree 251
pos[974] = 990 degree 250
pos[973] = 405 degree 250
pos[972] = 150 degree 249
pos[971] = 440 degree 250
pos[970] = 27 degree 249
pos[969] = 145 degree 249
pos[968] = 435 degree 249
pos[967] = 1440 degree 250
pos[966] = 873 degree 250
pos[965] = 456 degree 250
pos[964] = 73 degree 250
pos[963] = 993 degree 250
pos[962] = 1224 degree 250
pos[961] = 1473 degree 250
pos[960] = 1358 degree 249
pos[959] = 984 degree 250
pos[958] = 1200 degree 251
pos[957] = 1146 degree 250
pos[956] = 878 degree 249
pos[955] = 643 degree 249
pos[954] = 383 degree 250
pos[953] = 40 degree 249
pos[952] = 1212 degree 251
pos[951] = 1057 degree 250
pos[950] = 883 degree 250
pos[949] = 796 degree 249
pos[948] = 893 degree 250
pos[947] = 1139 degree 250
pos[946] = 1369 degree 250
pos[945] = 315 degree 250
pos[944] = 846 degree 251
pos[943] = 347 degree 250
pos[942] = 137 degree 250
pos[941] = 696 degree 250
pos[940] = 1186 degree 250
pos[939] = 1079 degree 251
pos[938] = 487 degree 250
pos[937] = 463 degree 250
pos[936] = 912 degree 250
pos[935] = 623 degree 250
pos[934] = 1161 degree 250
pos[933] = 1188 degree 250
pos[932] = 604 degree 250
pos[931] = 1321 degree 250
pos[930] = 603 degree 250
pos[929] = 447 degree 250
pos[928] = 694 degree 250
pos[927] = 686 degree 250
pos[926] = 1003 degree 250
pos[925] = 1455 degree 250
pos[924] = 1099 degree 250
pos[923] = 1331 degree 250
pos[922] = 389 degree 249
pos[921] = 229 degree 249
pos[920] = 713 degree 250
pos[919] = 691 degree 250
pos[918] = 1140 degree 250
pos[917] = 1416 degree 250
pos[916] = 1294 degree 250
pos[915] = 374 degree 249
pos[914] = 269 degree 249
pos[913] = 59 degree 249
pos[912] = 15 degree 249
pos[911] = 763 degree 249
pos[910] = 594 degree 248
pos[909] = 1091 degree 250
pos[908] = 1349 degree 251
pos[907] = 266 degree 250
pos[906] = 101 degree 250
pos[905] = 624 degree 250
pos[904] = 795 degree 250
pos[903] = 376 degree 250
pos[902] = 62 degree 249
pos[901] = 1022 degree 250
pos[900] = 926 degree 250
pos[899] = 792 degree 250
pos[898] = 268 degree 249
pos[897] = 1096 degree 250
pos[896] = 581 degree 249
pos[895] = 1250 degree 250
pos[894] = 1445 degree 250
pos[893] = 478 degree 249
pos[892] = 1429 degree 250
pos[891] = 607 degree 249
pos[890] = 1025 degree 249
pos[889] = 1405 degree 249
pos[888] = 849 degree 248
pos[887] = 146 degree 249
pos[886] = 689 degree 249
pos[885] = 1344 degree 249
pos[884] = 366 degree 248
pos[883] = 1219 degree 249
pos[882] = 1054 degree 249
pos[881] = 469 degree 248
pos[880] = 593 degree 248
pos[879] = 856 degree 248
pos[878] = 920 degree 248
pos[877] = 599 degree 247
pos[876] = 309 degree 247
pos[875] = 1424 degree 248
pos[874] = 282 degree 247
pos[873] = 373 degree 247
pos[872] = 234 degree 247
pos[871] = 1192 degree 247
pos[870] = 39 degree 247
pos[869] = 195 degree 247
pos[868] = 1142 degree 247
pos[867] = 968 degree 247
pos[866] = 1425 degree 247
pos[865] = 235 degree 247
pos[864] = 1235 degree 247
pos[863] = 302 degree 247
pos[862] = 1131 degree 247
pos[861] = 503 degree 247
pos[860] = 853 degree 247
pos[859] = 978 degree 248
pos[858] = 1231 degree 248
pos[857] = 664 degree 248
pos[856] = 995 degree 248
pos[855] = 502 degree 248
pos[854] = 123 degree 247
pos[853] = 1085 degree 248
pos[852] = 253 degree 248
pos[851] = 971 degree 248
pos[850] = 70 degree 247
pos[849] = 1373 degree 248
pos[848] = 467 degree 247
pos[847] = 712 degree 247
pos[846] = 223 degree 247
pos[845] = 1442 degree 247
pos[844] = 1174 degree 246
pos[843] = 1187 degree 247
pos[842] = 941 degree 246
pos[841] = 585 degree 246
pos[840] = 1411 degree 247
pos[839] = 1213 degree 247
pos[838] = 645 degree 246
pos[837] = 546 degree 246
pos[836] = 1257 degree 247
pos[835] = 884 degree 247
pos[834] = 567 degree 246
pos[833] = 344 degree 246
pos[832] = 1128 degree 246
pos[831] = 1348 degree 246
pos[830] = 1282 degree 246
pos[829] = 468 degree 245
pos[828] = 871 degree 245
pos[827] = 22 degree 245
pos[826] = 547 degree 245
pos[825] = 1011 degree 245
pos[824] = 8 degree 244
pos[823] = 997 degree 245
pos[822] = 880 degree 244
pos[821] = 3 degree 244
pos[820] = 510 degree 244
pos[819] = 1497 degree 245
pos[818] = 364 degree 244
pos[817] = 479 degree 244
pos[816] = 515 degree 244
pos[815] = 348 degree 244
pos[814] = 106 degree 243
pos[813] = 659 degree 244
pos[812] = 264 degree 244
pos[811] = 205 degree 243
pos[810] = 51 degree 242
pos[809] = 218 degree 243
pos[808] = 76 degree 243
pos[807] = 1364 degree 243
pos[806] = 701 degree 243
pos[805] = 1361 degree 244
pos[804] = 1305 degree 243
pos[803] = 1135 degree 243
pos[802] = 966 degree 244
pos[801] = 431 degree 243
pos[800] = 163 degree 243
pos[799] = 499 degree 243
pos[798] = 491 degree 243
pos[797] = 831 degree 243
pos[796] = 1438 degree 244
pos[795] = 932 degree 244
pos[794] = 1292 degree 244
pos[793] = 894 degree 243
pos[792] = 820 degree 244
pos[791] = 620 degree 244
pos[790] = 622 degree 244
pos[789] = 991 degree 244
pos[788] = 726 degree 243
pos[787] = 642 degree 243
pos[786] = 183 degree 242
pos[785] = 1125 degree 243
pos[784] = 541 degree 242
pos[783] = 1422 degree 243
pos[782] = 627 degree 243
pos[781] = 1044 degree 243
pos[780] = 615 degree 242
pos[779] = 142 degree 242
pos[778] = 305 degree 242
pos[777] = 126 degree 242
pos[776] = 32 degree 242
pos[775] = 26 degree 242
pos[774] = 1249 degree 242
pos[773] = 1073 degree 242
pos[772] = 874 degree 242
pos[771] = 1101 degree 242
pos[770] = 552 degree 241
pos[769] = 1259 degree 242
pos[768] = 922 degree 241
pos[767] = 859 degree 241
pos[766] = 570 degree 241
pos[765] = 46 degree 240
pos[764] = 1464 degree 241
pos[763] = 1211 degree 241
pos[762] = 317 degree 241
pos[761] = 1087 degree 241
pos[760] = 1281 degree 241
pos[759] = 411 degree 241
pos[758] = 626 degree 241
pos[757] = 1095 degree 241
pos[756] = 324 degree 240
pos[755] = 9 degree 240
pos[754] = 265 degree 240
pos[753] = 778 degree 240
pos[752] = 295 degree 240
pos[751] = 197 degree 240
pos[750] = 1481 degree 240
pos[749] = 755 degree 240
pos[748] = 1076 degree 240
pos[747] = 122 degree 239
pos[746] = 1386 degree 240
pos[745] = 1351 degree 240
pos[744] = 1242 degree 239
pos[743] = 186 degree 239
pos[742] = 1401 degree 240
pos[741] = 1295 degree 239
pos[740] = 91 degree 238
pos[739] = 1285 degree 239
pos[738] = 412 degree 239
pos[737] = 869 degree 239
pos[736] = 1336 degree 239
pos[735] = 112 degree 238
pos[734] = 34 degree 238
pos[733] = 1284 degree 239
pos[732] = 1240 degree 239
pos[731] = 591 degree 238
pos[730] = 860 degree 238
pos[729] = 677 degree 238
pos[728] = 327 degree 237
pos[727] = 465 degree 237
pos[726] = 1173 degree 238
pos[725] = 1229 degree 238
pos[724] = 707 degree 237
pos[723] = 90 degree 237
pos[722] = 343 degree 237
pos[721] = 1185 degree 237
pos[720] = 506 degree 236
pos[719] = 1218 degree 236
pos[718] = 710 degree 236
pos[717] = 1383 degree 236
pos[716] = 408 degree 235
pos[715] = 1441 degree 236
pos[714] = 1323 degree 235
pos[713] = 1498 degree 235
pos[712] = 1154 degree 234
pos[711] = 788 degree 234
pos[710] = 1378 degree 234
pos[709] = 1496 degree 234
pos[708] = 667 degree 234
pos[707] = 655 degree 234
pos[706] = 629 degree 233
pos[705] = 319 degree 233
pos[704] = 1417 degree 233
pos[703] = 1434 degree 233
pos[702] = 917 degree 233
pos[701] = 7 degree 232
pos[700] = 1256 degree 232
pos[699] = 189 degree 232
pos[698] = 687 degree 233
pos[697] = 204 degree 232
pos[696] = 1420 degree 232
pos[695] = 482 degree 232
pos[694] = 918 degree 232
pos[693] = 79 degree 231
pos[692] = 1000 degree 231
pos[691] = 116 degree 231
pos[690] = 1426 degree 231
pos[689] = 562 degree 230
pos[688] = 175 degree 230
pos[687] = 1471 degree 231
pos[686] = 1136 degree 230
pos[685] = 1023 degree 230
pos[684] = 1015 degree 230
pos[683] = 762 degree 229
pos[682] = 192 degree 229
pos[681] = 1447 degree 229
pos[680] = 957 degree 228
pos[679] = 1221 degree 228
pos[678] = 1263 degree 228
pos[677] = 1195 degree 228
pos[676] = 644 degree 227
pos[675] = 1339 degree 228
pos[674] = 866 degree 227
pos[673] = 540 degree 227
pos[672] = 668 degree 227
pos[671] = 638 degree 227
pos[670] = 1103 degree 227
pos[669] = 387 degree 226
pos[668] = 706 degree 226
pos[667] = 771 degree 226
pos[666] = 719 degree 226
pos[665] = 640 degree 225
pos[664] = 180 degree 225
pos[663] = 760 degree 226
pos[662] = 756 degree 226
pos[661] = 1407 degree 226
pos[660] = 103 degree 225
pos[659] = 37 degree 224
pos[658] = 1413 degree 225
pos[657] = 1225 degree 225
pos[656] = 741 degree 225
pos[655] = 1230 degree 225
pos[654] = 628 degree 225
pos[653] = 420 degree 224
pos[652] = 400 degree 224
pos[651] = 1303 degree 224
pos[650] = 1491 degree 224
pos[649] = 442 degree 223
pos[648] = 1374 degree 224
pos[647] = 929 degree 223
pos[646] = 392 degree 222
pos[645] = 54 degree 222
pos[644] = 300 degree 222
pos[643] = 409 degree 222
pos[642] = 1196 degree 222
pos[641] = 1137 degree 222
pos[640] = 1167 degree 222
pos[639] = 1072 degree 221
pos[638] = 11 degree 220
pos[637] = 821 degree 221
pos[636] = 483 degree 221
pos[635] = 49 degree 220
pos[634] = 320 degree 220
pos[633] = 1314 degree 221
pos[632] = 650 degree 220
pos[631] = 700 degree 220
pos[630] = 221 degree 219
pos[629] = 1359 degree 219
pos[628] = 1274 degree 219
pos[627] = 1059 degree 219
pos[626] = 1245 degree 219
pos[625] = 237 degree 219
pos[624] = 1371 degree 219
pos[623] = 1180 degree 219
pos[622] = 735 degree 218
pos[621] = 210 degree 218
pos[620] = 100 degree 217
pos[619] = 1457 degree 218
pos[618] = 1157 degree 217
pos[617] = 339 degree 217
pos[616] = 790 degree 217
pos[615] = 1031 degree 217
pos[614] = 139 degree 216
pos[613] = 1067 degree 217
pos[612] = 879 degree 216
pos[611] = 569 degree 215
pos[610] = 714 degree 216
pos[609] = 870 degree 216
pos[608] = 588 degree 215
pos[607] = 537 degree 214
pos[606] = 407 degree 214
pos[605] = 1437 degree 215
pos[604] = 842 degree 214
pos[603] = 490 degree 214
pos[602] = 961 degree 214
pos[601] = 531 degree 213
pos[600] = 519 degree 214
pos[599] = 1347 degree 214
pos[598] = 952 degree 213
pos[597] = 19 degree 213
pos[596] = 527 degree 213
pos[595] = 160 degree 212
pos[594] = 207 degree 213
pos[593] = 1110 degree 213
pos[592] = 1290 degree 213
pos[591] = 1222 degree 212
pos[590] = 772 degree 212
pos[589] = 257 degree 212
pos[588] = 1313 degree 212
pos[587] = 1202 degree 211
pos[586] = 68 degree 210
pos[585] = 1 degree 211
pos[584] = 789 degree 211
pos[583] = 1084 degree 211
pos[582] = 720 degree 210
pos[581] = 1421 degree 211
pos[580] = 848 degree 210
pos[579] = 340 degree 209
pos[578] = 191 degree 209
pos[577] = 250 degree 209
pos[576] = 1478 degree 209
pos[575] = 779 degree 208
pos[574] = 88 degree 207
pos[573] = 1494 degree 208
pos[572] = 1204 degree 207
pos[571] = 500 degree 207
pos[570] = 144 degree 206
pos[569] = 1183 degree 207
pos[568] = 1052 degree 207
pos[567] = 66 degree 206
pos[566] = 999 degree 207
pos[565] = 342 degree 206
pos[564] = 721 degree 206
pos[563] = 85 degree 206
pos[562] = 975 degree 206
pos[561] = 1149 degree 206
pos[560] = 203 degree 205
pos[559] = 1124 degree 205
pos[558] = 1130 degree 205
pos[557] = 732 degree 204
pos[556] = 1063 degree 204
pos[555] = 1466 degree 204
pos[554] = 564 degree 203
pos[553] = 885 degree 204
pos[552] = 512 degree 203
pos[551] = 855 degree 203
pos[550] = 1286 degree 204
pos[549] = 1495 degree 204
pos[548] = 587 degree 203
pos[547] = 278 degree 202
pos[546] = 249 degree 202
pos[545] = 1382 degree 202
pos[544] = 202 degree 201
pos[543] = 1427 degree 202
pos[542] = 1338 degree 202
pos[541] = 1335 degree 201
pos[540] = 1163 degree 200
pos[539] = 951 degree 200
pos[538] = 972 degree 200
pos[537] = 751 degree 199
pos[536] = 1153 degree 199
pos[535] = 1340 degree 199
pos[534] = 965 degree 199
pos[533] = 641 degree 198
pos[532] = 910 degree 198
pos[531] = 247 degree 197
pos[530] = 589 degree 198
pos[529] = 294 degree 197
pos[528] = 511 degree 197
pos[527] = 805 degree 197
pos[526] = 1039 degree 197
pos[525] = 758 degree 196
pos[524] = 143 degree 196
pos[523] = 759 degree 196
pos[522] = 903 degree 196
pos[521] = 747 degree 196
pos[520] = 1105 degree 196
pos[519] = 674 degree 195
pos[518] = 312 degree 194
pos[517] = 1132 degree 194
pos[516] = 1092 degree 195
pos[515] = 533 degree 195
pos[514] = 222 degree 194
pos[513] = 1113 degree 195
pos[512] = 1060 degree 195
pos[511] = 963 degree 194
pos[510] = 850 degree 194
pos[509] = 716 degree 193
pos[508] = 947 degree 194
pos[507] = 1328 degree 194
pos[506] = 770 degree 193
pos[505] = 1380 degree 193
pos[504] = 486 degree 192
pos[503] = 1302 degree 193
pos[502] = 1261 degree 192
pos[501] = 845 degree 192
pos[500] = 117 degree 191
pos[499] = 736 degree 191
pos[498] = 494 degree 190
pos[497] = 1277 degree 191
pos[496] = 525 degree 190
pos[495] = 1376 degree 190
pos[494] = 115 degree 189
pos[493] = 481 degree 189
pos[492] = 1306 degree 189
pos[491] = 129 degree 188
pos[490] = 55 degree 188
pos[489] = 1016 degree 188
pos[488] = 254 degree 187
pos[487] = 346 degree 187
pos[486] = 822 degree 187
pos[485] = 1271 degree 188
pos[484] = 448 degree 187
pos[483] = 109 degree 187
pos[482] = 1158 degree 187
pos[481] = 1151 degree 186
pos[480] = 681 degree 186
pos[479] = 1169 degree 186
pos[478] = 306 degree 185
pos[477] = 810 degree 185
pos[476] = 1346 degree 185
pos[475] = 350 degree 184
pos[474] = 672 degree 184
pos[473] = 1155 degree 184
pos[472] = 896 degree 184
pos[471] = 369 degree 184
pos[470] = 1143 degree 184
pos[469] = 334 degree 183
pos[468] = 592 degree 183
pos[467] = 200 degree 182
pos[466] = 29 degree 181
pos[465] = 930 degree 181
pos[464] = 806 degree 181
pos[463] = 1430 degree 181
pos[462] = 466 degree 180
pos[461] = 241 degree 180
pos[460] = 937 degree 180
pos[459] = 154 degree 179
pos[458] = 38 degree 179
pos[457] = 1476 degree 179
pos[456] = 341 degree 178
pos[455] = 284 degree 178
pos[454] = 819 degree 178
pos[453] = 575 degree 177
pos[452] = 524 degree 177
pos[451] = 1472 degree 177
pos[450] = 1490 degree 177
pos[449] = 1479 degree 177
pos[448] = 1123 degree 177
pos[447] = 1234 degree 177
pos[446] = 1133 degree 176
pos[445] = 225 degree 175
pos[444] = 372 degree 175
pos[443] = 590 degree 175
pos[442] = 882 degree 175
pos[441] = 379 degree 174
pos[440] = 108 degree 174
pos[439] = 1337 degree 174
pos[438] = 445 degree 173
pos[437] = 804 degree 173
pos[436] = 1408 degree 173
pos[435] = 1232 degree 173
pos[434] = 292 degree 172
pos[433] = 477 degree 172
pos[432] = 258 degree 171
pos[431] = 1021 degree 172
pos[430] = 914 degree 171
pos[429] = 542 degree 171
pos[428] = 1474 degree 172
pos[427] = 839 degree 171
pos[426] = 1433 degree 171
pos[425] = 518 degree 170
pos[424] = 1423 degree 170
pos[423] = 858 degree 170
pos[422] = 480 degree 169
pos[421] = 1223 degree 169
pos[420] = 574 degree 168
pos[419] = 740 degree 168
pos[418] = 462 degree 167
pos[417] = 1010 degree 167
pos[416] = 773 degree 167
pos[415] = 808 degree 167
pos[414] = 498 degree 167
pos[413] = 472 degree 166
pos[412] = 1184 degree 166
pos[411] = 976 degree 165
pos[410] = 1332 degree 165
pos[409] = 224 degree 165
pos[408] = 1395 degree 165
pos[407] = 173 degree 164
pos[406] = 1409 degree 165
pos[405] = 684 degree 164
pos[404] = 617 degree 163
pos[403] = 801 degree 163
pos[402] = 1342 degree 163
pos[401] = 1390 degree 163
pos[400] = 1273 degree 163
pos[399] = 1353 degree 163
pos[398] = 964 degree 162
pos[397] = 1456 degree 162
pos[396] = 992 degree 161
pos[395] = 892 degree 161
pos[394] = 987 degree 161
pos[393] = 288 degree 160
pos[392] = 1064 degree 160
pos[391] = 141 degree 160
pos[390] = 761 degree 160
pos[389] = 434 degree 159
pos[388] = 1037 degree 159
pos[387] = 680 degree 158
pos[386] = 1175 degree 158
pos[385] = 153 degree 158
pos[384] = 1272 degree 158
pos[383] = 401 degree 157
pos[382] = 1366 degree 158
pos[381] = 1341 degree 157
pos[380] = 584 degree 157
pos[379] = 390 degree 156
pos[378] = 287 degree 156
pos[377] = 138 degree 155
pos[376] = 1241 degree 155
pos[375] = 1492 degree 155
pos[374] = 128 degree 154
pos[373] = 774 degree 154
pos[372] = 863 degree 154
pos[371] = 802 degree 153
pos[370] = 396 degree 153
pos[369] = 77 degree 152
pos[368] = 692 degree 152
pos[367] = 597 degree 151
pos[366] = 1350 degree 151
pos[365] = 897 degree 151
pos[364] = 1477 degree 151
pos[363] = 471 degree 150
pos[362] = 1007 degree 150
pos[361] = 89 degree 149
pos[360] = 925 degree 150
pos[359] = 83 degree 149
pos[358] = 980 degree 149
pos[357] = 1293 degree 149
pos[356] = 5 degree 148
pos[355] = 748 degree 148
pos[354] = 1177 degree 149
pos[353] = 1138 degree 148
pos[352] = 887 degree 148
pos[351] = 722 degree 147
pos[350] = 1145 degree 147
pos[349] = 876 degree 147
pos[348] = 509 degree 146
pos[347] = 388 degree 146
pos[346] = 330 degree 145
pos[345] = 326 degree 145
pos[344] = 1352 degree 145
pos[343] = 1461 degree 145
pos[342] = 935 degree 144
pos[341] = 776 degree 144
pos[340] = 382 degree 143
pos[339] = 1197 degree 143
pos[338] = 1034 degree 142
pos[337] = 1322 degree 142
pos[336] = 646 degree 141
pos[335] = 889 degree 141
pos[334] = 582 degree 140
pos[333] = 395 degree 140
pos[332] = 967 degree 141
pos[331] = 167 degree 140
pos[330] = 579 degree 140
pos[329] = 415 degree 139
pos[328] = 331 degree 139
pos[327] = 619 degree 139
pos[326] = 240 degree 138
pos[325] = 113 degree 138
pos[324] = 1493 degree 138
pos[323] = 1289 degree 137
pos[322] = 945 degree 136
pos[321] = 291 degree 135
pos[320] = 1193 degree 136
pos[319] = 370 degree 135
pos[318] = 50 degree 134
pos[317] = 1370 degree 135
pos[316] = 970 degree 135
pos[315] = 1487 degree 135
pos[314] = 919 degree 134
pos[313] = 817 degree 134
pos[312] = 355 degree 133
pos[311] = 583 degree 133
pos[310] = 724 degree 133
pos[309] = 632 degree 132
pos[308] = 1296 degree 132
pos[307] = 1329 degree 133
pos[306] = 1194 degree 133
pos[305] = 544 degree 132
pos[304] = 104 degree 131
pos[303] = 1088 degree 131
pos[302] = 786 degree 130
pos[301] = 1375 degree 130
pos[300] = 682 degree 130
pos[299] = 227 degree 129
pos[298] = 449 degree 129
pos[297] = 94 degree 128
pos[296] = 905 degree 128
pos[295] = 174 degree 127
pos[294] = 1499 degree 128
pos[293] = 1055 degree 127
pos[292] = 1089 degree 127
pos[291] = 437 degree 126
pos[290] = 1389 degree 126
pos[289] = 1013 degree 125
pos[288] = 824 degree 125
pos[287] = 1393 degree 125
pos[286] = 1104 degree 125
pos[285] = 631 degree 124
pos[284] = 1246 degree 124
pos[283] = 1300 degree 124
pos[282] = 698 degree 123
pos[281] = 1004 degree 123
pos[280] = 551 degree 123
pos[279] = 1071 degree 123
pos[278] = 901 degree 122
pos[277] = 545 degree 121
pos[276] = 201 degree 121
pos[275] = 955 degree 121
pos[274] = 1298 degree 121
pos[273] = 371 degree 120
pos[272] = 1148 degree 120
pos[271] = 121 degree 119
pos[270] = 1309 degree 119
pos[269] = 1008 degree 118
pos[268] = 539 degree 118
pos[267] = 709 degree 118
pos[266] = 476 degree 118
pos[265] = 438 degree 117
pos[264] = 676 degree 117
pos[263] = 529 degree 117
pos[262] = 818 degree 117
pos[261] = 625 degree 116
pos[260] = 1028 degree 116
pos[259] = 245 degree 115
pos[258] = 351 degree 115
pos[257] = 1156 degree 115
pos[256] = 308 degree 114
pos[255] = 1069 degree 114
pos[254] = 921 degree 114
pos[253] = 1488 degree 114
pos[252] = 1318 degree 113
pos[251] = 0 degree 112
pos[250] = 1384 degree 112
pos[249] = 1068 degree 112
pos[248] = 586 degree 111
pos[247] = 1398 degree 111
pos[246] = 899 degree 111
pos[245] = 697 degree 110
pos[244] = 973 degree 110
pos[243] = 835 degree 110
pos[242] = 764 degree 109
pos[241] = 345 degree 108
pos[240] = 704 degree 108
pos[239] = 915 degree 108
pos[238] = 766 degree 107
pos[237] = 916 degree 107
pos[236] = 36 degree 106
pos[235] = 134 degree 106
pos[234] = 614 degree 106
pos[233] = 852 degree 106
pos[232] = 427 degree 105
pos[231] = 1291 degree 106
pos[230] = 1106 degree 105
pos[229] = 267 degree 104
pos[228] = 1051 degree 104
pos[227] = 962 degree 103
pos[226] = 316 degree 102
pos[225] = 944 degree 102
pos[224] = 731 degree 102
pos[223] = 1452 degree 102
pos[222] = 718 degree 101
pos[221] = 1475 degree 101
pos[220] = 1388 degree 100
pos[219] = 982 degree 99
pos[218] = 1045 degree 99
pos[217] = 683 degree 99
pos[216] = 1165 degree 99
pos[215] = 927 degree 98
pos[214] = 950 degree 98
pos[213] = 414 degree 97
pos[212] = 647 degree 97
pos[211] = 86 degree 96
pos[210] = 1304 degree 97
pos[209] = 565 degree 96
pos[208] = 313 degree 95
pos[207] = 1041 degree 95
pos[206] = 99 degree 94
pos[205] = 906 degree 95
pos[204] = 891 degree 94
pos[203] = 836 degree 94
pos[202] = 1432 degree 94
pos[201] = 276 degree 93
pos[200] = 1026 degree 93
pos[199] = 612 degree 92
pos[198] = 1260 degree 92
pos[197] = 688 degree 91
pos[196] = 81 degree 90
pos[195] = 1048 degree 91
pos[194] = 1046 degree 91
pos[193] = 958 degree 90
pos[192] = 244 degree 90
pos[191] = 1190 degree 90
pos[190] = 25 degree 89
pos[189] = 12 degree 88
pos[188] = 1482 degree 88
pos[187] = 1343 degree 88
pos[186] = 536 degree 88
pos[185] = 507 degree 87
pos[184] = 1056 degree 87
pos[183] = 1435 degree 87
pos[182] = 255 degree 86
pos[181] = 1033 degree 86
pos[180] = 208 degree 85
pos[179] = 752 degree 85
pos[178] = 397 degree 84
pos[177] = 132 degree 84
pos[176] = 705 degree 84
pos[175] = 289 degree 83
pos[174] = 1199 degree 83
pos[173] = 781 degree 82
pos[172] = 651 degree 81
pos[171] = 1108 degree 82
pos[170] = 977 degree 81
pos[169] = 1467 degree 81
pos[168] = 1020 degree 80
pos[167] = 474 degree 79
pos[166] = 1465 degree 80
pos[165] = 1402 degree 80
pos[164] = 560 degree 79
pos[163] = 974 degree 79
pos[162] = 92 degree 78
pos[161] = 1170 degree 78
pos[160] = 220 degree 77
pos[159] = 133 degree 76
pos[158] = 928 degree 76
pos[157] = 558 degree 75
pos[156] = 934 degree 75
pos[155] = 561 degree 74
pos[154] = 303 degree 74
pos[153] = 1171 degree 74
pos[152] = 214 degree 73
pos[151] = 1066 degree 73
pos[150] = 159 degree 72
pos[149] = 787 degree 72
pos[148] = 1243 degree 72
pos[147] = 657 degree 71
pos[146] = 1470 degree 71
pos[145] = 114 degree 70
pos[144] = 1448 degree 70
pos[143] = 311 degree 70
pos[142] = 877 degree 70
pos[141] = 111 degree 69
pos[140] = 548 degree 69
pos[139] = 391 degree 68
pos[138] = 768 degree 68
pos[137] = 1017 degree 68
pos[136] = 1061 degree 68
pos[135] = 124 degree 67
pos[134] = 1414 degree 67
pos[133] = 989 degree 66
pos[132] = 41 degree 65
pos[131] = 513 degree 65
pos[130] = 178 degree 64
pos[129] = 1412 degree 65
pos[128] = 336 degree 64
pos[127] = 52 degree 63
pos[126] = 1483 degree 63
pos[125] = 1397 degree 63
pos[124] = 1162 degree 62
pos[123] = 1014 degree 62
pos[122] = 669 degree 61
pos[121] = 598 degree 61
pos[120] = 419 degree 61
pos[119] = 231 degree 60
pos[118] = 711 degree 60
pos[117] = 365 degree 59
pos[116] = 349 degree 58
pos[115] = 1410 degree 59
pos[114] = 155 degree 58
pos[113] = 1144 degree 58
pos[112] = 1019 degree 57
pos[111] = 949 degree 56
pos[110] = 233 degree 56
pos[109] = 213 degree 55
pos[108] = 1001 degree 55
pos[107] = 1160 degree 55
pos[106] = 273 degree 54
pos[105] = 985 degree 54
pos[104] = 110 degree 53
pos[103] = 1266 degree 53
pos[102] = 621 degree 52
pos[101] = 754 degree 52
pos[100] = 44 degree 51
pos[99] = 1208 degree 51
pos[98] = 516 degree 51
pos[97] = 261 degree 50
pos[96] = 30 degree 49
pos[95] = 938 degree 50
pos[94] = 135 degree 49
pos[93] = 10 degree 49
pos[92] = 1248 degree 49
pos[91] = 239 degree 48
pos[90] = 1385 degree 48
pos[89] = 1005 degree 47
pos[88] = 1115 degree 47
pos[87] = 1119 degree 47
pos[86] = 543 degree 46
pos[85] = 1459 degree 46
pos[84] = 1458 degree 45
pos[83] = 1227 degree 44
pos[82] = 1109 degree 44
pos[81] = 844 degree 43
pos[80] = 520 degree 43
pos[79] = 260 degree 42
pos[78] = 1484 degree 42
pos[77] = 422 degree 41
pos[76] = 4 degree 40
pos[75] = 823 degree 40
pos[74] = 136 degree 39
pos[73] = 296 degree 39
pos[72] = 485 degree 40
pos[71] = 402 degree 39
pos[70] = 775 degree 39
pos[69] = 939 degree 39
pos[68] = 908 degree 38
pos[67] = 232 degree 37
pos[66] = 862 degree 37
pos[65] = 1120 degree 37
pos[64] = 745 degree 36
pos[63] = 563 degree 35
pos[62] = 102 degree 35
pos[61] = 1264 degree 35
pos[60] = 1086 degree 34
pos[59] = 428 degree 34
pos[58] = 385 degree 34
pos[57] = 275 degree 33
pos[56] = 1320 degree 33
pos[55] = 576 degree 32
pos[54] = 554 degree 31
pos[53] = 803 degree 31
pos[52] = 959 degree 31
pos[51] = 571 degree 30
pos[50] = 216 degree 29
pos[49] = 1100 degree 29
pos[48] = 528 degree 28
pos[47] = 737 degree 28
pos[46] = 496 degree 27
pos[45] = 75 degree 26
pos[44] = 1172 degree 27
pos[43] = 837 degree 26
pos[42] = 1415 degree 26
pos[41] = 767 degree 25
pos[40] = 1404 degree 25
pos[39] = 1038 degree 24
pos[38] = 148 degree 23
pos[37] = 699 degree 23
pos[36] = 1288 degree 23
pos[35] = 432 degree 22
pos[34] = 1134 degree 22
pos[33] = 443 degree 21
pos[32] = 42 degree 20
pos[31] = 439 degree 20
pos[30] = 357 degree 19
pos[29] = 1030 degree 19
pos[28] = 1418 degree 19
pos[27] = 825 degree 18
pos[26] = 489 degree 17
pos[25] = 1315 degree 17
pos[24] = 270 degree 16
pos[23] = 841 degree 16
pos[22] = 263 degree 15
pos[21] = 185 degree 14
pos[20] = 1463 degree 14
pos[19] = 613 degree 13
pos[18] = 690 degree 14
pos[17] = 670 degree 13
pos[16] = 656 degree 12
pos[15] = 172 degree 11
pos[14] = 605 degree 11
pos[13] = 433 degree 10
pos[12] = 71 degree 9
pos[11] = 1036 degree 9
pos[10] = 130 degree 8
pos[9] = 888 degree 8
pos[8] = 1166 degree 8
pos[7] = 1006 degree 7
pos[6] = 484 degree 6
pos[5] = 446 degree 5
pos[4] = 165 degree 4
pos[3] = 164 degree 3
pos[2] = 72 degree 2
pos[1] = 67 degree 1
pos[0] = 60 degree 0
start search
improving solution size 11
improving solution size 12
improving solution size 13
improving solution size 14
TIMEOUT
best clique: 68 490 1419 1145 115 1436 1297 317 242 202 849 1411 698 73 
record          =          14
subp            =  2044647605
time            =  3600.00173
