timeout 3600 s
Graph with 200 vertices and 17910 edges density 0.900000
t = 35820, Enbr = 17910
pos[199] = 187 degree 169
pos[198] = 28 degree 168
pos[197] = 71 degree 168
pos[196] = 2 degree 167
pos[195] = 150 degree 167
pos[194] = 103 degree 166
pos[193] = 60 degree 166
pos[192] = 41 degree 165
pos[191] = 185 degree 165
pos[190] = 182 degree 164
pos[189] = 159 degree 163
pos[188] = 85 degree 162
pos[187] = 76 degree 162
pos[186] = 61 degree 161
pos[185] = 43 degree 160
pos[184] = 27 degree 159
pos[183] = 190 degree 159
pos[182] = 155 degree 158
pos[181] = 137 degree 157
pos[180] = 131 degree 156
pos[179] = 157 degree 156
pos[178] = 117 degree 155
pos[177] = 84 degree 154
pos[176] = 64 degree 153
pos[175] = 49 degree 152
pos[174] = 33 degree 151
pos[173] = 21 degree 150
pos[172] = 197 degree 150
pos[171] = 196 degree 149
pos[170] = 173 degree 148
pos[169] = 46 degree 147
pos[168] = 191 degree 147
pos[167] = 180 degree 146
pos[166] = 166 degree 145
pos[165] = 161 degree 144
pos[164] = 77 degree 143
pos[163] = 74 degree 142
pos[162] = 73 degree 141
pos[161] = 54 degree 140
pos[160] = 52 degree 139
pos[159] = 18 degree 138
pos[158] = 189 degree 138
pos[157] = 181 degree 137
pos[156] = 154 degree 136
pos[155] = 148 degree 135
pos[154] = 122 degree 134
pos[153] = 110 degree 133
pos[152] = 102 degree 132
pos[151] = 8 degree 131
pos[150] = 163 degree 131
pos[149] = 118 degree 130
pos[148] = 50 degree 129
pos[147] = 179 degree 129
pos[146] = 171 degree 128
pos[145] = 160 degree 127
pos[144] = 143 degree 126
pos[143] = 141 degree 125
pos[142] = 92 degree 124
pos[141] = 72 degree 123
pos[140] = 30 degree 122
pos[139] = 24 degree 121
pos[138] = 12 degree 120
pos[137] = 0 degree 119
pos[136] = 146 degree 119
pos[135] = 139 degree 118
pos[134] = 56 degree 117
pos[133] = 183 degree 117
pos[132] = 168 degree 116
pos[131] = 151 degree 115
pos[130] = 140 degree 114
pos[129] = 134 degree 113
pos[128] = 100 degree 112
pos[127] = 83 degree 111
pos[126] = 186 degree 111
pos[125] = 176 degree 110
pos[124] = 116 degree 109
pos[123] = 66 degree 108
pos[122] = 62 degree 107
pos[121] = 188 degree 107
pos[120] = 195 degree 107
pos[119] = 164 degree 106
pos[118] = 130 degree 105
pos[117] = 128 degree 104
pos[116] = 125 degree 103
pos[115] = 104 degree 102
pos[114] = 47 degree 101
pos[113] = 44 degree 100
pos[112] = 40 degree 99
pos[111] = 38 degree 98
pos[110] = 170 degree 98
pos[109] = 153 degree 97
pos[108] = 14 degree 96
pos[107] = 199 degree 96
pos[106] = 198 degree 95
pos[105] = 167 degree 94
pos[104] = 81 degree 93
pos[103] = 177 degree 93
pos[102] = 145 degree 92
pos[101] = 136 degree 92
pos[100] = 194 degree 98
pos[99] = 193 degree 97
pos[98] = 184 degree 96
pos[97] = 175 degree 95
pos[96] = 174 degree 94
pos[95] = 169 degree 93
pos[94] = 165 degree 92
pos[93] = 162 degree 91
pos[92] = 158 degree 90
pos[91] = 156 degree 89
pos[90] = 147 degree 88
pos[89] = 144 degree 87
pos[88] = 142 degree 86
pos[87] = 138 degree 85
pos[86] = 135 degree 84
pos[85] = 133 degree 83
pos[84] = 132 degree 82
pos[83] = 126 degree 81
pos[82] = 124 degree 80
pos[81] = 123 degree 79
pos[80] = 121 degree 78
pos[79] = 120 degree 77
pos[78] = 119 degree 76
pos[77] = 114 degree 75
pos[76] = 109 degree 74
pos[75] = 107 degree 73
pos[74] = 98 degree 72
pos[73] = 96 degree 71
pos[72] = 95 degree 70
pos[71] = 82 degree 69
pos[70] = 45 degree 68
pos[69] = 192 degree 68
pos[68] = 178 degree 67
pos[67] = 172 degree 66
pos[66] = 152 degree 65
pos[65] = 149 degree 64
pos[64] = 127 degree 63
pos[63] = 115 degree 62
pos[62] = 113 degree 61
pos[61] = 111 degree 60
pos[60] = 108 degree 59
pos[59] = 105 degree 58
pos[58] = 101 degree 57
pos[57] = 97 degree 56
pos[56] = 94 degree 55
pos[55] = 93 degree 54
pos[54] = 89 degree 53
pos[53] = 88 degree 52
pos[52] = 87 degree 51
pos[51] = 80 degree 50
pos[50] = 78 degree 49
pos[49] = 75 degree 48
pos[48] = 70 degree 47
pos[47] = 69 degree 46
pos[46] = 68 degree 45
pos[45] = 65 degree 44
pos[44] = 58 degree 43
pos[43] = 57 degree 42
pos[42] = 55 degree 41
pos[41] = 42 degree 40
pos[40] = 34 degree 39
pos[39] = 31 degree 38
pos[38] = 29 degree 37
pos[37] = 23 degree 36
pos[36] = 20 degree 35
pos[35] = 16 degree 34
pos[34] = 129 degree 34
pos[33] = 112 degree 33
pos[32] = 106 degree 32
pos[31] = 99 degree 31
pos[30] = 91 degree 30
pos[29] = 90 degree 29
pos[28] = 86 degree 28
pos[27] = 79 degree 27
pos[26] = 67 degree 26
pos[25] = 63 degree 25
pos[24] = 59 degree 24
pos[23] = 53 degree 23
pos[22] = 51 degree 22
pos[21] = 48 degree 21
pos[20] = 39 degree 20
pos[19] = 37 degree 19
pos[18] = 36 degree 18
pos[17] = 35 degree 17
pos[16] = 32 degree 16
pos[15] = 26 degree 15
pos[14] = 25 degree 14
pos[13] = 22 degree 13
pos[12] = 19 degree 12
pos[11] = 17 degree 11
pos[10] = 15 degree 10
pos[9] = 13 degree 9
pos[8] = 11 degree 8
pos[7] = 10 degree 7
pos[6] = 9 degree 6
pos[5] = 7 degree 5
pos[4] = 6 degree 4
pos[3] = 5 degree 3
pos[2] = 4 degree 2
pos[1] = 3 degree 1
pos[0] = 1 degree 0
start search
improving solution size 70
TIMEOUT
best clique: 2 4 5 6 7 8 10 11 12 14 16 18 20 23 26 27 33 36 37 38 40 49 52 54 60 64 68 80 87 91 92 100 107 113 130 17 21 24 30 32 35 43 56 58 59 66 69 70 71 76 79 81 88 89 90 94 95 98 102 106 109 112 114 116 128 150 153 173 179 193 
record          =          70
subp            =  3492570081
time            =  3600.00005
