timeout 3600 s
Graph with 200 vertices and 13930 edges density 0.700000
t = 27860, Enbr = 13930
pos[199] = 143 degree 103
pos[198] = 73 degree 102
pos[197] = 165 degree 104
pos[196] = 100 degree 104
pos[195] = 135 degree 104
pos[194] = 101 degree 103
pos[193] = 37 degree 102
pos[192] = 185 degree 102
pos[191] = 15 degree 101
pos[190] = 194 degree 101
pos[189] = 136 degree 100
pos[188] = 94 degree 99
pos[187] = 64 degree 98
pos[186] = 44 degree 97
pos[185] = 181 degree 97
pos[184] = 61 degree 96
pos[183] = 6 degree 95
pos[182] = 151 degree 95
pos[181] = 32 degree 94
pos[180] = 189 degree 94
pos[179] = 167 degree 93
pos[178] = 142 degree 92
pos[177] = 157 degree 92
pos[176] = 40 degree 91
pos[175] = 27 degree 90
pos[174] = 24 degree 89
pos[173] = 124 degree 90
pos[172] = 105 degree 89
pos[171] = 97 degree 88
pos[170] = 49 degree 87
pos[169] = 77 degree 87
pos[168] = 198 degree 87
pos[167] = 178 degree 86
pos[166] = 104 degree 85
pos[165] = 85 degree 84
pos[164] = 21 degree 83
pos[163] = 166 degree 83
pos[162] = 172 degree 83
pos[161] = 116 degree 82
pos[160] = 92 degree 81
pos[159] = 89 degree 80
pos[158] = 112 degree 81
pos[157] = 43 degree 80
pos[156] = 36 degree 80
pos[155] = 25 degree 79
pos[154] = 4 degree 78
pos[153] = 18 degree 78
pos[152] = 90 degree 78
pos[151] = 182 degree 78
pos[150] = 141 degree 77
pos[149] = 125 degree 76
pos[148] = 175 degree 76
pos[147] = 81 degree 75
pos[146] = 106 degree 75
pos[145] = 144 degree 75
pos[144] = 191 degree 75
pos[143] = 174 degree 74
pos[142] = 58 degree 73
pos[141] = 68 degree 73
pos[140] = 52 degree 72
pos[139] = 177 degree 72
pos[138] = 13 degree 71
pos[137] = 176 degree 72
pos[136] = 63 degree 72
pos[135] = 147 degree 72
pos[134] = 126 degree 76
pos[133] = 192 degree 122
pos[132] = 171 degree 121
pos[131] = 199 degree 121
pos[130] = 197 degree 120
pos[129] = 196 degree 119
pos[128] = 195 degree 118
pos[127] = 193 degree 117
pos[126] = 190 degree 116
pos[125] = 188 degree 115
pos[124] = 187 degree 114
pos[123] = 186 degree 113
pos[122] = 183 degree 112
pos[121] = 180 degree 111
pos[120] = 169 degree 110
pos[119] = 184 degree 110
pos[118] = 179 degree 109
pos[117] = 170 degree 108
pos[116] = 168 degree 107
pos[115] = 164 degree 106
pos[114] = 163 degree 105
pos[113] = 162 degree 104
pos[112] = 160 degree 103
pos[111] = 153 degree 102
pos[110] = 140 degree 101
pos[109] = 139 degree 100
pos[108] = 128 degree 99
pos[107] = 173 degree 99
pos[106] = 161 degree 98
pos[105] = 156 degree 97
pos[104] = 155 degree 96
pos[103] = 148 degree 95
pos[102] = 146 degree 94
pos[101] = 145 degree 93
pos[100] = 137 degree 92
pos[99] = 133 degree 91
pos[98] = 119 degree 90
pos[97] = 117 degree 89
pos[96] = 115 degree 88
pos[95] = 159 degree 88
pos[94] = 158 degree 87
pos[93] = 154 degree 86
pos[92] = 134 degree 85
pos[91] = 130 degree 84
pos[90] = 129 degree 83
pos[89] = 127 degree 82
pos[88] = 123 degree 81
pos[87] = 114 degree 80
pos[86] = 111 degree 79
pos[85] = 110 degree 78
pos[84] = 102 degree 77
pos[83] = 152 degree 77
pos[82] = 150 degree 76
pos[81] = 149 degree 75
pos[80] = 132 degree 74
pos[79] = 120 degree 73
pos[78] = 108 degree 72
pos[77] = 107 degree 71
pos[76] = 99 degree 70
pos[75] = 98 degree 69
pos[74] = 91 degree 68
pos[73] = 72 degree 67
pos[72] = 66 degree 66
pos[71] = 138 degree 66
pos[70] = 131 degree 65
pos[69] = 118 degree 64
pos[68] = 113 degree 63
pos[67] = 96 degree 62
pos[66] = 93 degree 61
pos[65] = 84 degree 60
pos[64] = 83 degree 59
pos[63] = 82 degree 58
pos[62] = 79 degree 57
pos[61] = 70 degree 56
pos[60] = 59 degree 55
pos[59] = 122 degree 55
pos[58] = 121 degree 54
pos[57] = 103 degree 53
pos[56] = 88 degree 52
pos[55] = 86 degree 51
pos[54] = 80 degree 50
pos[53] = 78 degree 49
pos[52] = 62 degree 48
pos[51] = 56 degree 47
pos[50] = 55 degree 46
pos[49] = 41 degree 45
pos[48] = 35 degree 44
pos[47] = 109 degree 44
pos[46] = 76 degree 43
pos[45] = 75 degree 42
pos[44] = 71 degree 41
pos[43] = 67 degree 40
pos[42] = 57 degree 39
pos[41] = 48 degree 38
pos[40] = 42 degree 37
pos[39] = 38 degree 36
pos[38] = 34 degree 35
pos[37] = 29 degree 34
pos[36] = 28 degree 33
pos[35] = 95 degree 33
pos[34] = 74 degree 32
pos[33] = 65 degree 31
pos[32] = 54 degree 30
pos[31] = 51 degree 29
pos[30] = 50 degree 28
pos[29] = 47 degree 27
pos[28] = 33 degree 26
pos[27] = 30 degree 25
pos[26] = 26 degree 24
pos[25] = 23 degree 23
pos[24] = 20 degree 22
pos[23] = 87 degree 22
pos[22] = 69 degree 21
pos[21] = 60 degree 20
pos[20] = 53 degree 19
pos[19] = 31 degree 18
pos[18] = 22 degree 17
pos[17] = 16 degree 16
pos[16] = 14 degree 15
pos[15] = 11 degree 14
pos[14] = 10 degree 13
pos[13] = 9 degree 12
pos[12] = 8 degree 11
pos[11] = 46 degree 11
pos[10] = 45 degree 10
pos[9] = 39 degree 9
pos[8] = 19 degree 8
pos[7] = 17 degree 7
pos[6] = 12 degree 6
pos[5] = 7 degree 5
pos[4] = 5 degree 4
pos[3] = 3 degree 3
pos[2] = 2 degree 2
pos[1] = 1 degree 1
pos[0] = 0 degree 0
start search
improving solution size 24
TIMEOUT
best clique: 1 2 3 4 6 8 13 18 20 40 46 47 9 10 11 12 15 17 23 32 54 61 70 88 
record          =          24
subp            =  12477134670
time            =  3600.00017
