timeout 3600 s
Graph with 400 vertices and 55860 edges density 0.700000
t = 111720, Enbr = 55860
pos[399] = 374 degree 257
pos[398] = 188 degree 258
pos[397] = 339 degree 259
pos[396] = 219 degree 258
pos[395] = 319 degree 258
pos[394] = 72 degree 257
pos[393] = 229 degree 257
pos[392] = 115 degree 256
pos[391] = 398 degree 256
pos[390] = 123 degree 255
pos[389] = 2 degree 255
pos[388] = 223 degree 255
pos[387] = 201 degree 254
pos[386] = 32 degree 253
pos[385] = 7 degree 252
pos[384] = 150 degree 252
pos[383] = 110 degree 251
pos[382] = 360 degree 251
pos[381] = 388 degree 251
pos[380] = 260 degree 250
pos[379] = 224 degree 249
pos[378] = 148 degree 248
pos[377] = 311 degree 248
pos[376] = 259 degree 247
pos[375] = 146 degree 246
pos[374] = 383 degree 246
pos[373] = 359 degree 245
pos[372] = 315 degree 244
pos[371] = 204 degree 243
pos[370] = 367 degree 243
pos[369] = 184 degree 242
pos[368] = 171 degree 241
pos[367] = 163 degree 240
pos[366] = 40 degree 239
pos[365] = 13 degree 238
pos[364] = 308 degree 238
pos[363] = 207 degree 237
pos[362] = 89 degree 236
pos[361] = 71 degree 235
pos[360] = 70 degree 234
pos[359] = 371 degree 234
pos[358] = 358 degree 233
pos[357] = 349 degree 232
pos[356] = 273 degree 231
pos[355] = 192 degree 230
pos[354] = 389 degree 230
pos[353] = 357 degree 229
pos[352] = 297 degree 228
pos[351] = 292 degree 227
pos[350] = 313 degree 227
pos[349] = 245 degree 226
pos[348] = 216 degree 225
pos[347] = 8 degree 224
pos[346] = 301 degree 224
pos[345] = 293 degree 223
pos[344] = 147 degree 222
pos[343] = 129 degree 221
pos[342] = 80 degree 220
pos[341] = 58 degree 219
pos[340] = 379 degree 219
pos[339] = 334 degree 218
pos[338] = 312 degree 217
pos[337] = 269 degree 216
pos[336] = 247 degree 215
pos[335] = 185 degree 214
pos[334] = 173 degree 213
pos[333] = 306 degree 213
pos[332] = 291 degree 212
pos[331] = 280 degree 211
pos[330] = 220 degree 210
pos[329] = 198 degree 209
pos[328] = 159 degree 208
pos[327] = 140 degree 207
pos[326] = 104 degree 206
pos[325] = 79 degree 205
pos[324] = 375 degree 205
pos[323] = 362 degree 204
pos[322] = 290 degree 203
pos[321] = 268 degree 202
pos[320] = 179 degree 201
pos[319] = 124 degree 200
pos[318] = 69 degree 199
pos[317] = 396 degree 199
pos[316] = 285 degree 198
pos[315] = 239 degree 197
pos[314] = 74 degree 196
pos[313] = 12 degree 195
pos[312] = 395 degree 195
pos[311] = 197 degree 194
pos[310] = 86 degree 193
pos[309] = 85 degree 192
pos[308] = 37 degree 191
pos[307] = 321 degree 191
pos[306] = 277 degree 190
pos[305] = 194 degree 189
pos[304] = 142 degree 188
pos[303] = 127 degree 187
pos[302] = 112 degree 186
pos[301] = 81 degree 185
pos[300] = 66 degree 184
pos[299] = 399 degree 184
pos[298] = 355 degree 183
pos[297] = 228 degree 182
pos[296] = 217 degree 181
pos[295] = 137 degree 180
pos[294] = 39 degree 179
pos[293] = 36 degree 178
pos[292] = 5 degree 177
pos[291] = 369 degree 177
pos[290] = 307 degree 176
pos[289] = 202 degree 175
pos[288] = 145 degree 174
pos[287] = 125 degree 173
pos[286] = 262 degree 173
pos[285] = 226 degree 172
pos[284] = 136 degree 171
pos[283] = 106 degree 170
pos[282] = 90 degree 169
pos[281] = 73 degree 168
pos[280] = 384 degree 168
pos[279] = 323 degree 167
pos[278] = 88 degree 166
pos[277] = 63 degree 165
pos[276] = 9 degree 164
pos[275] = 393 degree 164
pos[274] = 345 degree 163
pos[273] = 264 degree 162
pos[272] = 165 degree 161
pos[271] = 161 degree 160
pos[270] = 97 degree 159
pos[269] = 94 degree 158
pos[268] = 59 degree 157
pos[267] = 24 degree 156
pos[266] = 342 degree 156
pos[265] = 322 degree 155
pos[264] = 282 degree 154
pos[263] = 258 degree 153
pos[262] = 130 degree 152
pos[261] = 335 degree 152
pos[260] = 168 degree 151
pos[259] = 167 degree 150
pos[258] = 28 degree 149
pos[257] = 20 degree 148
pos[256] = 365 degree 148
pos[255] = 344 degree 147
pos[254] = 316 degree 146
pos[253] = 302 degree 145
pos[252] = 300 degree 144
pos[251] = 281 degree 143
pos[250] = 373 degree 143
pos[249] = 317 degree 142
pos[248] = 98 degree 141
pos[247] = 75 degree 140
pos[246] = 61 degree 139
pos[245] = 34 degree 138
pos[244] = 31 degree 137
pos[243] = 295 degree 137
pos[242] = 265 degree 136
pos[241] = 249 degree 135
pos[240] = 248 degree 134
pos[239] = 243 degree 133
pos[238] = 175 degree 132
pos[237] = 3 degree 131
pos[236] = 331 degree 131
pos[235] = 109 degree 130
pos[234] = 105 degree 129
pos[233] = 325 degree 129
pos[232] = 283 degree 128
pos[231] = 270 degree 127
pos[230] = 212 degree 126
pos[229] = 205 degree 125
pos[228] = 82 degree 124
pos[227] = 380 degree 124
pos[226] = 327 degree 123
pos[225] = 294 degree 122
pos[224] = 252 degree 121
pos[223] = 203 degree 120
pos[222] = 134 degree 119
pos[221] = 288 degree 120
pos[220] = 91 degree 119
pos[219] = 44 degree 118
pos[218] = 271 degree 118
pos[217] = 181 degree 117
pos[216] = 385 degree 117
pos[215] = 378 degree 116
pos[214] = 332 degree 115
pos[213] = 238 degree 114
pos[212] = 122 degree 113
pos[211] = 237 degree 113
pos[210] = 107 degree 112
pos[209] = 151 degree 112
pos[208] = 84 degree 112
pos[207] = 364 degree 113
pos[206] = 11 degree 112
pos[205] = 377 degree 112
pos[204] = 397 degree 191
pos[203] = 394 degree 190
pos[202] = 391 degree 189
pos[201] = 390 degree 188
pos[200] = 386 degree 187
pos[199] = 372 degree 186
pos[198] = 370 degree 185
pos[197] = 363 degree 184
pos[196] = 343 degree 183
pos[195] = 304 degree 182
pos[194] = 392 degree 182
pos[193] = 387 degree 181
pos[192] = 382 degree 180
pos[191] = 381 degree 179
pos[190] = 376 degree 178
pos[189] = 368 degree 177
pos[188] = 366 degree 176
pos[187] = 361 degree 175
pos[186] = 356 degree 174
pos[185] = 354 degree 173
pos[184] = 353 degree 172
pos[183] = 329 degree 171
pos[182] = 328 degree 170
pos[181] = 305 degree 169
pos[180] = 254 degree 168
pos[179] = 352 degree 168
pos[178] = 351 degree 167
pos[177] = 348 degree 166
pos[176] = 347 degree 165
pos[175] = 341 degree 164
pos[174] = 340 degree 163
pos[173] = 338 degree 162
pos[172] = 324 degree 161
pos[171] = 320 degree 160
pos[170] = 299 degree 159
pos[169] = 289 degree 158
pos[168] = 284 degree 157
pos[167] = 272 degree 156
pos[166] = 236 degree 155
pos[165] = 235 degree 154
pos[164] = 350 degree 154
pos[163] = 346 degree 153
pos[162] = 337 degree 152
pos[161] = 336 degree 151
pos[160] = 330 degree 150
pos[159] = 318 degree 149
pos[158] = 310 degree 148
pos[157] = 298 degree 147
pos[156] = 286 degree 146
pos[155] = 275 degree 145
pos[154] = 267 degree 144
pos[153] = 255 degree 143
pos[152] = 250 degree 142
pos[151] = 221 degree 141
pos[150] = 199 degree 140
pos[149] = 333 degree 140
pos[148] = 326 degree 139
pos[147] = 309 degree 138
pos[146] = 303 degree 137
pos[145] = 278 degree 136
pos[144] = 274 degree 135
pos[143] = 266 degree 134
pos[142] = 263 degree 133
pos[141] = 244 degree 132
pos[140] = 234 degree 131
pos[139] = 233 degree 130
pos[138] = 213 degree 129
pos[137] = 191 degree 128
pos[136] = 190 degree 127
pos[135] = 143 degree 126
pos[134] = 314 degree 126
pos[133] = 296 degree 125
pos[132] = 279 degree 124
pos[131] = 261 degree 123
pos[130] = 257 degree 122
pos[129] = 242 degree 121
pos[128] = 241 degree 120
pos[127] = 227 degree 119
pos[126] = 209 degree 118
pos[125] = 206 degree 117
pos[124] = 196 degree 116
pos[123] = 189 degree 115
pos[122] = 182 degree 114
pos[121] = 164 degree 113
pos[120] = 128 degree 112
pos[119] = 287 degree 112
pos[118] = 276 degree 111
pos[117] = 256 degree 110
pos[116] = 253 degree 109
pos[115] = 230 degree 108
pos[114] = 214 degree 107
pos[113] = 200 degree 106
pos[112] = 193 degree 105
pos[111] = 178 degree 104
pos[110] = 174 degree 103
pos[109] = 170 degree 102
pos[108] = 162 degree 101
pos[107] = 160 degree 100
pos[106] = 155 degree 99
pos[105] = 100 degree 98
pos[104] = 251 degree 98
pos[103] = 246 degree 97
pos[102] = 240 degree 96
pos[101] = 225 degree 95
pos[100] = 211 degree 94
pos[99] = 210 degree 93
pos[98] = 195 degree 92
pos[97] = 169 degree 91
pos[96] = 166 degree 90
pos[95] = 157 degree 89
pos[94] = 139 degree 88
pos[93] = 138 degree 87
pos[92] = 133 degree 86
pos[91] = 119 degree 85
pos[90] = 78 degree 84
pos[89] = 232 degree 84
pos[88] = 218 degree 83
pos[87] = 215 degree 82
pos[86] = 183 degree 81
pos[85] = 180 degree 80
pos[84] = 176 degree 79
pos[83] = 156 degree 78
pos[82] = 153 degree 77
pos[81] = 152 degree 76
pos[80] = 121 degree 75
pos[79] = 116 degree 74
pos[78] = 111 degree 73
pos[77] = 103 degree 72
pos[76] = 92 degree 71
pos[75] = 56 degree 70
pos[74] = 231 degree 70
pos[73] = 208 degree 69
pos[72] = 187 degree 68
pos[71] = 177 degree 67
pos[70] = 154 degree 66
pos[69] = 144 degree 65
pos[68] = 135 degree 64
pos[67] = 132 degree 63
pos[66] = 120 degree 62
pos[65] = 108 degree 61
pos[64] = 101 degree 60
pos[63] = 65 degree 59
pos[62] = 60 degree 58
pos[61] = 52 degree 57
pos[60] = 41 degree 56
pos[59] = 222 degree 56
pos[58] = 186 degree 55
pos[57] = 172 degree 54
pos[56] = 149 degree 53
pos[55] = 118 degree 52
pos[54] = 117 degree 51
pos[53] = 113 degree 50
pos[52] = 99 degree 49
pos[51] = 96 degree 48
pos[50] = 93 degree 47
pos[49] = 67 degree 46
pos[48] = 62 degree 45
pos[47] = 57 degree 44
pos[46] = 42 degree 43
pos[45] = 27 degree 42
pos[44] = 158 degree 42
pos[43] = 131 degree 41
pos[42] = 126 degree 40
pos[41] = 114 degree 39
pos[40] = 87 degree 38
pos[39] = 77 degree 37
pos[38] = 68 degree 36
pos[37] = 64 degree 35
pos[36] = 49 degree 34
pos[35] = 48 degree 33
pos[34] = 45 degree 32
pos[33] = 38 degree 31
pos[32] = 33 degree 30
pos[31] = 25 degree 29
pos[30] = 23 degree 28
pos[29] = 141 degree 28
pos[28] = 102 degree 27
pos[27] = 95 degree 26
pos[26] = 83 degree 25
pos[25] = 76 degree 24
pos[24] = 55 degree 23
pos[23] = 53 degree 22
pos[22] = 47 degree 21
pos[21] = 43 degree 20
pos[20] = 35 degree 19
pos[19] = 26 degree 18
pos[18] = 19 degree 17
pos[17] = 18 degree 16
pos[16] = 17 degree 15
pos[15] = 6 degree 14
pos[14] = 54 degree 14
pos[13] = 51 degree 13
pos[12] = 50 degree 12
pos[11] = 46 degree 11
pos[10] = 30 degree 10
pos[9] = 29 degree 9
pos[8] = 22 degree 8
pos[7] = 21 degree 7
pos[6] = 16 degree 6
pos[5] = 15 degree 5
pos[4] = 14 degree 4
pos[3] = 10 degree 3
pos[2] = 4 degree 2
pos[1] = 1 degree 1
pos[0] = 0 degree 0
start search
improving solution size 30
TIMEOUT
best clique: 1 2 5 11 15 16 17 22 23 30 31 47 51 52 55 7 18 19 20 27 36 44 48 54 56 77 84 96 103 142 
record          =          30
subp            =  10010085085
time            =  3600.00030
