timeout 3600 s
Graph with 400 vertices and 55860 edges density 0.700000
t = 111720, Enbr = 55860
pos[399] = 151 degree 257
pos[398] = 179 degree 259
pos[397] = 375 degree 259
pos[396] = 14 degree 259
pos[395] = 149 degree 259
pos[394] = 357 degree 260
pos[393] = 219 degree 261
pos[392] = 366 degree 261
pos[391] = 358 degree 260
pos[390] = 336 degree 259
pos[389] = 164 degree 259
pos[388] = 241 degree 259
pos[387] = 29 degree 258
pos[386] = 208 degree 258
pos[385] = 144 degree 257
pos[384] = 85 degree 256
pos[383] = 71 degree 255
pos[382] = 24 degree 254
pos[381] = 209 degree 254
pos[380] = 107 degree 253
pos[379] = 378 degree 253
pos[378] = 334 degree 252
pos[377] = 288 degree 251
pos[376] = 269 degree 250
pos[375] = 195 degree 249
pos[374] = 147 degree 248
pos[373] = 61 degree 247
pos[372] = 382 degree 247
pos[371] = 255 degree 246
pos[370] = 104 degree 245
pos[369] = 305 degree 245
pos[368] = 281 degree 244
pos[367] = 211 degree 243
pos[366] = 202 degree 242
pos[365] = 193 degree 241
pos[364] = 191 degree 240
pos[363] = 155 degree 239
pos[362] = 398 degree 239
pos[361] = 277 degree 238
pos[360] = 60 degree 237
pos[359] = 0 degree 236
pos[358] = 337 degree 236
pos[357] = 214 degree 235
pos[356] = 199 degree 234
pos[355] = 154 degree 233
pos[354] = 64 degree 232
pos[353] = 30 degree 231
pos[352] = 3 degree 230
pos[351] = 330 degree 230
pos[350] = 324 degree 229
pos[349] = 267 degree 228
pos[348] = 239 degree 227
pos[347] = 207 degree 226
pos[346] = 146 degree 225
pos[345] = 134 degree 224
pos[344] = 121 degree 223
pos[343] = 109 degree 222
pos[342] = 66 degree 221
pos[341] = 53 degree 220
pos[340] = 299 degree 220
pos[339] = 38 degree 219
pos[338] = 399 degree 219
pos[337] = 371 degree 218
pos[336] = 316 degree 217
pos[335] = 227 degree 216
pos[334] = 198 degree 215
pos[333] = 160 degree 214
pos[332] = 84 degree 213
pos[331] = 67 degree 212
pos[330] = 369 degree 212
pos[329] = 262 degree 211
pos[328] = 205 degree 210
pos[327] = 46 degree 209
pos[326] = 43 degree 208
pos[325] = 341 degree 208
pos[324] = 333 degree 207
pos[323] = 328 degree 206
pos[322] = 321 degree 205
pos[321] = 224 degree 204
pos[320] = 201 degree 203
pos[319] = 167 degree 202
pos[318] = 100 degree 201
pos[317] = 65 degree 200
pos[316] = 389 degree 200
pos[315] = 234 degree 199
pos[314] = 159 degree 198
pos[313] = 145 degree 197
pos[312] = 108 degree 196
pos[311] = 17 degree 195
pos[310] = 351 degree 195
pos[309] = 340 degree 194
pos[308] = 280 degree 193
pos[307] = 256 degree 192
pos[306] = 189 degree 191
pos[305] = 128 degree 190
pos[304] = 105 degree 189
pos[303] = 93 degree 188
pos[302] = 87 degree 187
pos[301] = 52 degree 186
pos[300] = 48 degree 185
pos[299] = 361 degree 185
pos[298] = 317 degree 184
pos[297] = 216 degree 183
pos[296] = 152 degree 182
pos[295] = 353 degree 182
pos[294] = 313 degree 181
pos[293] = 276 degree 180
pos[292] = 141 degree 179
pos[291] = 129 degree 178
pos[290] = 380 degree 178
pos[289] = 379 degree 177
pos[288] = 247 degree 176
pos[287] = 172 degree 175
pos[286] = 120 degree 174
pos[285] = 77 degree 173
pos[284] = 73 degree 172
pos[283] = 376 degree 172
pos[282] = 338 degree 171
pos[281] = 315 degree 170
pos[280] = 242 degree 169
pos[279] = 157 degree 168
pos[278] = 125 degree 167
pos[277] = 360 degree 167
pos[276] = 359 degree 166
pos[275] = 355 degree 165
pos[274] = 254 degree 164
pos[273] = 240 degree 163
pos[272] = 235 degree 162
pos[271] = 225 degree 161
pos[270] = 215 degree 160
pos[269] = 114 degree 159
pos[268] = 88 degree 158
pos[267] = 11 degree 157
pos[266] = 374 degree 157
pos[265] = 345 degree 156
pos[264] = 266 degree 155
pos[263] = 251 degree 154
pos[262] = 170 degree 153
pos[261] = 138 degree 152
pos[260] = 62 degree 151
pos[259] = 386 degree 151
pos[258] = 367 degree 150
pos[257] = 329 degree 149
pos[256] = 289 degree 148
pos[255] = 278 degree 147
pos[254] = 153 degree 146
pos[253] = 26 degree 145
pos[252] = 25 degree 144
pos[251] = 20 degree 143
pos[250] = 248 degree 143
pos[249] = 210 degree 142
pos[248] = 72 degree 141
pos[247] = 33 degree 140
pos[246] = 377 degree 140
pos[245] = 370 degree 139
pos[244] = 183 degree 138
pos[243] = 37 degree 137
pos[242] = 16 degree 136
pos[241] = 272 degree 136
pos[240] = 175 degree 135
pos[239] = 102 degree 134
pos[238] = 384 degree 134
pos[237] = 346 degree 133
pos[236] = 310 degree 132
pos[235] = 232 degree 131
pos[234] = 218 degree 130
pos[233] = 217 degree 129
pos[232] = 83 degree 128
pos[231] = 342 degree 128
pos[230] = 261 degree 127
pos[229] = 4 degree 126
pos[228] = 327 degree 126
pos[227] = 294 degree 125
pos[226] = 263 degree 124
pos[225] = 190 degree 123
pos[224] = 178 degree 122
pos[223] = 68 degree 121
pos[222] = 391 degree 121
pos[221] = 265 degree 121
pos[220] = 36 degree 120
pos[219] = 314 degree 120
pos[218] = 274 degree 119
pos[217] = 123 degree 118
pos[216] = 74 degree 117
pos[215] = 395 degree 117
pos[214] = 229 degree 116
pos[213] = 9 degree 115
pos[212] = 394 degree 115
pos[211] = 320 degree 114
pos[210] = 253 degree 113
pos[209] = 176 degree 112
pos[208] = 8 degree 111
pos[207] = 231 degree 111
pos[206] = 180 degree 110
pos[205] = 70 degree 109
pos[204] = 194 degree 109
pos[203] = 258 degree 109
pos[202] = 204 degree 108
pos[201] = 118 degree 109
pos[200] = 110 degree 109
pos[199] = 27 degree 108
pos[198] = 89 degree 109
pos[197] = 392 degree 109
pos[196] = 397 degree 187
pos[195] = 393 degree 186
pos[194] = 390 degree 185
pos[193] = 388 degree 184
pos[192] = 387 degree 183
pos[191] = 385 degree 182
pos[190] = 383 degree 181
pos[189] = 372 degree 180
pos[188] = 365 degree 179
pos[187] = 363 degree 178
pos[186] = 350 degree 177
pos[185] = 349 degree 176
pos[184] = 343 degree 175
pos[183] = 339 degree 174
pos[182] = 323 degree 173
pos[181] = 309 degree 172
pos[180] = 303 degree 171
pos[179] = 396 degree 171
pos[178] = 381 degree 170
pos[177] = 373 degree 169
pos[176] = 368 degree 168
pos[175] = 364 degree 167
pos[174] = 362 degree 166
pos[173] = 356 degree 165
pos[172] = 348 degree 164
pos[171] = 347 degree 163
pos[170] = 344 degree 162
pos[169] = 331 degree 161
pos[168] = 312 degree 160
pos[167] = 311 degree 159
pos[166] = 308 degree 158
pos[165] = 302 degree 157
pos[164] = 293 degree 156
pos[163] = 286 degree 155
pos[162] = 271 degree 154
pos[161] = 270 degree 153
pos[160] = 236 degree 152
pos[159] = 354 degree 152
pos[158] = 352 degree 151
pos[157] = 332 degree 150
pos[156] = 319 degree 149
pos[155] = 318 degree 148
pos[154] = 307 degree 147
pos[153] = 306 degree 146
pos[152] = 301 degree 145
pos[151] = 300 degree 144
pos[150] = 298 degree 143
pos[149] = 297 degree 142
pos[148] = 291 degree 141
pos[147] = 285 degree 140
pos[146] = 279 degree 139
pos[145] = 244 degree 138
pos[144] = 237 degree 137
pos[143] = 222 degree 136
pos[142] = 220 degree 135
pos[141] = 187 degree 134
pos[140] = 185 degree 133
pos[139] = 335 degree 133
pos[138] = 326 degree 132
pos[137] = 325 degree 131
pos[136] = 296 degree 130
pos[135] = 295 degree 129
pos[134] = 292 degree 128
pos[133] = 282 degree 127
pos[132] = 275 degree 126
pos[131] = 264 degree 125
pos[130] = 260 degree 124
pos[129] = 259 degree 123
pos[128] = 249 degree 122
pos[127] = 238 degree 121
pos[126] = 230 degree 120
pos[125] = 221 degree 119
pos[124] = 197 degree 118
pos[123] = 192 degree 117
pos[122] = 174 degree 116
pos[121] = 173 degree 115
pos[120] = 171 degree 114
pos[119] = 322 degree 114
pos[118] = 304 degree 113
pos[117] = 290 degree 112
pos[116] = 287 degree 111
pos[115] = 273 degree 110
pos[114] = 268 degree 109
pos[113] = 252 degree 108
pos[112] = 226 degree 107
pos[111] = 213 degree 106
pos[110] = 212 degree 105
pos[109] = 186 degree 104
pos[108] = 184 degree 103
pos[107] = 182 degree 102
pos[106] = 166 degree 101
pos[105] = 163 degree 100
pos[104] = 158 degree 99
pos[103] = 156 degree 98
pos[102] = 148 degree 97
pos[101] = 132 degree 96
pos[100] = 131 degree 95
pos[99] = 284 degree 95
pos[98] = 283 degree 94
pos[97] = 257 degree 93
pos[96] = 250 degree 92
pos[95] = 246 degree 91
pos[94] = 243 degree 90
pos[93] = 200 degree 89
pos[92] = 196 degree 88
pos[91] = 177 degree 87
pos[90] = 169 degree 86
pos[89] = 162 degree 85
pos[88] = 150 degree 84
pos[87] = 140 degree 83
pos[86] = 133 degree 82
pos[85] = 130 degree 81
pos[84] = 124 degree 80
pos[83] = 122 degree 79
pos[82] = 119 degree 78
pos[81] = 98 degree 77
pos[80] = 78 degree 76
pos[79] = 245 degree 76
pos[78] = 233 degree 75
pos[77] = 228 degree 74
pos[76] = 203 degree 73
pos[75] = 181 degree 72
pos[74] = 168 degree 71
pos[73] = 161 degree 70
pos[72] = 143 degree 69
pos[71] = 136 degree 68
pos[70] = 127 degree 67
pos[69] = 126 degree 66
pos[68] = 117 degree 65
pos[67] = 116 degree 64
pos[66] = 112 degree 63
pos[65] = 111 degree 62
pos[64] = 97 degree 61
pos[63] = 96 degree 60
pos[62] = 81 degree 59
pos[61] = 76 degree 58
pos[60] = 75 degree 57
pos[59] = 223 degree 57
pos[58] = 188 degree 56
pos[57] = 165 degree 55
pos[56] = 142 degree 54
pos[55] = 137 degree 53
pos[54] = 135 degree 52
pos[53] = 113 degree 51
pos[52] = 106 degree 50
pos[51] = 103 degree 49
pos[50] = 101 degree 48
pos[49] = 99 degree 47
pos[48] = 94 degree 46
pos[47] = 91 degree 45
pos[46] = 80 degree 44
pos[45] = 79 degree 43
pos[44] = 63 degree 42
pos[43] = 56 degree 41
pos[42] = 45 degree 40
pos[41] = 39 degree 39
pos[40] = 19 degree 38
pos[39] = 206 degree 38
pos[38] = 139 degree 37
pos[37] = 115 degree 36
pos[36] = 95 degree 35
pos[35] = 92 degree 34
pos[34] = 86 degree 33
pos[33] = 59 degree 32
pos[32] = 58 degree 31
pos[31] = 57 degree 30
pos[30] = 55 degree 29
pos[29] = 54 degree 28
pos[28] = 51 degree 27
pos[27] = 47 degree 26
pos[26] = 44 degree 25
pos[25] = 42 degree 24
pos[24] = 34 degree 23
pos[23] = 22 degree 22
pos[22] = 15 degree 21
pos[21] = 10 degree 20
pos[20] = 2 degree 19
pos[19] = 90 degree 19
pos[18] = 82 degree 18
pos[17] = 69 degree 17
pos[16] = 50 degree 16
pos[15] = 49 degree 15
pos[14] = 41 degree 14
pos[13] = 40 degree 13
pos[12] = 35 degree 12
pos[11] = 32 degree 11
pos[10] = 31 degree 10
pos[9] = 28 degree 9
pos[8] = 23 degree 8
pos[7] = 21 degree 7
pos[6] = 18 degree 6
pos[5] = 13 degree 5
pos[4] = 12 degree 4
pos[3] = 7 degree 3
pos[2] = 6 degree 2
pos[1] = 5 degree 1
pos[0] = 1 degree 0
start search
improving solution size 40
TIMEOUT
best clique: 2 6 7 8 13 14 19 22 24 29 32 33 36 41 42 50 51 70 83 91 3 11 16 23 35 43 45 48 52 55 56 58 59 60 87 93 96 116 140 207 
record          =          40
subp            =  8129130009
time            =  3600.00031
