timeout 3600 s
Graph with 400 vertices and 39900 edges density 0.500000
t = 79800, Enbr = 39900
pos[399] = 396 degree 174
pos[398] = 66 degree 173
pos[397] = 340 degree 173
pos[396] = 174 degree 172
pos[395] = 357 degree 173
pos[394] = 255 degree 172
pos[393] = 309 degree 173
pos[392] = 69 degree 172
pos[391] = 264 degree 172
pos[390] = 218 degree 171
pos[389] = 216 degree 170
pos[388] = 154 degree 169
pos[387] = 395 degree 169
pos[386] = 335 degree 168
pos[385] = 258 degree 167
pos[384] = 159 degree 166
pos[383] = 100 degree 165
pos[382] = 304 degree 165
pos[381] = 214 degree 164
pos[380] = 212 degree 163
pos[379] = 37 degree 162
pos[378] = 213 degree 162
pos[377] = 124 degree 161
pos[376] = 102 degree 160
pos[375] = 53 degree 159
pos[374] = 371 degree 159
pos[373] = 394 degree 159
pos[372] = 347 degree 158
pos[371] = 252 degree 157
pos[370] = 135 degree 156
pos[369] = 29 degree 155
pos[368] = 257 degree 155
pos[367] = 134 degree 154
pos[366] = 28 degree 153
pos[365] = 219 degree 153
pos[364] = 117 degree 152
pos[363] = 36 degree 151
pos[362] = 10 degree 150
pos[361] = 267 degree 150
pos[360] = 112 degree 149
pos[359] = 9 degree 148
pos[358] = 351 degree 148
pos[357] = 293 degree 147
pos[356] = 239 degree 146
pos[355] = 299 degree 146
pos[354] = 270 degree 145
pos[353] = 223 degree 144
pos[352] = 164 degree 143
pos[351] = 362 degree 143
pos[350] = 261 degree 142
pos[349] = 187 degree 141
pos[348] = 105 degree 140
pos[347] = 391 degree 140
pos[346] = 271 degree 139
pos[345] = 145 degree 138
pos[344] = 84 degree 137
pos[343] = 386 degree 137
pos[342] = 332 degree 136
pos[341] = 254 degree 135
pos[340] = 23 degree 134
pos[339] = 4 degree 133
pos[338] = 292 degree 133
pos[337] = 275 degree 132
pos[336] = 384 degree 132
pos[335] = 167 degree 131
pos[334] = 138 degree 130
pos[333] = 16 degree 129
pos[332] = 368 degree 129
pos[331] = 344 degree 128
pos[330] = 166 degree 127
pos[329] = 115 degree 126
pos[328] = 17 degree 125
pos[327] = 364 degree 125
pos[326] = 250 degree 124
pos[325] = 92 degree 123
pos[324] = 68 degree 122
pos[323] = 355 degree 122
pos[322] = 327 degree 121
pos[321] = 393 degree 121
pos[320] = 329 degree 120
pos[319] = 308 degree 119
pos[318] = 184 degree 118
pos[317] = 125 degree 117
pos[316] = 58 degree 116
pos[315] = 262 degree 116
pos[314] = 78 degree 115
pos[313] = 40 degree 114
pos[312] = 333 degree 114
pos[311] = 290 degree 113
pos[310] = 284 degree 112
pos[309] = 182 degree 111
pos[308] = 283 degree 111
pos[307] = 280 degree 110
pos[306] = 217 degree 109
pos[305] = 114 degree 108
pos[304] = 70 degree 107
pos[303] = 281 degree 107
pos[302] = 247 degree 106
pos[301] = 173 degree 105
pos[300] = 73 degree 104
pos[299] = 54 degree 103
pos[298] = 6 degree 102
pos[297] = 203 degree 102
pos[296] = 198 degree 101
pos[295] = 398 degree 101
pos[294] = 390 degree 100
pos[293] = 317 degree 99
pos[292] = 197 degree 98
pos[291] = 103 degree 97
pos[290] = 81 degree 96
pos[289] = 374 degree 96
pos[288] = 193 degree 95
pos[287] = 136 degree 94
pos[286] = 107 degree 93
pos[285] = 77 degree 92
pos[284] = 349 degree 92
pos[283] = 285 degree 91
pos[282] = 62 degree 90
pos[281] = 48 degree 89
pos[280] = 26 degree 88
pos[279] = 289 degree 88
pos[278] = 238 degree 87
pos[277] = 96 degree 86
pos[276] = 383 degree 86
pos[275] = 378 degree 85
pos[274] = 291 degree 84
pos[273] = 202 degree 83
pos[272] = 80 degree 82
pos[271] = 346 degree 82
pos[270] = 323 degree 81
pos[269] = 307 degree 80
pos[268] = 245 degree 79
pos[267] = 241 degree 79
pos[266] = 230 degree 78
pos[265] = 221 degree 77
pos[264] = 126 degree 76
pos[263] = 65 degree 75
pos[262] = 185 degree 75
pos[261] = 152 degree 74
pos[260] = 149 degree 73
pos[259] = 220 degree 73
pos[258] = 215 degree 72
pos[257] = 171 degree 71
pos[256] = 94 degree 70
pos[255] = 72 degree 69
pos[254] = 67 degree 68
pos[253] = 57 degree 68
pos[252] = 27 degree 67
pos[251] = 372 degree 67
pos[250] = 352 degree 66
pos[249] = 237 degree 65
pos[248] = 313 degree 65
pos[247] = 186 degree 64
pos[246] = 325 degree 64
pos[245] = 240 degree 63
pos[244] = 231 degree 62
pos[243] = 298 degree 62
pos[242] = 101 degree 61
pos[241] = 83 degree 60
pos[240] = 19 degree 59
pos[239] = 350 degree 59
pos[238] = 282 degree 58
pos[237] = 18 degree 57
pos[236] = 8 degree 56
pos[235] = 7 degree 55
pos[234] = 305 degree 55
pos[233] = 75 degree 54
pos[232] = 302 degree 54
pos[231] = 296 degree 53
pos[230] = 90 degree 52
pos[229] = 88 degree 51
pos[228] = 93 degree 51
pos[227] = 52 degree 50
pos[226] = 24 degree 49
pos[225] = 388 degree 49
pos[224] = 1 degree 48
pos[223] = 206 degree 48
pos[222] = 34 degree 48
pos[221] = 363 degree 49
pos[220] = 222 degree 49
pos[219] = 33 degree 48
pos[218] = 3 degree 47
pos[217] = 256 degree 47
pos[216] = 132 degree 46
pos[215] = 43 degree 48
pos[214] = 51 degree 48
pos[213] = 397 degree 183
pos[212] = 392 degree 182
pos[211] = 389 degree 181
pos[210] = 381 degree 180
pos[209] = 399 degree 180
pos[208] = 387 degree 179
pos[207] = 382 degree 178
pos[206] = 379 degree 177
pos[205] = 377 degree 176
pos[204] = 373 degree 175
pos[203] = 337 degree 174
pos[202] = 385 degree 174
pos[201] = 376 degree 173
pos[200] = 370 degree 172
pos[199] = 369 degree 171
pos[198] = 367 degree 170
pos[197] = 336 degree 169
pos[196] = 330 degree 168
pos[195] = 380 degree 168
pos[194] = 366 degree 167
pos[193] = 365 degree 166
pos[192] = 361 degree 165
pos[191] = 354 degree 164
pos[190] = 326 degree 163
pos[189] = 314 degree 162
pos[188] = 375 degree 162
pos[187] = 359 degree 161
pos[186] = 358 degree 160
pos[185] = 348 degree 159
pos[184] = 321 degree 158
pos[183] = 315 degree 157
pos[182] = 306 degree 156
pos[181] = 360 degree 156
pos[180] = 356 degree 155
pos[179] = 353 degree 154
pos[178] = 345 degree 153
pos[177] = 318 degree 152
pos[176] = 311 degree 151
pos[175] = 300 degree 150
pos[174] = 343 degree 150
pos[173] = 341 degree 149
pos[172] = 338 degree 148
pos[171] = 328 degree 147
pos[170] = 295 degree 146
pos[169] = 279 degree 145
pos[168] = 273 degree 144
pos[167] = 342 degree 144
pos[166] = 331 degree 143
pos[165] = 324 degree 142
pos[164] = 319 degree 141
pos[163] = 286 degree 140
pos[162] = 277 degree 139
pos[161] = 265 degree 138
pos[160] = 339 degree 138
pos[159] = 322 degree 137
pos[158] = 312 degree 136
pos[157] = 303 degree 135
pos[156] = 274 degree 134
pos[155] = 269 degree 133
pos[154] = 260 degree 132
pos[153] = 334 degree 132
pos[152] = 316 degree 131
pos[151] = 301 degree 130
pos[150] = 288 degree 129
pos[149] = 266 degree 128
pos[148] = 259 degree 127
pos[147] = 232 degree 126
pos[146] = 320 degree 126
pos[145] = 310 degree 125
pos[144] = 297 degree 124
pos[143] = 268 degree 123
pos[142] = 251 degree 122
pos[141] = 249 degree 121
pos[140] = 225 degree 120
pos[139] = 294 degree 120
pos[138] = 276 degree 119
pos[137] = 272 degree 118
pos[136] = 243 degree 117
pos[135] = 236 degree 116
pos[134] = 235 degree 115
pos[133] = 207 degree 114
pos[132] = 287 degree 114
pos[131] = 253 degree 113
pos[130] = 242 degree 112
pos[129] = 234 degree 111
pos[128] = 229 degree 110
pos[127] = 210 degree 109
pos[126] = 204 degree 108
pos[125] = 278 degree 108
pos[124] = 248 degree 107
pos[123] = 227 degree 106
pos[122] = 224 degree 105
pos[121] = 211 degree 104
pos[120] = 209 degree 103
pos[119] = 195 degree 102
pos[118] = 263 degree 102
pos[117] = 246 degree 101
pos[116] = 208 degree 100
pos[115] = 205 degree 99
pos[114] = 201 degree 98
pos[113] = 192 degree 97
pos[112] = 191 degree 96
pos[111] = 244 degree 96
pos[110] = 200 degree 95
pos[109] = 196 degree 94
pos[108] = 189 degree 93
pos[107] = 178 degree 92
pos[106] = 177 degree 91
pos[105] = 169 degree 90
pos[104] = 233 degree 90
pos[103] = 194 degree 89
pos[102] = 190 degree 88
pos[101] = 181 degree 87
pos[100] = 175 degree 86
pos[99] = 170 degree 85
pos[98] = 168 degree 84
pos[97] = 228 degree 84
pos[96] = 188 degree 83
pos[95] = 183 degree 82
pos[94] = 179 degree 81
pos[93] = 172 degree 80
pos[92] = 163 degree 79
pos[91] = 151 degree 78
pos[90] = 226 degree 78
pos[89] = 176 degree 77
pos[88] = 165 degree 76
pos[87] = 161 degree 75
pos[86] = 160 degree 74
pos[85] = 157 degree 73
pos[84] = 118 degree 72
pos[83] = 199 degree 72
pos[82] = 162 degree 71
pos[81] = 158 degree 70
pos[80] = 155 degree 69
pos[79] = 148 degree 68
pos[78] = 147 degree 67
pos[77] = 113 degree 66
pos[76] = 180 degree 66
pos[75] = 156 degree 65
pos[74] = 150 degree 64
pos[73] = 144 degree 63
pos[72] = 140 degree 62
pos[71] = 133 degree 61
pos[70] = 104 degree 60
pos[69] = 153 degree 60
pos[68] = 146 degree 59
pos[67] = 142 degree 58
pos[66] = 137 degree 57
pos[65] = 131 degree 56
pos[64] = 130 degree 55
pos[63] = 97 degree 54
pos[62] = 143 degree 54
pos[61] = 141 degree 53
pos[60] = 139 degree 52
pos[59] = 121 degree 51
pos[58] = 120 degree 50
pos[57] = 110 degree 49
pos[56] = 91 degree 48
pos[55] = 129 degree 48
pos[54] = 128 degree 47
pos[53] = 122 degree 46
pos[52] = 109 degree 45
pos[51] = 108 degree 44
pos[50] = 89 degree 43
pos[49] = 85 degree 42
pos[48] = 127 degree 42
pos[47] = 119 degree 41
pos[46] = 111 degree 40
pos[45] = 106 degree 39
pos[44] = 95 degree 38
pos[43] = 82 degree 37
pos[42] = 79 degree 36
pos[41] = 123 degree 36
pos[40] = 98 degree 35
pos[39] = 87 degree 34
pos[38] = 86 degree 33
pos[37] = 74 degree 32
pos[36] = 71 degree 31
pos[35] = 63 degree 30
pos[34] = 116 degree 30
pos[33] = 76 degree 29
pos[32] = 64 degree 28
pos[31] = 60 degree 27
pos[30] = 59 degree 26
pos[29] = 56 degree 25
pos[28] = 46 degree 24
pos[27] = 99 degree 24
pos[26] = 61 degree 23
pos[25] = 55 degree 22
pos[24] = 50 degree 21
pos[23] = 49 degree 20
pos[22] = 47 degree 19
pos[21] = 44 degree 18
pos[20] = 45 degree 18
pos[19] = 42 degree 17
pos[18] = 39 degree 16
pos[17] = 38 degree 15
pos[16] = 31 degree 14
pos[15] = 25 degree 13
pos[14] = 22 degree 12
pos[13] = 41 degree 12
pos[12] = 35 degree 11
pos[11] = 32 degree 10
pos[10] = 21 degree 9
pos[9] = 15 degree 8
pos[8] = 14 degree 7
pos[7] = 13 degree 6
pos[6] = 30 degree 6
pos[5] = 20 degree 5
pos[4] = 12 degree 4
pos[3] = 11 degree 3
pos[2] = 5 degree 2
pos[1] = 2 degree 1
pos[0] = 0 degree 0
start search
improving solution size 14
TIMEOUT
best clique: 1 3 6 12 13 21 31 14 15 16 22 33 36 42 
record          =          14
subp            =  13051821783
time            =  3600.00009
