timeout 3600 s
Graph with 200 vertices and 17863 edges density 0.897638
t = 35726, Enbr = 17863
pos[199] = 195 degree 166
pos[198] = 28 degree 165
pos[197] = 10 degree 164
pos[196] = 155 degree 166
pos[195] = 127 degree 165
pos[194] = 53 degree 164
pos[193] = 57 degree 164
pos[192] = 193 degree 165
pos[191] = 36 degree 164
pos[190] = 183 degree 164
pos[189] = 108 degree 163
pos[188] = 98 degree 162
pos[187] = 0 degree 161
pos[186] = 114 degree 161
pos[185] = 111 degree 160
pos[184] = 68 degree 159
pos[183] = 16 degree 158
pos[182] = 178 degree 158
pos[181] = 168 degree 157
pos[180] = 162 degree 156
pos[179] = 40 degree 155
pos[178] = 145 degree 155
pos[177] = 107 degree 154
pos[176] = 31 degree 153
pos[175] = 133 degree 153
pos[174] = 76 degree 152
pos[173] = 20 degree 151
pos[172] = 143 degree 151
pos[171] = 90 degree 150
pos[170] = 88 degree 149
pos[169] = 63 degree 148
pos[168] = 37 degree 147
pos[167] = 4 degree 146
pos[166] = 194 degree 147
pos[165] = 150 degree 146
pos[164] = 138 degree 145
pos[163] = 84 degree 144
pos[162] = 82 degree 143
pos[161] = 47 degree 142
pos[160] = 23 degree 141
pos[159] = 154 degree 141
pos[158] = 135 degree 140
pos[157] = 72 degree 139
pos[156] = 41 degree 138
pos[155] = 177 degree 138
pos[154] = 169 degree 137
pos[153] = 146 degree 136
pos[152] = 141 degree 135
pos[151] = 122 degree 134
pos[150] = 54 degree 133
pos[149] = 43 degree 132
pos[148] = 137 degree 132
pos[147] = 38 degree 131
pos[146] = 7 degree 130
pos[145] = 136 degree 130
pos[144] = 131 degree 129
pos[143] = 118 degree 128
pos[142] = 61 degree 127
pos[141] = 60 degree 126
pos[140] = 27 degree 125
pos[139] = 187 degree 125
pos[138] = 182 degree 124
pos[137] = 156 degree 123
pos[136] = 103 degree 122
pos[135] = 96 degree 121
pos[134] = 87 degree 120
pos[133] = 59 degree 119
pos[132] = 185 degree 119
pos[131] = 164 degree 118
pos[130] = 160 degree 117
pos[129] = 126 degree 116
pos[128] = 78 degree 115
pos[127] = 33 degree 114
pos[126] = 13 degree 113
pos[125] = 132 degree 113
pos[124] = 119 degree 112
pos[123] = 104 degree 111
pos[122] = 75 degree 110
pos[121] = 18 degree 109
pos[120] = 1 degree 108
pos[119] = 198 degree 108
pos[118] = 181 degree 107
pos[117] = 173 degree 106
pos[116] = 153 degree 105
pos[115] = 95 degree 104
pos[114] = 51 degree 103
pos[113] = 34 degree 102
pos[112] = 30 degree 101
pos[111] = 184 degree 101
pos[110] = 176 degree 100
pos[109] = 140 degree 99
pos[108] = 100 degree 98
pos[107] = 81 degree 97
pos[106] = 8 degree 96
pos[105] = 151 degree 96
pos[104] = 144 degree 95
pos[103] = 115 degree 94
pos[102] = 99 degree 93
pos[101] = 86 degree 92
pos[100] = 46 degree 91
pos[99] = 24 degree 90
pos[98] = 21 degree 89
pos[97] = 186 degree 89
pos[96] = 134 degree 88
pos[95] = 113 degree 87
pos[94] = 102 degree 86
pos[93] = 50 degree 85
pos[92] = 48 degree 84
pos[91] = 179 degree 84
pos[90] = 152 degree 83
pos[89] = 128 degree 82
pos[88] = 85 degree 81
pos[87] = 74 degree 80
pos[86] = 64 degree 79
pos[85] = 172 degree 79
pos[84] = 105 degree 78
pos[83] = 77 degree 77
pos[82] = 66 degree 76
pos[81] = 49 degree 75
pos[80] = 42 degree 74
pos[79] = 26 degree 73
pos[78] = 197 degree 73
pos[77] = 189 degree 72
pos[76] = 175 degree 71
pos[75] = 174 degree 70
pos[74] = 120 degree 69
pos[73] = 116 degree 68
pos[72] = 65 degree 67
pos[71] = 55 degree 66
pos[70] = 45 degree 65
pos[69] = 35 degree 64
pos[68] = 12 degree 63
pos[67] = 171 degree 63
pos[66] = 167 degree 62
pos[65] = 147 degree 61
pos[64] = 121 degree 60
pos[63] = 112 degree 59
pos[62] = 110 degree 58
pos[61] = 11 degree 57
pos[60] = 165 degree 57
pos[59] = 161 degree 56
pos[58] = 129 degree 55
pos[57] = 125 degree 54
pos[56] = 94 degree 53
pos[55] = 91 degree 52
pos[54] = 79 degree 51
pos[53] = 29 degree 50
pos[52] = 199 degree 50
pos[51] = 190 degree 49
pos[50] = 157 degree 48
pos[49] = 124 degree 47
pos[48] = 89 degree 46
pos[47] = 67 degree 45
pos[46] = 52 degree 44
pos[45] = 180 degree 44
pos[44] = 170 degree 43
pos[43] = 166 degree 42
pos[42] = 97 degree 41
pos[41] = 93 degree 40
pos[40] = 83 degree 39
pos[39] = 39 degree 38
pos[38] = 19 degree 37
pos[37] = 196 degree 37
pos[36] = 192 degree 36
pos[35] = 191 degree 35
pos[34] = 188 degree 34
pos[33] = 163 degree 33
pos[32] = 159 degree 32
pos[31] = 158 degree 31
pos[30] = 149 degree 30
pos[29] = 148 degree 29
pos[28] = 142 degree 28
pos[27] = 139 degree 27
pos[26] = 130 degree 26
pos[25] = 123 degree 25
pos[24] = 117 degree 24
pos[23] = 109 degree 23
pos[22] = 106 degree 22
pos[21] = 101 degree 21
pos[20] = 92 degree 20
pos[19] = 80 degree 19
pos[18] = 73 degree 18
pos[17] = 71 degree 17
pos[16] = 70 degree 16
pos[15] = 69 degree 15
pos[14] = 62 degree 14
pos[13] = 58 degree 13
pos[12] = 56 degree 12
pos[11] = 44 degree 11
pos[10] = 32 degree 10
pos[9] = 25 degree 9
pos[8] = 22 degree 8
pos[7] = 17 degree 7
pos[6] = 15 degree 6
pos[5] = 14 degree 5
pos[4] = 9 degree 4
pos[3] = 6 degree 3
pos[2] = 5 degree 2
pos[1] = 3 degree 1
pos[0] = 2 degree 0
start search
improving solution size 47
improving solution size 48
improving solution size 49
improving solution size 50
TIMEOUT
best clique: 3 4 6 7 10 15 16 18 23 26 33 45 57 59 63 70 71 72 74 93 193 192 197 189 40 164 84 94 98 167 171 159 181 158 150 90 149 65 143 126 140 153 131 30 199 118 110 86 107 102 
record          =          50
subp            =  2842803964
time            =  3600.00040
