timeout 3600 s
Graph with 400 vertices and 55869 edges density 0.700113
t = 111738, Enbr = 55869
pos[399] = 363 degree 252
pos[398] = 241 degree 253
pos[397] = 224 degree 253
pos[396] = 397 degree 258
pos[395] = 300 degree 258
pos[394] = 203 degree 257
pos[393] = 367 degree 257
pos[392] = 267 degree 256
pos[391] = 116 degree 255
pos[390] = 364 degree 255
pos[389] = 283 degree 254
pos[388] = 261 degree 254
pos[387] = 149 degree 254
pos[386] = 90 degree 254
pos[385] = 49 degree 253
pos[384] = 314 degree 254
pos[383] = 259 degree 253
pos[382] = 223 degree 253
pos[381] = 82 degree 252
pos[380] = 4 degree 251
pos[379] = 353 degree 252
pos[378] = 326 degree 251
pos[377] = 216 degree 250
pos[376] = 21 degree 249
pos[375] = 176 degree 249
pos[374] = 388 degree 249
pos[373] = 206 degree 248
pos[372] = 142 degree 248
pos[371] = 102 degree 247
pos[370] = 53 degree 246
pos[369] = 338 degree 246
pos[368] = 199 degree 245
pos[367] = 229 degree 245
pos[366] = 162 degree 244
pos[365] = 230 degree 244
pos[364] = 228 degree 243
pos[363] = 194 degree 243
pos[362] = 85 degree 242
pos[361] = 347 degree 242
pos[360] = 342 degree 241
pos[359] = 141 degree 240
pos[358] = 166 degree 240
pos[357] = 117 degree 239
pos[356] = 95 degree 238
pos[355] = 328 degree 238
pos[354] = 15 degree 237
pos[353] = 285 degree 237
pos[352] = 237 degree 236
pos[351] = 389 degree 236
pos[350] = 0 degree 235
pos[349] = 343 degree 235
pos[348] = 123 degree 234
pos[347] = 361 degree 234
pos[346] = 317 degree 233
pos[345] = 290 degree 232
pos[344] = 284 degree 232
pos[343] = 218 degree 231
pos[342] = 160 degree 230
pos[341] = 324 degree 230
pos[340] = 280 degree 229
pos[339] = 252 degree 229
pos[338] = 143 degree 228
pos[337] = 103 degree 228
pos[336] = 395 degree 228
pos[335] = 341 degree 227
pos[334] = 336 degree 226
pos[333] = 204 degree 225
pos[332] = 355 degree 225
pos[331] = 254 degree 224
pos[330] = 174 degree 223
pos[329] = 101 degree 222
pos[328] = 46 degree 221
pos[327] = 38 degree 221
pos[326] = 221 degree 221
pos[325] = 210 degree 220
pos[324] = 36 degree 220
pos[323] = 268 degree 220
pos[322] = 170 degree 219
pos[321] = 72 degree 218
pos[320] = 187 degree 218
pos[319] = 78 degree 217
pos[318] = 169 degree 217
pos[317] = 273 degree 217
pos[316] = 155 degree 216
pos[315] = 144 degree 215
pos[314] = 10 degree 214
pos[313] = 212 degree 214
pos[312] = 106 degree 213
pos[311] = 281 degree 213
pos[310] = 42 degree 212
pos[309] = 369 degree 212
pos[308] = 92 degree 211
pos[307] = 387 degree 211
pos[306] = 269 degree 210
pos[305] = 180 degree 209
pos[304] = 301 degree 209
pos[303] = 17 degree 208
pos[302] = 396 degree 208
pos[301] = 322 degree 207
pos[300] = 362 degree 207
pos[299] = 319 degree 206
pos[298] = 278 degree 205
pos[297] = 232 degree 204
pos[296] = 157 degree 204
pos[295] = 122 degree 203
pos[294] = 29 degree 202
pos[293] = 334 degree 202
pos[292] = 225 degree 201
pos[291] = 351 degree 201
pos[290] = 321 degree 200
pos[289] = 318 degree 200
pos[288] = 299 degree 199
pos[287] = 323 degree 199
pos[286] = 234 degree 198
pos[285] = 91 degree 197
pos[284] = 332 degree 197
pos[283] = 171 degree 196
pos[282] = 297 degree 196
pos[281] = 211 degree 195
pos[280] = 75 degree 194
pos[279] = 63 degree 193
pos[278] = 165 degree 193
pos[277] = 153 degree 192
pos[276] = 108 degree 191
pos[275] = 316 degree 191
pos[274] = 158 degree 190
pos[273] = 337 degree 190
pos[272] = 333 degree 189
pos[271] = 156 degree 188
pos[270] = 84 degree 187
pos[269] = 74 degree 186
pos[268] = 59 degree 185
pos[267] = 137 degree 186
pos[266] = 346 degree 186
pos[265] = 207 degree 185
pos[264] = 67 degree 184
pos[263] = 44 degree 183
pos[262] = 358 degree 183
pos[261] = 217 degree 182
pos[260] = 68 degree 181
pos[259] = 365 degree 181
pos[258] = 286 degree 180
pos[257] = 79 degree 179
pos[256] = 383 degree 179
pos[255] = 219 degree 178
pos[254] = 191 degree 177
pos[253] = 114 degree 176
pos[252] = 227 degree 176
pos[251] = 313 degree 177
pos[250] = 189 degree 176
pos[249] = 41 degree 175
pos[248] = 19 degree 174
pos[247] = 295 degree 174
pos[246] = 202 degree 173
pos[245] = 119 degree 172
pos[244] = 13 degree 171
pos[243] = 131 degree 171
pos[242] = 99 degree 170
pos[241] = 377 degree 170
pos[240] = 308 degree 169
pos[239] = 262 degree 169
pos[238] = 231 degree 168
pos[237] = 178 degree 167
pos[236] = 394 degree 167
pos[235] = 88 degree 166
pos[234] = 9 degree 165
pos[233] = 374 degree 165
pos[232] = 196 degree 164
pos[231] = 11 degree 163
pos[230] = 380 degree 163
pos[229] = 325 degree 162
pos[228] = 22 degree 161
pos[227] = 381 degree 161
pos[226] = 256 degree 160
pos[225] = 50 degree 159
pos[224] = 175 degree 159
pos[223] = 168 degree 158
pos[222] = 135 degree 157
pos[221] = 98 degree 156
pos[220] = 310 degree 156
pos[219] = 309 degree 156
pos[218] = 307 degree 155
pos[217] = 12 degree 154
pos[216] = 371 degree 154
pos[215] = 391 degree 154
pos[214] = 390 degree 153
pos[213] = 81 degree 152
pos[212] = 393 degree 152
pos[211] = 344 degree 151
pos[210] = 100 degree 150
pos[209] = 65 degree 149
pos[208] = 356 degree 149
pos[207] = 305 degree 148
pos[206] = 214 degree 147
pos[205] = 179 degree 147
pos[204] = 124 degree 146
pos[203] = 373 degree 146
pos[202] = 303 degree 145
pos[201] = 294 degree 144
pos[200] = 105 degree 143
pos[199] = 94 degree 142
pos[198] = 195 degree 142
pos[197] = 24 degree 141
pos[196] = 270 degree 141
pos[195] = 64 degree 140
pos[194] = 152 degree 140
pos[193] = 39 degree 139
pos[192] = 27 degree 138
pos[191] = 312 degree 138
pos[190] = 240 degree 137
pos[189] = 48 degree 136
pos[188] = 359 degree 136
pos[187] = 31 degree 135
pos[186] = 26 degree 134
pos[185] = 329 degree 134
pos[184] = 315 degree 133
pos[183] = 274 degree 132
pos[182] = 55 degree 131
pos[181] = 205 degree 131
pos[180] = 148 degree 130
pos[179] = 73 degree 129
pos[178] = 275 degree 129
pos[177] = 263 degree 128
pos[176] = 89 degree 127
pos[175] = 330 degree 127
pos[174] = 249 degree 127
pos[173] = 125 degree 126
pos[172] = 150 degree 126
pos[171] = 140 degree 125
pos[170] = 104 degree 124
pos[169] = 190 degree 124
pos[168] = 133 degree 123
pos[167] = 107 degree 122
pos[166] = 56 degree 121
pos[165] = 258 degree 121
pos[164] = 247 degree 120
pos[163] = 238 degree 119
pos[162] = 209 degree 118
pos[161] = 184 degree 117
pos[160] = 288 degree 117
pos[159] = 382 degree 117
pos[158] = 379 degree 116
pos[157] = 257 degree 115
pos[156] = 128 degree 115
pos[155] = 35 degree 114
pos[154] = 335 degree 114
pos[153] = 306 degree 113
pos[152] = 253 degree 112
pos[151] = 340 degree 112
pos[150] = 265 degree 111
pos[149] = 173 degree 110
pos[148] = 127 degree 109
pos[147] = 80 degree 108
pos[146] = 30 degree 107
pos[145] = 197 degree 107
pos[144] = 372 degree 107
pos[143] = 226 degree 106
pos[142] = 198 degree 105
pos[141] = 349 degree 105
pos[140] = 348 degree 104
pos[139] = 260 degree 103
pos[138] = 77 degree 102
pos[137] = 2 degree 101
pos[136] = 167 degree 101
pos[135] = 126 degree 100
pos[134] = 291 degree 100
pos[133] = 244 degree 99
pos[132] = 25 degree 98
pos[131] = 93 degree 98
pos[130] = 7 degree 97
pos[129] = 271 degree 97
pos[128] = 138 degree 96
pos[127] = 113 degree 95
pos[126] = 112 degree 94
pos[125] = 398 degree 94
pos[124] = 357 degree 93
pos[123] = 339 degree 92
pos[122] = 120 degree 91
pos[121] = 293 degree 91
pos[120] = 220 degree 90
pos[119] = 34 degree 89
pos[118] = 208 degree 89
pos[117] = 161 degree 88
pos[116] = 159 degree 87
pos[115] = 60 degree 86
pos[114] = 192 degree 86
pos[113] = 43 degree 85
pos[112] = 245 degree 85
pos[111] = 109 degree 84
pos[110] = 18 degree 83
pos[109] = 331 degree 83
pos[108] = 292 degree 82
pos[107] = 282 degree 81
pos[106] = 33 degree 80
pos[105] = 272 degree 80
pos[104] = 188 degree 79
pos[103] = 392 degree 79
pos[102] = 345 degree 78
pos[101] = 236 degree 77
pos[100] = 177 degree 76
pos[99] = 76 degree 75
pos[98] = 69 degree 74
pos[97] = 51 degree 73
pos[96] = 183 degree 73
pos[95] = 360 degree 73
pos[94] = 350 degree 72
pos[93] = 248 degree 71
pos[92] = 58 degree 70
pos[91] = 251 degree 70
pos[90] = 185 degree 69
pos[89] = 154 degree 68
pos[88] = 54 degree 67
pos[87] = 40 degree 66
pos[86] = 385 degree 66
pos[85] = 8 degree 65
pos[84] = 239 degree 65
pos[83] = 83 degree 64
pos[82] = 71 degree 63
pos[81] = 386 degree 63
pos[80] = 186 degree 62
pos[79] = 147 degree 61
pos[78] = 28 degree 60
pos[77] = 111 degree 60
pos[76] = 376 degree 60
pos[75] = 296 degree 59
pos[74] = 279 degree 58
pos[73] = 233 degree 57
pos[72] = 139 degree 56
pos[71] = 3 degree 55
pos[70] = 163 degree 55
pos[69] = 70 degree 54
pos[68] = 129 degree 54
pos[67] = 6 degree 53
pos[66] = 399 degree 53
pos[65] = 366 degree 52
pos[64] = 151 degree 51
pos[63] = 47 degree 50
pos[62] = 287 degree 50
pos[61] = 235 degree 49
pos[60] = 201 degree 48
pos[59] = 289 degree 48
pos[58] = 276 degree 47
pos[57] = 200 degree 46
pos[56] = 86 degree 45
pos[55] = 66 degree 44
pos[54] = 384 degree 44
pos[53] = 222 degree 43
pos[52] = 354 degree 43
pos[51] = 302 degree 42
pos[50] = 172 degree 41
pos[49] = 115 degree 40
pos[48] = 52 degree 39
pos[47] = 266 degree 39
pos[46] = 164 degree 38
pos[45] = 57 degree 37
pos[44] = 378 degree 37
pos[43] = 375 degree 36
pos[42] = 327 degree 35
pos[41] = 215 degree 34
pos[40] = 370 degree 34
pos[39] = 130 degree 33
pos[38] = 87 degree 32
pos[37] = 255 degree 32
pos[36] = 193 degree 31
pos[35] = 181 degree 30
pos[34] = 16 degree 29
pos[33] = 311 degree 29
pos[32] = 298 degree 28
pos[31] = 146 degree 27
pos[30] = 121 degree 26
pos[29] = 5 degree 25
pos[28] = 132 degree 25
pos[27] = 97 degree 24
pos[26] = 61 degree 23
pos[25] = 320 degree 23
pos[24] = 250 degree 22
pos[23] = 242 degree 21
pos[22] = 182 degree 20
pos[21] = 96 degree 19
pos[20] = 352 degree 19
pos[19] = 277 degree 18
pos[18] = 264 degree 17
pos[17] = 110 degree 16
pos[16] = 368 degree 16
pos[15] = 304 degree 15
pos[14] = 246 degree 14
pos[13] = 243 degree 13
pos[12] = 213 degree 12
pos[11] = 145 degree 11
pos[10] = 136 degree 10
pos[9] = 134 degree 9
pos[8] = 118 degree 8
pos[7] = 62 degree 7
pos[6] = 45 degree 6
pos[5] = 37 degree 5
pos[4] = 32 degree 4
pos[3] = 23 degree 3
pos[2] = 20 degree 2
pos[1] = 14 degree 1
pos[0] = 1 degree 0
start search
improving solution size 23
improving solution size 24
improving solution size 25
improving solution size 26
TIMEOUT
best clique: 2 15 21 24 33 38 119 152 234 400 312 249 340 3 149 324 258 305 74 244 78 214 183 146 265 137 
record          =          26
subp            =  3079854778
time            =  3600.00118
