timeout 3600 s
Graph with 200 vertices and 9876 edges density 0.496281
start search
improving solution size 1
improving solution size 2
improving solution size 3
improving solution size 4
improving solution size 5
improving solution size 6
improving solution size 7
improving solution size 8
improving solution size 9
improving solution size 10
improving solution size 11
improving solution size 12
improving solution size 13
best clique: 175 123 85 71 102 62 61 59 57 33 32 30 28 
record          =          13
subp            =    11336439
time            =     7.54556
