timeout 3600 s
Graph with 200 vertices and 12048 edges density 0.605427
start search
improving solution size 1
improving solution size 2
improving solution size 3
improving solution size 4
improving solution size 5
improving solution size 6
improving solution size 7
improving solution size 8
improving solution size 9
improving solution size 10
improving solution size 11
improving solution size 12
improving solution size 13
improving solution size 14
improving solution size 15
improving solution size 16
improving solution size 17
best clique: 189 156 114 80 104 75 74 71 70 66 61 49 44 40 27 22 10 
record          =          17
subp            =   196232110
time            =   138.13215
