timeout 3600 s
Graph with 400 vertices and 59681 edges density 0.747882
start search
improving solution size 1
improving solution size 2
improving solution size 3
improving solution size 4
improving solution size 5
improving solution size 6
improving solution size 7
improving solution size 8
improving solution size 9
improving solution size 10
improving solution size 11
improving solution size 12
improving solution size 13
improving solution size 14
improving solution size 15
improving solution size 16
improving solution size 17
improving solution size 18
improving solution size 19
improving solution size 20
improving solution size 21
improving solution size 22
improving solution size 23
improving solution size 24
improving solution size 25
TIMEOUT
best clique: 399 398 396 395 380 350 349 343 326 276 259 253 246 216 118 92 182 89 85 104 55 54 68 25 17 
record          =          25
subp            =  4194521331
time            =  3600.00040
