timeout 3600 s
Graph with 200 vertices and 13089 edges density 0.657739
start search
improving solution size 1
improving solution size 2
improving solution size 3
improving solution size 4
improving solution size 5
improving solution size 6
improving solution size 7
improving solution size 8
improving solution size 9
improving solution size 10
improving solution size 11
improving solution size 12
improving solution size 13
improving solution size 14
improving solution size 15
improving solution size 16
improving solution size 17
improving solution size 18
improving solution size 19
best clique: 192 165 132 129 126 125 111 101 88 87 94 85 70 78 59 51 32 29 9 
record          =          19
subp            =  1301304022
time            =   925.12431
