timeout 3600 s
Graph with 2000 vertices and 1799532 edges density 0.900216
start search
improving solution size 1
improving solution size 2
improving solution size 3
improving solution size 4
improving solution size 5
improving solution size 6
improving solution size 7
improving solution size 8
improving solution size 9
improving solution size 10
improving solution size 11
improving solution size 12
improving solution size 13
improving solution size 14
improving solution size 15
improving solution size 16
improving solution size 17
improving solution size 18
improving solution size 19
improving solution size 20
improving solution size 21
improving solution size 22
improving solution size 23
improving solution size 24
improving solution size 25
improving solution size 26
improving solution size 27
improving solution size 28
improving solution size 29
improving solution size 30
improving solution size 31
improving solution size 32
improving solution size 33
improving solution size 34
improving solution size 35
improving solution size 36
improving solution size 37
improving solution size 38
improving solution size 39
improving solution size 40
improving solution size 41
improving solution size 42
improving solution size 43
improving solution size 44
improving solution size 45
improving solution size 46
improving solution size 47
improving solution size 48
improving solution size 49
improving solution size 50
improving solution size 51
improving solution size 52
improving solution size 53
improving solution size 54
improving solution size 55
improving solution size 56
improving solution size 57
improving solution size 58
improving solution size 59
improving solution size 60
improving solution size 61
improving solution size 62
improving solution size 63
TIMEOUT
best clique: 1999 1998 1997 1996 1995 1994 1993 1990 1989 1984 1982 1979 1977 1976 1974 1973 1972 1968 1964 1962 1956 1955 1950 1948 1947 1936 1927 1926 1920 1884 1873 1849 1740 1698 1620 1410 1336 1272 1268 1251 1244 1225 1219 1119 1113 1055 1054 1650 1042 972 935 851 806 721 665 462 598 442 354 351 209 775 20 
record          =          63
subp            =  1504337835
time            =  3600.00112
