timeout 3600 s
Graph with 4000 vertices and 4000268 edges density 0.500159
start search
improving solution size 1
improving solution size 2
improving solution size 3
improving solution size 4
improving solution size 5
improving solution size 6
improving solution size 7
improving solution size 8
improving solution size 9
improving solution size 10
improving solution size 11
improving solution size 12
improving solution size 13
improving solution size 14
improving solution size 15
improving solution size 16
improving solution size 17
improving solution size 18
improving solution size 19
TIMEOUT
best clique: 3999 3998 3995 3986 3517 3370 3231 2877 2667 2637 2472 2022 1684 2570 650 620 417 420 129 
record          =          19
subp            =  1599912314
time            =  3600.00097
