timeout 3600 s
Graph with 120 vertices and 5460 edges density 0.764706
start search
improving solution size 1
improving solution size 2
improving solution size 3
improving solution size 4
improving solution size 5
improving solution size 6
improving solution size 7
improving solution size 8
improving solution size 9
improving solution size 10
best clique: 119 118 117 116 115 114 91 89 56 58 
record          =          10
subp            =  5884784601
time            =  1827.95802
