timeout 3600 s
Graph with 500 vertices and 31569 edges density 0.253058
start search
improving solution size 1
improving solution size 2
improving solution size 3
improving solution size 4
improving solution size 5
improving solution size 6
improving solution size 7
improving solution size 8
improving solution size 9
improving solution size 10
improving solution size 11
improving solution size 12
best clique: 113 107 73 63 41 37 46 28 24 19 12 7 
record          =          12
subp            =    11120084
time            =    10.12626
