timeout 3600 s
Graph with 300 vertices and 10933 edges density 0.243768
start search
improving solution size 1
improving solution size 2
improving solution size 3
improving solution size 4
improving solution size 5
improving solution size 6
improving solution size 7
improving solution size 8
improving solution size 9
improving solution size 10
best clique: 209 134 29 16 15 14 10 66 26 17 
record          =          10
subp            =      735558
time            =     0.62530
