timeout 3600 s
Graph with 200 vertices and 13930 edges density 0.700000
start search
improving solution size 1
improving solution size 2
improving solution size 3
improving solution size 4
improving solution size 5
improving solution size 6
improving solution size 7
improving solution size 8
improving solution size 9
improving solution size 10
improving solution size 11
improving solution size 12
improving solution size 13
improving solution size 14
improving solution size 15
improving solution size 16
improving solution size 17
improving solution size 18
improving solution size 19
improving solution size 20
improving solution size 21
improving solution size 22
improving solution size 23
improving solution size 24
improving solution size 25
improving solution size 26
improving solution size 27
improving solution size 28
improving solution size 29
improving solution size 30
TIMEOUT
best clique: 199 198 197 196 195 194 193 192 191 190 189 188 187 186 185 184 183 180 179 178 177 176 175 174 173 170 169 160 159 152 
record          =          30
subp            =  6289534251
time            =  3600.00011
