timeout 3600 s
Graph with 400 vertices and 71820 edges density 0.900000
start search
improving solution size 1
improving solution size 2
improving solution size 3
improving solution size 4
improving solution size 5
improving solution size 6
improving solution size 7
improving solution size 8
improving solution size 9
improving solution size 10
improving solution size 11
improving solution size 12
improving solution size 13
improving solution size 14
improving solution size 15
improving solution size 16
improving solution size 17
improving solution size 18
improving solution size 19
improving solution size 20
improving solution size 21
improving solution size 22
improving solution size 23
improving solution size 24
improving solution size 25
improving solution size 26
improving solution size 27
improving solution size 28
improving solution size 29
improving solution size 30
improving solution size 31
improving solution size 32
improving solution size 33
improving solution size 34
improving solution size 35
improving solution size 36
improving solution size 37
improving solution size 38
improving solution size 39
improving solution size 40
improving solution size 41
improving solution size 42
improving solution size 43
improving solution size 44
improving solution size 45
improving solution size 46
improving solution size 47
improving solution size 48
improving solution size 49
improving solution size 50
improving solution size 51
improving solution size 52
improving solution size 53
improving solution size 54
improving solution size 55
improving solution size 56
improving solution size 57
improving solution size 58
improving solution size 59
improving solution size 60
improving solution size 61
improving solution size 62
improving solution size 63
improving solution size 64
improving solution size 65
improving solution size 66
improving solution size 67
improving solution size 68
improving solution size 69
improving solution size 70
improving solution size 71
improving solution size 72
improving solution size 73
improving solution size 74
improving solution size 75
improving solution size 76
improving solution size 77
improving solution size 78
improving solution size 79
improving solution size 80
improving solution size 81
improving solution size 82
improving solution size 83
improving solution size 84
improving solution size 85
improving solution size 86
TIMEOUT
best clique: 399 398 397 396 395 393 392 391 389 386 385 383 380 378 376 375 373 371 369 367 366 365 362 358 357 356 354 353 352 349 348 346 344 342 341 340 337 334 332 331 330 328 324 323 321 318 317 316 309 308 300 297 296 293 292 287 286 283 279 277 270 269 263 261 260 258 257 254 253 247 243 241 233 231 230 228 227 226 224 221 216 211 210 202 201 196 
record          =          86
subp            =  1591669079
time            =  3600.00172
