timeout 3600 s
Graph with 400 vertices and 39900 edges density 0.500000
start search
improving solution size 1
improving solution size 2
improving solution size 3
improving solution size 4
improving solution size 5
improving solution size 6
improving solution size 7
improving solution size 8
improving solution size 9
improving solution size 10
improving solution size 11
improving solution size 12
TIMEOUT
best clique: 399 398 397 396 395 394 393 392 391 389 387 386 
record          =          12
subp            =  3130212085
time            =  3600.00013
