timeout 3600 s
Graph with 200 vertices and 17863 edges density 0.897638
start search
improving solution size 1
improving solution size 2
improving solution size 3
improving solution size 4
improving solution size 5
improving solution size 6
improving solution size 7
improving solution size 8
improving solution size 9
improving solution size 10
improving solution size 11
improving solution size 12
improving solution size 13
improving solution size 14
improving solution size 15
improving solution size 16
improving solution size 17
improving solution size 18
improving solution size 19
improving solution size 20
improving solution size 21
improving solution size 22
improving solution size 23
improving solution size 24
improving solution size 25
improving solution size 26
improving solution size 27
improving solution size 28
improving solution size 29
improving solution size 30
improving solution size 31
improving solution size 32
improving solution size 33
improving solution size 34
improving solution size 35
improving solution size 36
improving solution size 37
improving solution size 38
improving solution size 39
improving solution size 40
improving solution size 41
TIMEOUT
best clique: 199 198 197 196 195 194 190 186 151 145 143 140 125 120 117 113 112 108 99 96 82 79 81 76 65 63 57 53 46 42 41 28 24 22 20 62 17 13 12 11 61 
record          =          41
subp            =  3614329719
time            =  3600.00031
