timeout 3600 s
Graph with 400 vertices and 59723 edges density 0.748409
start search
improving solution size 1
improving solution size 2
improving solution size 3
improving solution size 4
improving solution size 5
improving solution size 6
improving solution size 7
improving solution size 8
improving solution size 9
improving solution size 10
improving solution size 11
improving solution size 12
improving solution size 13
improving solution size 14
improving solution size 15
improving solution size 16
improving solution size 17
improving solution size 18
improving solution size 19
improving solution size 20
improving solution size 21
improving solution size 22
improving solution size 23
improving solution size 24
improving solution size 25
improving solution size 26
improving solution size 27
improving solution size 28
improving solution size 29
improving solution size 30
TIMEOUT
best clique: 399 398 397 396 395 393 392 385 370 346 307 305 292 237 234 208 204 214 167 116 123 62 59 49 114 22 11 26 7 46 
record          =          30
subp            =  4471559092
time            =  3600.00044
