timeout 3600 s
Graph with 200 vertices and 9876 edges density 0.496281
start search
improving solution size 1
improving solution size 2
improving solution size 3
improving solution size 4
improving solution size 5
improving solution size 6
improving solution size 7
improving solution size 8
improving solution size 9
improving solution size 10
improving solution size 11
improving solution size 12
improving solution size 13
improving solution size 14
improving solution size 15
improving solution size 16
improving solution size 17
TIMEOUT
best clique: 199 174 152 145 109 105 101 96 87 63 53 52 36 34 75 35 28 
record          =          17
subp            =  6169405242
time            =  3600.00042
