timeout 3600 s
Graph with 800 vertices and 207333 edges density 0.648727
start search
improving solution size 1
improving solution size 2
improving solution size 3
improving solution size 4
improving solution size 5
improving solution size 6
improving solution size 7
improving solution size 8
improving solution size 9
improving solution size 10
improving solution size 11
improving solution size 12
improving solution size 13
improving solution size 14
improving solution size 15
improving solution size 16
improving solution size 17
improving solution size 18
improving solution size 19
improving solution size 20
improving solution size 21
improving solution size 22
improving solution size 23
improving solution size 24
improving solution size 25
TIMEOUT
best clique: 799 798 797 796 795 794 791 785 775 740 718 614 525 519 479 470 458 432 413 333 304 229 166 113 51 
record          =          25
subp            =  4075138067
time            =  3600.00032
