timeout 3600 s
Graph with 200 vertices and 13089 edges density 0.657739
start search
improving solution size 1
improving solution size 2
improving solution size 3
improving solution size 4
improving solution size 5
improving solution size 6
improving solution size 7
improving solution size 8
improving solution size 9
improving solution size 10
improving solution size 11
improving solution size 12
improving solution size 13
improving solution size 14
improving solution size 15
improving solution size 16
improving solution size 17
improving solution size 18
improving solution size 19
improving solution size 20
improving solution size 21
improving solution size 22
improving solution size 23
TIMEOUT
best clique: 199 198 197 196 195 142 141 138 137 133 131 130 128 107 97 72 65 62 50 23 17 6 5 
record          =          23
subp            =  5729152429
time            =  3600.00062
