timeout 3600 s
Graph with 400 vertices and 59786 edges density 0.749198
start search
improving solution size 1
improving solution size 2
improving solution size 3
improving solution size 4
improving solution size 5
improving solution size 6
improving solution size 7
improving solution size 8
improving solution size 9
improving solution size 10
improving solution size 11
improving solution size 12
improving solution size 13
improving solution size 14
improving solution size 15
improving solution size 16
improving solution size 17
improving solution size 18
improving solution size 19
improving solution size 20
improving solution size 21
improving solution size 22
improving solution size 23
improving solution size 24
improving solution size 25
improving solution size 26
improving solution size 27
improving solution size 28
improving solution size 29
improving solution size 30
TIMEOUT
best clique: 399 398 397 396 395 394 393 391 389 387 363 337 332 327 325 321 315 300 241 222 220 181 128 109 89 76 74 65 11 5 
record          =          30
subp            =  4786953171
time            =  3600.00084
