timeout 3600 s
Graph with 125 vertices and 6963 edges density 0.898452
start search
improving solution size 1
improving solution size 2
improving solution size 3
improving solution size 4
improving solution size 5
improving solution size 6
improving solution size 7
improving solution size 8
improving solution size 9
improving solution size 10
improving solution size 11
improving solution size 12
improving solution size 13
improving solution size 14
improving solution size 15
improving solution size 16
improving solution size 17
improving solution size 18
improving solution size 19
improving solution size 20
improving solution size 21
improving solution size 22
improving solution size 23
improving solution size 24
improving solution size 25
improving solution size 26
improving solution size 27
improving solution size 28
improving solution size 29
improving solution size 30
improving solution size 31
improving solution size 32
improving solution size 33
improving solution size 34
improving solution size 35
improving solution size 36
improving solution size 37
improving solution size 38
improving solution size 39
improving solution size 40
improving solution size 41
improving solution size 42
improving solution size 43
improving solution size 44
TIMEOUT
best clique: 124 123 122 121 120 119 118 117 116 115 114 111 108 107 103 95 91 74 84 73 69 61 47 46 45 40 39 79 82 86 41 32 27 23 21 20 19 18 17 70 14 11 10 3 
record          =          44
subp            =  4780573798
time            =  3600.00050
