timeout 3600 s
Graph with 2000 vertices and 1799532 edges density 0.900216
start search
improving solution size 1
improving solution size 2
improving solution size 3
improving solution size 4
improving solution size 5
improving solution size 6
improving solution size 7
improving solution size 8
improving solution size 9
improving solution size 10
improving solution size 11
improving solution size 12
improving solution size 13
improving solution size 14
improving solution size 15
improving solution size 16
improving solution size 17
improving solution size 18
improving solution size 19
improving solution size 20
improving solution size 21
improving solution size 22
improving solution size 23
improving solution size 24
improving solution size 25
improving solution size 26
improving solution size 27
improving solution size 28
improving solution size 29
improving solution size 30
improving solution size 31
improving solution size 32
improving solution size 33
improving solution size 34
improving solution size 35
improving solution size 36
improving solution size 37
improving solution size 38
improving solution size 39
improving solution size 40
improving solution size 41
improving solution size 42
improving solution size 43
improving solution size 44
improving solution size 45
improving solution size 46
improving solution size 47
improving solution size 48
improving solution size 49
improving solution size 50
improving solution size 51
improving solution size 52
improving solution size 53
improving solution size 54
improving solution size 55
improving solution size 56
improving solution size 57
improving solution size 58
improving solution size 59
improving solution size 60
improving solution size 61
improving solution size 62
improving solution size 63
improving solution size 64
improving solution size 65
improving solution size 66
improving solution size 67
improving solution size 68
improving solution size 69
TIMEOUT
best clique: 1999 1998 1997 1996 1995 1994 1993 1992 1991 1990 1989 1988 1986 1985 1984 1983 1982 1979 1978 1977 1976 1973 1972 1970 1968 1952 1948 1947 1946 1944 1941 1940 1937 1926 1920 1919 1900 1898 1874 1849 1841 1783 1698 1657 1653 1584 1523 1503 1473 1464 1508 1411 1395 1342 1231 1219 1154 1152 1102 1042 1018 667 730 664 376 274 865 91 41 
record          =          69
subp            =  1933605674
time            =  3600.00116
