timeout 3600 s
Graph with 4000 vertices and 4000268 edges density 0.500159
start search
improving solution size 1
improving solution size 2
improving solution size 3
improving solution size 4
improving solution size 5
improving solution size 6
improving solution size 7
improving solution size 8
improving solution size 9
improving solution size 10
improving solution size 11
improving solution size 12
improving solution size 13
improving solution size 14
improving solution size 15
improving solution size 16
improving solution size 17
improving solution size 18
improving solution size 19
improving solution size 20
improving solution size 21
TIMEOUT
best clique: 3999 3998 3997 3996 3995 3990 3770 3651 3353 3204 3090 2869 2527 2101 1725 1721 1207 1182 879 877 22 
record          =          21
subp            =  2210999791
time            =  3600.00077
