timeout 3600 s
Graph with 64 vertices and 704 edges density 0.349206
start search
improving solution size 1
improving solution size 2
improving solution size 3
improving solution size 4
improving solution size 5
improving solution size 6
improving solution size 7
improving solution size 8
improving solution size 9
improving solution size 10
best clique: 63 62 61 60 59 57 50 37 36 34 
record          =          10
subp            =     1547671
time            =     0.70453
