timeout 3600 s
Graph with 28 vertices and 210 edges density 0.555556
start search
improving solution size 1
improving solution size 2
improving solution size 3
improving solution size 4
improving solution size 5
improving solution size 6
improving solution size 7
improving solution size 8
improving solution size 9
best clique: 27 26 25 24 23 22 21 17 14 
record          =           9
subp            =       77261
time            =     0.02180
