timeout 3600 s
Graph with 70 vertices and 1855 edges density 0.768116
start search
improving solution size 1
improving solution size 2
improving solution size 3
improving solution size 4
improving solution size 5
improving solution size 6
improving solution size 7
improving solution size 8
improving solution size 9
improving solution size 10
improving solution size 11
improving solution size 12
improving solution size 13
improving solution size 14
improving solution size 15
improving solution size 16
improving solution size 17
improving solution size 18
improving solution size 19
improving solution size 20
improving solution size 21
improving solution size 22
TIMEOUT
best clique: 69 68 67 66 65 64 61 60 59 58 55 54 49 48 45 42 28 25 10 8 5 1 
record          =          22
subp            =  7023243227
time            =  3600.00013
