timeout 3600 s
Graph with 776 vertices and 225990 edges density 0.751546
start search
improving solution size 1
improving solution size 2
improving solution size 3
improving solution size 4
improving solution size 5
improving solution size 6
improving solution size 7
improving solution size 8
improving solution size 9
improving solution size 10
improving solution size 11
improving solution size 12
improving solution size 13
improving solution size 14
improving solution size 15
improving solution size 16
improving solution size 17
improving solution size 18
improving solution size 19
improving solution size 20
improving solution size 21
improving solution size 22
improving solution size 23
improving solution size 24
improving solution size 25
improving solution size 26
improving solution size 27
improving solution size 28
improving solution size 29
improving solution size 30
improving solution size 31
improving solution size 32
improving solution size 33
improving solution size 34
improving solution size 35
improving solution size 36
improving solution size 37
improving solution size 38
improving solution size 39
TIMEOUT
best clique: 775 774 773 772 771 770 769 768 767 766 765 764 763 762 760 759 757 747 740 709 606 586 584 581 566 561 483 434 405 391 387 375 386 208 188 75 49 122 22 
record          =          39
subp            =  3640678041
time            =  3600.00035
