timeout 3600 s
Graph with 1500 vertices and 284923 edges density 0.253434
start search
improving solution size 1
improving solution size 2
improving solution size 3
improving solution size 4
improving solution size 5
improving solution size 6
improving solution size 7
improving solution size 8
improving solution size 9
improving solution size 10
improving solution size 11
improving solution size 12
improving solution size 13
improving solution size 14
TIMEOUT
best clique: 1499 1496 531 495 459 435 349 168 167 108 53 39 34 44 
record          =          14
subp            =  3291237950
time            =  3600.00071
