timeout 3600 s
Graph with 1500 vertices and 568960 edges density 0.506080
start search
improving solution size 1
improving solution size 2
improving solution size 3
improving solution size 4
improving solution size 5
improving solution size 6
improving solution size 7
improving solution size 8
improving solution size 9
improving solution size 10
improving solution size 11
improving solution size 12
improving solution size 13
improving solution size 14
improving solution size 15
improving solution size 16
improving solution size 17
improving solution size 18
improving solution size 19
improving solution size 20
improving solution size 21
improving solution size 22
improving solution size 23
improving solution size 24
improving solution size 25
improving solution size 26
improving solution size 27
improving solution size 28
TIMEOUT
best clique: 1499 1498 1497 1120 704 619 523 360 339 327 326 506 309 229 166 152 141 101 100 87 83 78 372 62 51 28 26 0 
record          =          28
subp            =  4445531090
time            =  3600.00006
