timeout 3600 s
Graph with 500 vertices and 31569 edges density 0.253058
start search
improving solution size 1
improving solution size 2
improving solution size 3
improving solution size 4
improving solution size 5
improving solution size 6
improving solution size 7
improving solution size 8
improving solution size 9
improving solution size 10
improving solution size 11
improving solution size 12
improving solution size 13
improving solution size 14
TIMEOUT
best clique: 497 212 191 180 175 103 101 71 59 47 45 43 7 51 
record          =          14
subp            =  4497007515
time            =  3600.00050
