timeout 3600 s
Graph with 1000 vertices and 244799 edges density 0.490088
start search
improving solution size 1
improving solution size 2
improving solution size 3
improving solution size 4
improving solution size 5
improving solution size 6
improving solution size 7
improving solution size 8
improving solution size 9
improving solution size 10
improving solution size 11
improving solution size 12
improving solution size 13
improving solution size 14
improving solution size 15
improving solution size 16
improving solution size 17
improving solution size 18
improving solution size 19
improving solution size 20
improving solution size 21
improving solution size 22
improving solution size 23
improving solution size 24
improving solution size 25
improving solution size 26
improving solution size 27
improving solution size 28
TIMEOUT
best clique: 999 998 994 537 533 435 304 280 276 229 159 154 139 138 133 132 131 112 78 71 69 128 67 50 48 46 83 15 
record          =          28
subp            =  5266113853
time            =  3600.00053
