timeout 3600 s
Graph with 400 vertices and 55869 edges density 0.700113
start search
improving solution size 1
improving solution size 2
improving solution size 3
improving solution size 4
improving solution size 5
improving solution size 6
improving solution size 7
improving solution size 8
improving solution size 9
improving solution size 10
improving solution size 11
improving solution size 12
improving solution size 13
improving solution size 14
improving solution size 15
improving solution size 16
improving solution size 17
improving solution size 18
improving solution size 19
improving solution size 20
improving solution size 21
improving solution size 22
improving solution size 23
improving solution size 24
improving solution size 25
improving solution size 26
improving solution size 27
TIMEOUT
best clique: 399 398 397 396 395 394 354 351 340 320 304 297 266 222 221 206 186 161 152 129 111 102 95 51 80 24 22 
record          =          27
subp            =  4903567669
time            =  3600.00011
