timeout 3600 s
Graph with 200 vertices and 14834 edges density 0.745427
start search
improving solution size 1
improving solution size 2
improving solution size 3
improving solution size 4
improving solution size 5
improving solution size 6
improving solution size 7
improving solution size 8
improving solution size 9
improving solution size 10
improving solution size 11
improving solution size 12
improving solution size 13
improving solution size 14
improving solution size 15
improving solution size 16
improving solution size 17
improving solution size 18
improving solution size 19
improving solution size 20
improving solution size 21
improving solution size 22
improving solution size 23
improving solution size 24
improving solution size 25
best clique: 198 192 189 179 174 148 140 142 136 131 121 119 108 106 103 102 100 93 58 51 48 46 25 3 1 
record          =          25
subp            =   399986809
time            =   687.76339
