timeout 3600 s
Graph with 200 vertices and 9876 edges density 0.496281
start search
improving solution size 1
improving solution size 2
improving solution size 3
improving solution size 4
improving solution size 5
improving solution size 6
improving solution size 7
improving solution size 8
improving solution size 9
improving solution size 10
improving solution size 11
improving solution size 12
improving solution size 13
best clique: 195 182 177 165 155 102 101 89 84 83 75 43 64 
record          =          13
subp            =      643801
time            =     0.98858
