timeout 3600 s
Graph with 200 vertices and 13089 edges density 0.657739
start search
improving solution size 1
improving solution size 2
improving solution size 3
improving solution size 4
improving solution size 5
improving solution size 6
improving solution size 7
improving solution size 8
improving solution size 9
improving solution size 10
improving solution size 11
improving solution size 12
improving solution size 13
improving solution size 14
improving solution size 15
improving solution size 16
improving solution size 17
improving solution size 18
improving solution size 19
best clique: 199 195 174 142 131 154 116 107 104 91 71 64 62 61 45 41 9 6 1 
record          =          19
subp            =    22225212
time            =    34.60500
