timeout 3600 s
Graph with 200 vertices and 3235 edges density 0.162563
start search
improving solution size 1
improving solution size 2
improving solution size 3
improving solution size 4
improving solution size 5
improving solution size 6
improving solution size 7
improving solution size 8
improving solution size 9
improving solution size 10
improving solution size 11
improving solution size 12
improving solution size 13
improving solution size 14
improving solution size 15
improving solution size 16
improving solution size 17
improving solution size 18
improving solution size 19
improving solution size 20
improving solution size 21
improving solution size 22
improving solution size 23
improving solution size 24
best clique: 199 198 181 180 163 162 145 144 127 126 109 108 91 90 73 72 55 54 37 36 19 18 1 0 
record          =          24
subp            =         679
time            =     0.00143
