timeout 3600 s
Graph with 500 vertices and 46627 edges density 0.373764
start search
improving solution size 1
improving solution size 2
improving solution size 3
improving solution size 4
improving solution size 5
improving solution size 6
improving solution size 7
improving solution size 8
improving solution size 9
improving solution size 10
improving solution size 11
improving solution size 12
improving solution size 13
improving solution size 14
improving solution size 15
improving solution size 16
improving solution size 17
improving solution size 18
improving solution size 19
improving solution size 20
improving solution size 21
improving solution size 22
improving solution size 23
improving solution size 24
improving solution size 25
improving solution size 26
improving solution size 27
improving solution size 28
improving solution size 29
improving solution size 30
improving solution size 31
improving solution size 32
improving solution size 33
improving solution size 34
improving solution size 35
improving solution size 36
improving solution size 37
improving solution size 38
improving solution size 39
improving solution size 40
improving solution size 41
improving solution size 42
improving solution size 43
improving solution size 44
improving solution size 45
improving solution size 46
improving solution size 47
improving solution size 48
improving solution size 49
improving solution size 50
improving solution size 51
improving solution size 52
improving solution size 53
improving solution size 54
improving solution size 55
improving solution size 56
improving solution size 57
improving solution size 58
improving solution size 59
improving solution size 60
improving solution size 61
improving solution size 62
improving solution size 63
improving solution size 64
improving solution size 65
improving solution size 66
improving solution size 67
improving solution size 68
improving solution size 69
improving solution size 70
improving solution size 71
improving solution size 72
improving solution size 73
improving solution size 74
improving solution size 75
improving solution size 76
improving solution size 77
improving solution size 78
improving solution size 79
improving solution size 80
improving solution size 81
improving solution size 82
improving solution size 83
improving solution size 84
improving solution size 85
improving solution size 86
improving solution size 87
improving solution size 88
improving solution size 89
improving solution size 90
improving solution size 91
improving solution size 92
improving solution size 93
improving solution size 94
improving solution size 95
improving solution size 96
improving solution size 97
improving solution size 98
improving solution size 99
improving solution size 100
improving solution size 101
improving solution size 102
improving solution size 103
improving solution size 104
improving solution size 105
improving solution size 106
improving solution size 107
improving solution size 108
improving solution size 109
improving solution size 110
improving solution size 111
improving solution size 112
improving solution size 113
improving solution size 114
improving solution size 115
improving solution size 116
improving solution size 117
improving solution size 118
improving solution size 119
improving solution size 120
improving solution size 121
improving solution size 122
improving solution size 123
improving solution size 124
improving solution size 125
improving solution size 126
best clique: 499 498 491 490 483 482 475 474 467 466 459 458 451 450 443 442 435 434 427 426 419 418 411 410 403 402 395 394 387 386 379 378 371 370 363 362 355 354 347 346 339 338 331 330 323 322 315 314 307 306 299 298 291 290 283 282 275 274 267 266 259 258 251 250 243 242 235 234 227 226 219 218 211 210 203 202 195 194 187 186 179 178 171 170 163 162 155 154 147 146 139 138 131 130 123 122 115 114 107 106 99 98 91 90 83 82 75 74 67 66 59 58 51 50 43 42 35 34 27 26 19 18 11 10 3 2 
record          =         126
subp            =        8907
time            =     0.01836
