timeout 3600 s
Graph with 250 vertices and 27984 edges density 0.899084
start search
improving solution size 1
improving solution size 2
improving solution size 3
improving solution size 4
improving solution size 5
improving solution size 6
improving solution size 7
improving solution size 8
improving solution size 9
improving solution size 10
improving solution size 11
improving solution size 12
improving solution size 13
improving solution size 14
improving solution size 15
improving solution size 16
improving solution size 17
improving solution size 18
improving solution size 19
improving solution size 20
improving solution size 21
improving solution size 22
improving solution size 23
improving solution size 24
improving solution size 25
improving solution size 26
improving solution size 27
improving solution size 28
improving solution size 29
improving solution size 30
improving solution size 31
improving solution size 32
improving solution size 33
improving solution size 34
improving solution size 35
improving solution size 36
improving solution size 37
improving solution size 38
improving solution size 39
improving solution size 40
improving solution size 41
improving solution size 42
improving solution size 43
improving solution size 44
improving solution size 45
improving solution size 46
improving solution size 47
improving solution size 48
TIMEOUT
best clique: 249 248 247 246 245 244 243 242 238 230 229 226 225 217 211 208 205 198 193 188 179 172 170 164 160 158 149 140 126 124 123 110 108 93 92 86 83 62 65 56 50 49 46 31 26 9 5 0 
record          =          48
subp            =  1668764097
time            =  3600.00165
