timeout 3600 s
Graph with 4000 vertices and 4000268 edges density 0.500159
start search
improving solution size 1
improving solution size 2
improving solution size 3
improving solution size 4
improving solution size 5
improving solution size 6
improving solution size 7
improving solution size 8
improving solution size 9
improving solution size 10
improving solution size 11
improving solution size 12
improving solution size 13
improving solution size 14
improving solution size 15
improving solution size 16
improving solution size 17
improving solution size 18
improving solution size 19
TIMEOUT
best clique: 3999 3998 3995 3986 3927 3267 2964 2746 2376 2070 1872 1535 1470 789 747 372 321 223 109 
record          =          19
subp            =   879045167
time            =  3600.00086
