timeout 3600 s
Graph with 500 vertices and 112332 edges density 0.900457
start search
improving solution size 1
improving solution size 2
improving solution size 3
improving solution size 4
improving solution size 5
improving solution size 6
improving solution size 7
improving solution size 8
improving solution size 9
improving solution size 10
improving solution size 11
improving solution size 12
improving solution size 13
improving solution size 14
improving solution size 15
improving solution size 16
improving solution size 17
improving solution size 18
improving solution size 19
improving solution size 20
improving solution size 21
improving solution size 22
improving solution size 23
improving solution size 24
improving solution size 25
improving solution size 26
improving solution size 27
improving solution size 28
improving solution size 29
improving solution size 30
improving solution size 31
improving solution size 32
improving solution size 33
improving solution size 34
improving solution size 35
improving solution size 36
improving solution size 37
improving solution size 38
improving solution size 39
improving solution size 40
improving solution size 41
improving solution size 42
improving solution size 43
improving solution size 44
improving solution size 45
improving solution size 46
improving solution size 47
improving solution size 48
improving solution size 49
improving solution size 50
improving solution size 51
improving solution size 52
improving solution size 53
improving solution size 54
improving solution size 55
improving solution size 56
TIMEOUT
best clique: 499 498 497 496 495 494 492 491 490 489 487 486 480 478 475 467 460 455 433 381 421 373 370 334 349 321 320 294 289 279 273 258 229 223 210 172 317 169 167 153 203 151 138 117 110 92 87 84 82 81 69 51 50 48 14 5 
record          =          56
subp            =  1304571268
time            =  3600.00189
