timeout 3600 s
Graph with 1024 vertices and 434176 edges density 0.828935
start search
improving solution size 1
improving solution size 2
improving solution size 3
improving solution size 4
improving solution size 5
improving solution size 6
improving solution size 7
improving solution size 8
improving solution size 9
improving solution size 10
improving solution size 11
improving solution size 12
improving solution size 13
improving solution size 14
improving solution size 15
improving solution size 16
improving solution size 17
improving solution size 18
improving solution size 19
improving solution size 20
improving solution size 21
improving solution size 22
improving solution size 23
improving solution size 24
improving solution size 25
improving solution size 26
improving solution size 27
improving solution size 28
improving solution size 29
improving solution size 30
improving solution size 31
improving solution size 32
improving solution size 33
improving solution size 34
improving solution size 35
improving solution size 36
TIMEOUT
best clique: 1023 1022 993 992 921 920 903 902 853 852 843 842 819 813 723 693 722 543 365 683 371 633 615 717 614 197 513 437 427 249 172 58 48 159 12 3 
record          =          36
subp            =  1475809335
time            =  3600.00066
