timeout 3600 s
Graph with 64 vertices and 704 edges density 0.349206
start search
improving solution size 1
improving solution size 2
improving solution size 3
improving solution size 4
improving solution size 5
improving solution size 6
best clique: 63 60 34 18 9 5 
record          =           6
subp            =         639
time            =     0.00090
