timeout 3600 s
Graph with 64 vertices and 1824 edges density 0.904762
start search
improving solution size 1
improving solution size 2
improving solution size 3
improving solution size 4
improving solution size 5
improving solution size 6
improving solution size 7
improving solution size 8
improving solution size 9
improving solution size 10
improving solution size 11
improving solution size 12
improving solution size 13
improving solution size 14
improving solution size 15
improving solution size 16
improving solution size 17
improving solution size 18
improving solution size 19
improving solution size 20
improving solution size 21
improving solution size 22
improving solution size 23
improving solution size 24
improving solution size 25
improving solution size 26
improving solution size 27
improving solution size 28
improving solution size 29
improving solution size 30
improving solution size 31
improving solution size 32
best clique: 63 62 57 56 53 52 51 50 45 44 43 42 39 38 33 32 29 28 27 26 23 22 17 16 15 14 9 8 5 4 3 2 
record          =          32
subp            =         733
time            =     0.00080
