timeout 3600 s
Graph with 496 vertices and 107880 edges density 0.878788
start search
improving solution size 1
improving solution size 2
improving solution size 3
improving solution size 4
improving solution size 5
improving solution size 6
improving solution size 7
improving solution size 8
improving solution size 9
improving solution size 10
improving solution size 11
improving solution size 12
improving solution size 13
improving solution size 14
improving solution size 15
improving solution size 16
improving solution size 17
improving solution size 18
improving solution size 19
improving solution size 20
improving solution size 21
TIMEOUT
best clique: 495 494 405 404 324 323 252 251 189 188 135 134 90 89 54 53 27 26 9 8 0 
record          =          21
subp            =  5473043576
time            =  3600.00040
