timeout 3600 s
Graph with 45 vertices and 918 edges density 0.927273
start search
improving solution size 1
improving solution size 2
improving solution size 3
improving solution size 4
improving solution size 5
improving solution size 6
improving solution size 7
improving solution size 8
improving solution size 9
improving solution size 10
improving solution size 11
improving solution size 12
improving solution size 13
improving solution size 14
improving solution size 15
improving solution size 16
improving solution size 17
improving solution size 18
improving solution size 19
improving solution size 20
improving solution size 21
improving solution size 22
improving solution size 23
improving solution size 24
improving solution size 25
improving solution size 26
best clique: 44 43 41 40 38 37 35 34 32 31 29 28 26 25 23 22 20 19 17 16 14 13 11 2 1 0 
record          =          26
subp            =         556
time            =     0.00035
