timeout 3600 s
Graph with 700 vertices and 60999 edges density 0.249332
start search
improving solution size 1
improving solution size 2
improving solution size 3
improving solution size 4
improving solution size 5
improving solution size 6
improving solution size 7
improving solution size 8
improving solution size 9
improving solution size 10
improving solution size 11
improving solution size 12
improving solution size 13
best clique: 685 558 536 527 512 458 401 396 333 305 253 116 115 
record          =          13
subp            =     4546579
time            =    14.89128
