timeout 3600 s
Graph with 1000 vertices and 244799 edges density 0.490088
start search
improving solution size 1
improving solution size 2
improving solution size 3
improving solution size 4
improving solution size 5
improving solution size 6
improving solution size 7
improving solution size 8
improving solution size 9
improving solution size 10
improving solution size 11
improving solution size 12
improving solution size 13
improving solution size 14
improving solution size 15
improving solution size 16
improving solution size 17
improving solution size 18
improving solution size 19
improving solution size 20
improving solution size 21
improving solution size 22
improving solution size 23
improving solution size 24
improving solution size 25
improving solution size 26
improving solution size 27
improving solution size 28
improving solution size 29
improving solution size 30
improving solution size 31
improving solution size 32
improving solution size 33
improving solution size 34
improving solution size 35
improving solution size 36
improving solution size 37
improving solution size 38
improving solution size 39
improving solution size 40
improving solution size 41
TIMEOUT
best clique: 999 998 996 994 966 921 899 850 829 823 800 781 775 753 715 670 661 652 640 607 636 564 561 463 460 377 342 334 283 280 261 238 226 193 172 170 141 121 84 64 32 
record          =          41
subp            =  1167041876
time            =  3600.00308
