timeout 3600 s
Graph with 1500 vertices and 568960 edges density 0.506080
start search
improving solution size 1
improving solution size 2
improving solution size 3
improving solution size 4
improving solution size 5
improving solution size 6
improving solution size 7
improving solution size 8
improving solution size 9
improving solution size 10
improving solution size 11
improving solution size 12
improving solution size 13
improving solution size 14
improving solution size 15
improving solution size 16
improving solution size 17
improving solution size 18
improving solution size 19
improving solution size 20
improving solution size 21
improving solution size 22
improving solution size 23
improving solution size 24
improving solution size 25
improving solution size 26
improving solution size 27
improving solution size 28
improving solution size 29
improving solution size 30
improving solution size 31
improving solution size 32
improving solution size 33
improving solution size 34
improving solution size 35
improving solution size 36
improving solution size 37
improving solution size 38
improving solution size 39
improving solution size 40
improving solution size 41
improving solution size 42
improving solution size 43
improving solution size 44
improving solution size 45
improving solution size 46
improving solution size 47
improving solution size 48
improving solution size 49
improving solution size 50
improving solution size 51
improving solution size 52
improving solution size 53
TIMEOUT
best clique: 1499 1498 1496 1494 1492 1484 1463 1459 1456 1418 1415 1410 1384 1266 1243 1414 1175 1166 1144 1134 1120 1071 1033 972 1055 959 919 825 927 817 759 737 697 690 688 647 621 528 905 520 481 449 433 419 385 1038 391 172 651 72 67 30 10 
record          =          53
subp            =   844973129
time            =  3600.00042
