timeout 3600 s
Graph with 300 vertices and 21928 edges density 0.488919
start search
improving solution size 1
improving solution size 2
improving solution size 3
improving solution size 4
improving solution size 5
improving solution size 6
improving solution size 7
improving solution size 8
improving solution size 9
improving solution size 10
improving solution size 11
improving solution size 12
improving solution size 13
improving solution size 14
improving solution size 15
improving solution size 16
improving solution size 17
improving solution size 18
improving solution size 19
improving solution size 20
improving solution size 21
improving solution size 22
improving solution size 23
improving solution size 24
improving solution size 25
improving solution size 26
improving solution size 27
improving solution size 28
improving solution size 29
best clique: 296 295 292 289 272 258 280 254 251 221 236 218 204 198 189 173 158 148 138 88 78 75 74 55 43 39 37 19 3 
record          =          29
subp            =    23650093
time            =    56.34831
