timeout 3600 s
Graph with 500 vertices and 62946 edges density 0.504577
start search
improving solution size 1
improving solution size 2
improving solution size 3
improving solution size 4
improving solution size 5
improving solution size 6
improving solution size 7
improving solution size 8
improving solution size 9
improving solution size 10
improving solution size 11
improving solution size 12
improving solution size 13
improving solution size 14
improving solution size 15
improving solution size 16
improving solution size 17
improving solution size 18
improving solution size 19
improving solution size 20
improving solution size 21
improving solution size 22
improving solution size 23
improving solution size 24
improving solution size 25
improving solution size 26
improving solution size 27
improving solution size 28
improving solution size 29
improving solution size 30
improving solution size 31
improving solution size 32
improving solution size 33
improving solution size 34
improving solution size 35
improving solution size 36
improving solution size 37
improving solution size 38
improving solution size 39
improving solution size 40
improving solution size 41
TIMEOUT
best clique: 499 498 489 488 479 474 454 446 434 431 424 411 403 383 367 407 348 347 341 369 335 301 299 293 237 236 281 230 220 205 202 201 159 149 145 123 70 62 36 29 9 
record          =          41
subp            =  1286173889
time            =  3600.00118
