timeout 3600 s
Graph with 200 vertices and 13930 edges density 0.700000
start search
improving solution size 1
improving solution size 2
improving solution size 3
improving solution size 4
improving solution size 5
improving solution size 6
improving solution size 7
improving solution size 8
improving solution size 9
improving solution size 10
improving solution size 11
improving solution size 12
improving solution size 13
improving solution size 14
improving solution size 15
improving solution size 16
improving solution size 17
improving solution size 18
improving solution size 19
improving solution size 20
improving solution size 21
improving solution size 22
improving solution size 23
improving solution size 24
best clique: 199 198 197 196 195 193 192 190 187 179 171 169 163 161 160 148 145 138 137 133 121 91 56 35 
record          =          24
subp            =       91625
time            =     0.30072
