timeout 3600 s
Graph with 400 vertices and 59723 edges density 0.748409
start search
improving solution size 1
improving solution size 2
improving solution size 3
improving solution size 4
improving solution size 5
improving solution size 6
improving solution size 7
improving solution size 8
improving solution size 9
improving solution size 10
improving solution size 11
improving solution size 12
improving solution size 13
improving solution size 14
improving solution size 15
improving solution size 16
improving solution size 17
improving solution size 18
improving solution size 19
improving solution size 20
improving solution size 21
improving solution size 22
improving solution size 23
improving solution size 24
improving solution size 25
improving solution size 26
improving solution size 27
improving solution size 28
improving solution size 29
improving solution size 30
improving solution size 31
improving solution size 32
TIMEOUT
best clique: 399 398 397 396 391 388 347 332 309 287 289 278 245 243 240 217 180 157 143 133 137 134 124 118 115 85 70 68 61 54 36 12 
record          =          32
subp            =  1839313476
time            =  3600.00117
