timeout 3600 s
Graph with 200 vertices and 14834 edges density 0.745427
start search
improving solution size 1
improving solution size 2
improving solution size 3
improving solution size 4
improving solution size 5
improving solution size 6
improving solution size 7
improving solution size 8
improving solution size 9
improving solution size 10
improving solution size 11
improving solution size 12
improving solution size 13
improving solution size 14
improving solution size 15
improving solution size 16
improving solution size 17
improving solution size 18
improving solution size 19
improving solution size 20
improving solution size 21
improving solution size 22
improving solution size 23
improving solution size 24
improving solution size 25
improving solution size 26
improving solution size 27
improving solution size 28
TIMEOUT
best clique: 199 198 195 194 190 181 163 155 143 137 132 156 179 125 114 98 109 69 44 40 37 35 48 33 26 19 7 3 
record          =          28
subp            =  2147823678
time            =  3600.00054
