timeout 3600 s
Graph with 800 vertices and 207643 edges density 0.649696
start search
improving solution size 1
improving solution size 2
improving solution size 3
improving solution size 4
improving solution size 5
improving solution size 6
improving solution size 7
improving solution size 8
improving solution size 9
improving solution size 10
improving solution size 11
improving solution size 12
improving solution size 13
improving solution size 14
improving solution size 15
improving solution size 16
improving solution size 17
improving solution size 18
improving solution size 19
improving solution size 20
improving solution size 21
improving solution size 22
improving solution size 23
improving solution size 24
improving solution size 25
improving solution size 26
TIMEOUT
best clique: 799 798 797 796 788 775 732 692 635 568 585 556 553 534 508 478 459 457 295 268 245 238 197 174 88 56 
record          =          26
subp            =  1607075470
time            =  3600.00144
