timeout 3600 s
Graph with 1000 vertices and 450079 edges density 0.901059
start search
improving solution size 1
improving solution size 2
improving solution size 3
improving solution size 4
improving solution size 5
improving solution size 6
improving solution size 7
improving solution size 8
improving solution size 9
improving solution size 10
improving solution size 11
improving solution size 12
improving solution size 13
improving solution size 14
improving solution size 15
improving solution size 16
improving solution size 17
improving solution size 18
improving solution size 19
improving solution size 20
improving solution size 21
improving solution size 22
improving solution size 23
improving solution size 24
improving solution size 25
improving solution size 26
improving solution size 27
improving solution size 28
improving solution size 29
improving solution size 30
improving solution size 31
improving solution size 32
improving solution size 33
improving solution size 34
improving solution size 35
improving solution size 36
improving solution size 37
improving solution size 38
improving solution size 39
improving solution size 40
improving solution size 41
improving solution size 42
improving solution size 43
improving solution size 44
improving solution size 45
improving solution size 46
improving solution size 47
improving solution size 48
improving solution size 49
improving solution size 50
improving solution size 51
improving solution size 52
improving solution size 53
improving solution size 54
improving solution size 55
improving solution size 56
improving solution size 57
improving solution size 58
improving solution size 59
improving solution size 60
improving solution size 61
improving solution size 62
improving solution size 63
improving solution size 64
improving solution size 65
improving solution size 66
improving solution size 67
improving solution size 68
improving solution size 69
TIMEOUT
best clique: 999 998 997 996 995 994 993 992 991 989 988 986 985 984 979 978 977 974 973 970 963 960 959 953 940 938 937 936 935 934 932 923 914 893 863 796 712 679 675 715 604 600 585 573 553 506 500 495 460 405 379 343 554 284 283 279 240 229 213 165 154 115 110 65 49 30 146 22 2 
record          =          69
subp            =   937539603
time            =  3600.00076
