timeout 3600 s
Graph with 400 vertices and 71820 edges density 0.900000
start search
improving solution size 1
improving solution size 2
improving solution size 3
improving solution size 4
improving solution size 5
improving solution size 6
improving solution size 7
improving solution size 8
improving solution size 9
improving solution size 10
improving solution size 11
improving solution size 12
improving solution size 13
improving solution size 14
improving solution size 15
improving solution size 16
improving solution size 17
improving solution size 18
improving solution size 19
improving solution size 20
improving solution size 21
improving solution size 22
improving solution size 23
improving solution size 24
improving solution size 25
improving solution size 26
improving solution size 27
improving solution size 28
improving solution size 29
improving solution size 30
improving solution size 31
improving solution size 32
improving solution size 33
improving solution size 34
improving solution size 35
improving solution size 36
improving solution size 37
improving solution size 38
improving solution size 39
improving solution size 40
improving solution size 41
improving solution size 42
improving solution size 43
improving solution size 44
improving solution size 45
improving solution size 46
improving solution size 47
improving solution size 48
improving solution size 49
improving solution size 50
improving solution size 51
improving solution size 52
improving solution size 53
improving solution size 54
improving solution size 55
improving solution size 56
improving solution size 57
improving solution size 58
improving solution size 59
improving solution size 60
improving solution size 61
improving solution size 62
improving solution size 63
improving solution size 64
improving solution size 65
TIMEOUT
best clique: 399 398 397 396 395 394 393 392 391 390 389 388 387 386 385 382 378 375 374 373 369 361 360 356 345 338 329 320 312 306 293 292 291 269 258 246 245 242 241 202 194 192 190 230 177 224 149 182 148 142 133 328 125 115 94 90 86 74 68 66 57 52 42 34 5 
record          =          65
subp            =  1218920703
time            =  3600.00156
