timeout 3600 s
Graph with 256 vertices and 31616 edges density 0.968627
start search
improving solution size 1
improving solution size 2
improving solution size 3
improving solution size 4
improving solution size 5
improving solution size 6
improving solution size 7
improving solution size 8
improving solution size 9
improving solution size 10
improving solution size 11
improving solution size 12
improving solution size 13
improving solution size 14
improving solution size 15
improving solution size 16
improving solution size 17
improving solution size 18
improving solution size 19
improving solution size 20
improving solution size 21
improving solution size 22
improving solution size 23
improving solution size 24
improving solution size 25
improving solution size 26
improving solution size 27
improving solution size 28
improving solution size 29
improving solution size 30
improving solution size 31
improving solution size 32
improving solution size 33
improving solution size 34
improving solution size 35
improving solution size 36
improving solution size 37
improving solution size 38
improving solution size 39
improving solution size 40
improving solution size 41
improving solution size 42
improving solution size 43
improving solution size 44
improving solution size 45
improving solution size 46
improving solution size 47
improving solution size 48
improving solution size 49
improving solution size 50
improving solution size 51
improving solution size 52
improving solution size 53
improving solution size 54
improving solution size 55
improving solution size 56
improving solution size 57
improving solution size 58
improving solution size 59
improving solution size 60
improving solution size 61
improving solution size 62
improving solution size 63
improving solution size 64
improving solution size 65
improving solution size 66
improving solution size 67
improving solution size 68
improving solution size 69
improving solution size 70
improving solution size 71
improving solution size 72
improving solution size 73
improving solution size 74
improving solution size 75
improving solution size 76
improving solution size 77
improving solution size 78
improving solution size 79
improving solution size 80
improving solution size 81
improving solution size 82
improving solution size 83
improving solution size 84
improving solution size 85
improving solution size 86
improving solution size 87
improving solution size 88
improving solution size 89
improving solution size 90
improving solution size 91
improving solution size 92
improving solution size 93
improving solution size 94
improving solution size 95
improving solution size 96
improving solution size 97
improving solution size 98
improving solution size 99
improving solution size 100
improving solution size 101
improving solution size 102
improving solution size 103
improving solution size 104
improving solution size 105
improving solution size 106
improving solution size 107
improving solution size 108
improving solution size 109
improving solution size 110
improving solution size 111
improving solution size 112
improving solution size 113
improving solution size 114
improving solution size 115
improving solution size 116
improving solution size 117
improving solution size 118
improving solution size 119
improving solution size 120
improving solution size 121
improving solution size 122
improving solution size 123
improving solution size 124
improving solution size 125
improving solution size 126
improving solution size 127
improving solution size 128
best clique: 255 254 253 252 243 242 241 240 235 234 233 232 231 230 229 228 219 218 217 216 215 214 213 212 207 206 205 204 195 194 193 192 187 186 185 184 183 182 181 180 175 174 173 172 163 162 161 160 159 158 157 156 147 146 145 144 139 138 137 136 135 134 133 132 123 122 121 120 119 118 117 116 111 110 109 108 99 98 97 96 95 94 93 92 83 82 81 80 75 74 73 72 71 70 69 68 63 62 61 60 51 50 49 48 43 42 41 40 39 38 37 36 27 26 25 24 23 22 21 20 15 14 13 12 3 2 1 0 
record          =         128
subp            =       11221
time            =     0.04321
