timeout 3600 s
Graph with 300 vertices and 33390 edges density 0.744482
start search
improving solution size 1
improving solution size 2
improving solution size 3
improving solution size 4
improving solution size 5
improving solution size 6
improving solution size 7
improving solution size 8
improving solution size 9
improving solution size 10
improving solution size 11
improving solution size 12
improving solution size 13
improving solution size 14
improving solution size 15
improving solution size 16
improving solution size 17
improving solution size 18
improving solution size 19
improving solution size 20
improving solution size 21
improving solution size 22
improving solution size 23
improving solution size 24
improving solution size 25
improving solution size 26
improving solution size 27
improving solution size 28
improving solution size 29
improving solution size 30
improving solution size 31
improving solution size 32
improving solution size 33
improving solution size 34
improving solution size 35
improving solution size 36
improving solution size 37
improving solution size 38
improving solution size 39
improving solution size 40
improving solution size 41
improving solution size 42
improving solution size 43
improving solution size 44
improving solution size 45
improving solution size 46
improving solution size 47
TIMEOUT
best clique: 299 298 297 296 295 292 290 282 279 273 254 244 259 245 251 234 220 230 204 189 178 165 159 158 218 155 198 145 138 121 118 106 103 97 152 88 78 75 74 101 55 48 47 43 39 17 3 
record          =          47
subp            =  1379336959
time            =  3600.00215
