timeout 3600 s
Graph with 1000 vertices and 122253 edges density 0.244751
start search
improving solution size 1
improving solution size 2
improving solution size 3
improving solution size 4
improving solution size 5
improving solution size 6
improving solution size 7
improving solution size 8
improving solution size 9
improving solution size 10
improving solution size 11
improving solution size 12
improving solution size 13
improving solution size 14
TIMEOUT
best clique: 999 997 966 960 730 652 517 180 342 153 141 137 83 80 
record          =          14
subp            =  1170683514
time            =  3600.00182
