timeout 3600 s
Graph with 500 vertices and 31569 edges density 0.253058
start search
improving solution size 1
improving solution size 2
improving solution size 3
improving solution size 4
improving solution size 5
improving solution size 6
improving solution size 7
improving solution size 8
improving solution size 9
improving solution size 10
improving solution size 11
improving solution size 12
improving solution size 13
best clique: 499 498 367 301 295 270 214 189 201 138 88 60 22 
record          =          13
subp            =   175526975
time            =   474.74089
