timeout 3600 s
Graph with 1000 vertices and 244799 edges density 0.490088
start search
improving solution size 1
improving solution size 2
improving solution size 3
improving solution size 4
improving solution size 5
improving solution size 6
improving solution size 7
improving solution size 8
improving solution size 9
improving solution size 10
improving solution size 11
improving solution size 12
improving solution size 13
improving solution size 14
improving solution size 15
improving solution size 16
improving solution size 17
improving solution size 18
improving solution size 19
improving solution size 20
improving solution size 21
improving solution size 22
improving solution size 23
improving solution size 24
improving solution size 25
improving solution size 26
improving solution size 27
improving solution size 28
improving solution size 29
improving solution size 30
improving solution size 31
improving solution size 32
improving solution size 33
improving solution size 34
improving solution size 35
improving solution size 36
improving solution size 37
improving solution size 38
improving solution size 39
improving solution size 40
improving solution size 41
improving solution size 42
improving solution size 43
improving solution size 44
TIMEOUT
best clique: 999 998 997 996 994 992 966 960 956 926 850 829 818 800 784 775 753 756 715 781 652 640 607 561 670 460 388 377 334 284 282 262 248 226 488 193 178 170 161 141 139 121 64 241 
record          =          44
subp            =  1244075833
time            =  3600.00180
