timeout 3600 s
Graph with 200 vertices and 13868 edges density 0.696884
start search
improving solution size 1
improving solution size 2
improving solution size 3
improving solution size 4
improving solution size 5
improving solution size 6
improving solution size 7
improving solution size 8
improving solution size 9
improving solution size 10
improving solution size 11
improving solution size 12
improving solution size 13
improving solution size 14
improving solution size 15
improving solution size 16
improving solution size 17
improving solution size 18
improving solution size 19
improving solution size 20
improving solution size 21
improving solution size 22
improving solution size 23
improving solution size 24
improving solution size 25
TIMEOUT
best clique: 199 195 187 180 178 170 164 143 142 113 93 84 129 88 87 81 75 65 53 49 48 35 26 1 70 
record          =          25
subp            =  2209814607
time            =  3600.00117
