timeout 3600 s
Graph with 800 vertices and 207333 edges density 0.648727
t = 414666, Enbr = 207333
pos[799] = 560 degree 474
pos[798] = 386 degree 478
pos[797] = 601 degree 481
pos[796] = 149 degree 482
pos[795] = 441 degree 483
pos[794] = 330 degree 482
pos[793] = 163 degree 482
pos[792] = 755 degree 483
pos[791] = 477 degree 482
pos[790] = 72 degree 481
pos[789] = 390 degree 481
pos[788] = 30 degree 480
pos[787] = 516 degree 480
pos[786] = 735 degree 480
pos[785] = 602 degree 480
pos[784] = 320 degree 479
pos[783] = 280 degree 478
pos[782] = 663 degree 479
pos[781] = 589 degree 479
pos[780] = 541 degree 478
pos[779] = 510 degree 478
pos[778] = 122 degree 477
pos[777] = 45 degree 477
pos[776] = 539 degree 478
pos[775] = 398 degree 477
pos[774] = 503 degree 477
pos[773] = 353 degree 476
pos[772] = 177 degree 475
pos[771] = 641 degree 475
pos[770] = 637 degree 475
pos[769] = 152 degree 474
pos[768] = 135 degree 473
pos[767] = 252 degree 473
pos[766] = 757 degree 473
pos[765] = 356 degree 474
pos[764] = 250 degree 473
pos[763] = 682 degree 473
pos[762] = 685 degree 473
pos[761] = 496 degree 472
pos[760] = 324 degree 472
pos[759] = 307 degree 471
pos[758] = 117 degree 470
pos[757] = 255 degree 470
pos[756] = 156 degree 469
pos[755] = 133 degree 469
pos[754] = 261 degree 469
pos[753] = 667 degree 469
pos[752] = 376 degree 468
pos[751] = 609 degree 468
pos[750] = 384 degree 467
pos[749] = 176 degree 466
pos[748] = 531 degree 466
pos[747] = 70 degree 466
pos[746] = 411 degree 466
pos[745] = 186 degree 465
pos[744] = 303 degree 465
pos[743] = 284 degree 464
pos[742] = 740 degree 464
pos[741] = 258 degree 463
pos[740] = 115 degree 462
pos[739] = 75 degree 461
pos[738] = 665 degree 462
pos[737] = 780 degree 462
pos[736] = 581 degree 461
pos[735] = 151 degree 460
pos[734] = 383 degree 460
pos[733] = 725 degree 460
pos[732] = 162 degree 459
pos[731] = 473 degree 459
pos[730] = 113 degree 458
pos[729] = 656 degree 458
pos[728] = 648 degree 457
pos[727] = 379 degree 456
pos[726] = 352 degree 455
pos[725] = 338 degree 455
pos[724] = 207 degree 454
pos[723] = 18 degree 454
pos[722] = 763 degree 454
pos[721] = 604 degree 454
pos[720] = 545 degree 453
pos[719] = 345 degree 452
pos[718] = 741 degree 452
pos[717] = 594 degree 451
pos[716] = 744 degree 451
pos[715] = 591 degree 450
pos[714] = 227 degree 449
pos[713] = 127 degree 449
pos[712] = 626 degree 449
pos[711] = 431 degree 448
pos[710] = 148 degree 447
pos[709] = 742 degree 447
pos[708] = 336 degree 446
pos[707] = 129 degree 445
pos[706] = 425 degree 445
pos[705] = 692 degree 445
pos[704] = 575 degree 444
pos[703] = 315 degree 443
pos[702] = 232 degree 442
pos[701] = 220 degree 442
pos[700] = 173 degree 441
pos[699] = 33 degree 440
pos[698] = 362 degree 440
pos[697] = 6 degree 439
pos[696] = 193 degree 439
pos[695] = 161 degree 438
pos[694] = 421 degree 438
pos[693] = 204 degree 437
pos[692] = 746 degree 437
pos[691] = 410 degree 436
pos[690] = 110 degree 435
pos[689] = 536 degree 435
pos[688] = 109 degree 435
pos[687] = 452 degree 435
pos[686] = 762 degree 435
pos[685] = 393 degree 434
pos[684] = 446 degree 434
pos[683] = 240 degree 433
pos[682] = 219 degree 432
pos[681] = 73 degree 431
pos[680] = 53 degree 431
pos[679] = 743 degree 431
pos[678] = 505 degree 430
pos[677] = 700 degree 430
pos[676] = 585 degree 429
pos[675] = 465 degree 428
pos[674] = 673 degree 428
pos[673] = 146 degree 427
pos[672] = 397 degree 427
pos[671] = 244 degree 426
pos[670] = 760 degree 426
pos[669] = 661 degree 425
pos[668] = 432 degree 424
pos[667] = 270 degree 423
pos[666] = 245 degree 422
pos[665] = 0 degree 421
pos[664] = 428 degree 421
pos[663] = 97 degree 421
pos[662] = 3 degree 420
pos[661] = 600 degree 420
pos[660] = 263 degree 419
pos[659] = 409 degree 419
pos[658] = 283 degree 418
pos[657] = 642 degree 418
pos[656] = 480 degree 417
pos[655] = 112 degree 416
pos[654] = 508 degree 416
pos[653] = 253 degree 415
pos[652] = 442 degree 415
pos[651] = 234 degree 414
pos[650] = 10 degree 413
pos[649] = 59 degree 413
pos[648] = 43 degree 412
pos[647] = 20 degree 411
pos[646] = 387 degree 411
pos[645] = 520 degree 411
pos[644] = 711 degree 411
pos[643] = 523 degree 410
pos[642] = 414 degree 409
pos[641] = 275 degree 408
pos[640] = 174 degree 407
pos[639] = 278 degree 407
pos[638] = 13 degree 406
pos[637] = 603 degree 406
pos[636] = 713 degree 406
pos[635] = 483 degree 405
pos[634] = 370 degree 404
pos[633] = 105 degree 403
pos[632] = 346 degree 403
pos[631] = 288 degree 402
pos[630] = 264 degree 401
pos[629] = 704 degree 401
pos[628] = 254 degree 400
pos[627] = 703 degree 400
pos[626] = 69 degree 399
pos[625] = 666 degree 399
pos[624] = 632 degree 398
pos[623] = 474 degree 398
pos[622] = 285 degree 397
pos[621] = 276 degree 396
pos[620] = 175 degree 395
pos[619] = 517 degree 395
pos[618] = 691 degree 395
pos[617] = 378 degree 394
pos[616] = 707 degree 394
pos[615] = 502 degree 393
pos[614] = 445 degree 392
pos[613] = 92 degree 392
pos[612] = 647 degree 392
pos[611] = 547 degree 391
pos[610] = 761 degree 391
pos[609] = 551 degree 390
pos[608] = 533 degree 390
pos[607] = 456 degree 389
pos[606] = 566 degree 389
pos[605] = 525 degree 388
pos[604] = 479 degree 387
pos[603] = 451 degree 386
pos[602] = 316 degree 385
pos[601] = 484 degree 385
pos[600] = 731 degree 385
pos[599] = 555 degree 384
pos[598] = 463 degree 383
pos[597] = 236 degree 383
pos[596] = 124 degree 382
pos[595] = 595 degree 382
pos[594] = 537 degree 381
pos[593] = 769 degree 381
pos[592] = 472 degree 380
pos[591] = 90 degree 379
pos[590] = 614 degree 379
pos[589] = 24 degree 378
pos[588] = 712 degree 378
pos[587] = 658 degree 377
pos[586] = 623 degree 376
pos[585] = 363 degree 375
pos[584] = 172 degree 375
pos[583] = 729 degree 375
pos[582] = 423 degree 374
pos[581] = 341 degree 373
pos[580] = 519 degree 373
pos[579] = 85 degree 372
pos[578] = 273 degree 372
pos[577] = 102 degree 371
pos[576] = 514 degree 371
pos[575] = 351 degree 370
pos[574] = 293 degree 369
pos[573] = 28 degree 368
pos[572] = 420 degree 368
pos[571] = 200 degree 367
pos[570] = 396 degree 367
pos[569] = 795 degree 367
pos[568] = 695 degree 366
pos[567] = 512 degree 365
pos[566] = 392 degree 364
pos[565] = 675 degree 364
pos[564] = 571 degree 363
pos[563] = 139 degree 362
pos[562] = 664 degree 362
pos[561] = 458 degree 361
pos[560] = 248 degree 360
pos[559] = 1 degree 359
pos[558] = 597 degree 360
pos[557] = 559 degree 359
pos[556] = 468 degree 358
pos[555] = 679 degree 358
pos[554] = 565 degree 357
pos[553] = 532 degree 356
pos[552] = 203 degree 356
pos[551] = 46 degree 355
pos[550] = 166 degree 355
pos[549] = 773 degree 355
pos[548] = 752 degree 354
pos[547] = 627 degree 353
pos[546] = 772 degree 353
pos[545] = 616 degree 352
pos[544] = 361 degree 351
pos[543] = 159 degree 350
pos[542] = 709 degree 350
pos[541] = 683 degree 350
pos[540] = 569 degree 349
pos[539] = 549 degree 348
pos[538] = 668 degree 348
pos[537] = 470 degree 347
pos[536] = 296 degree 346
pos[535] = 732 degree 346
pos[534] = 574 degree 345
pos[533] = 190 degree 344
pos[532] = 251 degree 344
pos[531] = 554 degree 344
pos[530] = 282 degree 343
pos[529] = 103 degree 342
pos[528] = 688 degree 342
pos[527] = 319 degree 341
pos[526] = 615 degree 341
pos[525] = 434 degree 340
pos[524] = 337 degree 339
pos[523] = 287 degree 338
pos[522] = 332 degree 338
pos[521] = 99 degree 337
pos[520] = 766 degree 337
pos[519] = 509 degree 336
pos[518] = 314 degree 335
pos[517] = 327 degree 335
pos[516] = 150 degree 334
pos[515] = 39 degree 333
pos[514] = 662 degree 334
pos[513] = 501 degree 333
pos[512] = 448 degree 332
pos[511] = 7 degree 331
pos[510] = 526 degree 331
pos[509] = 437 degree 330
pos[508] = 400 degree 329
pos[507] = 687 degree 329
pos[506] = 339 degree 329
pos[505] = 98 degree 328
pos[504] = 80 degree 327
pos[503] = 26 degree 326
pos[502] = 494 degree 326
pos[501] = 793 degree 326
pos[500] = 783 degree 325
pos[499] = 524 degree 324
pos[498] = 277 degree 323
pos[497] = 237 degree 322
pos[496] = 68 degree 321
pos[495] = 654 degree 322
pos[494] = 301 degree 321
pos[493] = 88 degree 320
pos[492] = 651 degree 320
pos[491] = 221 degree 319
pos[490] = 134 degree 318
pos[489] = 765 degree 318
pos[488] = 367 degree 317
pos[487] = 272 degree 317
pos[486] = 699 degree 317
pos[485] = 576 degree 316
pos[484] = 196 degree 315
pos[483] = 650 degree 315
pos[482] = 389 degree 314
pos[481] = 119 degree 313
pos[480] = 104 degree 312
pos[479] = 630 degree 312
pos[478] = 215 degree 311
pos[477] = 78 degree 311
pos[476] = 27 degree 310
pos[475] = 64 degree 310
pos[474] = 42 degree 309
pos[473] = 540 degree 309
pos[472] = 286 degree 308
pos[471] = 636 degree 308
pos[470] = 377 degree 307
pos[469] = 274 degree 306
pos[468] = 106 degree 305
pos[467] = 450 degree 305
pos[466] = 145 degree 304
pos[465] = 312 degree 304
pos[464] = 208 degree 303
pos[463] = 107 degree 302
pos[462] = 485 degree 302
pos[461] = 291 degree 301
pos[460] = 259 degree 300
pos[459] = 457 degree 300
pos[458] = 108 degree 299
pos[457] = 499 degree 299
pos[456] = 29 degree 298
pos[455] = 776 degree 298
pos[454] = 478 degree 297
pos[453] = 202 degree 296
pos[452] = 720 degree 296
pos[451] = 61 degree 295
pos[450] = 433 degree 295
pos[449] = 372 degree 294
pos[448] = 292 degree 293
pos[447] = 701 degree 293
pos[446] = 299 degree 292
pos[445] = 4 degree 291
pos[444] = 444 degree 291
pos[443] = 242 degree 290
pos[442] = 696 degree 290
pos[441] = 205 degree 289
pos[440] = 74 degree 288
pos[439] = 629 degree 288
pos[438] = 265 degree 287
pos[437] = 349 degree 287
pos[436] = 300 degree 286
pos[435] = 734 degree 286
pos[434] = 697 degree 285
pos[433] = 694 degree 284
pos[432] = 646 degree 283
pos[431] = 198 degree 282
pos[430] = 213 degree 282
pos[429] = 199 degree 281
pos[428] = 95 degree 280
pos[427] = 511 degree 280
pos[426] = 101 degree 279
pos[425] = 399 degree 279
pos[424] = 256 degree 278
pos[423] = 231 degree 277
pos[422] = 317 degree 277
pos[421] = 225 degree 276
pos[420] = 788 degree 277
pos[419] = 535 degree 276
pos[418] = 192 degree 275
pos[417] = 125 degree 274
pos[416] = 790 degree 274
pos[415] = 467 degree 273
pos[414] = 322 degree 272
pos[413] = 348 degree 272
pos[412] = 181 degree 271
pos[411] = 747 degree 271
pos[410] = 267 degree 270
pos[409] = 618 degree 270
pos[408] = 17 degree 269
pos[407] = 241 degree 269
pos[406] = 158 degree 268
pos[405] = 137 degree 267
pos[404] = 5 degree 266
pos[403] = 736 degree 266
pos[402] = 624 degree 266
pos[401] = 424 degree 265
pos[400] = 290 degree 264
pos[399] = 625 degree 264
pos[398] = 461 degree 263
pos[397] = 751 degree 263
pos[396] = 534 degree 262
pos[395] = 403 degree 261
pos[394] = 179 degree 260
pos[393] = 9 degree 259
pos[392] = 730 degree 259
pos[391] = 79 degree 258
pos[390] = 579 degree 258
pos[389] = 380 degree 257
pos[388] = 40 degree 256
pos[387] = 15 degree 255
pos[386] = 334 degree 255
pos[385] = 739 degree 255
pos[384] = 438 degree 254
pos[383] = 724 degree 254
pos[382] = 504 degree 253
pos[381] = 459 degree 252
pos[380] = 710 degree 252
pos[379] = 249 degree 251
pos[378] = 206 degree 250
pos[377] = 84 degree 249
pos[376] = 32 degree 248
pos[375] = 708 degree 248
pos[374] = 789 degree 248
pos[373] = 643 degree 247
pos[372] = 507 degree 246
pos[371] = 413 degree 245
pos[370] = 185 degree 245
pos[369] = 786 degree 245
pos[368] = 331 degree 244
pos[367] = 211 degree 244
pos[366] = 60 degree 243
pos[365] = 659 degree 243
pos[364] = 538 degree 242
pos[363] = 455 degree 241
pos[362] = 374 degree 240
pos[361] = 633 degree 240
pos[360] = 798 degree 240
pos[359] = 714 degree 239
pos[358] = 385 degree 238
pos[357] = 212 degree 237
pos[356] = 55 degree 236
pos[355] = 759 degree 236
pos[354] = 381 degree 235
pos[353] = 311 degree 234
pos[352] = 471 degree 234
pos[351] = 289 degree 233
pos[350] = 100 degree 232
pos[349] = 669 degree 232
pos[348] = 498 degree 231
pos[347] = 649 degree 231
pos[346] = 350 degree 230
pos[345] = 223 degree 229
pos[344] = 756 degree 229
pos[343] = 640 degree 228
pos[342] = 329 degree 227
pos[341] = 677 degree 227
pos[340] = 408 degree 226
pos[339] = 194 degree 225
pos[338] = 195 degree 225
pos[337] = 65 degree 224
pos[336] = 561 degree 224
pos[335] = 546 degree 223
pos[334] = 226 degree 222
pos[333] = 170 degree 222
pos[332] = 52 degree 221
pos[331] = 23 degree 220
pos[330] = 550 degree 220
pos[329] = 562 degree 220
pos[328] = 634 degree 220
pos[327] = 612 degree 219
pos[326] = 577 degree 218
pos[325] = 218 degree 217
pos[324] = 76 degree 216
pos[323] = 611 degree 216
pos[322] = 449 degree 215
pos[321] = 619 degree 215
pos[320] = 583 degree 214
pos[319] = 66 degree 213
pos[318] = 44 degree 212
pos[317] = 481 degree 212
pos[316] = 443 degree 211
pos[315] = 488 degree 211
pos[314] = 123 degree 210
pos[313] = 310 degree 210
pos[312] = 83 degree 209
pos[311] = 737 degree 209
pos[310] = 622 degree 208
pos[309] = 141 degree 207
pos[308] = 782 degree 207
pos[307] = 672 degree 206
pos[306] = 347 degree 205
pos[305] = 243 degree 204
pos[304] = 792 degree 205
pos[303] = 778 degree 204
pos[302] = 281 degree 203
pos[301] = 764 degree 203
pos[300] = 628 degree 202
pos[299] = 515 degree 201
pos[298] = 309 degree 200
pos[297] = 77 degree 199
pos[296] = 14 degree 198
pos[295] = 568 degree 198
pos[294] = 21 degree 197
pos[293] = 570 degree 197
pos[292] = 373 degree 196
pos[291] = 416 degree 196
pos[290] = 47 degree 195
pos[289] = 791 degree 195
pos[288] = 605 degree 194
pos[287] = 631 degree 194
pos[286] = 578 degree 193
pos[285] = 556 degree 192
pos[284] = 191 degree 191
pos[283] = 553 degree 191
pos[282] = 422 degree 190
pos[281] = 653 degree 190
pos[280] = 357 degree 189
pos[279] = 235 degree 188
pos[278] = 754 degree 188
pos[277] = 395 degree 187
pos[276] = 262 degree 186
pos[275] = 81 degree 185
pos[274] = 178 degree 185
pos[273] = 37 degree 184
pos[272] = 25 degree 183
pos[271] = 607 degree 183
pos[270] = 500 degree 183
pos[269] = 295 degree 182
pos[268] = 128 degree 181
pos[267] = 111 degree 180
pos[266] = 620 degree 180
pos[265] = 11 degree 179
pos[264] = 2 degree 178
pos[263] = 548 degree 178
pos[262] = 698 degree 178
pos[261] = 493 degree 177
pos[260] = 359 degree 176
pos[259] = 542 degree 176
pos[258] = 297 degree 175
pos[257] = 723 degree 175
pos[256] = 486 degree 174
pos[255] = 58 degree 173
pos[254] = 689 degree 173
pos[253] = 419 degree 172
pos[252] = 355 degree 171
pos[251] = 721 degree 171
pos[250] = 340 degree 170
pos[249] = 492 degree 170
pos[248] = 429 degree 169
pos[247] = 412 degree 168
pos[246] = 771 degree 168
pos[245] = 768 degree 167
pos[244] = 684 degree 166
pos[243] = 635 degree 165
pos[242] = 180 degree 164
pos[241] = 674 degree 164
pos[240] = 489 degree 164
pos[239] = 482 degree 163
pos[238] = 239 degree 162
pos[237] = 271 degree 162
pos[236] = 230 degree 161
pos[235] = 114 degree 160
pos[234] = 660 degree 160
pos[233] = 266 degree 159
pos[232] = 183 degree 158
pos[231] = 774 degree 158
pos[230] = 610 degree 157
pos[229] = 144 degree 156
pos[228] = 491 degree 156
pos[227] = 354 degree 155
pos[226] = 784 degree 155
pos[225] = 728 degree 154
pos[224] = 439 degree 153
pos[223] = 325 degree 153
pos[222] = 715 degree 153
pos[221] = 321 degree 152
pos[220] = 94 degree 151
pos[219] = 770 degree 151
pos[218] = 706 degree 150
pos[217] = 686 degree 149
pos[216] = 418 degree 148
pos[215] = 246 degree 147
pos[214] = 188 degree 147
pos[213] = 140 degree 146
pos[212] = 430 degree 146
pos[211] = 184 degree 145
pos[210] = 678 degree 145
pos[209] = 48 degree 144
pos[208] = 497 degree 144
pos[207] = 464 degree 143
pos[206] = 368 degree 142
pos[205] = 165 degree 141
pos[204] = 8 degree 141
pos[203] = 557 degree 141
pos[202] = 214 degree 140
pos[201] = 34 degree 139
pos[200] = 753 degree 139
pos[199] = 596 degree 138
pos[198] = 160 degree 137
pos[197] = 136 degree 136
pos[196] = 558 degree 136
pos[195] = 306 degree 135
pos[194] = 130 degree 134
pos[193] = 453 degree 134
pos[192] = 82 degree 133
pos[191] = 690 degree 133
pos[190] = 382 degree 132
pos[189] = 779 degree 132
pos[188] = 670 degree 131
pos[187] = 364 degree 130
pos[186] = 71 degree 129
pos[185] = 727 degree 129
pos[184] = 454 degree 128
pos[183] = 748 degree 128
pos[182] = 333 degree 127
pos[181] = 655 degree 127
pos[180] = 495 degree 126
pos[179] = 417 degree 125
pos[178] = 189 degree 124
pos[177] = 96 degree 123
pos[176] = 716 degree 123
pos[175] = 639 degree 122
pos[174] = 415 degree 121
pos[173] = 182 degree 120
pos[172] = 621 degree 120
pos[171] = 521 degree 119
pos[170] = 62 degree 118
pos[169] = 440 degree 118
pos[168] = 799 degree 118
pos[167] = 308 degree 117
pos[166] = 168 degree 116
pos[165] = 777 degree 116
pos[164] = 733 degree 115
pos[163] = 705 degree 114
pos[162] = 587 degree 113
pos[161] = 469 degree 113
pos[160] = 391 degree 112
pos[159] = 31 degree 112
pos[158] = 613 degree 112
pos[157] = 318 degree 111
pos[156] = 41 degree 110
pos[155] = 652 degree 110
pos[154] = 279 degree 109
pos[153] = 131 degree 108
pos[152] = 116 degree 107
pos[151] = 365 degree 107
pos[150] = 617 degree 107
pos[149] = 564 degree 106
pos[148] = 224 degree 105
pos[147] = 38 degree 104
pos[146] = 702 degree 104
pos[145] = 606 degree 103
pos[144] = 371 degree 102
pos[143] = 155 degree 101
pos[142] = 522 degree 101
pos[141] = 375 degree 100
pos[140] = 147 degree 99
pos[139] = 426 degree 99
pos[138] = 120 degree 98
pos[137] = 543 degree 98
pos[136] = 22 degree 97
pos[135] = 657 degree 97
pos[134] = 67 degree 96
pos[133] = 785 degree 96
pos[132] = 749 degree 95
pos[131] = 305 degree 94
pos[130] = 12 degree 93
pos[129] = 794 degree 93
pos[128] = 719 degree 92
pos[127] = 693 degree 92
pos[126] = 593 degree 91
pos[125] = 584 degree 90
pos[124] = 582 degree 89
pos[123] = 209 degree 88
pos[122] = 717 degree 88
pos[121] = 407 degree 87
pos[120] = 328 degree 86
pos[119] = 598 degree 86
pos[118] = 680 degree 86
pos[117] = 592 degree 85
pos[116] = 435 degree 84
pos[115] = 599 degree 84
pos[114] = 388 degree 83
pos[113] = 608 degree 83
pos[112] = 544 degree 82
pos[111] = 154 degree 81
pos[110] = 93 degree 80
pos[109] = 460 degree 80
pos[108] = 50 degree 79
pos[107] = 406 degree 79
pos[106] = 401 degree 78
pos[105] = 35 degree 77
pos[104] = 781 degree 77
pos[103] = 750 degree 76
pos[102] = 260 degree 75
pos[101] = 54 degree 74
pos[100] = 518 degree 74
pos[99] = 402 degree 73
pos[98] = 86 degree 72
pos[97] = 767 degree 72
pos[96] = 360 degree 71
pos[95] = 342 degree 70
pos[94] = 676 degree 70
pos[93] = 567 degree 69
pos[92] = 527 degree 68
pos[91] = 394 degree 67
pos[90] = 726 degree 67
pos[89] = 552 degree 66
pos[88] = 167 degree 65
pos[87] = 645 degree 65
pos[86] = 638 degree 64
pos[85] = 153 degree 63
pos[84] = 513 degree 63
pos[83] = 358 degree 62
pos[82] = 323 degree 61
pos[81] = 447 degree 61
pos[80] = 304 degree 60
pos[79] = 268 degree 59
pos[78] = 16 degree 58
pos[77] = 269 degree 58
pos[76] = 36 degree 57
pos[75] = 586 degree 57
pos[74] = 201 degree 56
pos[73] = 644 degree 56
pos[72] = 404 degree 55
pos[71] = 222 degree 54
pos[70] = 722 degree 54
pos[69] = 233 degree 53
pos[68] = 217 degree 52
pos[67] = 142 degree 51
pos[66] = 530 degree 51
pos[65] = 462 degree 50
pos[64] = 247 degree 49
pos[63] = 157 degree 48
pos[62] = 51 degree 47
pos[61] = 681 degree 47
pos[60] = 298 degree 46
pos[59] = 121 degree 46
pos[58] = 718 degree 46
pos[57] = 487 degree 45
pos[56] = 466 degree 44
pos[55] = 343 degree 43
pos[54] = 506 degree 43
pos[53] = 210 degree 42
pos[52] = 118 degree 41
pos[51] = 796 degree 41
pos[50] = 427 degree 40
pos[49] = 238 degree 39
pos[48] = 229 degree 38
pos[47] = 56 degree 37
pos[46] = 197 degree 37
pos[45] = 171 degree 36
pos[44] = 775 degree 36
pos[43] = 216 degree 35
pos[42] = 745 degree 35
pos[41] = 302 degree 34
pos[40] = 164 degree 33
pos[39] = 344 degree 33
pos[38] = 294 degree 32
pos[37] = 257 degree 31
pos[36] = 89 degree 30
pos[35] = 87 degree 29
pos[34] = 797 degree 29
pos[33] = 787 degree 28
pos[32] = 528 degree 27
pos[31] = 490 degree 26
pos[30] = 436 degree 26
pos[29] = 132 degree 25
pos[28] = 590 degree 25
pos[27] = 580 degree 24
pos[26] = 475 degree 23
pos[25] = 228 degree 22
pos[24] = 169 degree 21
pos[23] = 91 degree 20
pos[22] = 671 degree 20
pos[21] = 126 degree 19
pos[20] = 49 degree 18
pos[19] = 758 degree 18
pos[18] = 588 degree 17
pos[17] = 563 degree 16
pos[16] = 476 degree 15
pos[15] = 366 degree 14
pos[14] = 738 degree 14
pos[13] = 573 degree 13
pos[12] = 572 degree 12
pos[11] = 529 degree 11
pos[10] = 405 degree 10
pos[9] = 369 degree 9
pos[8] = 335 degree 8
pos[7] = 326 degree 7
pos[6] = 313 degree 6
pos[5] = 187 degree 5
pos[4] = 143 degree 4
pos[3] = 138 degree 3
pos[2] = 63 degree 2
pos[1] = 57 degree 1
pos[0] = 19 degree 0
kplex size 1
[19 ]
1/800 (max 1) 0.00772 s
kplex size 2
[57 19 ]
2/800 (max 2) 0.00773 s
kplex size 3
[63 57 19 ]
3/800 (max 3) 0.00773 s
kplex size 4
[138 63 57 19 ]
4/800 (max 4) 0.00774 s
kplex size 5
[143 138 63 57 19 ]
5/800 (max 5) 0.00774 s
kplex size 6
[187 143 138 63 57 19 ]
6/800 (max 6) 0.00774 s
kplex size 7
[313 187 143 138 63 57 19 ]
7/800 (max 7) 0.00775 s
kplex size 8
[326 313 187 143 138 63 57 19 ]
8/800 (max 8) 0.00775 s
kplex size 9
[335 326 313 187 143 138 63 57 19 ]
9/800 (max 9) 0.00776 s
kplex size 10
[369 335 326 313 187 143 138 63 57 19 ]
10/800 (max 10) 0.00776 s
kplex size 11
[405 369 335 326 313 187 143 138 63 57 19 ]
11/800 (max 11) 0.00777 s
kplex size 12
[529 405 369 335 326 313 187 143 138 63 57 19 ]
12/800 (max 12) 0.00778 s
kplex size 13
[572 529 405 369 335 326 313 187 143 138 63 57 19 ]
13/800 (max 13) 0.00778 s
kplex size 14
[573 572 529 405 369 335 326 313 187 143 138 63 57 19 ]
14/800 (max 14) 0.00779 s
kplex size 15
[738 573 572 529 405 369 335 326 313 187 143 138 63 57 19 ]
15/800 (max 15) 0.00780 s
kplex size 16
[366 738 573 572 529 405 369 335 326 313 187 143 138 63 57 19 ]
16/800 (max 16) 0.00781 s
kplex size 17
[476 366 738 573 572 529 405 369 335 326 313 187 143 138 63 57 19 ]
17/800 (max 17) 0.00782 s
kplex size 18
[563 476 366 738 573 572 529 405 369 335 326 313 187 143 138 63 57 19 ]
18/800 (max 18) 0.00783 s
kplex size 19
[588 563 476 366 738 573 572 529 405 369 335 326 313 187 143 138 63 57 19 ]
19/800 (max 19) 0.00784 s
kplex size 20
[758 588 563 476 366 738 573 572 529 405 369 335 326 313 187 143 138 63 57 19 ]
20/800 (max 20) 0.00785 s
21/800 (max 20) 0.00785 s
22/800 (max 20) 0.00786 s
kplex size 21
[671 126 49 758 588 563 476 366 738 573 529 405 369 335 326 313 187 143 138 63 19 ]
23/800 (max 21) 0.00788 s
24/800 (max 21) 0.00788 s
25/800 (max 21) 0.00789 s
26/800 (max 21) 0.00791 s
27/800 (max 21) 0.00794 s
28/800 (max 21) 0.00801 s
29/800 (max 21) 0.00814 s
30/800 (max 21) 0.00838 s
31/800 (max 21) 0.00901 s
32/800 (max 21) 0.00931 s
33/800 (max 21) 0.00989 s
34/800 (max 21) 0.01044 s
35/800 (max 21) 0.01166 s
36/800 (max 21) 0.01276 s
37/800 (max 21) 0.01469 s
38/800 (max 21) 0.01680 s
39/800 (max 21) 0.02077 s
40/800 (max 21) 0.02572 s
41/800 (max 21) 0.03271 s
42/800 (max 21) 0.03932 s
43/800 (max 21) 0.04999 s
44/800 (max 21) 0.05854 s
45/800 (max 21) 0.06907 s
46/800 (max 21) 0.08405 s
47/800 (max 21) 0.10315 s
48/800 (max 21) 0.12067 s
49/800 (max 21) 0.14762 s
50/800 (max 21) 0.17419 s
51/800 (max 21) 0.21177 s
52/800 (max 21) 0.25066 s
53/800 (max 21) 0.29343 s
54/800 (max 21) 0.35711 s
55/800 (max 21) 0.42699 s
56/800 (max 21) 0.50940 s
57/800 (max 21) 0.60332 s
58/800 (max 21) 0.70259 s
59/800 (max 21) 0.84688 s
60/800 (max 21) 0.98447 s
61/800 (max 21) 1.10623 s
62/800 (max 21) 1.23756 s
63/800 (max 21) 1.35952 s
64/800 (max 21) 1.58384 s
65/800 (max 21) 1.82545 s
66/800 (max 21) 2.07192 s
67/800 (max 21) 2.34779 s
68/800 (max 21) 2.60990 s
69/800 (max 21) 2.85808 s
70/800 (max 21) 3.18967 s
71/800 (max 21) 3.59259 s
72/800 (max 21) 4.04108 s
73/800 (max 21) 4.66521 s
kplex size 22
[644 487 294 87 590 580 228 758 476 366 738 572 529 405 369 335 326 187 138 63 57 19 ]
74/800 (max 22) 5.17047 s
75/800 (max 22) 5.22750 s
76/800 (max 22) 5.37327 s
77/800 (max 22) 5.53636 s
78/800 (max 22) 5.78483 s
79/800 (max 22) 6.01208 s
80/800 (max 22) 6.31879 s
81/800 (max 22) 6.70069 s
82/800 (max 22) 7.16265 s
83/800 (max 22) 7.97241 s
84/800 (max 22) 8.66302 s
85/800 (max 22) 9.37345 s
86/800 (max 22) 10.40353 s
87/800 (max 22) 11.36018 s
88/800 (max 22) 12.19219 s
89/800 (max 22) 13.44512 s
90/800 (max 22) 14.92550 s
91/800 (max 22) 16.62942 s
92/800 (max 22) 18.39315 s
93/800 (max 22) 20.23506 s
94/800 (max 22) 22.14606 s
95/800 (max 22) 23.99329 s
96/800 (max 22) 26.03215 s
97/800 (max 22) 28.77095 s
98/800 (max 22) 32.02231 s
99/800 (max 22) 34.72109 s
100/800 (max 22) 38.33210 s
101/800 (max 22) 42.25793 s
102/800 (max 22) 46.03238 s
103/800 (max 22) 50.46949 s
104/800 (max 22) 55.54445 s
105/800 (max 22) 61.66131 s
106/800 (max 22) 67.22379 s
107/800 (max 22) 73.31364 s
108/800 (max 22) 79.83624 s
109/800 (max 22) 86.23598 s
110/800 (max 22) 93.43842 s
111/800 (max 22) 100.29345 s
112/800 (max 22) 109.87861 s
113/800 (max 22) 121.22071 s
114/800 (max 22) 132.44803 s
115/800 (max 22) 145.41961 s
kplex size 23
[599 544 93 50 401 260 552 645 16 217 427 171 775 344 787 528 490 132 590 126 49 588 366 ]
116/800 (max 23) 148.53689 s
117/800 (max 23) 149.88213 s
118/800 (max 23) 151.59371 s
119/800 (max 23) 153.55264 s
120/800 (max 23) 157.68211 s
121/800 (max 23) 161.98921 s
122/800 (max 23) 168.37431 s
123/800 (max 23) 176.12179 s
124/800 (max 23) 181.74322 s
125/800 (max 23) 192.14830 s
126/800 (max 23) 202.63884 s
127/800 (max 23) 213.97491 s
128/800 (max 23) 223.70826 s
129/800 (max 23) 236.53473 s
130/800 (max 23) 252.64399 s
131/800 (max 23) 268.70729 s
132/800 (max 23) 293.06199 s
133/800 (max 23) 309.86360 s
134/800 (max 23) 335.42980 s
135/800 (max 23) 354.89725 s
136/800 (max 23) 380.16928 s
137/800 (max 23) 406.45205 s
138/800 (max 23) 432.48784 s
139/800 (max 23) 463.98917 s
140/800 (max 23) 496.14781 s
141/800 (max 23) 537.57583 s
142/800 (max 23) 573.99951 s
143/800 (max 23) 618.93771 s
144/800 (max 23) 663.61232 s
145/800 (max 23) 708.04948 s
146/800 (max 23) 755.45086 s
147/800 (max 23) 802.47555 s
148/800 (max 23) 840.13481 s
149/800 (max 23) 910.30927 s
150/800 (max 23) 971.70220 s
151/800 (max 23) 1040.03272 s
152/800 (max 23) 1096.36627 s
153/800 (max 23) 1168.10938 s
154/800 (max 23) 1238.55057 s
155/800 (max 23) 1310.25287 s
156/800 (max 23) 1398.29109 s
157/800 (max 23) 1479.47200 s
158/800 (max 23) 1586.45594 s
159/800 (max 23) 1679.68548 s
160/800 (max 23) 1776.75232 s
161/800 (max 23) 1877.94422 s
162/800 (max 23) 1984.16070 s
163/800 (max 23) 2101.17029 s
164/800 (max 23) 2228.64561 s
165/800 (max 23) 2369.97298 s
166/800 (max 23) 2537.59018 s
167/800 (max 23) 2674.90364 s
168/800 (max 23) 2821.10617 s
169/800 (max 23) 2969.35394 s
170/800 (max 23) 3113.12783 s
171/800 (max 23) 3260.90947 s
172/800 (max 23) 3446.45013 s
TIMEOUT
best clique: 599 544 93 50 401 260 552 645 16 217 427 171 775 344 787 528 490 132 590 126 49 588 366 
record          =          23
subp            =  10755167423
time            =  3600.00004
