timeout 3600 s
Graph with 800 vertices and 207505 edges density 0.649265
t = 415010, Enbr = 207505
pos[799] = 533 degree 477
pos[798] = 388 degree 479
pos[797] = 717 degree 484
pos[796] = 584 degree 485
pos[795] = 266 degree 485
pos[794] = 43 degree 484
pos[793] = 616 degree 485
pos[792] = 687 degree 487
pos[791] = 16 degree 486
pos[790] = 260 degree 486
pos[789] = 176 degree 485
pos[788] = 60 degree 484
pos[787] = 169 degree 484
pos[786] = 588 degree 485
pos[785] = 229 degree 484
pos[784] = 303 degree 484
pos[783] = 82 degree 483
pos[782] = 374 degree 483
pos[781] = 125 degree 482
pos[780] = 373 degree 483
pos[779] = 316 degree 482
pos[778] = 326 degree 482
pos[777] = 620 degree 482
pos[776] = 94 degree 481
pos[775] = 677 degree 481
pos[774] = 674 degree 480
pos[773] = 452 degree 480
pos[772] = 224 degree 479
pos[771] = 28 degree 478
pos[770] = 609 degree 479
pos[769] = 356 degree 478
pos[768] = 153 degree 477
pos[767] = 525 degree 477
pos[766] = 443 degree 476
pos[765] = 365 degree 475
pos[764] = 411 degree 475
pos[763] = 41 degree 474
pos[762] = 251 degree 474
pos[761] = 704 degree 474
pos[760] = 552 degree 473
pos[759] = 240 degree 472
pos[758] = 790 degree 472
pos[757] = 494 degree 472
pos[756] = 545 degree 472
pos[755] = 263 degree 471
pos[754] = 770 degree 471
pos[753] = 248 degree 470
pos[752] = 753 degree 470
pos[751] = 490 degree 469
pos[750] = 781 degree 469
pos[749] = 577 degree 468
pos[748] = 181 degree 467
pos[747] = 657 degree 467
pos[746] = 142 degree 466
pos[745] = 644 degree 466
pos[744] = 178 degree 465
pos[743] = 505 degree 465
pos[742] = 405 degree 464
pos[741] = 118 degree 463
pos[740] = 731 degree 463
pos[739] = 415 degree 462
pos[738] = 151 degree 461
pos[737] = 49 degree 460
pos[736] = 120 degree 460
pos[735] = 428 degree 460
pos[734] = 278 degree 459
pos[733] = 19 degree 458
pos[732] = 662 degree 458
pos[731] = 83 degree 457
pos[730] = 195 degree 457
pos[729] = 188 degree 457
pos[728] = 619 degree 457
pos[727] = 165 degree 456
pos[726] = 149 degree 455
pos[725] = 29 degree 455
pos[724] = 3 degree 454
pos[723] = 301 degree 454
pos[722] = 392 degree 454
pos[721] = 215 degree 453
pos[720] = 668 degree 453
pos[719] = 325 degree 452
pos[718] = 338 degree 452
pos[717] = 676 degree 452
pos[716] = 606 degree 451
pos[715] = 345 degree 450
pos[714] = 387 degree 450
pos[713] = 68 degree 449
pos[712] = 377 degree 449
pos[711] = 150 degree 448
pos[710] = 105 degree 447
pos[709] = 658 degree 447
pos[708] = 25 degree 446
pos[707] = 202 degree 446
pos[706] = 177 degree 445
pos[705] = 8 degree 444
pos[704] = 163 degree 444
pos[703] = 476 degree 444
pos[702] = 294 degree 443
pos[701] = 739 degree 443
pos[700] = 593 degree 442
pos[699] = 667 degree 442
pos[698] = 666 degree 441
pos[697] = 499 degree 440
pos[696] = 308 degree 440
pos[695] = 89 degree 439
pos[694] = 718 degree 439
pos[693] = 639 degree 438
pos[692] = 59 degree 437
pos[691] = 33 degree 436
pos[690] = 543 degree 436
pos[689] = 767 degree 436
pos[688] = 679 degree 435
pos[687] = 601 degree 435
pos[686] = 782 degree 435
pos[685] = 103 degree 434
pos[684] = 775 degree 434
pos[683] = 208 degree 433
pos[682] = 110 degree 432
pos[681] = 708 degree 432
pos[680] = 599 degree 431
pos[679] = 403 degree 430
pos[678] = 285 degree 429
pos[677] = 135 degree 428
pos[676] = 358 degree 428
pos[675] = 186 degree 427
pos[674] = 723 degree 427
pos[673] = 734 degree 427
pos[672] = 602 degree 426
pos[671] = 265 degree 425
pos[670] = 184 degree 425
pos[669] = 546 degree 425
pos[668] = 362 degree 424
pos[667] = 269 degree 423
pos[666] = 219 degree 422
pos[665] = 297 degree 422
pos[664] = 10 degree 421
pos[663] = 337 degree 421
pos[662] = 526 degree 421
pos[661] = 363 degree 420
pos[660] = 147 degree 419
pos[659] = 698 degree 419
pos[658] = 97 degree 418
pos[657] = 671 degree 418
pos[656] = 489 degree 417
pos[655] = 350 degree 416
pos[654] = 321 degree 416
pos[653] = 44 degree 415
pos[652] = 435 degree 415
pos[651] = 765 degree 415
pos[650] = 642 degree 414
pos[649] = 397 degree 413
pos[648] = 762 degree 413
pos[647] = 534 degree 412
pos[646] = 368 degree 411
pos[645] = 725 degree 411
pos[644] = 154 degree 410
pos[643] = 742 degree 410
pos[642] = 469 degree 410
pos[641] = 425 degree 409
pos[640] = 145 degree 408
pos[639] = 305 degree 408
pos[638] = 140 degree 407
pos[637] = 776 degree 407
pos[636] = 302 degree 406
pos[635] = 225 degree 405
pos[634] = 754 degree 405
pos[633] = 798 degree 405
pos[632] = 682 degree 404
pos[631] = 247 degree 403
pos[630] = 67 degree 402
pos[629] = 728 degree 402
pos[628] = 652 degree 401
pos[627] = 594 degree 401
pos[626] = 220 degree 400
pos[625] = 66 degree 399
pos[624] = 500 degree 399
pos[623] = 222 degree 398
pos[622] = 793 degree 398
pos[621] = 749 degree 397
pos[620] = 669 degree 396
pos[619] = 298 degree 396
pos[618] = 720 degree 396
pos[617] = 556 degree 395
pos[616] = 696 degree 395
pos[615] = 544 degree 394
pos[614] = 133 degree 393
pos[613] = 629 degree 393
pos[612] = 589 degree 392
pos[611] = 487 degree 391
pos[610] = 17 degree 390
pos[609] = 477 degree 390
pos[608] = 445 degree 389
pos[607] = 634 degree 389
pos[606] = 441 degree 388
pos[605] = 486 degree 388
pos[604] = 379 degree 387
pos[603] = 612 degree 387
pos[602] = 292 degree 386
pos[601] = 747 degree 386
pos[600] = 670 degree 385
pos[599] = 449 degree 384
pos[598] = 180 degree 383
pos[597] = 562 degree 383
pos[596] = 317 degree 382
pos[595] = 143 degree 381
pos[594] = 549 degree 381
pos[593] = 287 degree 380
pos[592] = 680 degree 380
pos[591] = 124 degree 379
pos[590] = 349 degree 379
pos[589] = 138 degree 378
pos[588] = 692 degree 378
pos[587] = 628 degree 377
pos[586] = 510 degree 376
pos[585] = 626 degree 376
pos[584] = 419 degree 375
pos[583] = 758 degree 375
pos[582] = 479 degree 374
pos[581] = 360 degree 373
pos[580] = 597 degree 373
pos[579] = 582 degree 372
pos[578] = 175 degree 371
pos[577] = 72 degree 370
pos[576] = 37 degree 369
pos[575] = 547 degree 369
pos[574] = 221 degree 368
pos[573] = 501 degree 368
pos[572] = 422 degree 367
pos[571] = 159 degree 366
pos[570] = 256 degree 366
pos[569] = 230 degree 365
pos[568] = 282 degree 365
pos[567] = 205 degree 364
pos[566] = 483 degree 364
pos[565] = 90 degree 363
pos[564] = 231 degree 363
pos[563] = 193 degree 362
pos[562] = 786 degree 362
pos[561] = 259 degree 361
pos[560] = 108 degree 360
pos[559] = 604 degree 360
pos[558] = 73 degree 359
pos[557] = 502 degree 359
pos[556] = 334 degree 358
pos[555] = 54 degree 357
pos[554] = 733 degree 357
pos[553] = 722 degree 357
pos[552] = 694 degree 356
pos[551] = 681 degree 355
pos[550] = 313 degree 354
pos[549] = 136 degree 353
pos[548] = 746 degree 354
pos[547] = 621 degree 353
pos[546] = 465 degree 352
pos[545] = 156 degree 351
pos[544] = 144 degree 350
pos[543] = 509 degree 350
pos[542] = 463 degree 349
pos[541] = 695 degree 349
pos[540] = 508 degree 348
pos[539] = 275 degree 347
pos[538] = 444 degree 347
pos[537] = 400 degree 347
pos[536] = 197 degree 346
pos[535] = 95 degree 345
pos[534] = 85 degree 344
pos[533] = 785 degree 344
pos[532] = 711 degree 343
pos[531] = 655 degree 342
pos[530] = 727 degree 342
pos[529] = 637 degree 341
pos[528] = 254 degree 340
pos[527] = 47 degree 339
pos[526] = 36 degree 338
pos[525] = 31 degree 337
pos[524] = 155 degree 337
pos[523] = 773 degree 338
pos[522] = 591 degree 337
pos[521] = 327 degree 337
pos[520] = 172 degree 336
pos[519] = 684 degree 336
pos[518] = 506 degree 335
pos[517] = 497 degree 334
pos[516] = 141 degree 333
pos[515] = 787 degree 333
pos[514] = 471 degree 332
pos[513] = 6 degree 331
pos[512] = 439 degree 331
pos[511] = 132 degree 330
pos[510] = 710 degree 330
pos[509] = 473 degree 329
pos[508] = 250 degree 329
pos[507] = 237 degree 328
pos[506] = 228 degree 327
pos[505] = 774 degree 328
pos[504] = 232 degree 327
pos[503] = 539 degree 327
pos[502] = 366 degree 326
pos[501] = 361 degree 325
pos[500] = 769 degree 325
pos[499] = 686 degree 324
pos[498] = 227 degree 323
pos[497] = 715 degree 323
pos[496] = 579 degree 322
pos[495] = 311 degree 321
pos[494] = 162 degree 320
pos[493] = 15 degree 319
pos[492] = 190 degree 319
pos[491] = 729 degree 319
pos[490] = 697 degree 318
pos[489] = 683 degree 318
pos[488] = 35 degree 317
pos[487] = 654 degree 317
pos[486] = 395 degree 316
pos[485] = 170 degree 315
pos[484] = 617 degree 315
pos[483] = 511 degree 314
pos[482] = 352 degree 313
pos[481] = 440 degree 313
pos[480] = 40 degree 312
pos[479] = 719 degree 312
pos[478] = 427 degree 311
pos[477] = 157 degree 310
pos[476] = 9 degree 309
pos[475] = 542 degree 309
pos[474] = 161 degree 308
pos[473] = 146 degree 307
pos[472] = 164 degree 307
pos[471] = 331 degree 307
pos[470] = 139 degree 306
pos[469] = 554 degree 306
pos[468] = 351 degree 305
pos[467] = 134 degree 304
pos[466] = 678 degree 304
pos[465] = 56 degree 303
pos[464] = 561 degree 303
pos[463] = 402 degree 302
pos[462] = 262 degree 301
pos[461] = 101 degree 300
pos[460] = 569 degree 300
pos[459] = 107 degree 299
pos[458] = 690 degree 299
pos[457] = 524 degree 298
pos[456] = 38 degree 297
pos[455] = 429 degree 297
pos[454] = 249 degree 297
pos[453] = 574 degree 297
pos[452] = 346 degree 296
pos[451] = 241 degree 295
pos[450] = 62 degree 294
pos[449] = 735 degree 294
pos[448] = 77 degree 293
pos[447] = 714 degree 293
pos[446] = 57 degree 292
pos[445] = 48 degree 291
pos[444] = 472 degree 291
pos[443] = 71 degree 290
pos[442] = 615 degree 290
pos[441] = 394 degree 289
pos[440] = 191 degree 288
pos[439] = 330 degree 288
pos[438] = 117 degree 287
pos[437] = 53 degree 286
pos[436] = 430 degree 286
pos[435] = 235 degree 285
pos[434] = 112 degree 284
pos[433] = 650 degree 284
pos[432] = 18 degree 283
pos[431] = 563 degree 283
pos[430] = 515 degree 282
pos[429] = 203 degree 281
pos[428] = 309 degree 281
pos[427] = 759 degree 281
pos[426] = 209 degree 280
pos[425] = 12 degree 279
pos[424] = 523 degree 279
pos[423] = 160 degree 278
pos[422] = 115 degree 277
pos[421] = 700 degree 277
pos[420] = 496 degree 276
pos[419] = 675 degree 276
pos[418] = 339 degree 275
pos[417] = 603 degree 275
pos[416] = 485 degree 274
pos[415] = 433 degree 273
pos[414] = 189 degree 272
pos[413] = 32 degree 271
pos[412] = 283 degree 271
pos[411] = 777 degree 271
pos[410] = 738 degree 270
pos[409] = 96 degree 269
pos[408] = 333 degree 269
pos[407] = 168 degree 268
pos[406] = 611 degree 268
pos[405] = 65 degree 267
pos[404] = 592 degree 267
pos[403] = 20 degree 266
pos[402] = 779 degree 266
pos[401] = 659 degree 265
pos[400] = 527 degree 264
pos[399] = 522 degree 263
pos[398] = 69 degree 262
pos[397] = 369 degree 262
pos[396] = 137 degree 261
pos[395] = 482 degree 261
pos[394] = 348 degree 260
pos[393] = 50 degree 259
pos[392] = 685 degree 259
pos[391] = 306 degree 258
pos[390] = 130 degree 257
pos[389] = 70 degree 256
pos[388] = 663 degree 256
pos[387] = 64 degree 255
pos[386] = 673 degree 255
pos[385] = 253 degree 254
pos[384] = 799 degree 254
pos[383] = 565 degree 253
pos[382] = 558 degree 253
pos[381] = 217 degree 252
pos[380] = 761 degree 252
pos[379] = 716 degree 251
pos[378] = 462 degree 250
pos[377] = 416 degree 249
pos[376] = 414 degree 249
pos[375] = 198 degree 248
pos[374] = 75 degree 247
pos[373] = 518 degree 247
pos[372] = 92 degree 246
pos[371] = 580 degree 246
pos[370] = 576 degree 245
pos[369] = 257 degree 244
pos[368] = 581 degree 244
pos[367] = 206 degree 243
pos[366] = 364 degree 243
pos[365] = 173 degree 242
pos[364] = 123 degree 241
pos[363] = 726 degree 241
pos[362] = 307 degree 240
pos[361] = 451 degree 240
pos[360] = 335 degree 239
pos[359] = 763 degree 239
pos[358] = 638 degree 238
pos[357] = 636 degree 237
pos[356] = 538 degree 237
pos[355] = 478 degree 236
pos[354] = 78 degree 235
pos[353] = 218 degree 235
pos[352] = 102 degree 234
pos[351] = 646 degree 234
pos[350] = 412 degree 233
pos[349] = 194 degree 232
pos[348] = 81 degree 231
pos[347] = 55 degree 230
pos[346] = 119 degree 230
pos[345] = 21 degree 229
pos[344] = 458 degree 229
pos[343] = 233 degree 228
pos[342] = 315 degree 228
pos[341] = 693 degree 228
pos[340] = 456 degree 227
pos[339] = 436 degree 226
pos[338] = 179 degree 225
pos[337] = 550 degree 225
pos[336] = 504 degree 224
pos[335] = 730 degree 224
pos[334] = 645 degree 223
pos[333] = 564 degree 222
pos[332] = 127 degree 221
pos[331] = 7 degree 220
pos[330] = 513 degree 220
pos[329] = 271 degree 219
pos[328] = 647 degree 219
pos[327] = 633 degree 218
pos[326] = 583 degree 217
pos[325] = 437 degree 217
pos[324] = 380 degree 216
pos[323] = 641 degree 216
pos[322] = 357 degree 215
pos[321] = 341 degree 214
pos[320] = 418 degree 214
pos[319] = 312 degree 213
pos[318] = 797 degree 213
pos[317] = 772 degree 213
pos[316] = 760 degree 212
pos[315] = 532 degree 211
pos[314] = 517 degree 211
pos[313] = 61 degree 210
pos[312] = 24 degree 209
pos[311] = 84 degree 209
pos[310] = 80 degree 208
pos[309] = 45 degree 207
pos[308] = 743 degree 207
pos[307] = 385 degree 206
pos[306] = 630 degree 206
pos[305] = 595 degree 205
pos[304] = 607 degree 205
pos[303] = 596 degree 204
pos[302] = 401 degree 203
pos[301] = 268 degree 202
pos[300] = 323 degree 202
pos[299] = 267 degree 201
pos[298] = 4 degree 200
pos[297] = 605 degree 200
pos[296] = 566 degree 199
pos[295] = 461 degree 198
pos[294] = 185 degree 197
pos[293] = 42 degree 196
pos[292] = 571 degree 196
pos[291] = 30 degree 195
pos[290] = 528 degree 195
pos[289] = 764 degree 195
pos[288] = 521 degree 194
pos[287] = 288 degree 193
pos[286] = 703 degree 193
pos[285] = 656 degree 192
pos[284] = 551 degree 191
pos[283] = 541 degree 190
pos[282] = 516 degree 189
pos[281] = 520 degree 189
pos[280] = 286 degree 188
pos[279] = 413 degree 188
pos[278] = 289 degree 187
pos[277] = 280 degree 186
pos[276] = 332 degree 186
pos[275] = 329 degree 186
pos[274] = 99 degree 185
pos[273] = 660 degree 185
pos[272] = 789 degree 185
pos[271] = 622 degree 184
pos[270] = 226 degree 183
pos[269] = 223 degree 182
pos[268] = 586 degree 182
pos[267] = 573 degree 181
pos[266] = 457 degree 180
pos[265] = 768 degree 180
pos[264] = 632 degree 179
pos[263] = 211 degree 178
pos[262] = 590 degree 178
pos[261] = 343 degree 177
pos[260] = 284 degree 176
pos[259] = 507 degree 176
pos[258] = 167 degree 175
pos[257] = 1 degree 174
pos[256] = 535 degree 174
pos[255] = 166 degree 173
pos[254] = 736 degree 173
pos[253] = 318 degree 172
pos[252] = 432 degree 172
pos[251] = 252 degree 171
pos[250] = 106 degree 170
pos[249] = 643 degree 170
pos[248] = 623 degree 169
pos[247] = 732 degree 169
pos[246] = 355 degree 168
pos[245] = 470 degree 168
pos[244] = 460 degree 167
pos[243] = 434 degree 166
pos[242] = 706 degree 166
pos[241] = 442 degree 165
pos[240] = 578 degree 165
pos[239] = 514 degree 164
pos[238] = 450 degree 163
pos[237] = 212 degree 162
pos[236] = 91 degree 161
pos[235] = 689 degree 161
pos[234] = 293 degree 160
pos[233] = 713 degree 160
pos[232] = 610 degree 159
pos[231] = 158 degree 158
pos[230] = 568 degree 158
pos[229] = 295 degree 157
pos[228] = 216 degree 156
pos[227] = 503 degree 156
pos[226] = 319 degree 155
pos[225] = 530 degree 155
pos[224] = 238 degree 154
pos[223] = 14 degree 153
pos[222] = 771 degree 153
pos[221] = 598 degree 152
pos[220] = 481 degree 151
pos[219] = 480 degree 151
pos[218] = 448 degree 150
pos[217] = 310 degree 149
pos[216] = 183 degree 148
pos[215] = 792 degree 149
pos[214] = 234 degree 148
pos[213] = 755 degree 148
pos[212] = 745 degree 147
pos[211] = 453 degree 146
pos[210] = 390 degree 145
pos[209] = 196 degree 144
pos[208] = 100 degree 143
pos[207] = 625 degree 143
pos[206] = 378 degree 142
pos[205] = 213 degree 141
pos[204] = 740 degree 141
pos[203] = 314 degree 140
pos[202] = 88 degree 139
pos[201] = 27 degree 138
pos[200] = 540 degree 138
pos[199] = 512 degree 138
pos[198] = 404 degree 137
pos[197] = 699 degree 137
pos[196] = 246 degree 136
pos[195] = 640 degree 136
pos[194] = 383 degree 135
pos[193] = 52 degree 134
pos[192] = 26 degree 133
pos[191] = 359 degree 133
pos[190] = 243 degree 132
pos[189] = 0 degree 131
pos[188] = 553 degree 131
pos[187] = 109 degree 130
pos[186] = 86 degree 129
pos[185] = 791 degree 130
pos[184] = 575 degree 129
pos[183] = 531 degree 128
pos[182] = 420 degree 127
pos[181] = 381 degree 126
pos[180] = 23 degree 125
pos[179] = 788 degree 125
pos[178] = 488 degree 124
pos[177] = 389 degree 124
pos[176] = 187 degree 123
pos[175] = 614 degree 123
pos[174] = 347 degree 123
pos[173] = 122 degree 122
pos[172] = 519 degree 122
pos[171] = 408 degree 121
pos[170] = 375 degree 120
pos[169] = 296 degree 119
pos[168] = 148 degree 118
pos[167] = 570 degree 119
pos[166] = 555 degree 118
pos[165] = 424 degree 117
pos[164] = 299 degree 116
pos[163] = 567 degree 116
pos[162] = 474 degree 115
pos[161] = 324 degree 114
pos[160] = 79 degree 113
pos[159] = 548 degree 113
pos[158] = 399 degree 112
pos[157] = 277 degree 111
pos[156] = 255 degree 111
pos[155] = 114 degree 110
pos[154] = 778 degree 110
pos[153] = 587 degree 109
pos[152] = 391 degree 108
pos[151] = 87 degree 107
pos[150] = 744 degree 107
pos[149] = 407 degree 106
pos[148] = 174 degree 105
pos[147] = 126 degree 104
pos[146] = 724 degree 104
pos[145] = 336 degree 103
pos[144] = 665 degree 103
pos[143] = 131 degree 102
pos[142] = 116 degree 101
pos[141] = 707 degree 101
pos[140] = 498 degree 100
pos[139] = 447 degree 99
pos[138] = 192 degree 98
pos[137] = 121 degree 97
pos[136] = 272 degree 97
pos[135] = 464 degree 97
pos[134] = 783 degree 97
pos[133] = 466 degree 96
pos[132] = 398 degree 95
pos[131] = 322 degree 94
pos[130] = 702 degree 94
pos[129] = 492 degree 93
pos[128] = 328 degree 92
pos[127] = 661 degree 92
pos[126] = 382 degree 91
pos[125] = 276 degree 91
pos[124] = 273 degree 90
pos[123] = 171 degree 89
pos[122] = 627 degree 89
pos[121] = 264 degree 88
pos[120] = 93 degree 87
pos[119] = 795 degree 87
pos[118] = 22 degree 86
pos[117] = 741 degree 86
pos[116] = 376 degree 85
pos[115] = 13 degree 84
pos[114] = 688 degree 84
pos[113] = 467 degree 83
pos[112] = 393 degree 82
pos[111] = 207 degree 81
pos[110] = 128 degree 80
pos[109] = 491 degree 80
pos[108] = 386 degree 79
pos[107] = 370 degree 78
pos[106] = 274 degree 77
pos[105] = 396 degree 77
pos[104] = 58 degree 76
pos[103] = 5 degree 75
pos[102] = 651 degree 75
pos[101] = 600 degree 74
pos[100] = 536 degree 73
pos[99] = 210 degree 72
pos[98] = 468 degree 72
pos[97] = 459 degree 71
pos[96] = 340 degree 70
pos[95] = 618 degree 70
pos[94] = 39 degree 69
pos[93] = 475 degree 69
pos[92] = 204 degree 68
pos[91] = 201 degree 67
pos[90] = 648 degree 67
pos[89] = 560 degree 66
pos[88] = 495 degree 66
pos[87] = 242 degree 65
pos[86] = 34 degree 64
pos[85] = 780 degree 64
pos[84] = 635 degree 63
pos[83] = 371 degree 62
pos[82] = 344 degree 61
pos[81] = 46 degree 61
pos[80] = 757 degree 61
pos[79] = 751 degree 60
pos[78] = 258 degree 59
pos[77] = 794 degree 59
pos[76] = 784 degree 58
pos[75] = 664 degree 57
pos[74] = 624 degree 56
pos[73] = 613 degree 55
pos[72] = 367 degree 54
pos[71] = 261 degree 54
pos[70] = 484 degree 54
pos[69] = 104 degree 53
pos[68] = 417 degree 53
pos[67] = 756 degree 53
pos[66] = 709 degree 52
pos[65] = 572 degree 51
pos[64] = 384 degree 50
pos[63] = 76 degree 49
pos[62] = 796 degree 49
pos[61] = 354 degree 48
pos[60] = 320 degree 47
pos[59] = 281 degree 46
pos[58] = 239 degree 45
pos[57] = 631 degree 45
pos[56] = 493 degree 44
pos[55] = 691 degree 44
pos[54] = 585 degree 43
pos[53] = 353 degree 42
pos[52] = 304 degree 42
pos[51] = 291 degree 41
pos[50] = 214 degree 40
pos[49] = 63 degree 39
pos[48] = 51 degree 38
pos[47] = 290 degree 38
pos[46] = 199 degree 37
pos[45] = 2 degree 36
pos[44] = 748 degree 36
pos[43] = 672 degree 35
pos[42] = 431 degree 34
pos[41] = 409 degree 33
pos[40] = 279 degree 32
pos[39] = 766 degree 32
pos[38] = 98 degree 31
pos[37] = 410 degree 31
pos[36] = 372 degree 30
pos[35] = 111 degree 29
pos[34] = 750 degree 29
pos[33] = 438 degree 28
pos[32] = 423 degree 27
pos[31] = 737 degree 27
pos[30] = 649 degree 26
pos[29] = 608 degree 25
pos[28] = 454 degree 24
pos[27] = 446 degree 23
pos[26] = 113 degree 22
pos[25] = 752 degree 22
pos[24] = 244 degree 21
pos[23] = 200 degree 20
pos[22] = 721 degree 20
pos[21] = 701 degree 19
pos[20] = 653 degree 18
pos[19] = 421 degree 17
pos[18] = 182 degree 16
pos[17] = 559 degree 16
pos[16] = 529 degree 15
pos[15] = 455 degree 14
pos[14] = 300 degree 13
pos[13] = 712 degree 13
pos[12] = 705 degree 12
pos[11] = 557 degree 11
pos[10] = 537 degree 10
pos[9] = 426 degree 9
pos[8] = 406 degree 8
pos[7] = 342 degree 7
pos[6] = 270 degree 6
pos[5] = 245 degree 5
pos[4] = 236 degree 4
pos[3] = 152 degree 3
pos[2] = 129 degree 2
pos[1] = 74 degree 1
pos[0] = 11 degree 0
kplex size 1
[11 ]
1/800 (max 1) 0.00771 s
kplex size 2
[74 11 ]
2/800 (max 2) 0.00772 s
kplex size 3
[129 74 11 ]
3/800 (max 3) 0.00773 s
kplex size 4
[152 129 74 11 ]
4/800 (max 4) 0.00773 s
kplex size 5
[236 152 129 74 11 ]
5/800 (max 5) 0.00774 s
kplex size 6
[245 236 152 129 74 11 ]
6/800 (max 6) 0.00774 s
kplex size 7
[270 245 236 152 129 74 11 ]
7/800 (max 7) 0.00774 s
kplex size 8
[342 270 245 236 152 129 74 11 ]
8/800 (max 8) 0.00775 s
kplex size 9
[406 342 270 245 236 152 129 74 11 ]
9/800 (max 9) 0.00775 s
kplex size 10
[426 406 342 270 245 236 152 129 74 11 ]
10/800 (max 10) 0.00776 s
kplex size 11
[537 426 406 342 270 245 236 152 129 74 11 ]
11/800 (max 11) 0.00776 s
kplex size 12
[557 537 426 406 342 270 245 236 152 129 74 11 ]
12/800 (max 12) 0.00777 s
kplex size 13
[705 557 537 426 406 342 270 245 236 152 129 74 11 ]
13/800 (max 13) 0.00778 s
kplex size 14
[712 705 557 537 426 406 342 270 245 236 152 129 74 11 ]
14/800 (max 14) 0.00779 s
kplex size 15
[300 712 705 557 537 426 406 342 270 245 236 152 129 74 11 ]
15/800 (max 15) 0.00779 s
kplex size 16
[455 300 712 705 557 537 426 406 342 270 245 236 152 129 74 11 ]
16/800 (max 16) 0.00780 s
kplex size 17
[529 455 300 712 705 557 537 426 406 342 270 245 236 152 129 74 11 ]
17/800 (max 17) 0.00781 s
kplex size 18
[559 529 455 300 712 705 557 537 426 406 342 270 245 236 152 129 74 11 ]
18/800 (max 18) 0.00783 s
19/800 (max 18) 0.00783 s
20/800 (max 18) 0.00784 s
21/800 (max 18) 0.00785 s
kplex size 19
[701 653 421 182 559 529 455 300 712 705 537 426 406 342 270 152 129 74 11 ]
22/800 (max 19) 0.00786 s
23/800 (max 19) 0.00788 s
24/800 (max 19) 0.00792 s
25/800 (max 19) 0.00800 s
26/800 (max 19) 0.00817 s
27/800 (max 19) 0.00833 s
28/800 (max 19) 0.00853 s
29/800 (max 19) 0.00898 s
30/800 (max 19) 0.00956 s
kplex size 20
[649 752 721 701 653 421 559 529 455 300 712 705 426 342 270 245 152 129 74 11 ]
31/800 (max 20) 0.01023 s
32/800 (max 20) 0.01041 s
33/800 (max 20) 0.01089 s
34/800 (max 20) 0.01154 s
35/800 (max 20) 0.01316 s
36/800 (max 20) 0.01490 s
37/800 (max 20) 0.01739 s
38/800 (max 20) 0.02189 s
39/800 (max 20) 0.02513 s
40/800 (max 20) 0.03007 s
41/800 (max 20) 0.03350 s
42/800 (max 20) 0.04202 s
43/800 (max 20) 0.05366 s
44/800 (max 20) 0.06708 s
45/800 (max 20) 0.08141 s
46/800 (max 20) 0.09685 s
47/800 (max 20) 0.12664 s
48/800 (max 20) 0.15628 s
49/800 (max 20) 0.18709 s
50/800 (max 20) 0.23115 s
51/800 (max 20) 0.27666 s
52/800 (max 20) 0.33179 s
53/800 (max 20) 0.40522 s
54/800 (max 20) 0.49326 s
55/800 (max 20) 0.58541 s
56/800 (max 20) 0.71553 s
57/800 (max 20) 0.90897 s
58/800 (max 20) 1.06282 s
59/800 (max 20) 1.21233 s
60/800 (max 20) 1.38062 s
61/800 (max 20) 1.65828 s
62/800 (max 20) 1.94884 s
63/800 (max 20) 2.24449 s
64/800 (max 20) 2.58245 s
kplex size 21
[384 281 691 585 214 2 748 672 750 438 446 113 200 653 455 426 342 270 236 152 11 ]
65/800 (max 21) 2.78547 s
66/800 (max 21) 2.84653 s
67/800 (max 21) 2.93405 s
68/800 (max 21) 3.07116 s
69/800 (max 21) 3.29244 s
70/800 (max 21) 3.53393 s
71/800 (max 21) 3.77354 s
72/800 (max 21) 4.13883 s
73/800 (max 21) 4.48866 s
74/800 (max 21) 4.89461 s
75/800 (max 21) 5.38319 s
kplex size 22
[664 572 384 281 239 585 748 672 423 446 752 721 701 653 421 182 455 300 712 426 236 129 ]
76/800 (max 22) 5.76852 s
77/800 (max 22) 5.81892 s
78/800 (max 22) 5.92603 s
79/800 (max 22) 6.06542 s
80/800 (max 22) 6.43217 s
81/800 (max 22) 6.88221 s
82/800 (max 22) 7.26582 s
83/800 (max 22) 7.71363 s
84/800 (max 22) 8.36294 s
85/800 (max 22) 9.01182 s
86/800 (max 22) 9.83063 s
87/800 (max 22) 10.80339 s
88/800 (max 22) 11.90573 s
89/800 (max 22) 13.23026 s
90/800 (max 22) 15.06624 s
91/800 (max 22) 16.87432 s
92/800 (max 22) 18.51043 s
93/800 (max 22) 20.12383 s
94/800 (max 22) 22.44721 s
95/800 (max 22) 24.29416 s
96/800 (max 22) 27.06287 s
97/800 (max 22) 30.10538 s
98/800 (max 22) 32.99079 s
99/800 (max 22) 37.01827 s
100/800 (max 22) 40.23234 s
101/800 (max 22) 44.39473 s
102/800 (max 22) 48.99447 s
103/800 (max 22) 53.19372 s
104/800 (max 22) 57.01394 s
105/800 (max 22) 61.88825 s
106/800 (max 22) 67.70211 s
107/800 (max 22) 73.59522 s
108/800 (max 22) 79.35877 s
109/800 (max 22) 88.50047 s
110/800 (max 22) 95.96842 s
111/800 (max 22) 104.11335 s
112/800 (max 22) 112.49419 s
113/800 (max 22) 125.53005 s
114/800 (max 22) 140.60190 s
115/800 (max 22) 153.80329 s
116/800 (max 22) 170.74777 s
117/800 (max 22) 190.43163 s
118/800 (max 22) 205.24659 s
119/800 (max 22) 224.52958 s
120/800 (max 22) 246.42866 s
121/800 (max 22) 266.28737 s
122/800 (max 22) 283.33132 s
123/800 (max 22) 303.02783 s
124/800 (max 22) 326.25696 s
125/800 (max 22) 354.27187 s
126/800 (max 22) 379.88487 s
127/800 (max 22) 407.64060 s
128/800 (max 22) 442.90907 s
129/800 (max 22) 474.18186 s
130/800 (max 22) 510.59179 s
131/800 (max 22) 543.72942 s
132/800 (max 22) 585.36392 s
133/800 (max 22) 630.24251 s
134/800 (max 22) 674.03106 s
135/800 (max 22) 718.51118 s
136/800 (max 22) 762.83813 s
137/800 (max 22) 811.11628 s
138/800 (max 22) 864.90745 s
139/800 (max 22) 928.79310 s
140/800 (max 22) 987.52345 s
141/800 (max 22) 1058.54641 s
142/800 (max 22) 1125.64261 s
143/800 (max 22) 1189.08762 s
kplex size 23
[131 783 273 664 239 631 423 649 454 752 653 421 182 559 529 455 712 705 537 426 342 129 74 ]
144/800 (max 23) 1229.45638 s
145/800 (max 23) 1235.79972 s
146/800 (max 23) 1247.52757 s
147/800 (max 23) 1257.05176 s
148/800 (max 23) 1272.65959 s
149/800 (max 23) 1293.74219 s
150/800 (max 23) 1322.45632 s
151/800 (max 23) 1354.49674 s
152/800 (max 23) 1378.09311 s
153/800 (max 23) 1412.42277 s
154/800 (max 23) 1462.70409 s
155/800 (max 23) 1515.20932 s
156/800 (max 23) 1580.51377 s
157/800 (max 23) 1634.98725 s
158/800 (max 23) 1687.13653 s
159/800 (max 23) 1760.77886 s
160/800 (max 23) 1836.08877 s
161/800 (max 23) 1920.27709 s
162/800 (max 23) 2028.13761 s
163/800 (max 23) 2147.04557 s
164/800 (max 23) 2263.17246 s
165/800 (max 23) 2407.66540 s
166/800 (max 23) 2519.62458 s
167/800 (max 23) 2675.79352 s
168/800 (max 23) 2865.69820 s
169/800 (max 23) 3044.94063 s
170/800 (max 23) 3252.59533 s
171/800 (max 23) 3425.59114 s
TIMEOUT
best clique: 131 783 273 664 239 631 423 649 454 752 653 421 182 559 529 455 712 705 537 426 342 129 74 
record          =          23
subp            =  10933953030
time            =  3600.00033
