timeout 3600 s
Graph with 200 vertices and 14834 edges density 0.745427
t = 29668, Enbr = 14834
pos[199] = 145 degree 130
pos[198] = 112 degree 134
pos[197] = 195 degree 134
pos[196] = 71 degree 134
pos[195] = 11 degree 133
pos[194] = 133 degree 134
pos[193] = 88 degree 133
pos[192] = 199 degree 134
pos[191] = 53 degree 133
pos[190] = 197 degree 133
pos[189] = 70 degree 132
pos[188] = 150 degree 132
pos[187] = 147 degree 131
pos[186] = 66 degree 130
pos[185] = 135 degree 130
pos[184] = 122 degree 129
pos[183] = 84 degree 129
pos[182] = 161 degree 129
pos[181] = 152 degree 128
pos[180] = 67 degree 128
pos[179] = 38 degree 127
pos[178] = 166 degree 127
pos[177] = 146 degree 126
pos[176] = 40 degree 125
pos[175] = 20 degree 124
pos[174] = 123 degree 124
pos[173] = 90 degree 123
pos[172] = 101 degree 123
pos[171] = 59 degree 122
pos[170] = 149 degree 122
pos[169] = 87 degree 121
pos[168] = 16 degree 120
pos[167] = 132 degree 120
pos[166] = 75 degree 120
pos[165] = 8 degree 119
pos[164] = 4 degree 118
pos[163] = 191 degree 118
pos[162] = 183 degree 117
pos[161] = 36 degree 116
pos[160] = 140 degree 116
pos[159] = 126 degree 115
pos[158] = 50 degree 114
pos[157] = 117 degree 114
pos[156] = 32 degree 113
pos[155] = 22 degree 112
pos[154] = 134 degree 112
pos[153] = 51 degree 111
pos[152] = 5 degree 110
pos[151] = 120 degree 110
pos[150] = 46 degree 109
pos[149] = 30 degree 108
pos[148] = 111 degree 108
pos[147] = 105 degree 107
pos[146] = 91 degree 106
pos[145] = 29 degree 105
pos[144] = 176 degree 106
pos[143] = 109 degree 105
pos[142] = 182 degree 105
pos[141] = 172 degree 104
pos[140] = 62 degree 103
pos[139] = 39 degree 102
pos[138] = 165 degree 102
pos[137] = 89 degree 101
pos[136] = 181 degree 101
pos[135] = 34 degree 100
pos[134] = 144 degree 100
pos[133] = 139 degree 99
pos[132] = 124 degree 98
pos[131] = 13 degree 97
pos[130] = 9 degree 96
pos[129] = 37 degree 96
pos[128] = 18 degree 95
pos[127] = 61 degree 95
pos[126] = 1 degree 94
pos[125] = 194 degree 94
pos[124] = 160 degree 93
pos[123] = 153 degree 92
pos[122] = 136 degree 91
pos[121] = 129 degree 90
pos[120] = 154 degree 90
pos[119] = 106 degree 89
pos[118] = 48 degree 88
pos[117] = 24 degree 88
pos[116] = 190 degree 88
pos[115] = 73 degree 87
pos[114] = 69 degree 86
pos[113] = 141 degree 86
pos[112] = 86 degree 85
pos[111] = 187 degree 85
pos[110] = 157 degree 84
pos[109] = 76 degree 83
pos[108] = 192 degree 83
pos[107] = 162 degree 82
pos[106] = 155 degree 81
pos[105] = 17 degree 80
pos[104] = 119 degree 80
pos[103] = 42 degree 79
pos[102] = 107 degree 79
pos[101] = 54 degree 78
pos[100] = 52 degree 77
pos[99] = 44 degree 76
pos[98] = 193 degree 76
pos[97] = 110 degree 75
pos[96] = 21 degree 74
pos[95] = 178 degree 74
pos[94] = 177 degree 73
pos[93] = 167 degree 72
pos[92] = 108 degree 71
pos[91] = 56 degree 70
pos[90] = 15 degree 69
pos[89] = 83 degree 69
pos[88] = 14 degree 68
pos[87] = 196 degree 68
pos[86] = 104 degree 67
pos[85] = 77 degree 66
pos[84] = 28 degree 65
pos[83] = 6 degree 64
pos[82] = 98 degree 64
pos[81] = 198 degree 64
pos[80] = 188 degree 63
pos[79] = 94 degree 62
pos[78] = 60 degree 61
pos[77] = 186 degree 61
pos[76] = 170 degree 60
pos[75] = 121 degree 59
pos[74] = 97 degree 58
pos[73] = 85 degree 57
pos[72] = 55 degree 56
pos[71] = 95 degree 56
pos[70] = 142 degree 56
pos[69] = 138 degree 55
pos[68] = 131 degree 54
pos[67] = 65 degree 53
pos[66] = 93 degree 53
pos[65] = 92 degree 52
pos[64] = 81 degree 51
pos[63] = 63 degree 50
pos[62] = 173 degree 50
pos[61] = 64 degree 49
pos[60] = 45 degree 48
pos[59] = 10 degree 47
pos[58] = 184 degree 47
pos[57] = 180 degree 46
pos[56] = 116 degree 45
pos[55] = 79 degree 44
pos[54] = 103 degree 44
pos[53] = 41 degree 43
pos[52] = 2 degree 42
pos[51] = 169 degree 42
pos[50] = 159 degree 41
pos[49] = 130 degree 40
pos[48] = 118 degree 39
pos[47] = 96 degree 38
pos[46] = 43 degree 37
pos[45] = 171 degree 37
pos[44] = 125 degree 36
pos[43] = 114 degree 35
pos[42] = 100 degree 34
pos[41] = 25 degree 33
pos[40] = 151 degree 34
pos[39] = 3 degree 33
pos[38] = 168 degree 33
pos[37] = 156 degree 32
pos[36] = 128 degree 31
pos[35] = 185 degree 31
pos[34] = 179 degree 30
pos[33] = 148 degree 29
pos[32] = 82 degree 28
pos[31] = 72 degree 27
pos[30] = 58 degree 26
pos[29] = 164 degree 26
pos[28] = 102 degree 25
pos[27] = 189 degree 25
pos[26] = 175 degree 24
pos[25] = 163 degree 23
pos[24] = 143 degree 22
pos[23] = 49 degree 21
pos[22] = 27 degree 20
pos[21] = 7 degree 19
pos[20] = 158 degree 19
pos[19] = 113 degree 18
pos[18] = 68 degree 17
pos[17] = 174 degree 17
pos[16] = 137 degree 16
pos[15] = 127 degree 15
pos[14] = 115 degree 14
pos[13] = 99 degree 13
pos[12] = 80 degree 12
pos[11] = 78 degree 11
pos[10] = 74 degree 10
pos[9] = 57 degree 9
pos[8] = 47 degree 8
pos[7] = 35 degree 7
pos[6] = 33 degree 6
pos[5] = 31 degree 5
pos[4] = 26 degree 4
pos[3] = 23 degree 3
pos[2] = 19 degree 2
pos[1] = 12 degree 1
pos[0] = 0 degree 0
kplex size 1
[0 ]
1/200 (max 1) 0.00078 s
kplex size 2
[12 0 ]
2/200 (max 2) 0.00079 s
kplex size 3
[19 12 0 ]
3/200 (max 3) 0.00079 s
kplex size 4
[23 19 12 0 ]
4/200 (max 4) 0.00079 s
kplex size 5
[26 23 19 12 0 ]
5/200 (max 5) 0.00080 s
kplex size 6
[31 26 23 19 12 0 ]
6/200 (max 6) 0.00080 s
kplex size 7
[33 31 26 23 19 12 0 ]
7/200 (max 7) 0.00080 s
kplex size 8
[35 33 31 26 23 19 12 0 ]
8/200 (max 8) 0.00081 s
kplex size 9
[47 35 33 31 26 23 19 12 0 ]
9/200 (max 9) 0.00081 s
kplex size 10
[57 47 35 33 31 26 23 19 12 0 ]
10/200 (max 10) 0.00082 s
kplex size 11
[74 57 47 35 33 31 26 23 19 12 0 ]
11/200 (max 11) 0.00082 s
kplex size 12
[78 74 57 47 35 33 31 26 23 19 12 0 ]
12/200 (max 12) 0.00083 s
kplex size 13
[80 78 74 57 47 35 33 31 26 23 19 12 0 ]
13/200 (max 13) 0.00084 s
kplex size 14
[99 80 78 74 57 47 35 33 31 26 23 19 12 0 ]
14/200 (max 14) 0.00084 s
kplex size 15
[115 99 80 78 74 57 47 35 33 31 26 23 19 12 0 ]
15/200 (max 15) 0.00085 s
kplex size 16
[127 115 99 80 78 74 57 47 35 33 31 26 23 19 12 0 ]
16/200 (max 16) 0.00086 s
kplex size 17
[137 127 115 99 80 78 74 57 47 35 33 31 26 23 19 12 0 ]
17/200 (max 17) 0.00087 s
kplex size 18
[174 137 127 115 99 80 78 74 57 47 35 33 31 26 23 19 12 0 ]
18/200 (max 18) 0.00088 s
kplex size 19
[68 174 137 127 115 99 80 78 74 57 47 35 33 31 26 23 19 12 0 ]
19/200 (max 19) 0.00089 s
kplex size 20
[113 68 174 137 127 115 99 80 78 74 57 47 35 33 31 26 23 19 12 0 ]
20/200 (max 20) 0.00090 s
kplex size 21
[158 113 68 174 137 127 115 99 80 78 74 57 47 35 33 31 26 23 19 12 0 ]
21/200 (max 21) 0.00091 s
22/200 (max 21) 0.00091 s
23/200 (max 21) 0.00092 s
24/200 (max 21) 0.00097 s
25/200 (max 21) 0.00103 s
26/200 (max 21) 0.00133 s
27/200 (max 21) 0.00161 s
kplex size 22
[189 175 163 143 49 27 7 158 113 68 174 137 127 115 78 74 33 31 26 19 12 0 ]
28/200 (max 22) 0.00179 s
29/200 (max 22) 0.00195 s
kplex size 23
[164 189 175 163 49 27 7 158 113 68 174 137 127 115 80 78 74 33 31 26 19 12 0 ]
30/200 (max 23) 0.00232 s
31/200 (max 23) 0.00240 s
32/200 (max 23) 0.00252 s
33/200 (max 23) 0.00301 s
34/200 (max 23) 0.00389 s
35/200 (max 23) 0.00490 s
36/200 (max 23) 0.00719 s
37/200 (max 23) 0.00903 s
38/200 (max 23) 0.01227 s
39/200 (max 23) 0.01548 s
40/200 (max 23) 0.02147 s
41/200 (max 23) 0.02718 s
kplex size 24
[25 185 179 82 58 102 189 143 27 158 113 174 137 127 115 99 80 78 47 35 31 26 23 0 ]
42/200 (max 24) 0.03004 s
43/200 (max 24) 0.03074 s
44/200 (max 24) 0.03211 s
45/200 (max 24) 0.03508 s
46/200 (max 24) 0.04077 s
47/200 (max 24) 0.04467 s
48/200 (max 24) 0.05434 s
49/200 (max 24) 0.06479 s
50/200 (max 24) 0.07829 s
51/200 (max 24) 0.09680 s
52/200 (max 24) 0.11956 s
53/200 (max 24) 0.14410 s
54/200 (max 24) 0.17908 s
55/200 (max 24) 0.22137 s
56/200 (max 24) 0.26027 s
57/200 (max 24) 0.31942 s
58/200 (max 24) 0.40019 s
59/200 (max 24) 0.48071 s
60/200 (max 24) 0.55196 s
61/200 (max 24) 0.65558 s
62/200 (max 24) 0.78097 s
63/200 (max 24) 0.94710 s
64/200 (max 24) 1.09993 s
65/200 (max 24) 1.23478 s
66/200 (max 24) 1.51558 s
67/200 (max 24) 1.80635 s
68/200 (max 24) 2.12008 s
69/200 (max 24) 2.42651 s
70/200 (max 24) 2.77895 s
71/200 (max 24) 3.24063 s
72/200 (max 24) 3.78221 s
73/200 (max 24) 4.24375 s
74/200 (max 24) 4.67493 s
75/200 (max 24) 5.41771 s
76/200 (max 24) 6.29126 s
77/200 (max 24) 7.30031 s
78/200 (max 24) 8.27028 s
79/200 (max 24) 9.37818 s
80/200 (max 24) 11.07492 s
81/200 (max 24) 12.98220 s
kplex size 25
[198 85 184 25 185 82 58 102 189 175 143 158 113 137 127 115 99 80 78 57 47 31 26 12 0 ]
82/200 (max 25) 14.06222 s
83/200 (max 25) 14.27334 s
84/200 (max 25) 14.62776 s
85/200 (max 25) 15.23235 s
86/200 (max 25) 15.77027 s
87/200 (max 25) 16.81779 s
88/200 (max 25) 18.10794 s
89/200 (max 25) 19.02940 s
90/200 (max 25) 20.65252 s
91/200 (max 25) 22.09360 s
92/200 (max 25) 24.52102 s
93/200 (max 25) 27.03956 s
94/200 (max 25) 29.78144 s
95/200 (max 25) 33.33918 s
96/200 (max 25) 37.44727 s
97/200 (max 25) 42.91416 s
98/200 (max 25) 48.53770 s
99/200 (max 25) 54.11857 s
100/200 (max 25) 60.19919 s
101/200 (max 25) 66.66167 s
102/200 (max 25) 74.77077 s
103/200 (max 25) 82.68185 s
104/200 (max 25) 92.58163 s
105/200 (max 25) 102.63166 s
106/200 (max 25) 114.71433 s
107/200 (max 25) 125.27519 s
108/200 (max 25) 138.57260 s
109/200 (max 25) 153.13274 s
110/200 (max 25) 174.46640 s
111/200 (max 25) 195.91670 s
112/200 (max 25) 215.17720 s
113/200 (max 25) 235.26642 s
114/200 (max 25) 263.00905 s
115/200 (max 25) 282.74164 s
116/200 (max 25) 306.71125 s
117/200 (max 25) 335.51610 s
118/200 (max 25) 366.16689 s
119/200 (max 25) 396.54402 s
120/200 (max 25) 430.77986 s
121/200 (max 25) 456.45085 s
122/200 (max 25) 487.58353 s
123/200 (max 25) 525.99760 s
124/200 (max 25) 582.44763 s
125/200 (max 25) 635.05275 s
126/200 (max 25) 695.77300 s
127/200 (max 25) 745.66394 s
128/200 (max 25) 799.86771 s
kplex size 26
[18 129 198 85 184 25 185 58 102 189 175 143 158 174 137 127 115 80 78 57 47 35 31 26 12 0 ]
129/200 (max 26) 823.61092 s
130/200 (max 26) 827.69013 s
131/200 (max 26) 838.54807 s
132/200 (max 26) 853.75105 s
133/200 (max 26) 874.52432 s
134/200 (max 26) 900.37610 s
135/200 (max 26) 927.02282 s
136/200 (max 26) 963.04834 s
137/200 (max 26) 991.83765 s
138/200 (max 26) 1030.53022 s
139/200 (max 26) 1086.35554 s
140/200 (max 26) 1138.31387 s
141/200 (max 26) 1195.80598 s
142/200 (max 26) 1260.95436 s
143/200 (max 26) 1330.00742 s
144/200 (max 26) 1410.48466 s
145/200 (max 26) 1485.73914 s
146/200 (max 26) 1563.84735 s
147/200 (max 26) 1649.79844 s
148/200 (max 26) 1746.56652 s
149/200 (max 26) 1863.96208 s
150/200 (max 26) 1973.44542 s
151/200 (max 26) 2104.27264 s
152/200 (max 26) 2275.28578 s
153/200 (max 26) 2399.66133 s
154/200 (max 26) 2558.78860 s
155/200 (max 26) 2725.53700 s
156/200 (max 26) 2924.27771 s
157/200 (max 26) 3113.51466 s
158/200 (max 26) 3317.27500 s
159/200 (max 26) 3551.51966 s
TIMEOUT
best clique: 18 129 198 85 184 25 185 58 102 189 175 143 158 174 137 127 115 80 78 57 47 35 31 26 12 0 
record          =          26
subp            =  11928216300
time            =  3600.00009
