timeout 3600 s
Graph with 200 vertices and 8473 edges density 0.425779
t = 16946, Enbr = 8473
pos[199] = 194 degree 83
pos[198] = 187 degree 82
pos[197] = 180 degree 81
pos[196] = 173 degree 80
pos[195] = 166 degree 79
pos[194] = 159 degree 78
pos[193] = 152 degree 77
pos[192] = 145 degree 76
pos[191] = 138 degree 75
pos[190] = 131 degree 74
pos[189] = 124 degree 73
pos[188] = 117 degree 72
pos[187] = 110 degree 71
pos[186] = 103 degree 70
pos[185] = 96 degree 69
pos[184] = 89 degree 68
pos[183] = 82 degree 67
pos[182] = 75 degree 66
pos[181] = 68 degree 65
pos[180] = 61 degree 64
pos[179] = 54 degree 63
pos[178] = 47 degree 62
pos[177] = 40 degree 61
pos[176] = 33 degree 60
pos[175] = 26 degree 59
pos[174] = 19 degree 58
pos[173] = 12 degree 57
pos[172] = 5 degree 56
pos[171] = 195 degree 56
pos[170] = 188 degree 55
pos[169] = 181 degree 54
pos[168] = 174 degree 53
pos[167] = 167 degree 52
pos[166] = 160 degree 51
pos[165] = 153 degree 50
pos[164] = 146 degree 49
pos[163] = 139 degree 48
pos[162] = 132 degree 47
pos[161] = 125 degree 46
pos[160] = 118 degree 45
pos[159] = 111 degree 44
pos[158] = 104 degree 43
pos[157] = 97 degree 42
pos[156] = 90 degree 41
pos[155] = 83 degree 40
pos[154] = 76 degree 39
pos[153] = 69 degree 38
pos[152] = 62 degree 37
pos[151] = 55 degree 36
pos[150] = 48 degree 35
pos[149] = 41 degree 34
pos[148] = 34 degree 33
pos[147] = 27 degree 32
pos[146] = 20 degree 31
pos[145] = 13 degree 30
pos[144] = 6 degree 29
pos[143] = 193 degree 56
pos[142] = 186 degree 55
pos[141] = 179 degree 54
pos[140] = 172 degree 53
pos[139] = 165 degree 52
pos[138] = 158 degree 51
pos[137] = 151 degree 50
pos[136] = 144 degree 49
pos[135] = 137 degree 48
pos[134] = 130 degree 47
pos[133] = 123 degree 46
pos[132] = 116 degree 45
pos[131] = 109 degree 44
pos[130] = 102 degree 43
pos[129] = 95 degree 42
pos[128] = 88 degree 41
pos[127] = 81 degree 40
pos[126] = 74 degree 39
pos[125] = 67 degree 38
pos[124] = 60 degree 37
pos[123] = 53 degree 36
pos[122] = 46 degree 35
pos[121] = 39 degree 34
pos[120] = 32 degree 33
pos[119] = 25 degree 32
pos[118] = 18 degree 31
pos[117] = 11 degree 30
pos[116] = 4 degree 29
pos[115] = 199 degree 57
pos[114] = 192 degree 56
pos[113] = 185 degree 55
pos[112] = 178 degree 54
pos[111] = 171 degree 53
pos[110] = 164 degree 52
pos[109] = 157 degree 51
pos[108] = 150 degree 50
pos[107] = 143 degree 49
pos[106] = 136 degree 48
pos[105] = 129 degree 47
pos[104] = 122 degree 46
pos[103] = 115 degree 45
pos[102] = 108 degree 44
pos[101] = 101 degree 43
pos[100] = 94 degree 42
pos[99] = 87 degree 41
pos[98] = 80 degree 40
pos[97] = 73 degree 39
pos[96] = 66 degree 38
pos[95] = 59 degree 37
pos[94] = 52 degree 36
pos[93] = 45 degree 35
pos[92] = 38 degree 34
pos[91] = 31 degree 33
pos[90] = 24 degree 32
pos[89] = 17 degree 31
pos[88] = 10 degree 30
pos[87] = 3 degree 29
pos[86] = 198 degree 57
pos[85] = 191 degree 56
pos[84] = 184 degree 55
pos[83] = 177 degree 54
pos[82] = 170 degree 53
pos[81] = 163 degree 52
pos[80] = 156 degree 51
pos[79] = 149 degree 50
pos[78] = 142 degree 49
pos[77] = 135 degree 48
pos[76] = 128 degree 47
pos[75] = 121 degree 46
pos[74] = 114 degree 45
pos[73] = 107 degree 44
pos[72] = 100 degree 43
pos[71] = 93 degree 42
pos[70] = 86 degree 41
pos[69] = 79 degree 40
pos[68] = 72 degree 39
pos[67] = 65 degree 38
pos[66] = 58 degree 37
pos[65] = 51 degree 36
pos[64] = 44 degree 35
pos[63] = 37 degree 34
pos[62] = 30 degree 33
pos[61] = 23 degree 32
pos[60] = 16 degree 31
pos[59] = 9 degree 30
pos[58] = 2 degree 29
pos[57] = 197 degree 57
pos[56] = 196 degree 56
pos[55] = 190 degree 55
pos[54] = 189 degree 54
pos[53] = 183 degree 53
pos[52] = 182 degree 52
pos[51] = 176 degree 51
pos[50] = 175 degree 50
pos[49] = 169 degree 49
pos[48] = 168 degree 48
pos[47] = 162 degree 47
pos[46] = 161 degree 46
pos[45] = 155 degree 45
pos[44] = 154 degree 44
pos[43] = 148 degree 43
pos[42] = 147 degree 42
pos[41] = 141 degree 41
pos[40] = 140 degree 40
pos[39] = 134 degree 39
pos[38] = 133 degree 38
pos[37] = 127 degree 37
pos[36] = 126 degree 36
pos[35] = 120 degree 35
pos[34] = 119 degree 34
pos[33] = 113 degree 33
pos[32] = 112 degree 32
pos[31] = 106 degree 31
pos[30] = 105 degree 30
pos[29] = 99 degree 29
pos[28] = 98 degree 28
pos[27] = 92 degree 27
pos[26] = 91 degree 26
pos[25] = 85 degree 25
pos[24] = 84 degree 24
pos[23] = 78 degree 23
pos[22] = 77 degree 22
pos[21] = 71 degree 21
pos[20] = 70 degree 20
pos[19] = 64 degree 19
pos[18] = 63 degree 18
pos[17] = 57 degree 17
pos[16] = 56 degree 16
pos[15] = 50 degree 15
pos[14] = 49 degree 14
pos[13] = 43 degree 13
pos[12] = 42 degree 12
pos[11] = 36 degree 11
pos[10] = 35 degree 10
pos[9] = 29 degree 9
pos[8] = 28 degree 8
pos[7] = 22 degree 7
pos[6] = 21 degree 6
pos[5] = 15 degree 5
pos[4] = 14 degree 4
pos[3] = 8 degree 3
pos[2] = 7 degree 2
pos[1] = 1 degree 1
pos[0] = 0 degree 0
kplex size 1
[0 ]
1/200 (max 1) 0.00040 s
kplex size 2
[1 0 ]
2/200 (max 2) 0.00040 s
kplex size 3
[7 1 0 ]
3/200 (max 3) 0.00041 s
kplex size 4
[8 7 1 0 ]
4/200 (max 4) 0.00041 s
kplex size 5
[14 8 7 1 0 ]
5/200 (max 5) 0.00042 s
kplex size 6
[15 14 8 7 1 0 ]
6/200 (max 6) 0.00042 s
kplex size 7
[21 15 14 8 7 1 0 ]
7/200 (max 7) 0.00042 s
kplex size 8
[22 21 15 14 8 7 1 0 ]
8/200 (max 8) 0.00043 s
kplex size 9
[28 22 21 15 14 8 7 1 0 ]
9/200 (max 9) 0.00043 s
kplex size 10
[29 28 22 21 15 14 8 7 1 0 ]
10/200 (max 10) 0.00044 s
kplex size 11
[35 29 28 22 21 15 14 8 7 1 0 ]
11/200 (max 11) 0.00044 s
kplex size 12
[36 35 29 28 22 21 15 14 8 7 1 0 ]
12/200 (max 12) 0.00045 s
kplex size 13
[42 36 35 29 28 22 21 15 14 8 7 1 0 ]
13/200 (max 13) 0.00046 s
kplex size 14
[43 42 36 35 29 28 22 21 15 14 8 7 1 0 ]
14/200 (max 14) 0.00047 s
kplex size 15
[49 43 42 36 35 29 28 22 21 15 14 8 7 1 0 ]
15/200 (max 15) 0.00047 s
kplex size 16
[50 49 43 42 36 35 29 28 22 21 15 14 8 7 1 0 ]
16/200 (max 16) 0.00048 s
kplex size 17
[56 50 49 43 42 36 35 29 28 22 21 15 14 8 7 1 0 ]
17/200 (max 17) 0.00049 s
kplex size 18
[57 56 50 49 43 42 36 35 29 28 22 21 15 14 8 7 1 0 ]
18/200 (max 18) 0.00050 s
kplex size 19
[63 57 56 50 49 43 42 36 35 29 28 22 21 15 14 8 7 1 0 ]
19/200 (max 19) 0.00051 s
kplex size 20
[64 63 57 56 50 49 43 42 36 35 29 28 22 21 15 14 8 7 1 0 ]
20/200 (max 20) 0.00052 s
kplex size 21
[70 64 63 57 56 50 49 43 42 36 35 29 28 22 21 15 14 8 7 1 0 ]
21/200 (max 21) 0.00053 s
kplex size 22
[71 70 64 63 57 56 50 49 43 42 36 35 29 28 22 21 15 14 8 7 1 0 ]
22/200 (max 22) 0.00054 s
kplex size 23
[77 71 70 64 63 57 56 50 49 43 42 36 35 29 28 22 21 15 14 8 7 1 0 ]
23/200 (max 23) 0.00055 s
kplex size 24
[78 77 71 70 64 63 57 56 50 49 43 42 36 35 29 28 22 21 15 14 8 7 1 0 ]
24/200 (max 24) 0.00057 s
kplex size 25
[84 78 77 71 70 64 63 57 56 50 49 43 42 36 35 29 28 22 21 15 14 8 7 1 0 ]
25/200 (max 25) 0.00058 s
kplex size 26
[85 84 78 77 71 70 64 63 57 56 50 49 43 42 36 35 29 28 22 21 15 14 8 7 1 0 ]
26/200 (max 26) 0.00059 s
kplex size 27
[91 85 84 78 77 71 70 64 63 57 56 50 49 43 42 36 35 29 28 22 21 15 14 8 7 1 0 ]
27/200 (max 27) 0.00061 s
kplex size 28
[92 91 85 84 78 77 71 70 64 63 57 56 50 49 43 42 36 35 29 28 22 21 15 14 8 7 1 0 ]
28/200 (max 28) 0.00062 s
kplex size 29
[98 92 91 85 84 78 77 71 70 64 63 57 56 50 49 43 42 36 35 29 28 22 21 15 14 8 7 1 0 ]
29/200 (max 29) 0.00064 s
kplex size 30
[99 98 92 91 85 84 78 77 71 70 64 63 57 56 50 49 43 42 36 35 29 28 22 21 15 14 8 7 1 0 ]
30/200 (max 30) 0.00066 s
kplex size 31
[105 99 98 92 91 85 84 78 77 71 70 64 63 57 56 50 49 43 42 36 35 29 28 22 21 15 14 8 7 1 0 ]
31/200 (max 31) 0.00068 s
kplex size 32
[106 105 99 98 92 91 85 84 78 77 71 70 64 63 57 56 50 49 43 42 36 35 29 28 22 21 15 14 8 7 1 0 ]
32/200 (max 32) 0.00069 s
kplex size 33
[112 106 105 99 98 92 91 85 84 78 77 71 70 64 63 57 56 50 49 43 42 36 35 29 28 22 21 15 14 8 7 1 0 ]
33/200 (max 33) 0.00071 s
kplex size 34
[113 112 106 105 99 98 92 91 85 84 78 77 71 70 64 63 57 56 50 49 43 42 36 35 29 28 22 21 15 14 8 7 1 0 ]
34/200 (max 34) 0.00073 s
kplex size 35
[119 113 112 106 105 99 98 92 91 85 84 78 77 71 70 64 63 57 56 50 49 43 42 36 35 29 28 22 21 15 14 8 7 1 0 ]
35/200 (max 35) 0.00075 s
kplex size 36
[120 119 113 112 106 105 99 98 92 91 85 84 78 77 71 70 64 63 57 56 50 49 43 42 36 35 29 28 22 21 15 14 8 7 1 0 ]
36/200 (max 36) 0.00078 s
kplex size 37
[126 120 119 113 112 106 105 99 98 92 91 85 84 78 77 71 70 64 63 57 56 50 49 43 42 36 35 29 28 22 21 15 14 8 7 1 0 ]
37/200 (max 37) 0.00081 s
kplex size 38
[127 126 120 119 113 112 106 105 99 98 92 91 85 84 78 77 71 70 64 63 57 56 50 49 43 42 36 35 29 28 22 21 15 14 8 7 1 0 ]
38/200 (max 38) 0.00083 s
kplex size 39
[133 127 126 120 119 113 112 106 105 99 98 92 91 85 84 78 77 71 70 64 63 57 56 50 49 43 42 36 35 29 28 22 21 15 14 8 7 1 0 ]
39/200 (max 39) 0.00086 s
kplex size 40
[134 133 127 126 120 119 113 112 106 105 99 98 92 91 85 84 78 77 71 70 64 63 57 56 50 49 43 42 36 35 29 28 22 21 15 14 8 7 1 0 ]
40/200 (max 40) 0.00088 s
kplex size 41
[140 134 133 127 126 120 119 113 112 106 105 99 98 92 91 85 84 78 77 71 70 64 63 57 56 50 49 43 42 36 35 29 28 22 21 15 14 8 7 1 0 ]
41/200 (max 41) 0.00091 s
kplex size 42
[141 140 134 133 127 126 120 119 113 112 106 105 99 98 92 91 85 84 78 77 71 70 64 63 57 56 50 49 43 42 36 35 29 28 22 21 15 14 8 7 1 0 ]
42/200 (max 42) 0.00094 s
kplex size 43
[147 141 140 134 133 127 126 120 119 113 112 106 105 99 98 92 91 85 84 78 77 71 70 64 63 57 56 50 49 43 42 36 35 29 28 22 21 15 14 8 7 1 0 ]
43/200 (max 43) 0.00096 s
kplex size 44
[148 147 141 140 134 133 127 126 120 119 113 112 106 105 99 98 92 91 85 84 78 77 71 70 64 63 57 56 50 49 43 42 36 35 29 28 22 21 15 14 8 7 1 0 ]
44/200 (max 44) 0.00099 s
kplex size 45
[154 148 147 141 140 134 133 127 126 120 119 113 112 106 105 99 98 92 91 85 84 78 77 71 70 64 63 57 56 50 49 43 42 36 35 29 28 22 21 15 14 8 7 1 0 ]
45/200 (max 45) 0.00102 s
kplex size 46
[155 154 148 147 141 140 134 133 127 126 120 119 113 112 106 105 99 98 92 91 85 84 78 77 71 70 64 63 57 56 50 49 43 42 36 35 29 28 22 21 15 14 8 7 1 0 ]
46/200 (max 46) 0.00105 s
kplex size 47
[161 155 154 148 147 141 140 134 133 127 126 120 119 113 112 106 105 99 98 92 91 85 84 78 77 71 70 64 63 57 56 50 49 43 42 36 35 29 28 22 21 15 14 8 7 1 0 ]
47/200 (max 47) 0.00109 s
kplex size 48
[162 161 155 154 148 147 141 140 134 133 127 126 120 119 113 112 106 105 99 98 92 91 85 84 78 77 71 70 64 63 57 56 50 49 43 42 36 35 29 28 22 21 15 14 8 7 1 0 ]
48/200 (max 48) 0.00112 s
kplex size 49
[168 162 161 155 154 148 147 141 140 134 133 127 126 120 119 113 112 106 105 99 98 92 91 85 84 78 77 71 70 64 63 57 56 50 49 43 42 36 35 29 28 22 21 15 14 8 7 1 0 ]
49/200 (max 49) 0.00116 s
kplex size 50
[169 168 162 161 155 154 148 147 141 140 134 133 127 126 120 119 113 112 106 105 99 98 92 91 85 84 78 77 71 70 64 63 57 56 50 49 43 42 36 35 29 28 22 21 15 14 8 7 1 0 ]
50/200 (max 50) 0.00119 s
kplex size 51
[175 169 168 162 161 155 154 148 147 141 140 134 133 127 126 120 119 113 112 106 105 99 98 92 91 85 84 78 77 71 70 64 63 57 56 50 49 43 42 36 35 29 28 22 21 15 14 8 7 1 0 ]
51/200 (max 51) 0.00123 s
kplex size 52
[176 175 169 168 162 161 155 154 148 147 141 140 134 133 127 126 120 119 113 112 106 105 99 98 92 91 85 84 78 77 71 70 64 63 57 56 50 49 43 42 36 35 29 28 22 21 15 14 8 7 1 0 ]
52/200 (max 52) 0.00127 s
kplex size 53
[182 176 175 169 168 162 161 155 154 148 147 141 140 134 133 127 126 120 119 113 112 106 105 99 98 92 91 85 84 78 77 71 70 64 63 57 56 50 49 43 42 36 35 29 28 22 21 15 14 8 7 1 0 ]
53/200 (max 53) 0.00131 s
kplex size 54
[183 182 176 175 169 168 162 161 155 154 148 147 141 140 134 133 127 126 120 119 113 112 106 105 99 98 92 91 85 84 78 77 71 70 64 63 57 56 50 49 43 42 36 35 29 28 22 21 15 14 8 7 1 0 ]
54/200 (max 54) 0.00135 s
kplex size 55
[189 183 182 176 175 169 168 162 161 155 154 148 147 141 140 134 133 127 126 120 119 113 112 106 105 99 98 92 91 85 84 78 77 71 70 64 63 57 56 50 49 43 42 36 35 29 28 22 21 15 14 8 7 1 0 ]
55/200 (max 55) 0.00139 s
kplex size 56
[190 189 183 182 176 175 169 168 162 161 155 154 148 147 141 140 134 133 127 126 120 119 113 112 106 105 99 98 92 91 85 84 78 77 71 70 64 63 57 56 50 49 43 42 36 35 29 28 22 21 15 14 8 7 1 0 ]
56/200 (max 56) 0.00143 s
kplex size 57
[196 190 189 183 182 176 175 169 168 162 161 155 154 148 147 141 140 134 133 127 126 120 119 113 112 106 105 99 98 92 91 85 84 78 77 71 70 64 63 57 56 50 49 43 42 36 35 29 28 22 21 15 14 8 7 1 0 ]
57/200 (max 57) 0.00148 s
kplex size 58
[197 196 190 189 183 182 176 175 169 168 162 161 155 154 148 147 141 140 134 133 127 126 120 119 113 112 106 105 99 98 92 91 85 84 78 77 71 70 64 63 57 56 50 49 43 42 36 35 29 28 22 21 15 14 8 7 1 0 ]
58/200 (max 58) 0.00153 s
59/200 (max 58) 0.00153 s
60/200 (max 58) 0.00154 s
61/200 (max 58) 0.00154 s
62/200 (max 58) 0.00154 s
63/200 (max 58) 0.00155 s
64/200 (max 58) 0.00155 s
65/200 (max 58) 0.00156 s
66/200 (max 58) 0.00156 s
67/200 (max 58) 0.00157 s
68/200 (max 58) 0.00157 s
69/200 (max 58) 0.00158 s
70/200 (max 58) 0.00159 s
71/200 (max 58) 0.00159 s
72/200 (max 58) 0.00160 s
73/200 (max 58) 0.00161 s
74/200 (max 58) 0.00162 s
75/200 (max 58) 0.00163 s
76/200 (max 58) 0.00164 s
77/200 (max 58) 0.00165 s
78/200 (max 58) 0.00166 s
79/200 (max 58) 0.00167 s
80/200 (max 58) 0.00168 s
81/200 (max 58) 0.00169 s
82/200 (max 58) 0.00170 s
83/200 (max 58) 0.00172 s
84/200 (max 58) 0.00173 s
85/200 (max 58) 0.00174 s
86/200 (max 58) 0.00176 s
87/200 (max 58) 0.00177 s
88/200 (max 58) 0.00180 s
89/200 (max 58) 0.00183 s
90/200 (max 58) 0.00185 s
91/200 (max 58) 0.00188 s
92/200 (max 58) 0.00191 s
93/200 (max 58) 0.00194 s
94/200 (max 58) 0.00197 s
95/200 (max 58) 0.00200 s
96/200 (max 58) 0.00203 s
97/200 (max 58) 0.00206 s
98/200 (max 58) 0.00210 s
99/200 (max 58) 0.00213 s
100/200 (max 58) 0.00216 s
101/200 (max 58) 0.00219 s
102/200 (max 58) 0.00223 s
103/200 (max 58) 0.00226 s
104/200 (max 58) 0.00230 s
105/200 (max 58) 0.00233 s
106/200 (max 58) 0.00237 s
107/200 (max 58) 0.00241 s
108/200 (max 58) 0.00245 s
109/200 (max 58) 0.00249 s
110/200 (max 58) 0.00252 s
111/200 (max 58) 0.00257 s
112/200 (max 58) 0.00261 s
113/200 (max 58) 0.00265 s
114/200 (max 58) 0.00269 s
115/200 (max 58) 0.00273 s
116/200 (max 58) 0.00277 s
117/200 (max 58) 0.00282 s
118/200 (max 58) 0.00287 s
119/200 (max 58) 0.00292 s
120/200 (max 58) 0.00297 s
121/200 (max 58) 0.00301 s
122/200 (max 58) 0.00306 s
123/200 (max 58) 0.00312 s
124/200 (max 58) 0.00317 s
125/200 (max 58) 0.00322 s
126/200 (max 58) 0.00327 s
127/200 (max 58) 0.00332 s
128/200 (max 58) 0.00338 s
129/200 (max 58) 0.00343 s
130/200 (max 58) 0.00352 s
131/200 (max 58) 0.00357 s
132/200 (max 58) 0.00361 s
133/200 (max 58) 0.00364 s
134/200 (max 58) 0.00368 s
135/200 (max 58) 0.00372 s
136/200 (max 58) 0.00376 s
137/200 (max 58) 0.00379 s
138/200 (max 58) 0.00383 s
139/200 (max 58) 0.00387 s
140/200 (max 58) 0.00391 s
141/200 (max 58) 0.00395 s
142/200 (max 58) 0.00399 s
143/200 (max 58) 0.00403 s
144/200 (max 58) 0.00407 s
145/200 (max 58) 0.00411 s
146/200 (max 58) 0.00415 s
147/200 (max 58) 0.00420 s
148/200 (max 58) 0.00424 s
149/200 (max 58) 0.00429 s
150/200 (max 58) 0.00433 s
151/200 (max 58) 0.00438 s
152/200 (max 58) 0.00442 s
153/200 (max 58) 0.00447 s
154/200 (max 58) 0.00452 s
155/200 (max 58) 0.00456 s
156/200 (max 58) 0.00461 s
157/200 (max 58) 0.00466 s
158/200 (max 58) 0.00471 s
159/200 (max 58) 0.00476 s
160/200 (max 58) 0.00481 s
161/200 (max 58) 0.00486 s
162/200 (max 58) 0.00491 s
163/200 (max 58) 0.00496 s
164/200 (max 58) 0.00502 s
165/200 (max 58) 0.00507 s
166/200 (max 58) 0.00512 s
167/200 (max 58) 0.00518 s
168/200 (max 58) 0.00523 s
169/200 (max 58) 0.00529 s
170/200 (max 58) 0.00534 s
171/200 (max 58) 0.00540 s
172/200 (max 58) 0.00546 s
173/200 (max 58) 0.00563 s
174/200 (max 58) 0.00581 s
175/200 (max 58) 0.00599 s
176/200 (max 58) 0.00617 s
177/200 (max 58) 0.00636 s
178/200 (max 58) 0.00658 s
179/200 (max 58) 0.00686 s
180/200 (max 58) 0.00733 s
181/200 (max 58) 0.00823 s
182/200 (max 58) 0.01014 s
183/200 (max 58) 0.01456 s
184/200 (max 58) 0.02471 s
185/200 (max 58) 0.04810 s
186/200 (max 58) 0.10210 s
187/200 (max 58) 0.22572 s
188/200 (max 58) 0.50606 s
189/200 (max 58) 1.13827 s
190/200 (max 58) 2.55398 s
191/200 (max 58) 5.70641 s
192/200 (max 58) 12.68414 s
193/200 (max 58) 28.06299 s
194/200 (max 58) 61.78222 s
195/200 (max 58) 135.46555 s
196/200 (max 58) 295.87886 s
197/200 (max 58) 643.97202 s
198/200 (max 58) 1397.20075 s
199/200 (max 58) 3023.30397 s
TIMEOUT
best clique: 197 196 190 189 183 182 176 175 169 168 162 161 155 154 148 147 141 140 134 133 127 126 120 119 113 112 106 105 99 98 92 91 85 84 78 77 71 70 64 63 57 56 50 49 43 42 36 35 29 28 22 21 15 14 8 7 1 0 
record          =          58
subp            =  14002748760
time            =  3600.00016
