timeout 3600 s
Graph with 2000 vertices and 999836 edges density 0.500168
t = 1999672, Enbr = 999836
pos[1999] = 1401 degree 919
pos[1998] = 1686 degree 930
pos[1997] = 1530 degree 929
pos[1996] = 346 degree 931
pos[1995] = 434 degree 931
pos[1994] = 1464 degree 936
pos[1993] = 868 degree 936
pos[1992] = 787 degree 936
pos[1991] = 1631 degree 938
pos[1990] = 520 degree 937
pos[1989] = 1497 degree 937
pos[1988] = 1693 degree 938
pos[1987] = 1942 degree 938
pos[1986] = 663 degree 938
pos[1985] = 748 degree 940
pos[1984] = 979 degree 940
pos[1983] = 1518 degree 940
pos[1982] = 629 degree 939
pos[1981] = 1210 degree 939
pos[1980] = 729 degree 939
pos[1979] = 167 degree 939
pos[1978] = 1993 degree 939
pos[1977] = 1831 degree 939
pos[1976] = 1299 degree 939
pos[1975] = 1291 degree 939
pos[1974] = 1220 degree 939
pos[1973] = 1035 degree 938
pos[1972] = 908 degree 938
pos[1971] = 389 degree 937
pos[1970] = 1379 degree 937
pos[1969] = 1673 degree 937
pos[1968] = 414 degree 937
pos[1967] = 1294 degree 937
pos[1966] = 1894 degree 937
pos[1965] = 1313 degree 936
pos[1964] = 1787 degree 936
pos[1963] = 1674 degree 937
pos[1962] = 1766 degree 937
pos[1961] = 892 degree 936
pos[1960] = 418 degree 936
pos[1959] = 1976 degree 936
pos[1958] = 1587 degree 936
pos[1957] = 1060 degree 936
pos[1956] = 728 degree 935
pos[1955] = 1528 degree 935
pos[1954] = 926 degree 934
pos[1953] = 37 degree 934
pos[1952] = 1079 degree 934
pos[1951] = 481 degree 933
pos[1950] = 1750 degree 934
pos[1949] = 738 degree 934
pos[1948] = 704 degree 933
pos[1947] = 452 degree 932
pos[1946] = 1345 degree 933
pos[1945] = 702 degree 932
pos[1944] = 524 degree 931
pos[1943] = 1547 degree 932
pos[1942] = 1240 degree 932
pos[1941] = 762 degree 932
pos[1940] = 183 degree 931
pos[1939] = 1592 degree 931
pos[1938] = 1465 degree 930
pos[1937] = 47 degree 929
pos[1936] = 507 degree 929
pos[1935] = 1148 degree 929
pos[1934] = 958 degree 929
pos[1933] = 1420 degree 929
pos[1932] = 432 degree 928
pos[1931] = 337 degree 927
pos[1930] = 666 degree 927
pos[1929] = 1002 degree 927
pos[1928] = 891 degree 926
pos[1927] = 267 degree 926
pos[1926] = 1408 degree 926
pos[1925] = 134 degree 925
pos[1924] = 54 degree 924
pos[1923] = 1734 degree 925
pos[1922] = 1353 degree 924
pos[1921] = 378 degree 923
pos[1920] = 373 degree 922
pos[1919] = 290 degree 923
pos[1918] = 76 degree 923
pos[1917] = 1462 degree 923
pos[1916] = 1524 degree 923
pos[1915] = 864 degree 922
pos[1914] = 645 degree 922
pos[1913] = 1501 degree 922
pos[1912] = 980 degree 921
pos[1911] = 1191 degree 921
pos[1910] = 225 degree 920
pos[1909] = 894 degree 920
pos[1908] = 494 degree 919
pos[1907] = 112 degree 918
pos[1906] = 699 degree 919
pos[1905] = 1863 degree 919
pos[1904] = 1037 degree 918
pos[1903] = 236 degree 917
pos[1902] = 625 degree 917
pos[1901] = 1423 degree 917
pos[1900] = 1737 degree 917
pos[1899] = 913 degree 916
pos[1898] = 525 degree 915
pos[1897] = 1395 degree 915
pos[1896] = 1779 degree 916
pos[1895] = 1157 degree 915
pos[1894] = 79 degree 914
pos[1893] = 656 degree 914
pos[1892] = 1362 degree 914
pos[1891] = 1245 degree 913
pos[1890] = 921 degree 913
pos[1889] = 839 degree 912
pos[1888] = 362 degree 911
pos[1887] = 777 degree 911
pos[1886] = 1394 degree 912
pos[1885] = 86 degree 911
pos[1884] = 1374 degree 911
pos[1883] = 1185 degree 910
pos[1882] = 94 degree 909
pos[1881] = 1738 degree 909
pos[1880] = 1458 degree 909
pos[1879] = 1109 degree 908
pos[1878] = 517 degree 908
pos[1877] = 1430 degree 908
pos[1876] = 1833 degree 908
pos[1875] = 129 degree 907
pos[1874] = 1385 degree 907
pos[1873] = 24 degree 906
pos[1872] = 460 degree 906
pos[1871] = 68 degree 905
pos[1870] = 387 degree 905
pos[1869] = 145 degree 904
pos[1868] = 672 degree 904
pos[1867] = 221 degree 904
pos[1866] = 92 degree 903
pos[1865] = 858 degree 903
pos[1864] = 1550 degree 903
pos[1863] = 769 degree 902
pos[1862] = 633 degree 901
pos[1861] = 1476 degree 901
pos[1860] = 240 degree 901
pos[1859] = 1890 degree 901
pos[1858] = 1433 degree 900
pos[1857] = 827 degree 900
pos[1856] = 160 degree 899
pos[1855] = 1808 degree 899
pos[1854] = 368 degree 898
pos[1853] = 1209 degree 898
pos[1852] = 394 degree 897
pos[1851] = 1447 degree 897
pos[1850] = 10 degree 896
pos[1849] = 1506 degree 896
pos[1848] = 1319 degree 896
pos[1847] = 690 degree 895
pos[1846] = 58 degree 895
pos[1845] = 345 degree 895
pos[1844] = 77 degree 894
pos[1843] = 642 degree 894
pos[1842] = 1925 degree 894
pos[1841] = 1366 degree 894
pos[1840] = 712 degree 893
pos[1839] = 1253 degree 893
pos[1838] = 1201 degree 892
pos[1837] = 495 degree 891
pos[1836] = 754 degree 891
pos[1835] = 1856 degree 891
pos[1834] = 1579 degree 890
pos[1833] = 41 degree 889
pos[1832] = 1847 degree 889
pos[1831] = 929 degree 889
pos[1830] = 180 degree 889
pos[1829] = 480 degree 889
pos[1828] = 101 degree 888
pos[1827] = 907 degree 888
pos[1826] = 680 degree 887
pos[1825] = 1848 degree 887
pos[1824] = 705 degree 886
pos[1823] = 1113 degree 886
pos[1822] = 1745 degree 886
pos[1821] = 869 degree 885
pos[1820] = 646 degree 885
pos[1819] = 1549 degree 885
pos[1818] = 292 degree 884
pos[1817] = 73 degree 883
pos[1816] = 1877 degree 883
pos[1815] = 1810 degree 883
pos[1814] = 75 degree 882
pos[1813] = 1504 degree 882
pos[1812] = 1214 degree 882
pos[1811] = 470 degree 881
pos[1810] = 652 degree 881
pos[1809] = 1741 degree 881
pos[1808] = 881 degree 880
pos[1807] = 318 degree 879
pos[1806] = 328 degree 879
pos[1805] = 1448 degree 879
pos[1804] = 1112 degree 879
pos[1803] = 20 degree 878
pos[1802] = 1828 degree 878
pos[1801] = 1234 degree 877
pos[1800] = 1382 degree 877
pos[1799] = 1431 degree 877
pos[1798] = 1330 degree 876
pos[1797] = 291 degree 875
pos[1796] = 1099 degree 875
pos[1795] = 509 degree 874
pos[1794] = 1827 degree 874
pos[1793] = 655 degree 873
pos[1792] = 1273 degree 873
pos[1791] = 280 degree 872
pos[1790] = 1972 degree 872
pos[1789] = 272 degree 871
pos[1788] = 1567 degree 871
pos[1787] = 967 degree 870
pos[1786] = 1602 degree 870
pos[1785] = 1960 degree 870
pos[1784] = 1367 degree 869
pos[1783] = 972 degree 869
pos[1782] = 867 degree 868
pos[1781] = 1242 degree 868
pos[1780] = 855 degree 867
pos[1779] = 1835 degree 867
pos[1778] = 1432 degree 867
pos[1777] = 676 degree 866
pos[1776] = 1393 degree 866
pos[1775] = 1121 degree 865
pos[1774] = 172 degree 864
pos[1773] = 800 degree 864
pos[1772] = 1642 degree 864
pos[1771] = 1375 degree 863
pos[1770] = 1598 degree 863
pos[1769] = 626 degree 862
pos[1768] = 799 degree 862
pos[1767] = 268 degree 861
pos[1766] = 222 degree 860
pos[1765] = 685 degree 860
pos[1764] = 1722 degree 860
pos[1763] = 826 degree 859
pos[1762] = 1918 degree 859
pos[1761] = 1720 degree 858
pos[1760] = 1473 degree 858
pos[1759] = 1352 degree 858
pos[1758] = 166 degree 857
pos[1757] = 923 degree 857
pos[1756] = 1578 degree 857
pos[1755] = 1688 degree 857
pos[1754] = 1098 degree 856
pos[1753] = 1586 degree 856
pos[1752] = 1310 degree 855
pos[1751] = 191 degree 854
pos[1750] = 837 degree 854
pos[1749] = 21 degree 853
pos[1748] = 5 degree 852
pos[1747] = 888 degree 852
pos[1746] = 488 degree 851
pos[1745] = 1327 degree 851
pos[1744] = 1998 degree 851
pos[1743] = 1982 degree 851
pos[1742] = 1499 degree 850
pos[1741] = 1365 degree 849
pos[1740] = 297 degree 849
pos[1739] = 1463 degree 849
pos[1738] = 412 degree 848
pos[1737] = 299 degree 847
pos[1736] = 1080 degree 848
pos[1735] = 992 degree 848
pos[1734] = 1902 degree 848
pos[1733] = 1553 degree 847
pos[1732] = 1067 degree 846
pos[1731] = 255 degree 846
pos[1730] = 192 degree 845
pos[1729] = 1227 degree 845
pos[1728] = 1115 degree 844
pos[1727] = 1997 degree 844
pos[1726] = 1892 degree 843
pos[1725] = 1622 degree 843
pos[1724] = 198 degree 842
pos[1723] = 465 degree 842
pos[1722] = 1357 degree 842
pos[1721] = 1307 degree 842
pos[1720] = 937 degree 841
pos[1719] = 1312 degree 841
pos[1718] = 1177 degree 840
pos[1717] = 553 degree 839
pos[1716] = 866 degree 839
pos[1715] = 824 degree 839
pos[1714] = 230 degree 838
pos[1713] = 426 degree 838
pos[1712] = 39 degree 837
pos[1711] = 262 degree 837
pos[1710] = 1196 degree 837
pos[1709] = 1898 degree 837
pos[1708] = 1760 degree 836
pos[1707] = 1446 degree 835
pos[1706] = 1289 degree 834
pos[1705] = 802 degree 834
pos[1704] = 1424 degree 834
pos[1703] = 554 degree 834
pos[1702] = 200 degree 833
pos[1701] = 1712 degree 834
pos[1700] = 1107 degree 833
pos[1699] = 17 degree 832
pos[1698] = 1459 degree 832
pos[1697] = 1095 degree 831
pos[1696] = 57 degree 830
pos[1695] = 946 degree 830
pos[1694] = 689 degree 829
pos[1693] = 1999 degree 829
pos[1692] = 1990 degree 829
pos[1691] = 1780 degree 829
pos[1690] = 1322 degree 828
pos[1689] = 581 degree 827
pos[1688] = 1690 degree 827
pos[1687] = 605 degree 826
pos[1686] = 791 degree 826
pos[1685] = 325 degree 825
pos[1684] = 1370 degree 825
pos[1683] = 1363 degree 825
pos[1682] = 1232 degree 825
pos[1681] = 649 degree 824
pos[1680] = 1981 degree 824
pos[1679] = 1010 degree 823
pos[1678] = 551 degree 822
pos[1677] = 540 degree 821
pos[1676] = 205 degree 821
pos[1675] = 444 degree 821
pos[1674] = 1859 degree 821
pos[1673] = 1796 degree 820
pos[1672] = 216 degree 819
pos[1671] = 846 degree 819
pos[1670] = 820 degree 818
pos[1669] = 150 degree 817
pos[1668] = 1821 degree 818
pos[1667] = 1799 degree 818
pos[1666] = 1221 degree 818
pos[1665] = 201 degree 817
pos[1664] = 1484 degree 817
pos[1663] = 136 degree 816
pos[1662] = 1444 degree 816
pos[1661] = 155 degree 815
pos[1660] = 560 degree 815
pos[1659] = 1759 degree 815
pos[1658] = 687 degree 814
pos[1657] = 1843 degree 814
pos[1656] = 202 degree 813
pos[1655] = 1028 degree 813
pos[1654] = 188 degree 812
pos[1653] = 1704 degree 812
pos[1652] = 1696 degree 811
pos[1651] = 673 degree 810
pos[1650] = 323 degree 810
pos[1649] = 1105 degree 810
pos[1648] = 1474 degree 810
pos[1647] = 1104 degree 809
pos[1646] = 933 degree 808
pos[1645] = 1973 degree 809
pos[1644] = 1793 degree 808
pos[1643] = 83 degree 807
pos[1642] = 1641 degree 807
pos[1641] = 532 degree 806
pos[1640] = 1945 degree 806
pos[1639] = 1873 degree 805
pos[1638] = 1128 degree 805
pos[1637] = 1675 degree 805
pos[1636] = 1632 degree 804
pos[1635] = 1949 degree 804
pos[1634] = 131 degree 803
pos[1633] = 1260 degree 803
pos[1632] = 816 degree 802
pos[1631] = 1120 degree 802
pos[1630] = 163 degree 801
pos[1629] = 1919 degree 801
pos[1628] = 1875 degree 801
pos[1627] = 1254 degree 800
pos[1626] = 309 degree 799
pos[1625] = 1864 degree 799
pos[1624] = 711 degree 798
pos[1623] = 377 degree 797
pos[1622] = 34 degree 796
pos[1621] = 1886 degree 797
pos[1620] = 1143 degree 797
pos[1619] = 995 degree 796
pos[1618] = 639 degree 795
pos[1617] = 247 degree 794
pos[1616] = 889 degree 794
pos[1615] = 1046 degree 794
pos[1614] = 184 degree 793
pos[1613] = 1358 degree 793
pos[1612] = 38 degree 792
pos[1611] = 331 degree 792
pos[1610] = 259 degree 791
pos[1609] = 156 degree 791
pos[1608] = 1956 degree 791
pos[1607] = 974 degree 790
pos[1606] = 706 degree 790
pos[1605] = 1994 degree 790
pos[1604] = 96 degree 789
pos[1603] = 1648 degree 789
pos[1602] = 1036 degree 789
pos[1601] = 56 degree 788
pos[1600] = 1308 degree 788
pos[1599] = 990 degree 787
pos[1598] = 596 degree 787
pos[1597] = 542 degree 786
pos[1596] = 1405 degree 786
pos[1595] = 1130 degree 785
pos[1594] = 332 degree 784
pos[1593] = 119 degree 783
pos[1592] = 595 degree 783
pos[1591] = 613 degree 783
pos[1590] = 18 degree 782
pos[1589] = 235 degree 782
pos[1588] = 1613 degree 782
pos[1587] = 1001 degree 782
pos[1586] = 556 degree 781
pos[1585] = 1845 degree 781
pos[1584] = 459 degree 780
pos[1583] = 856 degree 780
pos[1582] = 1893 degree 780
pos[1581] = 1219 degree 779
pos[1580] = 1806 degree 779
pos[1579] = 969 degree 778
pos[1578] = 670 degree 777
pos[1577] = 792 degree 777
pos[1576] = 1505 degree 778
pos[1575] = 607 degree 777
pos[1574] = 1230 degree 777
pos[1573] = 786 degree 776
pos[1572] = 307 degree 776
pos[1571] = 1301 degree 776
pos[1570] = 610 degree 775
pos[1569] = 312 degree 774
pos[1568] = 1970 degree 774
pos[1567] = 710 degree 773
pos[1566] = 1714 degree 773
pos[1565] = 1096 degree 772
pos[1564] = 606 degree 772
pos[1563] = 352 degree 771
pos[1562] = 1995 degree 771
pos[1561] = 1612 degree 771
pos[1560] = 1178 degree 770
pos[1559] = 1092 degree 769
pos[1558] = 1091 degree 768
pos[1557] = 85 degree 768
pos[1556] = 1851 degree 769
pos[1555] = 1761 degree 768
pos[1554] = 1138 degree 767
pos[1553] = 1746 degree 767
pos[1552] = 862 degree 766
pos[1551] = 1819 degree 766
pos[1550] = 14 degree 765
pos[1549] = 1606 degree 765
pos[1548] = 691 degree 764
pos[1547] = 1643 degree 764
pos[1546] = 186 degree 763
pos[1545] = 1213 degree 763
pos[1544] = 1018 degree 762
pos[1543] = 1768 degree 762
pos[1542] = 1978 degree 762
pos[1541] = 636 degree 761
pos[1540] = 1417 degree 761
pos[1539] = 1198 degree 760
pos[1538] = 599 degree 759
pos[1537] = 1989 degree 759
pos[1536] = 1953 degree 759
pos[1535] = 1498 degree 758
pos[1534] = 664 degree 757
pos[1533] = 355 degree 756
pos[1532] = 1756 degree 757
pos[1531] = 443 degree 756
pos[1530] = 193 degree 755
pos[1529] = 720 degree 755
pos[1528] = 589 degree 755
pos[1527] = 43 degree 754
pos[1526] = 347 degree 754
pos[1525] = 1907 degree 754
pos[1524] = 960 degree 754
pos[1523] = 1938 degree 754
pos[1522] = 390 degree 753
pos[1521] = 1624 degree 753
pos[1520] = 261 degree 752
pos[1519] = 204 degree 751
pos[1518] = 60 degree 750
pos[1517] = 1581 degree 750
pos[1516] = 1866 degree 751
pos[1515] = 1792 degree 750
pos[1514] = 767 degree 749
pos[1513] = 665 degree 748
pos[1512] = 561 degree 748
pos[1511] = 383 degree 748
pos[1510] = 161 degree 747
pos[1509] = 1206 degree 747
pos[1508] = 1278 degree 747
pos[1507] = 329 degree 746
pos[1506] = 15 degree 745
pos[1505] = 668 degree 745
pos[1504] = 385 degree 744
pos[1503] = 1776 degree 744
pos[1502] = 457 degree 743
pos[1501] = 1824 degree 743
pos[1500] = 1557 degree 743
pos[1499] = 904 degree 742
pos[1498] = 103 degree 741
pos[1497] = 1786 degree 741
pos[1496] = 1676 degree 741
pos[1495] = 965 degree 741
pos[1494] = 917 degree 740
pos[1493] = 1270 degree 740
pos[1492] = 609 degree 739
pos[1491] = 546 degree 738
pos[1490] = 1657 degree 738
pos[1489] = 591 degree 737
pos[1488] = 404 degree 736
pos[1487] = 476 degree 736
pos[1486] = 246 degree 735
pos[1485] = 1228 degree 735
pos[1484] = 1065 degree 735
pos[1483] = 375 degree 734
pos[1482] = 677 degree 734
pos[1481] = 283 degree 733
pos[1480] = 575 degree 733
pos[1479] = 1988 degree 733
pos[1478] = 1239 degree 732
pos[1477] = 482 degree 731
pos[1476] = 1457 degree 731
pos[1475] = 6 degree 730
pos[1474] = 1491 degree 730
pos[1473] = 252 degree 729
pos[1472] = 1962 degree 729
pos[1471] = 1267 degree 728
pos[1470] = 895 degree 729
pos[1469] = 545 degree 728
pos[1468] = 1927 degree 728
pos[1467] = 269 degree 727
pos[1466] = 861 degree 727
pos[1465] = 231 degree 726
pos[1464] = 1461 degree 726
pos[1463] = 1425 degree 726
pos[1462] = 1042 degree 725
pos[1461] = 1030 degree 724
pos[1460] = 1212 degree 724
pos[1459] = 733 degree 723
pos[1458] = 173 degree 723
pos[1457] = 90 degree 722
pos[1456] = 424 degree 723
pos[1455] = 159 degree 722
pos[1454] = 1897 degree 722
pos[1453] = 1180 degree 721
pos[1452] = 1032 degree 720
pos[1451] = 1900 degree 720
pos[1450] = 1839 degree 720
pos[1449] = 1710 degree 719
pos[1448] = 1517 degree 718
pos[1447] = 1256 degree 718
pos[1446] = 986 degree 717
pos[1445] = 1355 degree 717
pos[1444] = 500 degree 716
pos[1443] = 651 degree 716
pos[1442] = 388 degree 716
pos[1441] = 266 degree 715
pos[1440] = 1489 degree 715
pos[1439] = 1732 degree 715
pos[1438] = 962 degree 714
pos[1437] = 550 degree 713
pos[1436] = 176 degree 713
pos[1435] = 739 degree 713
pos[1434] = 723 degree 713
pos[1433] = 643 degree 712
pos[1432] = 515 degree 711
pos[1431] = 1813 degree 711
pos[1430] = 1339 degree 711
pos[1429] = 1211 degree 711
pos[1428] = 784 degree 710
pos[1427] = 7 degree 709
pos[1426] = 1772 degree 709
pos[1425] = 403 degree 708
pos[1424] = 224 degree 707
pos[1423] = 55 degree 706
pos[1422] = 260 degree 706
pos[1421] = 842 degree 706
pos[1420] = 32 degree 705
pos[1419] = 1090 degree 705
pos[1418] = 893 degree 704
pos[1417] = 1024 degree 704
pos[1416] = 447 degree 703
pos[1415] = 1224 degree 703
pos[1414] = 441 degree 702
pos[1413] = 853 degree 702
pos[1412] = 1481 degree 702
pos[1411] = 1320 degree 701
pos[1410] = 288 degree 700
pos[1409] = 1298 degree 701
pos[1408] = 796 degree 700
pos[1407] = 195 degree 699
pos[1406] = 128 degree 699
pos[1405] = 1653 degree 699
pos[1404] = 563 degree 698
pos[1403] = 1452 degree 698
pos[1402] = 661 degree 697
pos[1401] = 849 degree 697
pos[1400] = 590 degree 696
pos[1399] = 241 degree 695
pos[1398] = 126 degree 695
pos[1397] = 1638 degree 695
pos[1396] = 1131 degree 694
pos[1395] = 887 degree 693
pos[1394] = 152 degree 692
pos[1393] = 322 degree 692
pos[1392] = 157 degree 692
pos[1391] = 1378 degree 692
pos[1390] = 768 degree 691
pos[1389] = 1627 degree 691
pos[1388] = 678 degree 690
pos[1387] = 1935 degree 690
pos[1386] = 1176 degree 690
pos[1385] = 838 degree 689
pos[1384] = 821 degree 688
pos[1383] = 1004 degree 688
pos[1382] = 973 degree 687
pos[1381] = 1005 degree 687
pos[1380] = 1849 degree 687
pos[1379] = 1948 degree 687
pos[1378] = 1850 degree 686
pos[1377] = 1754 degree 686
pos[1376] = 997 degree 685
pos[1375] = 1958 degree 685
pos[1374] = 1692 degree 684
pos[1373] = 622 degree 683
pos[1372] = 179 degree 683
pos[1371] = 1868 degree 683
pos[1370] = 1682 degree 682
pos[1369] = 1252 degree 681
pos[1368] = 594 degree 681
pos[1367] = 410 degree 680
pos[1366] = 1861 degree 680
pos[1365] = 333 degree 679
pos[1364] = 1594 degree 679
pos[1363] = 1510 degree 678
pos[1362] = 1429 degree 678
pos[1361] = 107 degree 677
pos[1360] = 1614 degree 677
pos[1359] = 1081 degree 676
pos[1358] = 1202 degree 676
pos[1357] = 1536 degree 676
pos[1356] = 1223 degree 675
pos[1355] = 108 degree 674
pos[1354] = 803 degree 674
pos[1353] = 745 degree 673
pos[1352] = 63 degree 673
pos[1351] = 1316 degree 673
pos[1350] = 630 degree 672
pos[1349] = 1743 degree 672
pos[1348] = 1783 degree 672
pos[1347] = 1073 degree 671
pos[1346] = 223 degree 670
pos[1345] = 1389 degree 670
pos[1344] = 1237 degree 670
pos[1343] = 1077 degree 669
pos[1342] = 732 degree 668
pos[1341] = 1011 degree 668
pos[1340] = 512 degree 667
pos[1339] = 1415 degree 667
pos[1338] = 1182 degree 666
pos[1337] = 725 degree 666
pos[1336] = 701 degree 665
pos[1335] = 1561 degree 665
pos[1334] = 577 degree 664
pos[1333] = 903 degree 664
pos[1332] = 451 degree 663
pos[1331] = 1896 degree 664
pos[1330] = 1825 degree 664
pos[1329] = 1699 degree 663
pos[1328] = 1140 degree 662
pos[1327] = 1264 degree 662
pos[1326] = 1923 degree 662
pos[1325] = 1913 degree 661
pos[1324] = 1047 degree 660
pos[1323] = 1269 degree 660
pos[1322] = 53 degree 659
pos[1321] = 935 degree 659
pos[1320] = 841 degree 659
pos[1319] = 759 degree 659
pos[1318] = 379 degree 658
pos[1317] = 1607 degree 658
pos[1316] = 1604 degree 657
pos[1315] = 1346 degree 657
pos[1314] = 876 degree 656
pos[1313] = 52 degree 655
pos[1312] = 615 degree 655
pos[1311] = 600 degree 654
pos[1310] = 1687 degree 654
pos[1309] = 1954 degree 654
pos[1308] = 1453 degree 653
pos[1307] = 178 degree 652
pos[1306] = 1064 degree 652
pos[1305] = 998 degree 651
pos[1304] = 815 degree 651
pos[1303] = 763 degree 650
pos[1302] = 927 degree 650
pos[1301] = 361 degree 650
pos[1300] = 1852 degree 650
pos[1299] = 311 degree 649
pos[1298] = 1500 degree 649
pos[1297] = 576 degree 648
pos[1296] = 1512 degree 648
pos[1295] = 1097 degree 647
pos[1294] = 190 degree 646
pos[1293] = 1801 degree 646
pos[1292] = 25 degree 645
pos[1291] = 1992 degree 645
pos[1290] = 1782 degree 645
pos[1289] = 812 degree 644
pos[1288] = 386 degree 643
pos[1287] = 1136 degree 643
pos[1286] = 1661 degree 643
pos[1285] = 1471 degree 642
pos[1284] = 1071 degree 641
pos[1283] = 1488 degree 641
pos[1282] = 1297 degree 640
pos[1281] = 707 degree 640
pos[1280] = 559 degree 639
pos[1279] = 116 degree 639
pos[1278] = 105 degree 638
pos[1277] = 1387 degree 638
pos[1276] = 232 degree 637
pos[1275] = 1195 degree 637
pos[1274] = 1577 degree 637
pos[1273] = 413 degree 636
pos[1272] = 324 degree 635
pos[1271] = 776 degree 635
pos[1270] = 1838 degree 635
pos[1269] = 555 degree 634
pos[1268] = 1867 degree 634
pos[1267] = 1296 degree 633
pos[1266] = 475 degree 632
pos[1265] = 1421 degree 632
pos[1264] = 1364 degree 631
pos[1263] = 1084 degree 631
pos[1262] = 1723 degree 631
pos[1261] = 987 degree 630
pos[1260] = 1640 degree 630
pos[1259] = 1187 degree 629
pos[1258] = 975 degree 629
pos[1257] = 446 degree 628
pos[1256] = 1368 degree 628
pos[1255] = 1974 degree 628
pos[1254] = 1660 degree 628
pos[1253] = 1265 degree 627
pos[1252] = 1522 degree 627
pos[1251] = 1304 degree 626
pos[1250] = 970 degree 625
pos[1249] = 963 degree 624
pos[1248] = 1280 degree 624
pos[1247] = 1147 degree 624
pos[1246] = 301 degree 623
pos[1245] = 1341 degree 623
pos[1244] = 877 degree 622
pos[1243] = 845 degree 621
pos[1242] = 1656 degree 621
pos[1241] = 464 degree 620
pos[1240] = 1102 degree 620
pos[1239] = 467 degree 619
pos[1238] = 1727 degree 619
pos[1237] = 1434 degree 618
pos[1236] = 226 degree 617
pos[1235] = 46 degree 617
pos[1234] = 598 degree 617
pos[1233] = 1795 degree 617
pos[1232] = 1246 degree 616
pos[1231] = 1545 degree 616
pos[1230] = 453 degree 615
pos[1229] = 1855 degree 615
pos[1228] = 1582 degree 614
pos[1227] = 31 degree 613
pos[1226] = 1610 degree 614
pos[1225] = 1469 degree 613
pos[1224] = 100 degree 613
pos[1223] = 752 degree 613
pos[1222] = 519 degree 612
pos[1221] = 197 degree 612
pos[1220] = 1334 degree 612
pos[1219] = 1266 degree 611
pos[1218] = 1006 degree 610
pos[1217] = 1757 degree 610
pos[1216] = 1563 degree 610
pos[1215] = 535 degree 609
pos[1214] = 1302 degree 609
pos[1213] = 1174 degree 608
pos[1212] = 543 degree 607
pos[1211] = 1823 degree 607
pos[1210] = 1503 degree 607
pos[1209] = 1045 degree 606
pos[1208] = 1235 degree 606
pos[1207] = 807 degree 605
pos[1206] = 392 degree 605
pos[1205] = 317 degree 604
pos[1204] = 1836 degree 604
pos[1203] = 218 degree 603
pos[1202] = 1559 degree 603
pos[1201] = 1162 degree 603
pos[1200] = 1672 degree 603
pos[1199] = 80 degree 602
pos[1198] = 771 degree 602
pos[1197] = 1971 degree 602
pos[1196] = 1794 degree 601
pos[1195] = 534 degree 600
pos[1194] = 1403 degree 600
pos[1193] = 1344 degree 599
pos[1192] = 1691 degree 599
pos[1191] = 1619 degree 598
pos[1190] = 1276 degree 597
pos[1189] = 1664 degree 597
pos[1188] = 81 degree 596
pos[1187] = 1186 degree 596
pos[1186] = 1912 degree 596
pos[1185] = 1826 degree 596
pos[1184] = 1058 degree 595
pos[1183] = 1428 degree 595
pos[1182] = 1371 degree 594
pos[1181] = 518 degree 593
pos[1180] = 1132 degree 593
pos[1179] = 1903 degree 593
pos[1178] = 1882 degree 592
pos[1177] = 1226 degree 591
pos[1176] = 1884 degree 591
pos[1175] = 276 degree 590
pos[1174] = 742 degree 590
pos[1173] = 539 degree 589
pos[1172] = 433 degree 588
pos[1171] = 27 degree 589
pos[1170] = 1950 degree 589
pos[1169] = 915 degree 588
pos[1168] = 1728 degree 588
pos[1167] = 1552 degree 587
pos[1166] = 458 degree 586
pos[1165] = 584 degree 586
pos[1164] = 1033 degree 586
pos[1163] = 928 degree 585
pos[1162] = 778 degree 584
pos[1161] = 1409 degree 584
pos[1160] = 1124 degree 584
pos[1159] = 1014 degree 583
pos[1158] = 793 degree 582
pos[1157] = 721 degree 582
pos[1156] = 602 degree 582
pos[1155] = 50 degree 581
pos[1154] = 1681 degree 581
pos[1153] = 406 degree 580
pos[1152] = 1066 degree 580
pos[1151] = 409 degree 579
pos[1150] = 265 degree 578
pos[1149] = 1490 degree 578
pos[1148] = 1207 degree 577
pos[1147] = 308 degree 576
pos[1146] = 1493 degree 576
pos[1145] = 1883 degree 576
pos[1144] = 1858 degree 576
pos[1143] = 617 degree 575
pos[1142] = 420 degree 574
pos[1141] = 1057 degree 574
pos[1140] = 1141 degree 574
pos[1139] = 957 degree 573
pos[1138] = 405 degree 573
pos[1137] = 78 degree 572
pos[1136] = 579 degree 572
pos[1135] = 1485 degree 572
pos[1134] = 1921 degree 572
pos[1133] = 859 degree 571
pos[1132] = 165 degree 570
pos[1131] = 1991 degree 571
pos[1130] = 1483 degree 570
pos[1129] = 624 degree 569
pos[1128] = 11 degree 568
pos[1127] = 1332 degree 568
pos[1126] = 1222 degree 568
pos[1125] = 1968 degree 568
pos[1124] = 1620 degree 567
pos[1123] = 857 degree 566
pos[1122] = 1924 degree 567
pos[1121] = 1683 degree 566
pos[1120] = 398 degree 565
pos[1119] = 1980 degree 565
pos[1118] = 1966 degree 564
pos[1117] = 1129 degree 563
pos[1116] = 1955 degree 563
pos[1115] = 391 degree 562
pos[1114] = 1724 degree 562
pos[1113] = 1865 degree 562
pos[1112] = 1146 degree 561
pos[1111] = 684 degree 560
pos[1110] = 1118 degree 560
pos[1109] = 1698 degree 560
pos[1108] = 1402 degree 559
pos[1107] = 785 degree 558
pos[1106] = 1377 degree 558
pos[1105] = 922 degree 557
pos[1104] = 1534 degree 557
pos[1103] = 33 degree 556
pos[1102] = 1885 degree 556
pos[1101] = 897 degree 555
pos[1100] = 1255 degree 555
pos[1099] = 1225 degree 555
pos[1098] = 1764 degree 555
pos[1097] = 1183 degree 554
pos[1096] = 1170 degree 553
pos[1095] = 714 degree 553
pos[1094] = 634 degree 552
pos[1093] = 744 degree 552
pos[1092] = 523 degree 551
pos[1091] = 137 degree 550
pos[1090] = 533 degree 550
pos[1089] = 1 degree 549
pos[1088] = 1655 degree 549
pos[1087] = 1342 degree 548
pos[1086] = 498 degree 548
pos[1085] = 1685 degree 548
pos[1084] = 256 degree 547
pos[1083] = 243 degree 546
pos[1082] = 1445 degree 546
pos[1081] = 1194 degree 546
pos[1080] = 1078 degree 545
pos[1079] = 1665 degree 545
pos[1078] = 580 degree 544
pos[1077] = 296 degree 543
pos[1076] = 1915 degree 544
pos[1075] = 393 degree 543
pos[1074] = 45 degree 542
pos[1073] = 1747 degree 543
pos[1072] = 1573 degree 542
pos[1071] = 829 degree 541
pos[1070] = 1467 degree 541
pos[1069] = 1338 degree 540
pos[1068] = 471 degree 539
pos[1067] = 88 degree 538
pos[1066] = 1985 degree 539
pos[1065] = 852 degree 538
pos[1064] = 695 degree 537
pos[1063] = 1062 degree 537
pos[1062] = 1479 degree 537
pos[1061] = 1026 degree 536
pos[1060] = 528 degree 535
pos[1059] = 1709 degree 535
pos[1058] = 1804 degree 535
pos[1057] = 448 degree 534
pos[1056] = 1475 degree 534
pos[1055] = 836 degree 533
pos[1054] = 254 degree 532
pos[1053] = 1204 degree 532
pos[1052] = 746 degree 531
pos[1051] = 1963 degree 531
pos[1050] = 737 degree 530
pos[1049] = 1669 degree 530
pos[1048] = 1611 degree 530
pos[1047] = 948 degree 529
pos[1046] = 529 degree 529
pos[1045] = 1773 degree 529
pos[1044] = 168 degree 528
pos[1043] = 1274 degree 528
pos[1042] = 1126 degree 527
pos[1041] = 798 degree 526
pos[1040] = 1318 degree 526
pos[1039] = 1644 degree 526
pos[1038] = 194 degree 525
pos[1037] = 1263 degree 525
pos[1036] = 916 degree 524
pos[1035] = 883 degree 524
pos[1034] = 26 degree 523
pos[1033] = 1944 degree 523
pos[1032] = 1492 degree 522
pos[1031] = 142 degree 521
pos[1030] = 914 degree 521
pos[1029] = 1055 degree 521
pos[1028] = 148 degree 520
pos[1027] = 1520 degree 520
pos[1026] = 12 degree 519
pos[1025] = 1336 degree 519
pos[1024] = 968 degree 518
pos[1023] = 951 degree 517
pos[1022] = 936 degree 516
pos[1021] = 408 degree 515
pos[1020] = 1034 degree 515
pos[1019] = 492 degree 515
pos[1018] = 1335 degree 515
pos[1017] = 911 degree 515
pos[1016] = 764 degree 514
pos[1015] = 461 degree 514
pos[1014] = 153 degree 513
pos[1013] = 1351 degree 513
pos[1012] = 1348 degree 513
pos[1011] = 1800 degree 513
pos[1010] = 1595 degree 512
pos[1009] = 1543 degree 511
pos[1008] = 115 degree 510
pos[1007] = 1751 degree 510
pos[1006] = 1247 degree 509
pos[1005] = 878 degree 509
pos[1004] = 348 degree 508
pos[1003] = 1261 degree 508
pos[1002] = 1116 degree 508
pos[1001] = 885 degree 508
pos[1000] = 1905 degree 508
pos[999] = 571 degree 507
pos[998] = 450 degree 506
pos[997] = 427 degree 505
pos[996] = 104 degree 504
pos[995] = 1101 degree 505
pos[994] = 1649 degree 505
pos[993] = 1548 degree 504
pos[992] = 1082 degree 503
pos[991] = 1413 degree 503
pos[990] = 931 degree 502
pos[989] = 1763 degree 503
pos[988] = 1580 degree 502
pos[987] = 736 degree 501
pos[986] = 616 degree 500
pos[985] = 1546 degree 500
pos[984] = 442 degree 499
pos[983] = 1376 degree 500
pos[982] = 1249 degree 499
pos[981] = 1133 degree 498
pos[980] = 1788 degree 498
pos[979] = 95 degree 497
pos[978] = 1617 degree 497
pos[977] = 1085 degree 496
pos[976] = 239 degree 495
pos[975] = 162 degree 494
pos[974] = 1533 degree 495
pos[973] = 1155 degree 494
pos[972] = 660 degree 493
pos[971] = 566 degree 492
pos[970] = 1050 degree 492
pos[969] = 567 degree 491
pos[968] = 558 degree 491
pos[967] = 271 degree 490
pos[966] = 1153 degree 490
pos[965] = 1975 degree 490
pos[964] = 1623 degree 489
pos[963] = 1532 degree 488
pos[962] = 899 degree 488
pos[961] = 1063 degree 488
pos[960] = 1165 degree 488
pos[959] = 669 degree 487
pos[958] = 1637 degree 487
pos[957] = 1574 degree 486
pos[956] = 1044 degree 485
pos[955] = 439 degree 485
pos[954] = 1309 degree 485
pos[953] = 1406 degree 485
pos[952] = 977 degree 484
pos[951] = 698 degree 484
pos[950] = 657 degree 483
pos[949] = 367 degree 483
pos[948] = 273 degree 482
pos[947] = 203 degree 481
pos[946] = 1119 degree 481
pos[945] = 1931 degree 481
pos[944] = 1569 degree 480
pos[943] = 966 degree 479
pos[942] = 1564 degree 479
pos[941] = 681 degree 478
pos[940] = 753 degree 478
pos[939] = 468 degree 477
pos[938] = 1125 degree 477
pos[937] = 1282 degree 477
pos[936] = 1061 degree 476
pos[935] = 782 degree 476
pos[934] = 36 degree 475
pos[933] = 1961 degree 475
pos[932] = 1238 degree 474
pos[931] = 795 degree 474
pos[930] = 1785 degree 474
pos[929] = 1007 degree 473
pos[928] = 71 degree 472
pos[927] = 1605 degree 472
pos[926] = 1568 degree 471
pos[925] = 1192 degree 471
pos[924] = 499 degree 470
pos[923] = 84 degree 469
pos[922] = 789 degree 470
pos[921] = 1257 degree 470
pos[920] = 1707 degree 470
pos[919] = 1591 degree 469
pos[918] = 144 degree 468
pos[917] = 765 degree 468
pos[916] = 1984 degree 468
pos[915] = 1736 degree 467
pos[914] = 1134 degree 466
pos[913] = 1703 degree 466
pos[912] = 976 degree 465
pos[911] = 357 degree 464
pos[910] = 342 degree 463
pos[909] = 650 degree 463
pos[908] = 716 degree 463
pos[907] = 3 degree 463
pos[906] = 1514 degree 463
pos[905] = 884 degree 462
pos[904] = 574 degree 461
pos[903] = 284 degree 460
pos[902] = 1645 degree 460
pos[901] = 219 degree 459
pos[900] = 421 degree 459
pos[899] = 248 degree 458
pos[898] = 1360 degree 458
pos[897] = 1572 degree 458
pos[896] = 1039 degree 457
pos[895] = 1650 degree 457
pos[894] = 1159 degree 456
pos[893] = 809 degree 456
pos[892] = 1807 degree 456
pos[891] = 603 degree 455
pos[890] = 1576 degree 455
pos[889] = 130 degree 454
pos[888] = 1697 degree 454
pos[887] = 1705 degree 454
pos[886] = 1093 degree 453
pos[885] = 874 degree 452
pos[884] = 611 degree 451
pos[883] = 1593 degree 451
pos[882] = 1494 degree 450
pos[881] = 1416 degree 450
pos[880] = 1087 degree 449
pos[879] = 399 degree 449
pos[878] = 336 degree 448
pos[877] = 19 degree 447
pos[876] = 1870 degree 448
pos[875] = 250 degree 447
pos[874] = 1621 degree 447
pos[873] = 900 degree 446
pos[872] = 819 degree 445
pos[871] = 1407 degree 445
pos[870] = 1986 degree 445
pos[869] = 359 degree 444
pos[868] = 1739 degree 444
pos[867] = 335 degree 443
pos[866] = 1054 degree 443
pos[865] = 557 degree 442
pos[864] = 1172 degree 442
pos[863] = 1502 degree 442
pos[862] = 1472 degree 441
pos[861] = 925 degree 440
pos[860] = 823 degree 439
pos[859] = 1013 degree 439
pos[858] = 1470 degree 439
pos[857] = 722 degree 438
pos[856] = 1899 degree 438
pos[855] = 1190 degree 438
pos[854] = 939 degree 437
pos[853] = 102 degree 436
pos[852] = 158 degree 436
pos[851] = 29 degree 436
pos[850] = 1584 degree 436
pos[849] = 790 degree 435
pos[848] = 697 degree 434
pos[847] = 1205 degree 434
pos[846] = 552 degree 433
pos[845] = 502 degree 432
pos[844] = 505 degree 432
pos[843] = 872 degree 432
pos[842] = 1917 degree 432
pos[841] = 1161 degree 431
pos[840] = 1701 degree 431
pos[839] = 526 degree 430
pos[838] = 364 degree 429
pos[837] = 1554 degree 429
pos[836] = 1111 degree 428
pos[835] = 1361 degree 428
pos[834] = 251 degree 427
pos[833] = 214 degree 426
pos[832] = 1947 degree 427
pos[831] = 1914 degree 426
pos[830] = 1906 degree 425
pos[829] = 319 degree 424
pos[828] = 1603 degree 424
pos[827] = 415 degree 423
pos[826] = 766 degree 423
pos[825] = 1601 degree 423
pos[824] = 1248 degree 422
pos[823] = 1596 degree 422
pos[822] = 382 degree 421
pos[821] = 125 degree 420
pos[820] = 844 degree 420
pos[819] = 1775 degree 420
pos[818] = 372 degree 419
pos[817] = 593 degree 419
pos[816] = 1166 degree 419
pos[815] = 1404 degree 419
pos[814] = 1181 degree 418
pos[813] = 1169 degree 417
pos[812] = 1043 degree 416
pos[811] = 1869 degree 416
pos[810] = 1778 degree 416
pos[809] = 1016 degree 415
pos[808] = 961 degree 414
pos[807] = 1964 degree 414
pos[806] = 1396 degree 413
pos[805] = 1167 degree 413
pos[804] = 402 degree 412
pos[803] = 1713 degree 413
pos[802] = 1508 degree 412
pos[801] = 930 degree 411
pos[800] = 416 degree 411
pos[799] = 327 degree 410
pos[798] = 238 degree 409
pos[797] = 818 degree 410
pos[796] = 779 degree 409
pos[795] = 693 degree 408
pos[794] = 217 degree 407
pos[793] = 48 degree 407
pos[792] = 1830 degree 407
pos[791] = 1752 degree 406
pos[790] = 1695 degree 406
pos[789] = 511 degree 405
pos[788] = 934 degree 405
pos[787] = 1523 degree 405
pos[786] = 1392 degree 404
pos[785] = 356 degree 403
pos[784] = 993 degree 404
pos[783] = 770 degree 403
pos[782] = 349 degree 402
pos[781] = 1388 degree 402
pos[780] = 227 degree 401
pos[779] = 1570 degree 401
pos[778] = 1818 degree 401
pos[777] = 229 degree 400
pos[776] = 496 degree 400
pos[775] = 462 degree 399
pos[774] = 1069 degree 399
pos[773] = 983 degree 398
pos[772] = 578 degree 398
pos[771] = 1860 degree 398
pos[770] = 1702 degree 397
pos[769] = 1526 degree 397
pos[768] = 1074 degree 396
pos[767] = 1003 degree 395
pos[766] = 757 degree 394
pos[765] = 694 degree 394
pos[764] = 614 degree 393
pos[763] = 497 degree 392
pos[762] = 1009 degree 392
pos[761] = 1977 degree 392
pos[760] = 1820 degree 391
pos[759] = 588 degree 391
pos[758] = 182 degree 390
pos[757] = 870 degree 390
pos[756] = 293 degree 389
pos[755] = 1626 degree 389
pos[754] = 1397 degree 389
pos[753] = 775 degree 388
pos[752] = 93 degree 387
pos[751] = 1163 degree 387
pos[750] = 941 degree 386
pos[749] = 1027 degree 386
pos[748] = 395 degree 385
pos[747] = 1815 degree 386
pos[746] = 1671 degree 385
pos[745] = 573 degree 384
pos[744] = 1436 degree 384
pos[743] = 127 degree 383
pos[742] = 1651 degree 383
pos[741] = 1094 degree 382
pos[740] = 508 degree 381
pos[739] = 233 degree 381
pos[738] = 1834 degree 381
pos[737] = 514 degree 380
pos[736] = 1438 degree 380
pos[735] = 1150 degree 379
pos[734] = 429 degree 378
pos[733] = 1173 degree 378
pos[732] = 263 degree 377
pos[731] = 237 degree 376
pos[730] = 1068 degree 376
pos[729] = 773 degree 376
pos[728] = 1398 degree 376
pos[727] = 363 degree 375
pos[726] = 149 degree 375
pos[725] = 1544 degree 375
pos[724] = 1306 degree 374
pos[723] = 1023 degree 373
pos[722] = 740 degree 373
pos[721] = 1658 degree 373
pos[720] = 1038 degree 372
pos[719] = 1565 degree 372
pos[718] = 74 degree 371
pos[717] = 628 degree 371
pos[716] = 300 degree 370
pos[715] = 1400 degree 370
pos[714] = 274 degree 369
pos[713] = 1410 degree 369
pos[712] = 1041 degree 368
pos[711] = 1689 degree 368
pos[710] = 211 degree 367
pos[709] = 1331 degree 367
pos[708] = 1996 degree 367
pos[707] = 1811 degree 366
pos[706] = 1283 degree 365
pos[705] = 1271 degree 365
pos[704] = 422 degree 364
pos[703] = 366 degree 363
pos[702] = 122 degree 362
pos[701] = 423 degree 363
pos[700] = 1781 degree 363
pos[699] = 365 degree 362
pos[698] = 1876 degree 362
pos[697] = 1562 degree 361
pos[696] = 756 degree 360
pos[695] = 1659 degree 360
pos[694] = 1418 degree 359
pos[693] = 985 degree 359
pos[692] = 569 degree 358
pos[691] = 1588 degree 358
pos[690] = 1108 degree 357
pos[689] = 1277 degree 358
pos[688] = 640 degree 357
pos[687] = 531 degree 356
pos[686] = 1171 degree 356
pos[685] = 1117 degree 355
pos[684] = 313 degree 354
pos[683] = 1114 degree 354
pos[682] = 1286 degree 354
pos[681] = 140 degree 353
pos[680] = 91 degree 352
pos[679] = 1156 degree 352
pos[678] = 40 degree 351
pos[677] = 1599 degree 351
pos[676] = 873 degree 350
pos[675] = 154 degree 349
pos[674] = 1268 degree 350
pos[673] = 65 degree 349
pos[672] = 1575 degree 349
pos[671] = 1021 degree 348
pos[670] = 989 degree 347
pos[669] = 109 degree 347
pos[668] = 59 degree 346
pos[667] = 1684 degree 346
pos[666] = 177 degree 345
pos[665] = 1244 degree 345
pos[664] = 572 degree 344
pos[663] = 287 degree 343
pos[662] = 1383 degree 343
pos[661] = 1630 degree 343
pos[660] = 1466 degree 343
pos[659] = 1208 degree 342
pos[658] = 133 degree 341
pos[657] = 479 degree 341
pos[656] = 215 degree 340
pos[655] = 1439 degree 340
pos[654] = 9 degree 339
pos[653] = 489 degree 339
pos[652] = 1965 degree 339
pos[651] = 631 degree 338
pos[650] = 1817 degree 338
pos[649] = 1089 degree 338
pos[648] = 582 degree 337
pos[647] = 1288 degree 337
pos[646] = 66 degree 336
pos[645] = 1959 degree 336
pos[644] = 1193 degree 335
pos[643] = 544 degree 334
pos[642] = 1412 degree 334
pos[641] = 1716 degree 334
pos[640] = 1340 degree 333
pos[639] = 1957 degree 333
pos[638] = 87 degree 332
pos[637] = 1555 degree 332
pos[636] = 585 degree 331
pos[635] = 396 degree 330
pos[634] = 270 degree 330
pos[633] = 1748 degree 330
pos[632] = 1717 degree 329
pos[631] = 1293 degree 329
pos[630] = 1048 degree 328
pos[629] = 952 degree 327
pos[628] = 1735 degree 327
pos[627] = 1812 degree 327
pos[626] = 1449 degree 326
pos[625] = 1535 degree 326
pos[624] = 369 degree 325
pos[623] = 1025 degree 325
pos[622] = 132 degree 324
pos[621] = 905 degree 324
pos[620] = 485 degree 323
pos[619] = 726 degree 323
pos[618] = 1380 degree 323
pos[617] = 1008 degree 322
pos[616] = 682 degree 321
pos[615] = 1350 degree 322
pos[614] = 1259 degree 321
pos[613] = 1019 degree 320
pos[612] = 1053 degree 320
pos[611] = 64 degree 319
pos[610] = 1725 degree 319
pos[609] = 1083 degree 318
pos[608] = 612 degree 317
pos[607] = 62 degree 317
pos[606] = 1939 degree 317
pos[605] = 945 degree 317
pos[604] = 279 degree 316
pos[603] = 1628 degree 316
pos[602] = 988 degree 315
pos[601] = 316 degree 314
pos[600] = 679 degree 314
pos[599] = 401 degree 313
pos[598] = 151 degree 312
pos[597] = 761 degree 312
pos[596] = 114 degree 311
pos[595] = 1216 degree 311
pos[594] = 1110 degree 310
pos[593] = 1329 degree 310
pos[592] = 822 degree 309
pos[591] = 805 degree 308
pos[590] = 1941 degree 309
pos[589] = 1519 degree 308
pos[588] = 120 degree 307
pos[587] = 208 degree 307
pos[586] = 1934 degree 307
pos[585] = 662 degree 306
pos[584] = 1937 degree 306
pos[583] = 735 degree 305
pos[582] = 548 degree 304
pos[581] = 1789 degree 304
pos[580] = 1251 degree 303
pos[579] = 1040 degree 303
pos[578] = 671 degree 302
pos[577] = 486 degree 301
pos[576] = 1323 degree 301
pos[575] = 1846 degree 302
pos[574] = 1590 degree 301
pos[573] = 1583 degree 300
pos[572] = 1814 degree 300
pos[571] = 220 degree 299
pos[570] = 8 degree 298
pos[569] = 1670 degree 298
pos[568] = 478 degree 297
pos[567] = 1769 degree 297
pos[566] = 1441 degree 296
pos[565] = 370 degree 295
pos[564] = 187 degree 295
pos[563] = 1881 degree 295
pos[562] = 909 degree 295
pos[561] = 469 degree 294
pos[560] = 501 degree 294
pos[559] = 110 degree 293
pos[558] = 1654 degree 293
pos[557] = 454 degree 292
pos[556] = 1145 degree 292
pos[555] = 806 degree 291
pos[554] = 170 degree 290
pos[553] = 942 degree 290
pos[552] = 72 degree 289
pos[551] = 1243 degree 289
pos[550] = 871 degree 288
pos[549] = 1106 degree 288
pos[548] = 1072 degree 287
pos[547] = 644 degree 286
pos[546] = 568 degree 286
pos[545] = 164 degree 285
pos[544] = 1726 degree 285
pos[543] = 1241 degree 284
pos[542] = 564 degree 283
pos[541] = 253 degree 283
pos[540] = 1969 degree 284
pos[539] = 1411 degree 283
pos[538] = 1911 degree 283
pos[537] = 1199 degree 282
pos[536] = 718 degree 281
pos[535] = 940 degree 281
pos[534] = 1218 degree 281
pos[533] = 1879 degree 281
pos[532] = 848 degree 280
pos[531] = 608 degree 279
pos[530] = 1636 degree 279
pos[529] = 840 degree 278
pos[528] = 294 degree 277
pos[527] = 758 degree 277
pos[526] = 541 degree 276
pos[525] = 289 degree 275
pos[524] = 135 degree 275
pos[523] = 1149 degree 275
pos[522] = 747 degree 274
pos[521] = 734 degree 273
pos[520] = 504 degree 272
pos[519] = 1615 degree 273
pos[518] = 898 degree 272
pos[517] = 1295 degree 272
pos[516] = 1151 degree 271
pos[515] = 901 degree 270
pos[514] = 1056 degree 270
pos[513] = 1152 degree 270
pos[512] = 954 degree 269
pos[511] = 587 degree 268
pos[510] = 210 degree 268
pos[509] = 1369 degree 268
pos[508] = 181 degree 268
pos[507] = 141 degree 267
pos[506] = 438 degree 267
pos[505] = 1029 degree 267
pos[504] = 830 degree 266
pos[503] = 731 degree 266
pos[502] = 334 degree 265
pos[501] = 42 degree 264
pos[500] = 0 degree 263
pos[499] = 794 degree 263
pos[498] = 1803 degree 263
pos[497] = 1426 degree 262
pos[496] = 1451 degree 262
pos[495] = 597 degree 261
pos[494] = 1017 degree 261
pos[493] = 1509 degree 261
pos[492] = 1910 degree 261
pos[491] = 1744 degree 260
pos[490] = 537 degree 259
pos[489] = 1566 degree 259
pos[488] = 1127 degree 258
pos[487] = 658 degree 258
pos[486] = 1427 degree 258
pos[485] = 1285 degree 257
pos[484] = 601 degree 256
pos[483] = 417 degree 255
pos[482] = 783 degree 255
pos[481] = 1679 degree 255
pos[480] = 1844 degree 255
pos[479] = 1730 degree 254
pos[478] = 1175 degree 253
pos[477] = 1188 degree 253
pos[476] = 1354 degree 253
pos[475] = 1075 degree 252
pos[474] = 510 degree 251
pos[473] = 1908 degree 252
pos[472] = 1871 degree 251
pos[471] = 1272 degree 250
pos[470] = 1031 degree 249
pos[469] = 919 degree 248
pos[468] = 1454 degree 249
pos[467] = 1197 degree 248
pos[466] = 1538 degree 248
pos[465] = 1414 degree 247
pos[464] = 944 degree 246
pos[463] = 1391 degree 246
pos[462] = 1076 degree 245
pos[461] = 755 degree 244
pos[460] = 835 degree 244
pos[459] = 97 degree 243
pos[458] = 950 degree 243
pos[457] = 1652 degree 243
pos[456] = 1480 degree 243
pos[455] = 1292 degree 242
pos[454] = 1666 degree 242
pos[453] = 1442 degree 241
pos[452] = 320 degree 240
pos[451] = 1015 degree 240
pos[450] = 1872 degree 240
pos[449] = 1774 degree 239
pos[448] = 1349 degree 238
pos[447] = 484 degree 237
pos[446] = 207 degree 236
pos[445] = 1718 degree 237
pos[444] = 1437 degree 236
pos[443] = 1189 degree 236
pos[442] = 912 degree 236
pos[441] = 570 degree 235
pos[440] = 282 degree 234
pos[439] = 1585 degree 235
pos[438] = 1326 degree 234
pos[437] = 1798 degree 234
pos[436] = 932 degree 233
pos[435] = 1468 degree 233
pos[434] = 902 degree 232
pos[433] = 727 degree 231
pos[432] = 343 degree 230
pos[431] = 1909 degree 230
pos[430] = 808 degree 229
pos[429] = 1325 degree 229
pos[428] = 1250 degree 229
pos[427] = 491 degree 228
pos[426] = 1450 degree 228
pos[425] = 653 degree 227
pos[424] = 185 degree 226
pos[423] = 918 degree 226
pos[422] = 1663 degree 226
pos[421] = 1333 degree 225
pos[420] = 875 degree 225
pos[419] = 1951 degree 225
pos[418] = 1496 degree 224
pos[417] = 425 degree 223
pos[416] = 1933 degree 223
pos[415] = 700 degree 222
pos[414] = 371 degree 222
pos[413] = 315 degree 221
pos[412] = 1790 degree 221
pos[411] = 1771 degree 220
pos[410] = 1233 degree 219
pos[409] = 1635 degree 219
pos[408] = 1279 degree 218
pos[407] = 814 degree 217
pos[406] = 865 degree 217
pos[405] = 306 degree 217
pos[404] = 1258 degree 217
pos[403] = 828 degree 216
pos[402] = 1983 degree 216
pos[401] = 1987 degree 216
pos[400] = 1478 degree 215
pos[399] = 1200 degree 214
pos[398] = 213 degree 213
pos[397] = 506 degree 213
pos[396] = 1542 degree 213
pos[395] = 1487 degree 213
pos[394] = 1135 degree 212
pos[393] = 854 degree 211
pos[392] = 659 degree 210
pos[391] = 549 degree 210
pos[390] = 879 degree 210
pos[389] = 654 degree 209
pos[388] = 1837 degree 209
pos[387] = 1880 degree 209
pos[386] = 1680 degree 208
pos[385] = 340 degree 207
pos[384] = 863 degree 207
pos[383] = 360 degree 206
pos[382] = 1822 degree 206
pos[381] = 750 degree 205
pos[380] = 1229 degree 205
pos[379] = 121 degree 204
pos[378] = 70 degree 203
pos[377] = 955 degree 203
pos[376] = 397 degree 203
pos[375] = 28 degree 202
pos[374] = 124 degree 202
pos[373] = 1928 degree 202
pos[372] = 1784 degree 201
pos[371] = 1399 degree 200
pos[370] = 1646 degree 200
pos[369] = 1359 degree 200
pos[368] = 804 degree 199
pos[367] = 724 degree 198
pos[366] = 1337 degree 198
pos[365] = 477 degree 197
pos[364] = 971 degree 197
pos[363] = 674 degree 196
pos[362] = 1168 degree 196
pos[361] = 516 degree 195
pos[360] = 1386 degree 195
pos[359] = 1647 degree 195
pos[358] = 834 degree 194
pos[357] = 688 degree 193
pos[356] = 339 degree 192
pos[355] = 35 degree 191
pos[354] = 1525 degree 192
pos[353] = 638 degree 191
pos[352] = 49 degree 190
pos[351] = 1521 degree 191
pos[350] = 801 degree 190
pos[349] = 647 degree 189
pos[348] = 1419 degree 190
pos[347] = 686 degree 189
pos[346] = 169 degree 188
pos[345] = 1929 degree 188
pos[344] = 708 degree 187
pos[343] = 623 degree 186
pos[342] = 354 degree 185
pos[341] = 351 degree 185
pos[340] = 51 degree 184
pos[339] = 1184 degree 184
pos[338] = 303 degree 183
pos[337] = 1920 degree 184
pos[336] = 1290 degree 183
pos[335] = 1767 degree 183
pos[334] = 1315 degree 182
pos[333] = 249 degree 181
pos[332] = 1556 degree 181
pos[331] = 1300 degree 181
pos[330] = 455 degree 180
pos[329] = 1753 degree 180
pos[328] = 1805 degree 180
pos[327] = 1677 degree 179
pos[326] = 1809 degree 179
pos[325] = 1589 degree 178
pos[324] = 527 degree 177
pos[323] = 344 degree 176
pos[322] = 1372 degree 176
pos[321] = 774 degree 175
pos[320] = 419 degree 174
pos[319] = 1874 degree 175
pos[318] = 1729 degree 174
pos[317] = 1281 degree 174
pos[316] = 199 degree 173
pos[315] = 99 degree 172
pos[314] = 1303 degree 172
pos[313] = 890 degree 172
pos[312] = 212 degree 171
pos[311] = 1531 degree 171
pos[310] = 522 degree 170
pos[309] = 924 degree 170
pos[308] = 472 degree 169
pos[307] = 380 degree 169
pos[306] = 1529 degree 169
pos[305] = 1486 degree 168
pos[304] = 338 degree 167
pos[303] = 1678 degree 167
pos[302] = 1142 degree 166
pos[301] = 1305 degree 166
pos[300] = 1231 degree 165
pos[299] = 1164 degree 164
pos[298] = 675 degree 163
pos[297] = 13 degree 162
pos[296] = 1537 degree 162
pos[295] = 463 degree 162
pos[294] = 1853 degree 162
pos[293] = 1356 degree 161
pos[292] = 1262 degree 161
pos[291] = 1160 degree 160
pos[290] = 667 degree 159
pos[289] = 407 degree 159
pos[288] = 298 degree 159
pos[287] = 1700 degree 159
pos[286] = 1088 degree 158
pos[285] = 1667 degree 158
pos[284] = 999 degree 157
pos[283] = 1618 degree 157
pos[282] = 850 degree 156
pos[281] = 350 degree 155
pos[280] = 1711 degree 155
pos[279] = 1435 degree 155
pos[278] = 1049 degree 154
pos[277] = 562 degree 153
pos[276] = 1347 degree 153
pos[275] = 953 degree 152
pos[274] = 118 degree 151
pos[273] = 111 degree 150
pos[272] = 1103 degree 151
pos[271] = 692 degree 150
pos[270] = 1507 degree 150
pos[269] = 832 degree 149
pos[268] = 831 degree 148
pos[267] = 483 degree 147
pos[266] = 619 degree 147
pos[265] = 146 degree 146
pos[264] = 592 degree 146
pos[263] = 106 degree 145
pos[262] = 1422 degree 145
pos[261] = 358 degree 144
pos[260] = 1708 degree 144
pos[259] = 89 degree 143
pos[258] = 1540 degree 143
pos[257] = 245 degree 142
pos[256] = 1343 degree 142
pos[255] = 1328 degree 142
pos[254] = 513 degree 141
pos[253] = 503 degree 140
pos[252] = 1558 degree 140
pos[251] = 1203 degree 139
pos[250] = 138 degree 138
pos[249] = 1840 degree 138
pos[248] = 703 degree 138
pos[247] = 811 degree 138
pos[246] = 258 degree 137
pos[245] = 175 degree 136
pos[244] = 171 degree 135
pos[243] = 487 degree 135
pos[242] = 1515 degree 135
pos[241] = 1740 degree 135
pos[240] = 1609 degree 134
pos[239] = 490 degree 133
pos[238] = 1070 degree 133
pos[237] = 1829 degree 133
pos[236] = 1608 degree 132
pos[235] = 843 degree 131
pos[234] = 959 degree 131
pos[233] = 882 degree 130
pos[232] = 1816 degree 130
pos[231] = 445 degree 129
pos[230] = 1381 degree 129
pos[229] = 384 degree 128
pos[228] = 4 degree 127
pos[227] = 1932 degree 128
pos[226] = 1922 degree 128
pos[225] = 1551 degree 127
pos[224] = 44 degree 126
pos[223] = 530 degree 126
pos[222] = 264 degree 125
pos[221] = 1930 degree 125
pos[220] = 437 degree 124
pos[219] = 1541 degree 124
pos[218] = 781 degree 123
pos[217] = 1456 degree 123
pos[216] = 896 degree 122
pos[215] = 565 degree 121
pos[214] = 341 degree 120
pos[213] = 147 degree 120
pos[212] = 982 degree 120
pos[211] = 1733 degree 120
pos[210] = 1495 degree 119
pos[209] = 1384 degree 119
pos[208] = 1236 degree 118
pos[207] = 242 degree 117
pos[206] = 1440 degree 117
pos[205] = 538 degree 116
pos[204] = 1940 degree 116
pos[203] = 1891 degree 115
pos[202] = 302 degree 114
pos[201] = 1217 degree 114
pos[200] = 1052 degree 113
pos[199] = 1314 degree 113
pos[198] = 2 degree 112
pos[197] = 431 degree 112
pos[196] = 1625 degree 112
pos[195] = 1144 degree 111
pos[194] = 1137 degree 111
pos[193] = 228 degree 110
pos[192] = 16 degree 109
pos[191] = 1100 degree 109
pos[190] = 1668 degree 109
pos[189] = 436 degree 108
pos[188] = 1086 degree 108
pos[187] = 536 degree 107
pos[186] = 1600 degree 107
pos[185] = 143 degree 106
pos[184] = 847 degree 106
pos[183] = 683 degree 105
pos[182] = 330 degree 104
pos[181] = 139 degree 103
pos[180] = 1639 degree 104
pos[179] = 1215 degree 103
pos[178] = 1154 degree 102
pos[177] = 257 degree 101
pos[176] = 1854 degree 102
pos[175] = 984 degree 101
pos[174] = 1634 degree 101
pos[173] = 1616 degree 100
pos[172] = 797 degree 99
pos[171] = 295 degree 98
pos[170] = 310 degree 98
pos[169] = 1887 degree 98
pos[168] = 1539 degree 97
pos[167] = 123 degree 96
pos[166] = 943 degree 96
pos[165] = 713 degree 95
pos[164] = 637 degree 95
pos[163] = 435 degree 94
pos[162] = 1122 degree 94
pos[161] = 449 degree 93
pos[160] = 1721 degree 93
pos[159] = 620 degree 92
pos[158] = 430 degree 91
pos[157] = 1022 degree 91
pos[156] = 1936 degree 91
pos[155] = 1527 degree 90
pos[154] = 1755 degree 90
pos[153] = 1597 degree 89
pos[152] = 886 degree 88
pos[151] = 648 degree 88
pos[150] = 1477 degree 88
pos[149] = 920 degree 87
pos[148] = 285 degree 86
pos[147] = 206 degree 85
pos[146] = 1758 degree 86
pos[145] = 1455 degree 85
pos[144] = 1373 degree 85
pos[143] = 817 degree 84
pos[142] = 1770 degree 84
pos[141] = 428 degree 83
pos[140] = 1888 degree 83
pos[139] = 618 degree 82
pos[138] = 411 degree 81
pos[137] = 1943 degree 81
pos[136] = 1979 degree 81
pos[135] = 1777 degree 80
pos[134] = 1797 degree 80
pos[133] = 1719 degree 79
pos[132] = 1390 degree 78
pos[131] = 1706 degree 78
pos[130] = 1020 degree 77
pos[129] = 117 degree 76
pos[128] = 1012 degree 76
pos[127] = 281 degree 75
pos[126] = 1916 degree 75
pos[125] = 353 degree 74
pos[124] = 305 degree 73
pos[123] = 717 degree 73
pos[122] = 947 degree 73
pos[121] = 760 degree 72
pos[120] = 69 degree 71
pos[119] = 910 degree 71
pos[118] = 788 degree 70
pos[117] = 440 degree 70
pos[116] = 1967 degree 70
pos[115] = 1560 degree 69
pos[114] = 938 degree 68
pos[113] = 1895 degree 68
pos[112] = 994 degree 67
pos[111] = 833 degree 66
pos[110] = 1662 degree 66
pos[109] = 696 degree 65
pos[108] = 1317 degree 65
pos[107] = 1749 degree 65
pos[106] = 1000 degree 64
pos[105] = 1513 degree 64
pos[104] = 964 degree 63
pos[103] = 641 degree 62
pos[102] = 621 degree 61
pos[101] = 234 degree 60
pos[100] = 1762 degree 61
pos[99] = 741 degree 60
pos[98] = 1952 degree 60
pos[97] = 67 degree 59
pos[96] = 1460 degree 59
pos[95] = 1311 degree 59
pos[94] = 1275 degree 58
pos[93] = 1158 degree 57
pos[92] = 981 degree 57
pos[91] = 743 degree 56
pos[90] = 906 degree 56
pos[89] = 825 degree 55
pos[88] = 1324 degree 55
pos[87] = 583 degree 54
pos[86] = 1765 degree 54
pos[85] = 749 degree 53
pos[84] = 314 degree 52
pos[83] = 1841 degree 52
pos[82] = 286 degree 51
pos[81] = 1715 degree 51
pos[80] = 1633 degree 50
pos[79] = 780 degree 50
pos[78] = 709 degree 49
pos[77] = 991 degree 49
pos[76] = 326 degree 48
pos[75] = 1694 degree 48
pos[74] = 1629 degree 47
pos[73] = 956 degree 47
pos[72] = 113 degree 46
pos[71] = 1878 degree 46
pos[70] = 277 degree 45
pos[69] = 1321 degree 45
pos[68] = 473 degree 44
pos[67] = 1123 degree 44
pos[66] = 1059 degree 43
pos[65] = 82 degree 42
pos[64] = 813 degree 42
pos[63] = 400 degree 41
pos[62] = 1901 degree 41
pos[61] = 949 degree 40
pos[60] = 275 degree 39
pos[59] = 1791 degree 39
pos[58] = 23 degree 38
pos[57] = 772 degree 38
pos[56] = 719 degree 37
pos[55] = 586 degree 37
pos[54] = 521 degree 36
pos[53] = 493 degree 35
pos[52] = 466 degree 35
pos[51] = 98 degree 34
pos[50] = 810 degree 34
pos[49] = 381 degree 33
pos[48] = 1482 degree 33
pos[47] = 632 degree 32
pos[46] = 61 degree 31
pos[45] = 1832 degree 31
pos[44] = 751 degree 30
pos[43] = 1516 degree 30
pos[42] = 189 degree 29
pos[41] = 30 degree 28
pos[40] = 730 degree 28
pos[39] = 174 degree 27
pos[38] = 1571 degree 27
pos[37] = 860 degree 26
pos[36] = 715 degree 25
pos[35] = 1926 degree 25
pos[34] = 1946 degree 25
pos[33] = 1904 degree 24
pos[32] = 1889 degree 23
pos[31] = 1842 degree 23
pos[30] = 547 degree 22
pos[29] = 1802 degree 22
pos[28] = 1731 degree 21
pos[27] = 627 degree 20
pos[26] = 604 degree 20
pos[25] = 244 degree 19
pos[24] = 1862 degree 19
pos[23] = 1857 degree 18
pos[22] = 978 degree 17
pos[21] = 1443 degree 17
pos[20] = 1284 degree 16
pos[19] = 1287 degree 16
pos[18] = 456 degree 15
pos[17] = 304 degree 14
pos[16] = 196 degree 13
pos[15] = 1179 degree 13
pos[14] = 880 degree 12
pos[13] = 278 degree 11
pos[12] = 22 degree 10
pos[11] = 1742 degree 10
pos[10] = 1511 degree 9
pos[9] = 1139 degree 9
pos[8] = 1051 degree 8
pos[7] = 996 degree 7
pos[6] = 851 degree 6
pos[5] = 635 degree 5
pos[4] = 474 degree 4
pos[3] = 376 degree 3
pos[2] = 374 degree 2
pos[1] = 321 degree 1
pos[0] = 209 degree 0
kplex size 1
[209 ]
1/2000 (max 1) 0.05287 s
kplex size 2
[321 209 ]
2/2000 (max 2) 0.05288 s
kplex size 3
[374 321 209 ]
3/2000 (max 3) 0.05288 s
kplex size 4
[376 374 321 209 ]
4/2000 (max 4) 0.05289 s
kplex size 5
[474 376 374 321 209 ]
5/2000 (max 5) 0.05290 s
kplex size 6
[635 474 376 374 321 209 ]
6/2000 (max 6) 0.05290 s
kplex size 7
[851 635 474 376 374 321 209 ]
7/2000 (max 7) 0.05291 s
kplex size 8
[996 851 635 474 376 374 321 209 ]
8/2000 (max 8) 0.05292 s
kplex size 9
[1051 996 851 635 474 376 374 321 209 ]
9/2000 (max 9) 0.05292 s
kplex size 10
[1139 1051 996 851 635 474 376 374 321 209 ]
10/2000 (max 10) 0.05293 s
kplex size 11
[1511 1139 1051 996 851 635 474 376 374 321 209 ]
11/2000 (max 11) 0.05295 s
kplex size 12
[1742 1511 1139 1051 996 851 635 474 376 374 321 209 ]
12/2000 (max 12) 0.05296 s
13/2000 (max 12) 0.05296 s
14/2000 (max 12) 0.05297 s
15/2000 (max 12) 0.05300 s
kplex size 13
[1179 880 278 22 1742 1511 1139 851 635 474 376 321 209 ]
16/2000 (max 13) 0.05302 s
17/2000 (max 13) 0.05303 s
18/2000 (max 13) 0.05305 s
19/2000 (max 13) 0.05309 s
20/2000 (max 13) 0.05316 s
21/2000 (max 13) 0.05324 s
22/2000 (max 13) 0.05338 s
kplex size 14
[978 1284 1287 196 1179 880 22 1511 1139 851 635 474 374 321 ]
23/2000 (max 14) 0.05347 s
24/2000 (max 14) 0.05351 s
25/2000 (max 14) 0.05361 s
26/2000 (max 14) 0.05376 s
27/2000 (max 14) 0.05399 s
28/2000 (max 14) 0.05416 s
29/2000 (max 14) 0.05440 s
30/2000 (max 14) 0.05484 s
31/2000 (max 14) 0.05533 s
32/2000 (max 14) 0.05601 s
33/2000 (max 14) 0.05692 s
34/2000 (max 14) 0.05823 s
35/2000 (max 14) 0.06005 s
36/2000 (max 14) 0.06131 s
37/2000 (max 14) 0.06233 s
38/2000 (max 14) 0.06411 s
kplex size 15
[1571 715 1904 1889 1842 1731 604 978 880 1742 1511 1051 996 474 374 ]
39/2000 (max 15) 0.06471 s
40/2000 (max 15) 0.06496 s
41/2000 (max 15) 0.06541 s
42/2000 (max 15) 0.06610 s
43/2000 (max 15) 0.06716 s
44/2000 (max 15) 0.06840 s
45/2000 (max 15) 0.06986 s
46/2000 (max 15) 0.07121 s
47/2000 (max 15) 0.07296 s
48/2000 (max 15) 0.07621 s
49/2000 (max 15) 0.07962 s
50/2000 (max 15) 0.08306 s
51/2000 (max 15) 0.08620 s
52/2000 (max 15) 0.08972 s
53/2000 (max 15) 0.09438 s
54/2000 (max 15) 0.10074 s
55/2000 (max 15) 0.10700 s
56/2000 (max 15) 0.11491 s
57/2000 (max 15) 0.12297 s
58/2000 (max 15) 0.13180 s
59/2000 (max 15) 0.14185 s
60/2000 (max 15) 0.15671 s
61/2000 (max 15) 0.16826 s
62/2000 (max 15) 0.18082 s
63/2000 (max 15) 0.19969 s
64/2000 (max 15) 0.21906 s
65/2000 (max 15) 0.23851 s
66/2000 (max 15) 0.25674 s
67/2000 (max 15) 0.27788 s
68/2000 (max 15) 0.30199 s
69/2000 (max 15) 0.32793 s
70/2000 (max 15) 0.35660 s
71/2000 (max 15) 0.39336 s
72/2000 (max 15) 0.43044 s
73/2000 (max 15) 0.46367 s
74/2000 (max 15) 0.50871 s
75/2000 (max 15) 0.55013 s
76/2000 (max 15) 0.59452 s
77/2000 (max 15) 0.64978 s
78/2000 (max 15) 0.70830 s
79/2000 (max 15) 0.76976 s
80/2000 (max 15) 0.83022 s
81/2000 (max 15) 0.91424 s
82/2000 (max 15) 0.98037 s
83/2000 (max 15) 1.04874 s
84/2000 (max 15) 1.12153 s
85/2000 (max 15) 1.20207 s
86/2000 (max 15) 1.28756 s
87/2000 (max 15) 1.38230 s
88/2000 (max 15) 1.47133 s
89/2000 (max 15) 1.58597 s
90/2000 (max 15) 1.69832 s
91/2000 (max 15) 1.81118 s
92/2000 (max 15) 1.91466 s
93/2000 (max 15) 2.06366 s
94/2000 (max 15) 2.21374 s
95/2000 (max 15) 2.36627 s
96/2000 (max 15) 2.54015 s
97/2000 (max 15) 2.72734 s
98/2000 (max 15) 2.89025 s
99/2000 (max 15) 3.07135 s
100/2000 (max 15) 3.23757 s
101/2000 (max 15) 3.41925 s
102/2000 (max 15) 3.62251 s
103/2000 (max 15) 3.81392 s
104/2000 (max 15) 4.06759 s
105/2000 (max 15) 4.28234 s
106/2000 (max 15) 4.53928 s
107/2000 (max 15) 4.81399 s
108/2000 (max 15) 5.10330 s
109/2000 (max 15) 5.39425 s
110/2000 (max 15) 5.72793 s
111/2000 (max 15) 6.04892 s
112/2000 (max 15) 6.45430 s
113/2000 (max 15) 6.76001 s
114/2000 (max 15) 7.17338 s
115/2000 (max 15) 7.52568 s
116/2000 (max 15) 7.92917 s
117/2000 (max 15) 8.42686 s
118/2000 (max 15) 8.88853 s
119/2000 (max 15) 9.35192 s
120/2000 (max 15) 9.84568 s
121/2000 (max 15) 10.35637 s
122/2000 (max 15) 10.88195 s
123/2000 (max 15) 11.45960 s
124/2000 (max 15) 12.03082 s
125/2000 (max 15) 12.56121 s
126/2000 (max 15) 13.17603 s
127/2000 (max 15) 13.91866 s
128/2000 (max 15) 14.73897 s
129/2000 (max 15) 15.56083 s
130/2000 (max 15) 16.27409 s
131/2000 (max 15) 16.98311 s
132/2000 (max 15) 17.82834 s
133/2000 (max 15) 18.75022 s
134/2000 (max 15) 19.61886 s
135/2000 (max 15) 20.68913 s
136/2000 (max 15) 21.67933 s
137/2000 (max 15) 22.79388 s
138/2000 (max 15) 23.91370 s
139/2000 (max 15) 25.25375 s
140/2000 (max 15) 26.44450 s
141/2000 (max 15) 27.74299 s
142/2000 (max 15) 29.02624 s
143/2000 (max 15) 30.37215 s
kplex size 16
[817 618 440 964 741 1275 1841 1629 1802 604 244 1287 880 996 376 209 ]
144/2000 (max 16) 30.64127 s
145/2000 (max 16) 30.70452 s
146/2000 (max 16) 30.87374 s
147/2000 (max 16) 31.11463 s
148/2000 (max 16) 31.35953 s
149/2000 (max 16) 31.65278 s
150/2000 (max 16) 31.98529 s
151/2000 (max 16) 32.50204 s
152/2000 (max 16) 32.89244 s
153/2000 (max 16) 33.24028 s
154/2000 (max 16) 34.05056 s
155/2000 (max 16) 34.62134 s
156/2000 (max 16) 35.35957 s
157/2000 (max 16) 36.03657 s
158/2000 (max 16) 37.02344 s
159/2000 (max 16) 37.95045 s
160/2000 (max 16) 39.07770 s
161/2000 (max 16) 40.14477 s
162/2000 (max 16) 40.98403 s
163/2000 (max 16) 42.16603 s
164/2000 (max 16) 43.43143 s
165/2000 (max 16) 44.56078 s
166/2000 (max 16) 46.01731 s
167/2000 (max 16) 47.65234 s
168/2000 (max 16) 49.33958 s
169/2000 (max 16) 51.04270 s
170/2000 (max 16) 52.80171 s
171/2000 (max 16) 54.65579 s
172/2000 (max 16) 57.01012 s
173/2000 (max 16) 58.68749 s
174/2000 (max 16) 61.39793 s
175/2000 (max 16) 64.05100 s
176/2000 (max 16) 66.50223 s
177/2000 (max 16) 68.54264 s
178/2000 (max 16) 70.83392 s
179/2000 (max 16) 73.43188 s
180/2000 (max 16) 76.14205 s
181/2000 (max 16) 79.34323 s
182/2000 (max 16) 81.95612 s
183/2000 (max 16) 85.51144 s
184/2000 (max 16) 88.86873 s
185/2000 (max 16) 92.02856 s
186/2000 (max 16) 95.49854 s
187/2000 (max 16) 99.79690 s
188/2000 (max 16) 103.62175 s
189/2000 (max 16) 107.75910 s
190/2000 (max 16) 111.60443 s
191/2000 (max 16) 116.38634 s
192/2000 (max 16) 121.03962 s
193/2000 (max 16) 125.63816 s
194/2000 (max 16) 131.09100 s
195/2000 (max 16) 136.13736 s
196/2000 (max 16) 141.48271 s
197/2000 (max 16) 146.86342 s
198/2000 (max 16) 151.76946 s
199/2000 (max 16) 157.17854 s
200/2000 (max 16) 163.37128 s
201/2000 (max 16) 168.70186 s
202/2000 (max 16) 174.89888 s
203/2000 (max 16) 180.93807 s
204/2000 (max 16) 186.75234 s
205/2000 (max 16) 193.10537 s
206/2000 (max 16) 200.52793 s
207/2000 (max 16) 207.56268 s
208/2000 (max 16) 215.18746 s
209/2000 (max 16) 223.89137 s
210/2000 (max 16) 231.49634 s
211/2000 (max 16) 240.63722 s
212/2000 (max 16) 249.46738 s
213/2000 (max 16) 258.04589 s
214/2000 (max 16) 267.03051 s
215/2000 (max 16) 275.48804 s
216/2000 (max 16) 285.67696 s
217/2000 (max 16) 295.43113 s
218/2000 (max 16) 306.31658 s
219/2000 (max 16) 317.19579 s
220/2000 (max 16) 328.02329 s
221/2000 (max 16) 338.73305 s
222/2000 (max 16) 351.24684 s
223/2000 (max 16) 364.79591 s
224/2000 (max 16) 377.55214 s
225/2000 (max 16) 390.57696 s
226/2000 (max 16) 402.53617 s
227/2000 (max 16) 415.66202 s
228/2000 (max 16) 429.39776 s
229/2000 (max 16) 442.34938 s
230/2000 (max 16) 456.44214 s
231/2000 (max 16) 471.08634 s
232/2000 (max 16) 483.76817 s
233/2000 (max 16) 499.36172 s
kplex size 17
[882 295 411 1777 1797 1390 1916 69 788 440 1967 938 994 1662 1952 1629 1731 ]
234/2000 (max 17) 514.65472 s
235/2000 (max 17) 515.24446 s
236/2000 (max 17) 516.27838 s
237/2000 (max 17) 517.53249 s
238/2000 (max 17) 519.69229 s
239/2000 (max 17) 521.44352 s
240/2000 (max 17) 523.31053 s
241/2000 (max 17) 527.22019 s
242/2000 (max 17) 530.68544 s
243/2000 (max 17) 534.22758 s
244/2000 (max 17) 537.58724 s
245/2000 (max 17) 542.64978 s
246/2000 (max 17) 548.29006 s
247/2000 (max 17) 554.83503 s
248/2000 (max 17) 561.56605 s
249/2000 (max 17) 567.83698 s
250/2000 (max 17) 572.69964 s
251/2000 (max 17) 579.23289 s
252/2000 (max 17) 589.50439 s
253/2000 (max 17) 599.79981 s
254/2000 (max 17) 607.85222 s
255/2000 (max 17) 618.11405 s
256/2000 (max 17) 627.73557 s
257/2000 (max 17) 639.07633 s
258/2000 (max 17) 648.85637 s
259/2000 (max 17) 660.35049 s
260/2000 (max 17) 671.86623 s
261/2000 (max 17) 684.90661 s
262/2000 (max 17) 699.31648 s
263/2000 (max 17) 713.84047 s
264/2000 (max 17) 728.18200 s
265/2000 (max 17) 744.27504 s
266/2000 (max 17) 757.39067 s
267/2000 (max 17) 776.68828 s
268/2000 (max 17) 793.79552 s
269/2000 (max 17) 810.50802 s
270/2000 (max 17) 831.12285 s
271/2000 (max 17) 852.35957 s
272/2000 (max 17) 871.87382 s
273/2000 (max 17) 893.36675 s
274/2000 (max 17) 914.00145 s
275/2000 (max 17) 939.50686 s
276/2000 (max 17) 962.06030 s
277/2000 (max 17) 987.05924 s
278/2000 (max 17) 1007.92072 s
279/2000 (max 17) 1033.33160 s
280/2000 (max 17) 1059.17005 s
281/2000 (max 17) 1088.30186 s
282/2000 (max 17) 1118.86450 s
283/2000 (max 17) 1148.99941 s
284/2000 (max 17) 1182.63715 s
285/2000 (max 17) 1213.60385 s
286/2000 (max 17) 1245.82149 s
287/2000 (max 17) 1275.40042 s
288/2000 (max 17) 1309.93308 s
289/2000 (max 17) 1346.15441 s
290/2000 (max 17) 1382.52667 s
291/2000 (max 17) 1412.66880 s
292/2000 (max 17) 1445.48032 s
293/2000 (max 17) 1483.33226 s
294/2000 (max 17) 1525.52303 s
295/2000 (max 17) 1566.76244 s
296/2000 (max 17) 1605.11371 s
297/2000 (max 17) 1641.36023 s
298/2000 (max 17) 1682.94630 s
299/2000 (max 17) 1721.20232 s
300/2000 (max 17) 1770.44182 s
301/2000 (max 17) 1821.37046 s
302/2000 (max 17) 1865.06303 s
303/2000 (max 17) 1915.03293 s
304/2000 (max 17) 1964.87873 s
305/2000 (max 17) 2021.56900 s
306/2000 (max 17) 2072.78680 s
307/2000 (max 17) 2132.84260 s
308/2000 (max 17) 2195.11006 s
309/2000 (max 17) 2256.78291 s
310/2000 (max 17) 2322.36165 s
311/2000 (max 17) 2383.47037 s
312/2000 (max 17) 2444.00939 s
313/2000 (max 17) 2511.94959 s
314/2000 (max 17) 2578.11910 s
315/2000 (max 17) 2650.66170 s
316/2000 (max 17) 2721.32073 s
317/2000 (max 17) 2794.27551 s
318/2000 (max 17) 2871.65677 s
319/2000 (max 17) 2944.13531 s
320/2000 (max 17) 3026.85225 s
321/2000 (max 17) 3102.24372 s
322/2000 (max 17) 3186.61689 s
323/2000 (max 17) 3267.03933 s
324/2000 (max 17) 3349.15038 s
325/2000 (max 17) 3428.36733 s
326/2000 (max 17) 3511.50327 s
TIMEOUT
best clique: 882 295 411 1777 1797 1390 1916 69 788 440 1967 938 994 1662 1952 1629 1731 
record          =          17
subp            =  8060028977
time            =  3600.00028
