timeout 3600 s
Graph with 400 vertices and 71820 edges density 0.900000
t = 143640, Enbr = 71820
pos[399] = 141 degree 333
pos[398] = 256 degree 335
pos[397] = 327 degree 335
pos[396] = 361 degree 336
pos[395] = 235 degree 336
pos[394] = 192 degree 335
pos[393] = 283 degree 335
pos[392] = 90 degree 334
pos[391] = 11 degree 333
pos[390] = 126 degree 333
pos[389] = 85 degree 332
pos[388] = 82 degree 331
pos[387] = 15 degree 331
pos[386] = 1 degree 331
pos[385] = 51 degree 331
pos[384] = 379 degree 331
pos[383] = 29 degree 330
pos[382] = 331 degree 330
pos[381] = 216 degree 329
pos[380] = 86 degree 328
pos[379] = 335 degree 328
pos[378] = 303 degree 327
pos[377] = 272 degree 326
pos[376] = 22 degree 325
pos[375] = 53 degree 325
pos[374] = 392 degree 325
pos[373] = 127 degree 324
pos[372] = 292 degree 324
pos[371] = 264 degree 323
pos[370] = 228 degree 322
pos[369] = 44 degree 321
pos[368] = 281 degree 321
pos[367] = 97 degree 320
pos[366] = 26 degree 319
pos[365] = 9 degree 318
pos[364] = 5 degree 317
pos[363] = 83 degree 317
pos[362] = 396 degree 317
pos[361] = 364 degree 316
pos[360] = 318 degree 315
pos[359] = 312 degree 314
pos[358] = 324 degree 314
pos[357] = 242 degree 313
pos[356] = 20 degree 312
pos[355] = 399 degree 312
pos[354] = 111 degree 311
pos[353] = 103 degree 310
pos[352] = 305 degree 310
pos[351] = 279 degree 309
pos[350] = 137 degree 308
pos[349] = 80 degree 307
pos[348] = 33 degree 306
pos[347] = 319 degree 306
pos[346] = 183 degree 305
pos[345] = 62 degree 304
pos[344] = 19 degree 303
pos[343] = 332 degree 303
pos[342] = 325 degree 302
pos[341] = 182 degree 301
pos[340] = 397 degree 301
pos[339] = 197 degree 300
pos[338] = 102 degree 299
pos[337] = 78 degree 298
pos[336] = 77 degree 297
pos[335] = 41 degree 296
pos[334] = 39 degree 295
pos[333] = 8 degree 294
pos[332] = 154 degree 294
pos[331] = 344 degree 294
pos[330] = 289 degree 293
pos[329] = 200 degree 292
pos[328] = 389 degree 292
pos[327] = 386 degree 291
pos[326] = 377 degree 290
pos[325] = 372 degree 289
pos[324] = 140 degree 288
pos[323] = 130 degree 287
pos[322] = 107 degree 286
pos[321] = 259 degree 286
pos[320] = 258 degree 285
pos[319] = 231 degree 284
pos[318] = 173 degree 283
pos[317] = 109 degree 282
pos[316] = 12 degree 281
pos[315] = 348 degree 281
pos[314] = 286 degree 280
pos[313] = 246 degree 279
pos[312] = 163 degree 278
pos[311] = 38 degree 277
pos[310] = 328 degree 277
pos[309] = 271 degree 276
pos[308] = 184 degree 275
pos[307] = 122 degree 274
pos[306] = 108 degree 273
pos[305] = 32 degree 272
pos[304] = 373 degree 272
pos[303] = 304 degree 271
pos[302] = 253 degree 270
pos[301] = 214 degree 269
pos[300] = 25 degree 268
pos[299] = 368 degree 268
pos[298] = 145 degree 267
pos[297] = 54 degree 266
pos[296] = 10 degree 265
pos[295] = 6 degree 264
pos[294] = 274 degree 264
pos[293] = 250 degree 263
pos[292] = 115 degree 262
pos[291] = 94 degree 261
pos[290] = 59 degree 260
pos[289] = 390 degree 260
pos[288] = 382 degree 259
pos[287] = 257 degree 258
pos[286] = 229 degree 257
pos[285] = 170 degree 256
pos[284] = 117 degree 255
pos[283] = 55 degree 254
pos[282] = 371 degree 254
pos[281] = 306 degree 253
pos[280] = 267 degree 252
pos[279] = 220 degree 251
pos[278] = 196 degree 250
pos[277] = 164 degree 249
pos[276] = 113 degree 248
pos[275] = 104 degree 247
pos[274] = 98 degree 246
pos[273] = 87 degree 245
pos[272] = 298 degree 245
pos[271] = 280 degree 244
pos[270] = 215 degree 243
pos[269] = 171 degree 242
pos[268] = 93 degree 241
pos[267] = 383 degree 241
pos[266] = 343 degree 240
pos[265] = 309 degree 239
pos[264] = 284 degree 238
pos[263] = 255 degree 237
pos[262] = 207 degree 236
pos[261] = 195 degree 235
pos[260] = 148 degree 234
pos[259] = 146 degree 233
pos[258] = 128 degree 232
pos[257] = 91 degree 231
pos[256] = 4 degree 230
pos[255] = 354 degree 230
pos[254] = 321 degree 229
pos[253] = 316 degree 228
pos[252] = 287 degree 227
pos[251] = 270 degree 226
pos[250] = 201 degree 225
pos[249] = 157 degree 224
pos[248] = 124 degree 223
pos[247] = 99 degree 222
pos[246] = 42 degree 221
pos[245] = 391 degree 221
pos[244] = 345 degree 220
pos[243] = 313 degree 219
pos[242] = 266 degree 218
pos[241] = 230 degree 217
pos[240] = 213 degree 216
pos[239] = 169 degree 215
pos[238] = 0 degree 214
pos[237] = 395 degree 214
pos[236] = 388 degree 213
pos[235] = 381 degree 212
pos[234] = 339 degree 211
pos[233] = 236 degree 210
pos[232] = 138 degree 209
pos[231] = 50 degree 208
pos[230] = 296 degree 208
pos[229] = 285 degree 207
pos[228] = 262 degree 206
pos[227] = 251 degree 205
pos[226] = 240 degree 204
pos[225] = 217 degree 203
pos[224] = 206 degree 202
pos[223] = 118 degree 201
pos[222] = 43 degree 200
pos[221] = 23 degree 199
pos[220] = 398 degree 199
pos[219] = 393 degree 198
pos[218] = 366 degree 197
pos[217] = 308 degree 196
pos[216] = 243 degree 195
pos[215] = 205 degree 194
pos[214] = 190 degree 193
pos[213] = 153 degree 192
pos[212] = 46 degree 191
pos[211] = 40 degree 190
pos[210] = 365 degree 190
pos[209] = 363 degree 189
pos[208] = 358 degree 188
pos[207] = 355 degree 187
pos[206] = 273 degree 186
pos[205] = 269 degree 185
pos[204] = 194 degree 184
pos[203] = 175 degree 183
pos[202] = 92 degree 182
pos[201] = 74 degree 181
pos[200] = 72 degree 180
pos[199] = 352 degree 180
pos[198] = 307 degree 179
pos[197] = 300 degree 178
pos[196] = 225 degree 177
pos[195] = 210 degree 176
pos[194] = 204 degree 175
pos[193] = 133 degree 174
pos[192] = 114 degree 173
pos[191] = 67 degree 172
pos[190] = 387 degree 172
pos[189] = 370 degree 171
pos[188] = 276 degree 170
pos[187] = 158 degree 169
pos[186] = 152 degree 168
pos[185] = 149 degree 167
pos[184] = 100 degree 166
pos[183] = 326 degree 166
pos[182] = 297 degree 165
pos[181] = 290 degree 164
pos[180] = 260 degree 163
pos[179] = 232 degree 162
pos[178] = 222 degree 161
pos[177] = 174 degree 160
pos[176] = 136 degree 159
pos[175] = 349 degree 159
pos[174] = 314 degree 158
pos[173] = 302 degree 157
pos[172] = 294 degree 156
pos[171] = 159 degree 155
pos[170] = 322 degree 155
pos[169] = 193 degree 154
pos[168] = 110 degree 153
pos[167] = 351 degree 153
pos[166] = 135 degree 152
pos[165] = 79 degree 151
pos[164] = 333 degree 151
pos[163] = 275 degree 150
pos[162] = 247 degree 149
pos[161] = 233 degree 148
pos[160] = 191 degree 147
pos[159] = 282 degree 147
pos[158] = 223 degree 146
pos[157] = 218 degree 145
pos[156] = 209 degree 144
pos[155] = 167 degree 143
pos[154] = 71 degree 142
pos[153] = 24 degree 141
pos[152] = 160 degree 141
pos[151] = 139 degree 140
pos[150] = 106 degree 139
pos[149] = 18 degree 138
pos[148] = 208 degree 138
pos[147] = 73 degree 137
pos[146] = 31 degree 136
pos[145] = 367 degree 136
pos[144] = 186 degree 135
pos[143] = 89 degree 134
pos[142] = 237 degree 134
pos[141] = 226 degree 133
pos[140] = 203 degree 132
pos[139] = 27 degree 131
pos[138] = 340 degree 131
pos[137] = 293 degree 130
pos[136] = 357 degree 130
pos[135] = 188 degree 129
pos[134] = 151 degree 128
pos[133] = 123 degree 127
pos[132] = 116 degree 126
pos[131] = 105 degree 125
pos[130] = 380 degree 126
pos[129] = 378 degree 125
pos[128] = 356 degree 124
pos[127] = 346 degree 123
pos[126] = 268 degree 122
pos[125] = 265 degree 121
pos[124] = 244 degree 120
pos[123] = 394 degree 120
pos[122] = 385 degree 119
pos[121] = 384 degree 118
pos[120] = 376 degree 117
pos[119] = 374 degree 116
pos[118] = 369 degree 115
pos[117] = 362 degree 114
pos[116] = 360 degree 113
pos[115] = 353 degree 112
pos[114] = 350 degree 111
pos[113] = 341 degree 110
pos[112] = 338 degree 109
pos[111] = 337 degree 108
pos[110] = 334 degree 107
pos[109] = 330 degree 106
pos[108] = 329 degree 105
pos[107] = 317 degree 104
pos[106] = 315 degree 103
pos[105] = 288 degree 102
pos[104] = 277 degree 101
pos[103] = 263 degree 100
pos[102] = 238 degree 99
pos[101] = 221 degree 98
pos[100] = 219 degree 97
pos[99] = 179 degree 96
pos[98] = 168 degree 95
pos[97] = 119 degree 94
pos[96] = 95 degree 93
pos[95] = 375 degree 93
pos[94] = 347 degree 92
pos[93] = 342 degree 91
pos[92] = 336 degree 90
pos[91] = 323 degree 89
pos[90] = 320 degree 88
pos[89] = 310 degree 87
pos[88] = 301 degree 86
pos[87] = 295 degree 85
pos[86] = 278 degree 84
pos[85] = 254 degree 83
pos[84] = 252 degree 82
pos[83] = 249 degree 81
pos[82] = 248 degree 80
pos[81] = 241 degree 79
pos[80] = 224 degree 78
pos[79] = 212 degree 77
pos[78] = 211 degree 76
pos[77] = 202 degree 75
pos[76] = 189 degree 74
pos[75] = 181 degree 73
pos[74] = 180 degree 72
pos[73] = 177 degree 71
pos[72] = 165 degree 70
pos[71] = 162 degree 69
pos[70] = 144 degree 68
pos[69] = 143 degree 67
pos[68] = 142 degree 66
pos[67] = 112 degree 65
pos[66] = 101 degree 64
pos[65] = 76 degree 63
pos[64] = 36 degree 62
pos[63] = 359 degree 62
pos[62] = 311 degree 61
pos[61] = 299 degree 60
pos[60] = 291 degree 59
pos[59] = 261 degree 58
pos[58] = 245 degree 57
pos[57] = 234 degree 56
pos[56] = 227 degree 55
pos[55] = 199 degree 54
pos[54] = 198 degree 53
pos[53] = 178 degree 52
pos[52] = 176 degree 51
pos[51] = 166 degree 50
pos[50] = 161 degree 49
pos[49] = 156 degree 48
pos[48] = 150 degree 47
pos[47] = 134 degree 46
pos[46] = 132 degree 45
pos[45] = 131 degree 44
pos[44] = 129 degree 43
pos[43] = 125 degree 42
pos[42] = 121 degree 41
pos[41] = 81 degree 40
pos[40] = 75 degree 39
pos[39] = 68 degree 38
pos[38] = 65 degree 37
pos[37] = 63 degree 36
pos[36] = 61 degree 35
pos[35] = 58 degree 34
pos[34] = 52 degree 33
pos[33] = 30 degree 32
pos[32] = 28 degree 31
pos[31] = 239 degree 31
pos[30] = 187 degree 30
pos[29] = 185 degree 29
pos[28] = 172 degree 28
pos[27] = 155 degree 27
pos[26] = 147 degree 26
pos[25] = 120 degree 25
pos[24] = 96 degree 24
pos[23] = 88 degree 23
pos[22] = 84 degree 22
pos[21] = 70 degree 21
pos[20] = 69 degree 20
pos[19] = 66 degree 19
pos[18] = 64 degree 18
pos[17] = 60 degree 17
pos[16] = 57 degree 16
pos[15] = 56 degree 15
pos[14] = 49 degree 14
pos[13] = 48 degree 13
pos[12] = 47 degree 12
pos[11] = 45 degree 11
pos[10] = 37 degree 10
pos[9] = 35 degree 9
pos[8] = 34 degree 8
pos[7] = 21 degree 7
pos[6] = 17 degree 6
pos[5] = 16 degree 5
pos[4] = 14 degree 4
pos[3] = 13 degree 3
pos[2] = 7 degree 2
pos[1] = 3 degree 1
pos[0] = 2 degree 0
kplex size 1
[2 ]
1/400 (max 1) 0.00238 s
kplex size 2
[3 2 ]
2/400 (max 2) 0.00240 s
kplex size 3
[7 3 2 ]
3/400 (max 3) 0.00240 s
kplex size 4
[13 7 3 2 ]
4/400 (max 4) 0.00240 s
kplex size 5
[14 13 7 3 2 ]
5/400 (max 5) 0.00241 s
kplex size 6
[16 14 13 7 3 2 ]
6/400 (max 6) 0.00241 s
kplex size 7
[17 16 14 13 7 3 2 ]
7/400 (max 7) 0.00242 s
kplex size 8
[21 17 16 14 13 7 3 2 ]
8/400 (max 8) 0.00243 s
kplex size 9
[34 21 17 16 14 13 7 3 2 ]
9/400 (max 9) 0.00243 s
kplex size 10
[35 34 21 17 16 14 13 7 3 2 ]
10/400 (max 10) 0.00244 s
kplex size 11
[37 35 34 21 17 16 14 13 7 3 2 ]
11/400 (max 11) 0.00245 s
kplex size 12
[45 37 35 34 21 17 16 14 13 7 3 2 ]
12/400 (max 12) 0.00245 s
kplex size 13
[47 45 37 35 34 21 17 16 14 13 7 3 2 ]
13/400 (max 13) 0.00246 s
kplex size 14
[48 47 45 37 35 34 21 17 16 14 13 7 3 2 ]
14/400 (max 14) 0.00247 s
kplex size 15
[49 48 47 45 37 35 34 21 17 16 14 13 7 3 2 ]
15/400 (max 15) 0.00248 s
kplex size 16
[56 49 48 47 45 37 35 34 21 17 16 14 13 7 3 2 ]
16/400 (max 16) 0.00249 s
kplex size 17
[57 56 49 48 47 45 37 35 34 21 17 16 14 13 7 3 2 ]
17/400 (max 17) 0.00250 s
kplex size 18
[60 57 56 49 48 47 45 37 35 34 21 17 16 14 13 7 3 2 ]
18/400 (max 18) 0.00251 s
kplex size 19
[64 60 57 56 49 48 47 45 37 35 34 21 17 16 14 13 7 3 2 ]
19/400 (max 19) 0.00252 s
kplex size 20
[66 64 60 57 56 49 48 47 45 37 35 34 21 17 16 14 13 7 3 2 ]
20/400 (max 20) 0.00253 s
kplex size 21
[69 66 64 60 57 56 49 48 47 45 37 35 34 21 17 16 14 13 7 3 2 ]
21/400 (max 21) 0.00255 s
kplex size 22
[70 69 66 64 60 57 56 49 48 47 45 37 35 34 21 17 16 14 13 7 3 2 ]
22/400 (max 22) 0.00256 s
kplex size 23
[84 70 69 66 64 60 57 56 49 48 47 45 37 35 34 21 17 16 14 13 7 3 2 ]
23/400 (max 23) 0.00257 s
kplex size 24
[88 84 70 69 66 64 60 57 56 49 48 47 45 37 35 34 21 17 16 14 13 7 3 2 ]
24/400 (max 24) 0.00259 s
kplex size 25
[96 88 84 70 69 66 64 60 57 56 49 48 47 45 37 35 34 21 17 16 14 13 7 3 2 ]
25/400 (max 25) 0.00261 s
kplex size 26
[120 96 88 84 70 69 66 64 60 57 56 49 48 47 45 37 35 34 21 17 16 14 13 7 3 2 ]
26/400 (max 26) 0.00262 s
kplex size 27
[147 120 96 88 84 70 69 66 64 60 57 56 49 48 47 45 37 35 34 21 17 16 14 13 7 3 2 ]
27/400 (max 27) 0.00265 s
kplex size 28
[155 147 120 96 88 84 70 69 66 64 60 57 56 49 48 47 45 37 35 34 21 17 16 14 13 7 3 2 ]
28/400 (max 28) 0.00267 s
kplex size 29
[172 155 147 120 96 88 84 70 69 66 64 60 57 56 49 48 47 45 37 35 34 21 17 16 14 13 7 3 2 ]
29/400 (max 29) 0.00269 s
kplex size 30
[185 172 155 147 120 96 88 84 70 69 66 64 60 57 56 49 48 47 45 37 35 34 21 17 16 14 13 7 3 2 ]
30/400 (max 30) 0.00271 s
kplex size 31
[187 185 172 155 147 120 96 88 84 70 69 66 64 60 57 56 49 48 47 45 37 35 34 21 17 16 14 13 7 3 2 ]
31/400 (max 31) 0.00273 s
kplex size 32
[239 187 185 172 155 147 120 96 88 84 70 69 66 64 60 57 56 49 48 47 45 37 35 34 21 17 16 14 13 7 3 2 ]
32/400 (max 32) 0.00275 s
kplex size 33
[28 239 187 185 172 155 147 120 96 88 84 70 69 66 64 60 57 56 49 48 47 45 37 35 34 21 17 16 14 13 7 3 2 ]
33/400 (max 33) 0.00277 s
kplex size 34
[30 28 239 187 185 172 155 147 120 96 88 84 70 69 66 64 60 57 56 49 48 47 45 37 35 34 21 17 16 14 13 7 3 2 ]
34/400 (max 34) 0.00280 s
kplex size 35
[52 30 28 239 187 185 172 155 147 120 96 88 84 70 69 66 64 60 57 56 49 48 47 45 37 35 34 21 17 16 14 13 7 3 2 ]
35/400 (max 35) 0.00282 s
kplex size 36
[58 52 30 28 239 187 185 172 155 147 120 96 88 84 70 69 66 64 60 57 56 49 48 47 45 37 35 34 21 17 16 14 13 7 3 2 ]
36/400 (max 36) 0.00284 s
kplex size 37
[61 58 52 30 28 239 187 185 172 155 147 120 96 88 84 70 69 66 64 60 57 56 49 48 47 45 37 35 34 21 17 16 14 13 7 3 2 ]
37/400 (max 37) 0.00287 s
kplex size 38
[63 61 58 52 30 28 239 187 185 172 155 147 120 96 88 84 70 69 66 64 60 57 56 49 48 47 45 37 35 34 21 17 16 14 13 7 3 2 ]
38/400 (max 38) 0.00290 s
kplex size 39
[65 63 61 58 52 30 28 239 187 185 172 155 147 120 96 88 84 70 69 66 64 60 57 56 49 48 47 45 37 35 34 21 17 16 14 13 7 3 2 ]
39/400 (max 39) 0.00293 s
kplex size 40
[68 65 63 61 58 52 30 28 239 187 185 172 155 147 120 96 88 84 70 69 66 64 60 57 56 49 48 47 45 37 35 34 21 17 16 14 13 7 3 2 ]
40/400 (max 40) 0.00296 s
kplex size 41
[75 68 65 63 61 58 52 30 28 239 187 185 172 155 147 120 96 88 84 70 69 66 64 60 57 56 49 48 47 45 37 35 34 21 17 16 14 13 7 3 2 ]
41/400 (max 41) 0.00300 s
kplex size 42
[81 75 68 65 63 61 58 52 30 28 239 187 185 172 155 147 120 96 88 84 70 69 66 64 60 57 56 49 48 47 45 37 35 34 21 17 16 14 13 7 3 2 ]
42/400 (max 42) 0.00303 s
kplex size 43
[121 81 75 68 65 63 61 58 52 30 28 239 187 185 172 155 147 120 96 88 84 70 69 66 64 60 57 56 49 48 47 45 37 35 34 21 17 16 14 13 7 3 2 ]
43/400 (max 43) 0.00307 s
kplex size 44
[125 121 81 75 68 65 63 61 58 52 30 28 239 187 185 172 155 147 120 96 88 84 70 69 66 64 60 57 56 49 48 47 45 37 35 34 21 17 16 14 13 7 3 2 ]
44/400 (max 44) 0.00311 s
kplex size 45
[129 125 121 81 75 68 65 63 61 58 52 30 28 239 187 185 172 155 147 120 96 88 84 70 69 66 64 60 57 56 49 48 47 45 37 35 34 21 17 16 14 13 7 3 2 ]
45/400 (max 45) 0.00314 s
kplex size 46
[131 129 125 121 81 75 68 65 63 61 58 52 30 28 239 187 185 172 155 147 120 96 88 84 70 69 66 64 60 57 56 49 48 47 45 37 35 34 21 17 16 14 13 7 3 2 ]
46/400 (max 46) 0.00318 s
kplex size 47
[132 131 129 125 121 81 75 68 65 63 61 58 52 30 28 239 187 185 172 155 147 120 96 88 84 70 69 66 64 60 57 56 49 48 47 45 37 35 34 21 17 16 14 13 7 3 2 ]
47/400 (max 47) 0.00323 s
kplex size 48
[134 132 131 129 125 121 81 75 68 65 63 61 58 52 30 28 239 187 185 172 155 147 120 96 88 84 70 69 66 64 60 57 56 49 48 47 45 37 35 34 21 17 16 14 13 7 3 2 ]
48/400 (max 48) 0.00328 s
kplex size 49
[150 134 132 131 129 125 121 81 75 68 65 63 61 58 52 30 28 239 187 185 172 155 147 120 96 88 84 70 69 66 64 60 57 56 49 48 47 45 37 35 34 21 17 16 14 13 7 3 2 ]
49/400 (max 49) 0.00332 s
kplex size 50
[156 150 134 132 131 129 125 121 81 75 68 65 63 61 58 52 30 28 239 187 185 172 155 147 120 96 88 84 70 69 66 64 60 57 56 49 48 47 45 37 35 34 21 17 16 14 13 7 3 2 ]
50/400 (max 50) 0.00335 s
kplex size 51
[161 156 150 134 132 131 129 125 121 81 75 68 65 63 61 58 52 30 28 239 187 185 172 155 147 120 96 88 84 70 69 66 64 60 57 56 49 48 47 45 37 35 34 21 17 16 14 13 7 3 2 ]
51/400 (max 51) 0.00338 s
kplex size 52
[166 161 156 150 134 132 131 129 125 121 81 75 68 65 63 61 58 52 30 28 239 187 185 172 155 147 120 96 88 84 70 69 66 64 60 57 56 49 48 47 45 37 35 34 21 17 16 14 13 7 3 2 ]
52/400 (max 52) 0.00342 s
kplex size 53
[176 166 161 156 150 134 132 131 129 125 121 81 75 68 65 63 61 58 52 30 28 239 187 185 172 155 147 120 96 88 84 70 69 66 64 60 57 56 49 48 47 45 37 35 34 21 17 16 14 13 7 3 2 ]
53/400 (max 53) 0.00346 s
kplex size 54
[178 176 166 161 156 150 134 132 131 129 125 121 81 75 68 65 63 61 58 52 30 28 239 187 185 172 155 147 120 96 88 84 70 69 66 64 60 57 56 49 48 47 45 37 35 34 21 17 16 14 13 7 3 2 ]
54/400 (max 54) 0.00349 s
kplex size 55
[198 178 176 166 161 156 150 134 132 131 129 125 121 81 75 68 65 63 61 58 52 30 28 239 187 185 172 155 147 120 96 88 84 70 69 66 64 60 57 56 49 48 47 45 37 35 34 21 17 16 14 13 7 3 2 ]
55/400 (max 55) 0.00352 s
kplex size 56
[199 198 178 176 166 161 156 150 134 132 131 129 125 121 81 75 68 65 63 61 58 52 30 28 239 187 185 172 155 147 120 96 88 84 70 69 66 64 60 57 56 49 48 47 45 37 35 34 21 17 16 14 13 7 3 2 ]
56/400 (max 56) 0.00356 s
kplex size 57
[227 199 198 178 176 166 161 156 150 134 132 131 129 125 121 81 75 68 65 63 61 58 52 30 28 239 187 185 172 155 147 120 96 88 84 70 69 66 64 60 57 56 49 48 47 45 37 35 34 21 17 16 14 13 7 3 2 ]
57/400 (max 57) 0.00360 s
kplex size 58
[234 227 199 198 178 176 166 161 156 150 134 132 131 129 125 121 81 75 68 65 63 61 58 52 30 28 239 187 185 172 155 147 120 96 88 84 70 69 66 64 60 57 56 49 48 47 45 37 35 34 21 17 16 14 13 7 3 2 ]
58/400 (max 58) 0.00363 s
kplex size 59
[245 234 227 199 198 178 176 166 161 156 150 134 132 131 129 125 121 81 75 68 65 63 61 58 52 30 28 239 187 185 172 155 147 120 96 88 84 70 69 66 64 60 57 56 49 48 47 45 37 35 34 21 17 16 14 13 7 3 2 ]
59/400 (max 59) 0.00367 s
kplex size 60
[261 245 234 227 199 198 178 176 166 161 156 150 134 132 131 129 125 121 81 75 68 65 63 61 58 52 30 28 239 187 185 172 155 147 120 96 88 84 70 69 66 64 60 57 56 49 48 47 45 37 35 34 21 17 16 14 13 7 3 2 ]
60/400 (max 60) 0.00371 s
kplex size 61
[291 261 245 234 227 199 198 178 176 166 161 156 150 134 132 131 129 125 121 81 75 68 65 63 61 58 52 30 28 239 187 185 172 155 147 120 96 88 84 70 69 66 64 60 57 56 49 48 47 45 37 35 34 21 17 16 14 13 7 3 2 ]
61/400 (max 61) 0.00376 s
kplex size 62
[299 291 261 245 234 227 199 198 178 176 166 161 156 150 134 132 131 129 125 121 81 75 68 65 63 61 58 52 30 28 239 187 185 172 155 147 120 96 88 84 70 69 66 64 60 57 56 49 48 47 45 37 35 34 21 17 16 14 13 7 3 2 ]
62/400 (max 62) 0.00380 s
kplex size 63
[311 299 291 261 245 234 227 199 198 178 176 166 161 156 150 134 132 131 129 125 121 81 75 68 65 63 61 58 52 30 28 239 187 185 172 155 147 120 96 88 84 70 69 66 64 60 57 56 49 48 47 45 37 35 34 21 17 16 14 13 7 3 2 ]
63/400 (max 63) 0.00384 s
kplex size 64
[359 311 299 291 261 245 234 227 199 198 178 176 166 161 156 150 134 132 131 129 125 121 81 75 68 65 63 61 58 52 30 28 239 187 185 172 155 147 120 96 88 84 70 69 66 64 60 57 56 49 48 47 45 37 35 34 21 17 16 14 13 7 3 2 ]
64/400 (max 64) 0.00389 s
65/400 (max 64) 0.00390 s
66/400 (max 64) 0.00404 s
67/400 (max 64) 0.00507 s
68/400 (max 64) 0.01158 s
69/400 (max 64) 0.05535 s
70/400 (max 64) 0.21692 s
71/400 (max 64) 0.90589 s
72/400 (max 64) 2.96333 s
73/400 (max 64) 8.73136 s
74/400 (max 64) 24.60987 s
75/400 (max 64) 67.18385 s
76/400 (max 64) 178.31093 s
77/400 (max 64) 718.70068 s
78/400 (max 64) 2634.74332 s
TIMEOUT
best clique: 359 311 299 291 261 245 234 227 199 198 178 176 166 161 156 150 134 132 131 129 125 121 81 75 68 65 63 61 58 52 30 28 239 187 185 172 155 147 120 96 88 84 70 69 66 64 60 57 56 49 48 47 45 37 35 34 21 17 16 14 13 7 3 2 
record          =          64
subp            =  7935689762
time            =  3600.00044
