timeout 3600 s
Graph with 64 vertices and 1824 edges density 0.904762
t = 3648, Enbr = 1824
pos[63] = 63 degree 57
pos[62] = 60 degree 56
pos[61] = 58 degree 55
pos[60] = 57 degree 54
pos[59] = 54 degree 53
pos[58] = 53 degree 52
pos[57] = 51 degree 51
pos[56] = 48 degree 50
pos[55] = 46 degree 49
pos[54] = 45 degree 48
pos[53] = 43 degree 47
pos[52] = 40 degree 46
pos[51] = 39 degree 45
pos[50] = 36 degree 44
pos[49] = 34 degree 43
pos[48] = 33 degree 42
pos[47] = 30 degree 41
pos[46] = 29 degree 40
pos[45] = 27 degree 39
pos[44] = 24 degree 38
pos[43] = 23 degree 37
pos[42] = 20 degree 36
pos[41] = 18 degree 35
pos[40] = 17 degree 34
pos[39] = 15 degree 33
pos[38] = 12 degree 32
pos[37] = 10 degree 31
pos[36] = 9 degree 30
pos[35] = 6 degree 29
pos[34] = 5 degree 28
pos[33] = 3 degree 27
pos[32] = 0 degree 26
pos[31] = 62 degree 31
pos[30] = 61 degree 30
pos[29] = 59 degree 29
pos[28] = 56 degree 28
pos[27] = 55 degree 27
pos[26] = 52 degree 26
pos[25] = 50 degree 25
pos[24] = 49 degree 24
pos[23] = 47 degree 23
pos[22] = 44 degree 22
pos[21] = 42 degree 21
pos[20] = 41 degree 20
pos[19] = 38 degree 19
pos[18] = 37 degree 18
pos[17] = 35 degree 17
pos[16] = 32 degree 16
pos[15] = 31 degree 15
pos[14] = 28 degree 14
pos[13] = 26 degree 13
pos[12] = 25 degree 12
pos[11] = 22 degree 11
pos[10] = 21 degree 10
pos[9] = 19 degree 9
pos[8] = 16 degree 8
pos[7] = 14 degree 7
pos[6] = 13 degree 6
pos[5] = 11 degree 5
pos[4] = 8 degree 4
pos[3] = 7 degree 3
pos[2] = 4 degree 2
pos[1] = 2 degree 1
pos[0] = 1 degree 0
kplex size 1
[1 ]
1/64 (max 1) 0.00008 s
kplex size 2
[2 1 ]
2/64 (max 2) 0.00009 s
kplex size 3
[4 2 1 ]
3/64 (max 3) 0.00009 s
kplex size 4
[7 4 2 1 ]
4/64 (max 4) 0.00009 s
kplex size 5
[8 7 4 2 1 ]
5/64 (max 5) 0.00010 s
kplex size 6
[11 8 7 4 2 1 ]
6/64 (max 6) 0.00010 s
kplex size 7
[13 11 8 7 4 2 1 ]
7/64 (max 7) 0.00010 s
kplex size 8
[14 13 11 8 7 4 2 1 ]
8/64 (max 8) 0.00011 s
kplex size 9
[16 14 13 11 8 7 4 2 1 ]
9/64 (max 9) 0.00011 s
kplex size 10
[19 16 14 13 11 8 7 4 2 1 ]
10/64 (max 10) 0.00012 s
kplex size 11
[21 19 16 14 13 11 8 7 4 2 1 ]
11/64 (max 11) 0.00012 s
kplex size 12
[22 21 19 16 14 13 11 8 7 4 2 1 ]
12/64 (max 12) 0.00013 s
kplex size 13
[25 22 21 19 16 14 13 11 8 7 4 2 1 ]
13/64 (max 13) 0.00013 s
kplex size 14
[26 25 22 21 19 16 14 13 11 8 7 4 2 1 ]
14/64 (max 14) 0.00014 s
kplex size 15
[28 26 25 22 21 19 16 14 13 11 8 7 4 2 1 ]
15/64 (max 15) 0.00014 s
kplex size 16
[31 28 26 25 22 21 19 16 14 13 11 8 7 4 2 1 ]
16/64 (max 16) 0.00015 s
kplex size 17
[32 31 28 26 25 22 21 19 16 14 13 11 8 7 4 2 1 ]
17/64 (max 17) 0.00016 s
kplex size 18
[35 32 31 28 26 25 22 21 19 16 14 13 11 8 7 4 2 1 ]
18/64 (max 18) 0.00016 s
kplex size 19
[37 35 32 31 28 26 25 22 21 19 16 14 13 11 8 7 4 2 1 ]
19/64 (max 19) 0.00017 s
kplex size 20
[38 37 35 32 31 28 26 25 22 21 19 16 14 13 11 8 7 4 2 1 ]
20/64 (max 20) 0.00018 s
kplex size 21
[41 38 37 35 32 31 28 26 25 22 21 19 16 14 13 11 8 7 4 2 1 ]
21/64 (max 21) 0.00019 s
kplex size 22
[42 41 38 37 35 32 31 28 26 25 22 21 19 16 14 13 11 8 7 4 2 1 ]
22/64 (max 22) 0.00020 s
kplex size 23
[44 42 41 38 37 35 32 31 28 26 25 22 21 19 16 14 13 11 8 7 4 2 1 ]
23/64 (max 23) 0.00021 s
kplex size 24
[47 44 42 41 38 37 35 32 31 28 26 25 22 21 19 16 14 13 11 8 7 4 2 1 ]
24/64 (max 24) 0.00022 s
kplex size 25
[49 47 44 42 41 38 37 35 32 31 28 26 25 22 21 19 16 14 13 11 8 7 4 2 1 ]
25/64 (max 25) 0.00023 s
kplex size 26
[50 49 47 44 42 41 38 37 35 32 31 28 26 25 22 21 19 16 14 13 11 8 7 4 2 1 ]
26/64 (max 26) 0.00024 s
kplex size 27
[52 50 49 47 44 42 41 38 37 35 32 31 28 26 25 22 21 19 16 14 13 11 8 7 4 2 1 ]
27/64 (max 27) 0.00026 s
kplex size 28
[55 52 50 49 47 44 42 41 38 37 35 32 31 28 26 25 22 21 19 16 14 13 11 8 7 4 2 1 ]
28/64 (max 28) 0.00027 s
kplex size 29
[56 55 52 50 49 47 44 42 41 38 37 35 32 31 28 26 25 22 21 19 16 14 13 11 8 7 4 2 1 ]
29/64 (max 29) 0.00029 s
kplex size 30
[59 56 55 52 50 49 47 44 42 41 38 37 35 32 31 28 26 25 22 21 19 16 14 13 11 8 7 4 2 1 ]
30/64 (max 30) 0.00030 s
kplex size 31
[61 59 56 55 52 50 49 47 44 42 41 38 37 35 32 31 28 26 25 22 21 19 16 14 13 11 8 7 4 2 1 ]
31/64 (max 31) 0.00033 s
kplex size 32
[62 61 59 56 55 52 50 49 47 44 42 41 38 37 35 32 31 28 26 25 22 21 19 16 14 13 11 8 7 4 2 1 ]
32/64 (max 32) 0.00035 s
33/64 (max 32) 0.00035 s
34/64 (max 32) 0.00036 s
35/64 (max 32) 0.00036 s
36/64 (max 32) 0.00037 s
37/64 (max 32) 0.00040 s
38/64 (max 32) 0.00043 s
39/64 (max 32) 0.00046 s
40/64 (max 32) 0.00049 s
41/64 (max 32) 0.00060 s
42/64 (max 32) 0.00071 s
43/64 (max 32) 0.00085 s
44/64 (max 32) 0.00103 s
45/64 (max 32) 0.00131 s
46/64 (max 32) 0.00170 s
47/64 (max 32) 0.00230 s
48/64 (max 32) 0.00333 s
49/64 (max 32) 0.00625 s
50/64 (max 32) 0.01010 s
51/64 (max 32) 0.01540 s
52/64 (max 32) 0.02009 s
53/64 (max 32) 0.02698 s
54/64 (max 32) 0.03692 s
55/64 (max 32) 0.05195 s
56/64 (max 32) 0.07573 s
57/64 (max 32) 0.11074 s
58/64 (max 32) 0.16387 s
59/64 (max 32) 0.24679 s
60/64 (max 32) 0.38081 s
61/64 (max 32) 0.58331 s
62/64 (max 32) 0.91964 s
63/64 (max 32) 1.50477 s
64/64 (max 32) 2.57347 s
best clique: 62 61 59 56 55 52 50 49 47 44 42 41 38 37 35 32 31 28 26 25 22 21 19 16 14 13 11 8 7 4 2 1 
subp                 =   13100605
record               =         32
time                 =    2.57347
