timeout 3600 s
Graph with 256 vertices and 31616 edges density 0.968627
t = 63232, Enbr = 31616
pos[255] = 255 degree 247
pos[254] = 252 degree 246
pos[253] = 250 degree 245
pos[252] = 249 degree 244
pos[251] = 246 degree 243
pos[250] = 245 degree 242
pos[249] = 243 degree 241
pos[248] = 240 degree 240
pos[247] = 238 degree 239
pos[246] = 237 degree 238
pos[245] = 235 degree 237
pos[244] = 232 degree 236
pos[243] = 231 degree 235
pos[242] = 228 degree 234
pos[241] = 226 degree 233
pos[240] = 225 degree 232
pos[239] = 222 degree 231
pos[238] = 221 degree 230
pos[237] = 219 degree 229
pos[236] = 216 degree 228
pos[235] = 215 degree 227
pos[234] = 212 degree 226
pos[233] = 210 degree 225
pos[232] = 209 degree 224
pos[231] = 207 degree 223
pos[230] = 204 degree 222
pos[229] = 202 degree 221
pos[228] = 201 degree 220
pos[227] = 198 degree 219
pos[226] = 197 degree 218
pos[225] = 195 degree 217
pos[224] = 192 degree 216
pos[223] = 190 degree 215
pos[222] = 189 degree 214
pos[221] = 187 degree 213
pos[220] = 184 degree 212
pos[219] = 183 degree 211
pos[218] = 180 degree 210
pos[217] = 178 degree 209
pos[216] = 177 degree 208
pos[215] = 175 degree 207
pos[214] = 172 degree 206
pos[213] = 170 degree 205
pos[212] = 169 degree 204
pos[211] = 166 degree 203
pos[210] = 165 degree 202
pos[209] = 163 degree 201
pos[208] = 160 degree 200
pos[207] = 159 degree 199
pos[206] = 156 degree 198
pos[205] = 154 degree 197
pos[204] = 153 degree 196
pos[203] = 150 degree 195
pos[202] = 149 degree 194
pos[201] = 147 degree 193
pos[200] = 144 degree 192
pos[199] = 142 degree 191
pos[198] = 141 degree 190
pos[197] = 139 degree 189
pos[196] = 136 degree 188
pos[195] = 135 degree 187
pos[194] = 132 degree 186
pos[193] = 130 degree 185
pos[192] = 129 degree 184
pos[191] = 126 degree 183
pos[190] = 125 degree 182
pos[189] = 123 degree 181
pos[188] = 120 degree 180
pos[187] = 119 degree 179
pos[186] = 116 degree 178
pos[185] = 114 degree 177
pos[184] = 113 degree 176
pos[183] = 111 degree 175
pos[182] = 108 degree 174
pos[181] = 106 degree 173
pos[180] = 105 degree 172
pos[179] = 102 degree 171
pos[178] = 101 degree 170
pos[177] = 99 degree 169
pos[176] = 96 degree 168
pos[175] = 95 degree 167
pos[174] = 92 degree 166
pos[173] = 90 degree 165
pos[172] = 89 degree 164
pos[171] = 86 degree 163
pos[170] = 85 degree 162
pos[169] = 83 degree 161
pos[168] = 80 degree 160
pos[167] = 78 degree 159
pos[166] = 77 degree 158
pos[165] = 75 degree 157
pos[164] = 72 degree 156
pos[163] = 71 degree 155
pos[162] = 68 degree 154
pos[161] = 66 degree 153
pos[160] = 65 degree 152
pos[159] = 63 degree 151
pos[158] = 60 degree 150
pos[157] = 58 degree 149
pos[156] = 57 degree 148
pos[155] = 54 degree 147
pos[154] = 53 degree 146
pos[153] = 51 degree 145
pos[152] = 48 degree 144
pos[151] = 46 degree 143
pos[150] = 45 degree 142
pos[149] = 43 degree 141
pos[148] = 40 degree 140
pos[147] = 39 degree 139
pos[146] = 36 degree 138
pos[145] = 34 degree 137
pos[144] = 33 degree 136
pos[143] = 30 degree 135
pos[142] = 29 degree 134
pos[141] = 27 degree 133
pos[140] = 24 degree 132
pos[139] = 23 degree 131
pos[138] = 20 degree 130
pos[137] = 18 degree 129
pos[136] = 17 degree 128
pos[135] = 15 degree 127
pos[134] = 12 degree 126
pos[133] = 10 degree 125
pos[132] = 9 degree 124
pos[131] = 6 degree 123
pos[130] = 5 degree 122
pos[129] = 3 degree 121
pos[128] = 0 degree 120
pos[127] = 254 degree 127
pos[126] = 253 degree 126
pos[125] = 251 degree 125
pos[124] = 248 degree 124
pos[123] = 247 degree 123
pos[122] = 244 degree 122
pos[121] = 242 degree 121
pos[120] = 241 degree 120
pos[119] = 239 degree 119
pos[118] = 236 degree 118
pos[117] = 234 degree 117
pos[116] = 233 degree 116
pos[115] = 230 degree 115
pos[114] = 229 degree 114
pos[113] = 227 degree 113
pos[112] = 224 degree 112
pos[111] = 223 degree 111
pos[110] = 220 degree 110
pos[109] = 218 degree 109
pos[108] = 217 degree 108
pos[107] = 214 degree 107
pos[106] = 213 degree 106
pos[105] = 211 degree 105
pos[104] = 208 degree 104
pos[103] = 206 degree 103
pos[102] = 205 degree 102
pos[101] = 203 degree 101
pos[100] = 200 degree 100
pos[99] = 199 degree 99
pos[98] = 196 degree 98
pos[97] = 194 degree 97
pos[96] = 193 degree 96
pos[95] = 191 degree 95
pos[94] = 188 degree 94
pos[93] = 186 degree 93
pos[92] = 185 degree 92
pos[91] = 182 degree 91
pos[90] = 181 degree 90
pos[89] = 179 degree 89
pos[88] = 176 degree 88
pos[87] = 174 degree 87
pos[86] = 173 degree 86
pos[85] = 171 degree 85
pos[84] = 168 degree 84
pos[83] = 167 degree 83
pos[82] = 164 degree 82
pos[81] = 162 degree 81
pos[80] = 161 degree 80
pos[79] = 158 degree 79
pos[78] = 157 degree 78
pos[77] = 155 degree 77
pos[76] = 152 degree 76
pos[75] = 151 degree 75
pos[74] = 148 degree 74
pos[73] = 146 degree 73
pos[72] = 145 degree 72
pos[71] = 143 degree 71
pos[70] = 140 degree 70
pos[69] = 138 degree 69
pos[68] = 137 degree 68
pos[67] = 134 degree 67
pos[66] = 133 degree 66
pos[65] = 131 degree 65
pos[64] = 128 degree 64
pos[63] = 127 degree 63
pos[62] = 124 degree 62
pos[61] = 122 degree 61
pos[60] = 121 degree 60
pos[59] = 118 degree 59
pos[58] = 117 degree 58
pos[57] = 115 degree 57
pos[56] = 112 degree 56
pos[55] = 110 degree 55
pos[54] = 109 degree 54
pos[53] = 107 degree 53
pos[52] = 104 degree 52
pos[51] = 103 degree 51
pos[50] = 100 degree 50
pos[49] = 98 degree 49
pos[48] = 97 degree 48
pos[47] = 94 degree 47
pos[46] = 93 degree 46
pos[45] = 91 degree 45
pos[44] = 88 degree 44
pos[43] = 87 degree 43
pos[42] = 84 degree 42
pos[41] = 82 degree 41
pos[40] = 81 degree 40
pos[39] = 79 degree 39
pos[38] = 76 degree 38
pos[37] = 74 degree 37
pos[36] = 73 degree 36
pos[35] = 70 degree 35
pos[34] = 69 degree 34
pos[33] = 67 degree 33
pos[32] = 64 degree 32
pos[31] = 62 degree 31
pos[30] = 61 degree 30
pos[29] = 59 degree 29
pos[28] = 56 degree 28
pos[27] = 55 degree 27
pos[26] = 52 degree 26
pos[25] = 50 degree 25
pos[24] = 49 degree 24
pos[23] = 47 degree 23
pos[22] = 44 degree 22
pos[21] = 42 degree 21
pos[20] = 41 degree 20
pos[19] = 38 degree 19
pos[18] = 37 degree 18
pos[17] = 35 degree 17
pos[16] = 32 degree 16
pos[15] = 31 degree 15
pos[14] = 28 degree 14
pos[13] = 26 degree 13
pos[12] = 25 degree 12
pos[11] = 22 degree 11
pos[10] = 21 degree 10
pos[9] = 19 degree 9
pos[8] = 16 degree 8
pos[7] = 14 degree 7
pos[6] = 13 degree 6
pos[5] = 11 degree 5
pos[4] = 8 degree 4
pos[3] = 7 degree 3
pos[2] = 4 degree 2
pos[1] = 2 degree 1
pos[0] = 1 degree 0
kplex size 1
[1 ]
1/256 (max 1) 0.00067 s
kplex size 2
[2 1 ]
2/256 (max 2) 0.00068 s
kplex size 3
[4 2 1 ]
3/256 (max 3) 0.00068 s
kplex size 4
[7 4 2 1 ]
4/256 (max 4) 0.00068 s
kplex size 5
[8 7 4 2 1 ]
5/256 (max 5) 0.00069 s
kplex size 6
[11 8 7 4 2 1 ]
6/256 (max 6) 0.00069 s
kplex size 7
[13 11 8 7 4 2 1 ]
7/256 (max 7) 0.00069 s
kplex size 8
[14 13 11 8 7 4 2 1 ]
8/256 (max 8) 0.00070 s
kplex size 9
[16 14 13 11 8 7 4 2 1 ]
9/256 (max 9) 0.00071 s
kplex size 10
[19 16 14 13 11 8 7 4 2 1 ]
10/256 (max 10) 0.00071 s
kplex size 11
[21 19 16 14 13 11 8 7 4 2 1 ]
11/256 (max 11) 0.00072 s
kplex size 12
[22 21 19 16 14 13 11 8 7 4 2 1 ]
12/256 (max 12) 0.00072 s
kplex size 13
[25 22 21 19 16 14 13 11 8 7 4 2 1 ]
13/256 (max 13) 0.00073 s
kplex size 14
[26 25 22 21 19 16 14 13 11 8 7 4 2 1 ]
14/256 (max 14) 0.00074 s
kplex size 15
[28 26 25 22 21 19 16 14 13 11 8 7 4 2 1 ]
15/256 (max 15) 0.00075 s
kplex size 16
[31 28 26 25 22 21 19 16 14 13 11 8 7 4 2 1 ]
16/256 (max 16) 0.00076 s
kplex size 17
[32 31 28 26 25 22 21 19 16 14 13 11 8 7 4 2 1 ]
17/256 (max 17) 0.00076 s
kplex size 18
[35 32 31 28 26 25 22 21 19 16 14 13 11 8 7 4 2 1 ]
18/256 (max 18) 0.00077 s
kplex size 19
[37 35 32 31 28 26 25 22 21 19 16 14 13 11 8 7 4 2 1 ]
19/256 (max 19) 0.00078 s
kplex size 20
[38 37 35 32 31 28 26 25 22 21 19 16 14 13 11 8 7 4 2 1 ]
20/256 (max 20) 0.00080 s
kplex size 21
[41 38 37 35 32 31 28 26 25 22 21 19 16 14 13 11 8 7 4 2 1 ]
21/256 (max 21) 0.00081 s
kplex size 22
[42 41 38 37 35 32 31 28 26 25 22 21 19 16 14 13 11 8 7 4 2 1 ]
22/256 (max 22) 0.00082 s
kplex size 23
[44 42 41 38 37 35 32 31 28 26 25 22 21 19 16 14 13 11 8 7 4 2 1 ]
23/256 (max 23) 0.00083 s
kplex size 24
[47 44 42 41 38 37 35 32 31 28 26 25 22 21 19 16 14 13 11 8 7 4 2 1 ]
24/256 (max 24) 0.00085 s
kplex size 25
[49 47 44 42 41 38 37 35 32 31 28 26 25 22 21 19 16 14 13 11 8 7 4 2 1 ]
25/256 (max 25) 0.00087 s
kplex size 26
[50 49 47 44 42 41 38 37 35 32 31 28 26 25 22 21 19 16 14 13 11 8 7 4 2 1 ]
26/256 (max 26) 0.00088 s
kplex size 27
[52 50 49 47 44 42 41 38 37 35 32 31 28 26 25 22 21 19 16 14 13 11 8 7 4 2 1 ]
27/256 (max 27) 0.00090 s
kplex size 28
[55 52 50 49 47 44 42 41 38 37 35 32 31 28 26 25 22 21 19 16 14 13 11 8 7 4 2 1 ]
28/256 (max 28) 0.00092 s
kplex size 29
[56 55 52 50 49 47 44 42 41 38 37 35 32 31 28 26 25 22 21 19 16 14 13 11 8 7 4 2 1 ]
29/256 (max 29) 0.00093 s
kplex size 30
[59 56 55 52 50 49 47 44 42 41 38 37 35 32 31 28 26 25 22 21 19 16 14 13 11 8 7 4 2 1 ]
30/256 (max 30) 0.00095 s
kplex size 31
[61 59 56 55 52 50 49 47 44 42 41 38 37 35 32 31 28 26 25 22 21 19 16 14 13 11 8 7 4 2 1 ]
31/256 (max 31) 0.00097 s
kplex size 32
[62 61 59 56 55 52 50 49 47 44 42 41 38 37 35 32 31 28 26 25 22 21 19 16 14 13 11 8 7 4 2 1 ]
32/256 (max 32) 0.00099 s
kplex size 33
[64 62 61 59 56 55 52 50 49 47 44 42 41 38 37 35 32 31 28 26 25 22 21 19 16 14 13 11 8 7 4 2 1 ]
33/256 (max 33) 0.00101 s
kplex size 34
[67 64 62 61 59 56 55 52 50 49 47 44 42 41 38 37 35 32 31 28 26 25 22 21 19 16 14 13 11 8 7 4 2 1 ]
34/256 (max 34) 0.00103 s
kplex size 35
[69 67 64 62 61 59 56 55 52 50 49 47 44 42 41 38 37 35 32 31 28 26 25 22 21 19 16 14 13 11 8 7 4 2 1 ]
35/256 (max 35) 0.00105 s
kplex size 36
[70 69 67 64 62 61 59 56 55 52 50 49 47 44 42 41 38 37 35 32 31 28 26 25 22 21 19 16 14 13 11 8 7 4 2 1 ]
36/256 (max 36) 0.00107 s
kplex size 37
[73 70 69 67 64 62 61 59 56 55 52 50 49 47 44 42 41 38 37 35 32 31 28 26 25 22 21 19 16 14 13 11 8 7 4 2 1 ]
37/256 (max 37) 0.00110 s
kplex size 38
[74 73 70 69 67 64 62 61 59 56 55 52 50 49 47 44 42 41 38 37 35 32 31 28 26 25 22 21 19 16 14 13 11 8 7 4 2 1 ]
38/256 (max 38) 0.00112 s
kplex size 39
[76 74 73 70 69 67 64 62 61 59 56 55 52 50 49 47 44 42 41 38 37 35 32 31 28 26 25 22 21 19 16 14 13 11 8 7 4 2 1 ]
39/256 (max 39) 0.00115 s
kplex size 40
[79 76 74 73 70 69 67 64 62 61 59 56 55 52 50 49 47 44 42 41 38 37 35 32 31 28 26 25 22 21 19 16 14 13 11 8 7 4 2 1 ]
40/256 (max 40) 0.00117 s
kplex size 41
[81 79 76 74 73 70 69 67 64 62 61 59 56 55 52 50 49 47 44 42 41 38 37 35 32 31 28 26 25 22 21 19 16 14 13 11 8 7 4 2 1 ]
41/256 (max 41) 0.00120 s
kplex size 42
[82 81 79 76 74 73 70 69 67 64 62 61 59 56 55 52 50 49 47 44 42 41 38 37 35 32 31 28 26 25 22 21 19 16 14 13 11 8 7 4 2 1 ]
42/256 (max 42) 0.00123 s
kplex size 43
[84 82 81 79 76 74 73 70 69 67 64 62 61 59 56 55 52 50 49 47 44 42 41 38 37 35 32 31 28 26 25 22 21 19 16 14 13 11 8 7 4 2 1 ]
43/256 (max 43) 0.00126 s
kplex size 44
[87 84 82 81 79 76 74 73 70 69 67 64 62 61 59 56 55 52 50 49 47 44 42 41 38 37 35 32 31 28 26 25 22 21 19 16 14 13 11 8 7 4 2 1 ]
44/256 (max 44) 0.00129 s
kplex size 45
[88 87 84 82 81 79 76 74 73 70 69 67 64 62 61 59 56 55 52 50 49 47 44 42 41 38 37 35 32 31 28 26 25 22 21 19 16 14 13 11 8 7 4 2 1 ]
45/256 (max 45) 0.00132 s
kplex size 46
[91 88 87 84 82 81 79 76 74 73 70 69 67 64 62 61 59 56 55 52 50 49 47 44 42 41 38 37 35 32 31 28 26 25 22 21 19 16 14 13 11 8 7 4 2 1 ]
46/256 (max 46) 0.00136 s
kplex size 47
[93 91 88 87 84 82 81 79 76 74 73 70 69 67 64 62 61 59 56 55 52 50 49 47 44 42 41 38 37 35 32 31 28 26 25 22 21 19 16 14 13 11 8 7 4 2 1 ]
47/256 (max 47) 0.00139 s
kplex size 48
[94 93 91 88 87 84 82 81 79 76 74 73 70 69 67 64 62 61 59 56 55 52 50 49 47 44 42 41 38 37 35 32 31 28 26 25 22 21 19 16 14 13 11 8 7 4 2 1 ]
48/256 (max 48) 0.00142 s
kplex size 49
[97 94 93 91 88 87 84 82 81 79 76 74 73 70 69 67 64 62 61 59 56 55 52 50 49 47 44 42 41 38 37 35 32 31 28 26 25 22 21 19 16 14 13 11 8 7 4 2 1 ]
49/256 (max 49) 0.00146 s
kplex size 50
[98 97 94 93 91 88 87 84 82 81 79 76 74 73 70 69 67 64 62 61 59 56 55 52 50 49 47 44 42 41 38 37 35 32 31 28 26 25 22 21 19 16 14 13 11 8 7 4 2 1 ]
50/256 (max 50) 0.00149 s
kplex size 51
[100 98 97 94 93 91 88 87 84 82 81 79 76 74 73 70 69 67 64 62 61 59 56 55 52 50 49 47 44 42 41 38 37 35 32 31 28 26 25 22 21 19 16 14 13 11 8 7 4 2 1 ]
51/256 (max 51) 0.00154 s
kplex size 52
[103 100 98 97 94 93 91 88 87 84 82 81 79 76 74 73 70 69 67 64 62 61 59 56 55 52 50 49 47 44 42 41 38 37 35 32 31 28 26 25 22 21 19 16 14 13 11 8 7 4 2 1 ]
52/256 (max 52) 0.00158 s
kplex size 53
[104 103 100 98 97 94 93 91 88 87 84 82 81 79 76 74 73 70 69 67 64 62 61 59 56 55 52 50 49 47 44 42 41 38 37 35 32 31 28 26 25 22 21 19 16 14 13 11 8 7 4 2 1 ]
53/256 (max 53) 0.00162 s
kplex size 54
[107 104 103 100 98 97 94 93 91 88 87 84 82 81 79 76 74 73 70 69 67 64 62 61 59 56 55 52 50 49 47 44 42 41 38 37 35 32 31 28 26 25 22 21 19 16 14 13 11 8 7 4 2 1 ]
54/256 (max 54) 0.00166 s
kplex size 55
[109 107 104 103 100 98 97 94 93 91 88 87 84 82 81 79 76 74 73 70 69 67 64 62 61 59 56 55 52 50 49 47 44 42 41 38 37 35 32 31 28 26 25 22 21 19 16 14 13 11 8 7 4 2 1 ]
55/256 (max 55) 0.00170 s
kplex size 56
[110 109 107 104 103 100 98 97 94 93 91 88 87 84 82 81 79 76 74 73 70 69 67 64 62 61 59 56 55 52 50 49 47 44 42 41 38 37 35 32 31 28 26 25 22 21 19 16 14 13 11 8 7 4 2 1 ]
56/256 (max 56) 0.00175 s
kplex size 57
[112 110 109 107 104 103 100 98 97 94 93 91 88 87 84 82 81 79 76 74 73 70 69 67 64 62 61 59 56 55 52 50 49 47 44 42 41 38 37 35 32 31 28 26 25 22 21 19 16 14 13 11 8 7 4 2 1 ]
57/256 (max 57) 0.00179 s
kplex size 58
[115 112 110 109 107 104 103 100 98 97 94 93 91 88 87 84 82 81 79 76 74 73 70 69 67 64 62 61 59 56 55 52 50 49 47 44 42 41 38 37 35 32 31 28 26 25 22 21 19 16 14 13 11 8 7 4 2 1 ]
58/256 (max 58) 0.00184 s
kplex size 59
[117 115 112 110 109 107 104 103 100 98 97 94 93 91 88 87 84 82 81 79 76 74 73 70 69 67 64 62 61 59 56 55 52 50 49 47 44 42 41 38 37 35 32 31 28 26 25 22 21 19 16 14 13 11 8 7 4 2 1 ]
59/256 (max 59) 0.00189 s
kplex size 60
[118 117 115 112 110 109 107 104 103 100 98 97 94 93 91 88 87 84 82 81 79 76 74 73 70 69 67 64 62 61 59 56 55 52 50 49 47 44 42 41 38 37 35 32 31 28 26 25 22 21 19 16 14 13 11 8 7 4 2 1 ]
60/256 (max 60) 0.00194 s
kplex size 61
[121 118 117 115 112 110 109 107 104 103 100 98 97 94 93 91 88 87 84 82 81 79 76 74 73 70 69 67 64 62 61 59 56 55 52 50 49 47 44 42 41 38 37 35 32 31 28 26 25 22 21 19 16 14 13 11 8 7 4 2 1 ]
61/256 (max 61) 0.00198 s
kplex size 62
[122 121 118 117 115 112 110 109 107 104 103 100 98 97 94 93 91 88 87 84 82 81 79 76 74 73 70 69 67 64 62 61 59 56 55 52 50 49 47 44 42 41 38 37 35 32 31 28 26 25 22 21 19 16 14 13 11 8 7 4 2 1 ]
62/256 (max 62) 0.00204 s
kplex size 63
[124 122 121 118 117 115 112 110 109 107 104 103 100 98 97 94 93 91 88 87 84 82 81 79 76 74 73 70 69 67 64 62 61 59 56 55 52 50 49 47 44 42 41 38 37 35 32 31 28 26 25 22 21 19 16 14 13 11 8 7 4 2 1 ]
63/256 (max 63) 0.00209 s
kplex size 64
[127 124 122 121 118 117 115 112 110 109 107 104 103 100 98 97 94 93 91 88 87 84 82 81 79 76 74 73 70 69 67 64 62 61 59 56 55 52 50 49 47 44 42 41 38 37 35 32 31 28 26 25 22 21 19 16 14 13 11 8 7 4 2 1 ]
64/256 (max 64) 0.00214 s
kplex size 65
[128 127 124 122 121 118 117 115 112 110 109 107 104 103 100 98 97 94 93 91 88 87 84 82 81 79 76 74 73 70 69 67 64 62 61 59 56 55 52 50 49 47 44 42 41 38 37 35 32 31 28 26 25 22 21 19 16 14 13 11 8 7 4 2 1 ]
65/256 (max 65) 0.00220 s
kplex size 66
[131 128 127 124 122 121 118 117 115 112 110 109 107 104 103 100 98 97 94 93 91 88 87 84 82 81 79 76 74 73 70 69 67 64 62 61 59 56 55 52 50 49 47 44 42 41 38 37 35 32 31 28 26 25 22 21 19 16 14 13 11 8 7 4 2 1 ]
66/256 (max 66) 0.00225 s
kplex size 67
[133 131 128 127 124 122 121 118 117 115 112 110 109 107 104 103 100 98 97 94 93 91 88 87 84 82 81 79 76 74 73 70 69 67 64 62 61 59 56 55 52 50 49 47 44 42 41 38 37 35 32 31 28 26 25 22 21 19 16 14 13 11 8 7 4 2 1 ]
67/256 (max 67) 0.00231 s
kplex size 68
[134 133 131 128 127 124 122 121 118 117 115 112 110 109 107 104 103 100 98 97 94 93 91 88 87 84 82 81 79 76 74 73 70 69 67 64 62 61 59 56 55 52 50 49 47 44 42 41 38 37 35 32 31 28 26 25 22 21 19 16 14 13 11 8 7 4 2 1 ]
68/256 (max 68) 0.00237 s
kplex size 69
[137 134 133 131 128 127 124 122 121 118 117 115 112 110 109 107 104 103 100 98 97 94 93 91 88 87 84 82 81 79 76 74 73 70 69 67 64 62 61 59 56 55 52 50 49 47 44 42 41 38 37 35 32 31 28 26 25 22 21 19 16 14 13 11 8 7 4 2 1 ]
69/256 (max 69) 0.00244 s
kplex size 70
[138 137 134 133 131 128 127 124 122 121 118 117 115 112 110 109 107 104 103 100 98 97 94 93 91 88 87 84 82 81 79 76 74 73 70 69 67 64 62 61 59 56 55 52 50 49 47 44 42 41 38 37 35 32 31 28 26 25 22 21 19 16 14 13 11 8 7 4 2 1 ]
70/256 (max 70) 0.00250 s
kplex size 71
[140 138 137 134 133 131 128 127 124 122 121 118 117 115 112 110 109 107 104 103 100 98 97 94 93 91 88 87 84 82 81 79 76 74 73 70 69 67 64 62 61 59 56 55 52 50 49 47 44 42 41 38 37 35 32 31 28 26 25 22 21 19 16 14 13 11 8 7 4 2 1 ]
71/256 (max 71) 0.00257 s
kplex size 72
[143 140 138 137 134 133 131 128 127 124 122 121 118 117 115 112 110 109 107 104 103 100 98 97 94 93 91 88 87 84 82 81 79 76 74 73 70 69 67 64 62 61 59 56 55 52 50 49 47 44 42 41 38 37 35 32 31 28 26 25 22 21 19 16 14 13 11 8 7 4 2 1 ]
72/256 (max 72) 0.00264 s
kplex size 73
[145 143 140 138 137 134 133 131 128 127 124 122 121 118 117 115 112 110 109 107 104 103 100 98 97 94 93 91 88 87 84 82 81 79 76 74 73 70 69 67 64 62 61 59 56 55 52 50 49 47 44 42 41 38 37 35 32 31 28 26 25 22 21 19 16 14 13 11 8 7 4 2 1 ]
73/256 (max 73) 0.00270 s
kplex size 74
[146 145 143 140 138 137 134 133 131 128 127 124 122 121 118 117 115 112 110 109 107 104 103 100 98 97 94 93 91 88 87 84 82 81 79 76 74 73 70 69 67 64 62 61 59 56 55 52 50 49 47 44 42 41 38 37 35 32 31 28 26 25 22 21 19 16 14 13 11 8 7 4 2 1 ]
74/256 (max 74) 0.00277 s
kplex size 75
[148 146 145 143 140 138 137 134 133 131 128 127 124 122 121 118 117 115 112 110 109 107 104 103 100 98 97 94 93 91 88 87 84 82 81 79 76 74 73 70 69 67 64 62 61 59 56 55 52 50 49 47 44 42 41 38 37 35 32 31 28 26 25 22 21 19 16 14 13 11 8 7 4 2 1 ]
75/256 (max 75) 0.00284 s
kplex size 76
[151 148 146 145 143 140 138 137 134 133 131 128 127 124 122 121 118 117 115 112 110 109 107 104 103 100 98 97 94 93 91 88 87 84 82 81 79 76 74 73 70 69 67 64 62 61 59 56 55 52 50 49 47 44 42 41 38 37 35 32 31 28 26 25 22 21 19 16 14 13 11 8 7 4 2 1 ]
76/256 (max 76) 0.00291 s
kplex size 77
[152 151 148 146 145 143 140 138 137 134 133 131 128 127 124 122 121 118 117 115 112 110 109 107 104 103 100 98 97 94 93 91 88 87 84 82 81 79 76 74 73 70 69 67 64 62 61 59 56 55 52 50 49 47 44 42 41 38 37 35 32 31 28 26 25 22 21 19 16 14 13 11 8 7 4 2 1 ]
77/256 (max 77) 0.00299 s
kplex size 78
[155 152 151 148 146 145 143 140 138 137 134 133 131 128 127 124 122 121 118 117 115 112 110 109 107 104 103 100 98 97 94 93 91 88 87 84 82 81 79 76 74 73 70 69 67 64 62 61 59 56 55 52 50 49 47 44 42 41 38 37 35 32 31 28 26 25 22 21 19 16 14 13 11 8 7 4 2 1 ]
78/256 (max 78) 0.00306 s
kplex size 79
[157 155 152 151 148 146 145 143 140 138 137 134 133 131 128 127 124 122 121 118 117 115 112 110 109 107 104 103 100 98 97 94 93 91 88 87 84 82 81 79 76 74 73 70 69 67 64 62 61 59 56 55 52 50 49 47 44 42 41 38 37 35 32 31 28 26 25 22 21 19 16 14 13 11 8 7 4 2 1 ]
79/256 (max 79) 0.00314 s
kplex size 80
[158 157 155 152 151 148 146 145 143 140 138 137 134 133 131 128 127 124 122 121 118 117 115 112 110 109 107 104 103 100 98 97 94 93 91 88 87 84 82 81 79 76 74 73 70 69 67 64 62 61 59 56 55 52 50 49 47 44 42 41 38 37 35 32 31 28 26 25 22 21 19 16 14 13 11 8 7 4 2 1 ]
80/256 (max 80) 0.00321 s
kplex size 81
[161 158 157 155 152 151 148 146 145 143 140 138 137 134 133 131 128 127 124 122 121 118 117 115 112 110 109 107 104 103 100 98 97 94 93 91 88 87 84 82 81 79 76 74 73 70 69 67 64 62 61 59 56 55 52 50 49 47 44 42 41 38 37 35 32 31 28 26 25 22 21 19 16 14 13 11 8 7 4 2 1 ]
81/256 (max 81) 0.00329 s
kplex size 82
[162 161 158 157 155 152 151 148 146 145 143 140 138 137 134 133 131 128 127 124 122 121 118 117 115 112 110 109 107 104 103 100 98 97 94 93 91 88 87 84 82 81 79 76 74 73 70 69 67 64 62 61 59 56 55 52 50 49 47 44 42 41 38 37 35 32 31 28 26 25 22 21 19 16 14 13 11 8 7 4 2 1 ]
82/256 (max 82) 0.00337 s
kplex size 83
[164 162 161 158 157 155 152 151 148 146 145 143 140 138 137 134 133 131 128 127 124 122 121 118 117 115 112 110 109 107 104 103 100 98 97 94 93 91 88 87 84 82 81 79 76 74 73 70 69 67 64 62 61 59 56 55 52 50 49 47 44 42 41 38 37 35 32 31 28 26 25 22 21 19 16 14 13 11 8 7 4 2 1 ]
83/256 (max 83) 0.00347 s
kplex size 84
[167 164 162 161 158 157 155 152 151 148 146 145 143 140 138 137 134 133 131 128 127 124 122 121 118 117 115 112 110 109 107 104 103 100 98 97 94 93 91 88 87 84 82 81 79 76 74 73 70 69 67 64 62 61 59 56 55 52 50 49 47 44 42 41 38 37 35 32 31 28 26 25 22 21 19 16 14 13 11 8 7 4 2 1 ]
84/256 (max 84) 0.00355 s
kplex size 85
[168 167 164 162 161 158 157 155 152 151 148 146 145 143 140 138 137 134 133 131 128 127 124 122 121 118 117 115 112 110 109 107 104 103 100 98 97 94 93 91 88 87 84 82 81 79 76 74 73 70 69 67 64 62 61 59 56 55 52 50 49 47 44 42 41 38 37 35 32 31 28 26 25 22 21 19 16 14 13 11 8 7 4 2 1 ]
85/256 (max 85) 0.00364 s
kplex size 86
[171 168 167 164 162 161 158 157 155 152 151 148 146 145 143 140 138 137 134 133 131 128 127 124 122 121 118 117 115 112 110 109 107 104 103 100 98 97 94 93 91 88 87 84 82 81 79 76 74 73 70 69 67 64 62 61 59 56 55 52 50 49 47 44 42 41 38 37 35 32 31 28 26 25 22 21 19 16 14 13 11 8 7 4 2 1 ]
86/256 (max 86) 0.00373 s
kplex size 87
[173 171 168 167 164 162 161 158 157 155 152 151 148 146 145 143 140 138 137 134 133 131 128 127 124 122 121 118 117 115 112 110 109 107 104 103 100 98 97 94 93 91 88 87 84 82 81 79 76 74 73 70 69 67 64 62 61 59 56 55 52 50 49 47 44 42 41 38 37 35 32 31 28 26 25 22 21 19 16 14 13 11 8 7 4 2 1 ]
87/256 (max 87) 0.00382 s
kplex size 88
[174 173 171 168 167 164 162 161 158 157 155 152 151 148 146 145 143 140 138 137 134 133 131 128 127 124 122 121 118 117 115 112 110 109 107 104 103 100 98 97 94 93 91 88 87 84 82 81 79 76 74 73 70 69 67 64 62 61 59 56 55 52 50 49 47 44 42 41 38 37 35 32 31 28 26 25 22 21 19 16 14 13 11 8 7 4 2 1 ]
88/256 (max 88) 0.00391 s
kplex size 89
[176 174 173 171 168 167 164 162 161 158 157 155 152 151 148 146 145 143 140 138 137 134 133 131 128 127 124 122 121 118 117 115 112 110 109 107 104 103 100 98 97 94 93 91 88 87 84 82 81 79 76 74 73 70 69 67 64 62 61 59 56 55 52 50 49 47 44 42 41 38 37 35 32 31 28 26 25 22 21 19 16 14 13 11 8 7 4 2 1 ]
89/256 (max 89) 0.00400 s
kplex size 90
[179 176 174 173 171 168 167 164 162 161 158 157 155 152 151 148 146 145 143 140 138 137 134 133 131 128 127 124 122 121 118 117 115 112 110 109 107 104 103 100 98 97 94 93 91 88 87 84 82 81 79 76 74 73 70 69 67 64 62 61 59 56 55 52 50 49 47 44 42 41 38 37 35 32 31 28 26 25 22 21 19 16 14 13 11 8 7 4 2 1 ]
90/256 (max 90) 0.00409 s
kplex size 91
[181 179 176 174 173 171 168 167 164 162 161 158 157 155 152 151 148 146 145 143 140 138 137 134 133 131 128 127 124 122 121 118 117 115 112 110 109 107 104 103 100 98 97 94 93 91 88 87 84 82 81 79 76 74 73 70 69 67 64 62 61 59 56 55 52 50 49 47 44 42 41 38 37 35 32 31 28 26 25 22 21 19 16 14 13 11 8 7 4 2 1 ]
91/256 (max 91) 0.00419 s
kplex size 92
[182 181 179 176 174 173 171 168 167 164 162 161 158 157 155 152 151 148 146 145 143 140 138 137 134 133 131 128 127 124 122 121 118 117 115 112 110 109 107 104 103 100 98 97 94 93 91 88 87 84 82 81 79 76 74 73 70 69 67 64 62 61 59 56 55 52 50 49 47 44 42 41 38 37 35 32 31 28 26 25 22 21 19 16 14 13 11 8 7 4 2 1 ]
92/256 (max 92) 0.00429 s
kplex size 93
[185 182 181 179 176 174 173 171 168 167 164 162 161 158 157 155 152 151 148 146 145 143 140 138 137 134 133 131 128 127 124 122 121 118 117 115 112 110 109 107 104 103 100 98 97 94 93 91 88 87 84 82 81 79 76 74 73 70 69 67 64 62 61 59 56 55 52 50 49 47 44 42 41 38 37 35 32 31 28 26 25 22 21 19 16 14 13 11 8 7 4 2 1 ]
93/256 (max 93) 0.00440 s
kplex size 94
[186 185 182 181 179 176 174 173 171 168 167 164 162 161 158 157 155 152 151 148 146 145 143 140 138 137 134 133 131 128 127 124 122 121 118 117 115 112 110 109 107 104 103 100 98 97 94 93 91 88 87 84 82 81 79 76 74 73 70 69 67 64 62 61 59 56 55 52 50 49 47 44 42 41 38 37 35 32 31 28 26 25 22 21 19 16 14 13 11 8 7 4 2 1 ]
94/256 (max 94) 0.00450 s
kplex size 95
[188 186 185 182 181 179 176 174 173 171 168 167 164 162 161 158 157 155 152 151 148 146 145 143 140 138 137 134 133 131 128 127 124 122 121 118 117 115 112 110 109 107 104 103 100 98 97 94 93 91 88 87 84 82 81 79 76 74 73 70 69 67 64 62 61 59 56 55 52 50 49 47 44 42 41 38 37 35 32 31 28 26 25 22 21 19 16 14 13 11 8 7 4 2 1 ]
95/256 (max 95) 0.00462 s
kplex size 96
[191 188 186 185 182 181 179 176 174 173 171 168 167 164 162 161 158 157 155 152 151 148 146 145 143 140 138 137 134 133 131 128 127 124 122 121 118 117 115 112 110 109 107 104 103 100 98 97 94 93 91 88 87 84 82 81 79 76 74 73 70 69 67 64 62 61 59 56 55 52 50 49 47 44 42 41 38 37 35 32 31 28 26 25 22 21 19 16 14 13 11 8 7 4 2 1 ]
96/256 (max 96) 0.00473 s
kplex size 97
[193 191 188 186 185 182 181 179 176 174 173 171 168 167 164 162 161 158 157 155 152 151 148 146 145 143 140 138 137 134 133 131 128 127 124 122 121 118 117 115 112 110 109 107 104 103 100 98 97 94 93 91 88 87 84 82 81 79 76 74 73 70 69 67 64 62 61 59 56 55 52 50 49 47 44 42 41 38 37 35 32 31 28 26 25 22 21 19 16 14 13 11 8 7 4 2 1 ]
97/256 (max 97) 0.00483 s
kplex size 98
[194 193 191 188 186 185 182 181 179 176 174 173 171 168 167 164 162 161 158 157 155 152 151 148 146 145 143 140 138 137 134 133 131 128 127 124 122 121 118 117 115 112 110 109 107 104 103 100 98 97 94 93 91 88 87 84 82 81 79 76 74 73 70 69 67 64 62 61 59 56 55 52 50 49 47 44 42 41 38 37 35 32 31 28 26 25 22 21 19 16 14 13 11 8 7 4 2 1 ]
98/256 (max 98) 0.00495 s
kplex size 99
[196 194 193 191 188 186 185 182 181 179 176 174 173 171 168 167 164 162 161 158 157 155 152 151 148 146 145 143 140 138 137 134 133 131 128 127 124 122 121 118 117 115 112 110 109 107 104 103 100 98 97 94 93 91 88 87 84 82 81 79 76 74 73 70 69 67 64 62 61 59 56 55 52 50 49 47 44 42 41 38 37 35 32 31 28 26 25 22 21 19 16 14 13 11 8 7 4 2 1 ]
99/256 (max 99) 0.00506 s
kplex size 100
[199 196 194 193 191 188 186 185 182 181 179 176 174 173 171 168 167 164 162 161 158 157 155 152 151 148 146 145 143 140 138 137 134 133 131 128 127 124 122 121 118 117 115 112 110 109 107 104 103 100 98 97 94 93 91 88 87 84 82 81 79 76 74 73 70 69 67 64 62 61 59 56 55 52 50 49 47 44 42 41 38 37 35 32 31 28 26 25 22 21 19 16 14 13 11 8 7 4 2 1 ]
100/256 (max 100) 0.00517 s
kplex size 101
[200 199 196 194 193 191 188 186 185 182 181 179 176 174 173 171 168 167 164 162 161 158 157 155 152 151 148 146 145 143 140 138 137 134 133 131 128 127 124 122 121 118 117 115 112 110 109 107 104 103 100 98 97 94 93 91 88 87 84 82 81 79 76 74 73 70 69 67 64 62 61 59 56 55 52 50 49 47 44 42 41 38 37 35 32 31 28 26 25 22 21 19 16 14 13 11 8 7 4 2 1 ]
101/256 (max 101) 0.00529 s
kplex size 102
[203 200 199 196 194 193 191 188 186 185 182 181 179 176 174 173 171 168 167 164 162 161 158 157 155 152 151 148 146 145 143 140 138 137 134 133 131 128 127 124 122 121 118 117 115 112 110 109 107 104 103 100 98 97 94 93 91 88 87 84 82 81 79 76 74 73 70 69 67 64 62 61 59 56 55 52 50 49 47 44 42 41 38 37 35 32 31 28 26 25 22 21 19 16 14 13 11 8 7 4 2 1 ]
102/256 (max 102) 0.00541 s
kplex size 103
[205 203 200 199 196 194 193 191 188 186 185 182 181 179 176 174 173 171 168 167 164 162 161 158 157 155 152 151 148 146 145 143 140 138 137 134 133 131 128 127 124 122 121 118 117 115 112 110 109 107 104 103 100 98 97 94 93 91 88 87 84 82 81 79 76 74 73 70 69 67 64 62 61 59 56 55 52 50 49 47 44 42 41 38 37 35 32 31 28 26 25 22 21 19 16 14 13 11 8 7 4 2 1 ]
103/256 (max 103) 0.00553 s
kplex size 104
[206 205 203 200 199 196 194 193 191 188 186 185 182 181 179 176 174 173 171 168 167 164 162 161 158 157 155 152 151 148 146 145 143 140 138 137 134 133 131 128 127 124 122 121 118 117 115 112 110 109 107 104 103 100 98 97 94 93 91 88 87 84 82 81 79 76 74 73 70 69 67 64 62 61 59 56 55 52 50 49 47 44 42 41 38 37 35 32 31 28 26 25 22 21 19 16 14 13 11 8 7 4 2 1 ]
104/256 (max 104) 0.00565 s
kplex size 105
[208 206 205 203 200 199 196 194 193 191 188 186 185 182 181 179 176 174 173 171 168 167 164 162 161 158 157 155 152 151 148 146 145 143 140 138 137 134 133 131 128 127 124 122 121 118 117 115 112 110 109 107 104 103 100 98 97 94 93 91 88 87 84 82 81 79 76 74 73 70 69 67 64 62 61 59 56 55 52 50 49 47 44 42 41 38 37 35 32 31 28 26 25 22 21 19 16 14 13 11 8 7 4 2 1 ]
105/256 (max 105) 0.00578 s
kplex size 106
[211 208 206 205 203 200 199 196 194 193 191 188 186 185 182 181 179 176 174 173 171 168 167 164 162 161 158 157 155 152 151 148 146 145 143 140 138 137 134 133 131 128 127 124 122 121 118 117 115 112 110 109 107 104 103 100 98 97 94 93 91 88 87 84 82 81 79 76 74 73 70 69 67 64 62 61 59 56 55 52 50 49 47 44 42 41 38 37 35 32 31 28 26 25 22 21 19 16 14 13 11 8 7 4 2 1 ]
106/256 (max 106) 0.00591 s
kplex size 107
[213 211 208 206 205 203 200 199 196 194 193 191 188 186 185 182 181 179 176 174 173 171 168 167 164 162 161 158 157 155 152 151 148 146 145 143 140 138 137 134 133 131 128 127 124 122 121 118 117 115 112 110 109 107 104 103 100 98 97 94 93 91 88 87 84 82 81 79 76 74 73 70 69 67 64 62 61 59 56 55 52 50 49 47 44 42 41 38 37 35 32 31 28 26 25 22 21 19 16 14 13 11 8 7 4 2 1 ]
107/256 (max 107) 0.00604 s
kplex size 108
[214 213 211 208 206 205 203 200 199 196 194 193 191 188 186 185 182 181 179 176 174 173 171 168 167 164 162 161 158 157 155 152 151 148 146 145 143 140 138 137 134 133 131 128 127 124 122 121 118 117 115 112 110 109 107 104 103 100 98 97 94 93 91 88 87 84 82 81 79 76 74 73 70 69 67 64 62 61 59 56 55 52 50 49 47 44 42 41 38 37 35 32 31 28 26 25 22 21 19 16 14 13 11 8 7 4 2 1 ]
108/256 (max 108) 0.00617 s
kplex size 109
[217 214 213 211 208 206 205 203 200 199 196 194 193 191 188 186 185 182 181 179 176 174 173 171 168 167 164 162 161 158 157 155 152 151 148 146 145 143 140 138 137 134 133 131 128 127 124 122 121 118 117 115 112 110 109 107 104 103 100 98 97 94 93 91 88 87 84 82 81 79 76 74 73 70 69 67 64 62 61 59 56 55 52 50 49 47 44 42 41 38 37 35 32 31 28 26 25 22 21 19 16 14 13 11 8 7 4 2 1 ]
109/256 (max 109) 0.00631 s
kplex size 110
[218 217 214 213 211 208 206 205 203 200 199 196 194 193 191 188 186 185 182 181 179 176 174 173 171 168 167 164 162 161 158 157 155 152 151 148 146 145 143 140 138 137 134 133 131 128 127 124 122 121 118 117 115 112 110 109 107 104 103 100 98 97 94 93 91 88 87 84 82 81 79 76 74 73 70 69 67 64 62 61 59 56 55 52 50 49 47 44 42 41 38 37 35 32 31 28 26 25 22 21 19 16 14 13 11 8 7 4 2 1 ]
110/256 (max 110) 0.00644 s
kplex size 111
[220 218 217 214 213 211 208 206 205 203 200 199 196 194 193 191 188 186 185 182 181 179 176 174 173 171 168 167 164 162 161 158 157 155 152 151 148 146 145 143 140 138 137 134 133 131 128 127 124 122 121 118 117 115 112 110 109 107 104 103 100 98 97 94 93 91 88 87 84 82 81 79 76 74 73 70 69 67 64 62 61 59 56 55 52 50 49 47 44 42 41 38 37 35 32 31 28 26 25 22 21 19 16 14 13 11 8 7 4 2 1 ]
111/256 (max 111) 0.00658 s
kplex size 112
[223 220 218 217 214 213 211 208 206 205 203 200 199 196 194 193 191 188 186 185 182 181 179 176 174 173 171 168 167 164 162 161 158 157 155 152 151 148 146 145 143 140 138 137 134 133 131 128 127 124 122 121 118 117 115 112 110 109 107 104 103 100 98 97 94 93 91 88 87 84 82 81 79 76 74 73 70 69 67 64 62 61 59 56 55 52 50 49 47 44 42 41 38 37 35 32 31 28 26 25 22 21 19 16 14 13 11 8 7 4 2 1 ]
112/256 (max 112) 0.00672 s
kplex size 113
[224 223 220 218 217 214 213 211 208 206 205 203 200 199 196 194 193 191 188 186 185 182 181 179 176 174 173 171 168 167 164 162 161 158 157 155 152 151 148 146 145 143 140 138 137 134 133 131 128 127 124 122 121 118 117 115 112 110 109 107 104 103 100 98 97 94 93 91 88 87 84 82 81 79 76 74 73 70 69 67 64 62 61 59 56 55 52 50 49 47 44 42 41 38 37 35 32 31 28 26 25 22 21 19 16 14 13 11 8 7 4 2 1 ]
113/256 (max 113) 0.00686 s
kplex size 114
[227 224 223 220 218 217 214 213 211 208 206 205 203 200 199 196 194 193 191 188 186 185 182 181 179 176 174 173 171 168 167 164 162 161 158 157 155 152 151 148 146 145 143 140 138 137 134 133 131 128 127 124 122 121 118 117 115 112 110 109 107 104 103 100 98 97 94 93 91 88 87 84 82 81 79 76 74 73 70 69 67 64 62 61 59 56 55 52 50 49 47 44 42 41 38 37 35 32 31 28 26 25 22 21 19 16 14 13 11 8 7 4 2 1 ]
114/256 (max 114) 0.00700 s
kplex size 115
[229 227 224 223 220 218 217 214 213 211 208 206 205 203 200 199 196 194 193 191 188 186 185 182 181 179 176 174 173 171 168 167 164 162 161 158 157 155 152 151 148 146 145 143 140 138 137 134 133 131 128 127 124 122 121 118 117 115 112 110 109 107 104 103 100 98 97 94 93 91 88 87 84 82 81 79 76 74 73 70 69 67 64 62 61 59 56 55 52 50 49 47 44 42 41 38 37 35 32 31 28 26 25 22 21 19 16 14 13 11 8 7 4 2 1 ]
115/256 (max 115) 0.00716 s
kplex size 116
[230 229 227 224 223 220 218 217 214 213 211 208 206 205 203 200 199 196 194 193 191 188 186 185 182 181 179 176 174 173 171 168 167 164 162 161 158 157 155 152 151 148 146 145 143 140 138 137 134 133 131 128 127 124 122 121 118 117 115 112 110 109 107 104 103 100 98 97 94 93 91 88 87 84 82 81 79 76 74 73 70 69 67 64 62 61 59 56 55 52 50 49 47 44 42 41 38 37 35 32 31 28 26 25 22 21 19 16 14 13 11 8 7 4 2 1 ]
116/256 (max 116) 0.00731 s
kplex size 117
[233 230 229 227 224 223 220 218 217 214 213 211 208 206 205 203 200 199 196 194 193 191 188 186 185 182 181 179 176 174 173 171 168 167 164 162 161 158 157 155 152 151 148 146 145 143 140 138 137 134 133 131 128 127 124 122 121 118 117 115 112 110 109 107 104 103 100 98 97 94 93 91 88 87 84 82 81 79 76 74 73 70 69 67 64 62 61 59 56 55 52 50 49 47 44 42 41 38 37 35 32 31 28 26 25 22 21 19 16 14 13 11 8 7 4 2 1 ]
117/256 (max 117) 0.00746 s
kplex size 118
[234 233 230 229 227 224 223 220 218 217 214 213 211 208 206 205 203 200 199 196 194 193 191 188 186 185 182 181 179 176 174 173 171 168 167 164 162 161 158 157 155 152 151 148 146 145 143 140 138 137 134 133 131 128 127 124 122 121 118 117 115 112 110 109 107 104 103 100 98 97 94 93 91 88 87 84 82 81 79 76 74 73 70 69 67 64 62 61 59 56 55 52 50 49 47 44 42 41 38 37 35 32 31 28 26 25 22 21 19 16 14 13 11 8 7 4 2 1 ]
118/256 (max 118) 0.00762 s
kplex size 119
[236 234 233 230 229 227 224 223 220 218 217 214 213 211 208 206 205 203 200 199 196 194 193 191 188 186 185 182 181 179 176 174 173 171 168 167 164 162 161 158 157 155 152 151 148 146 145 143 140 138 137 134 133 131 128 127 124 122 121 118 117 115 112 110 109 107 104 103 100 98 97 94 93 91 88 87 84 82 81 79 76 74 73 70 69 67 64 62 61 59 56 55 52 50 49 47 44 42 41 38 37 35 32 31 28 26 25 22 21 19 16 14 13 11 8 7 4 2 1 ]
119/256 (max 119) 0.00777 s
kplex size 120
[239 236 234 233 230 229 227 224 223 220 218 217 214 213 211 208 206 205 203 200 199 196 194 193 191 188 186 185 182 181 179 176 174 173 171 168 167 164 162 161 158 157 155 152 151 148 146 145 143 140 138 137 134 133 131 128 127 124 122 121 118 117 115 112 110 109 107 104 103 100 98 97 94 93 91 88 87 84 82 81 79 76 74 73 70 69 67 64 62 61 59 56 55 52 50 49 47 44 42 41 38 37 35 32 31 28 26 25 22 21 19 16 14 13 11 8 7 4 2 1 ]
120/256 (max 120) 0.00793 s
kplex size 121
[241 239 236 234 233 230 229 227 224 223 220 218 217 214 213 211 208 206 205 203 200 199 196 194 193 191 188 186 185 182 181 179 176 174 173 171 168 167 164 162 161 158 157 155 152 151 148 146 145 143 140 138 137 134 133 131 128 127 124 122 121 118 117 115 112 110 109 107 104 103 100 98 97 94 93 91 88 87 84 82 81 79 76 74 73 70 69 67 64 62 61 59 56 55 52 50 49 47 44 42 41 38 37 35 32 31 28 26 25 22 21 19 16 14 13 11 8 7 4 2 1 ]
121/256 (max 121) 0.00809 s
kplex size 122
[242 241 239 236 234 233 230 229 227 224 223 220 218 217 214 213 211 208 206 205 203 200 199 196 194 193 191 188 186 185 182 181 179 176 174 173 171 168 167 164 162 161 158 157 155 152 151 148 146 145 143 140 138 137 134 133 131 128 127 124 122 121 118 117 115 112 110 109 107 104 103 100 98 97 94 93 91 88 87 84 82 81 79 76 74 73 70 69 67 64 62 61 59 56 55 52 50 49 47 44 42 41 38 37 35 32 31 28 26 25 22 21 19 16 14 13 11 8 7 4 2 1 ]
122/256 (max 122) 0.00825 s
kplex size 123
[244 242 241 239 236 234 233 230 229 227 224 223 220 218 217 214 213 211 208 206 205 203 200 199 196 194 193 191 188 186 185 182 181 179 176 174 173 171 168 167 164 162 161 158 157 155 152 151 148 146 145 143 140 138 137 134 133 131 128 127 124 122 121 118 117 115 112 110 109 107 104 103 100 98 97 94 93 91 88 87 84 82 81 79 76 74 73 70 69 67 64 62 61 59 56 55 52 50 49 47 44 42 41 38 37 35 32 31 28 26 25 22 21 19 16 14 13 11 8 7 4 2 1 ]
123/256 (max 123) 0.00841 s
kplex size 124
[247 244 242 241 239 236 234 233 230 229 227 224 223 220 218 217 214 213 211 208 206 205 203 200 199 196 194 193 191 188 186 185 182 181 179 176 174 173 171 168 167 164 162 161 158 157 155 152 151 148 146 145 143 140 138 137 134 133 131 128 127 124 122 121 118 117 115 112 110 109 107 104 103 100 98 97 94 93 91 88 87 84 82 81 79 76 74 73 70 69 67 64 62 61 59 56 55 52 50 49 47 44 42 41 38 37 35 32 31 28 26 25 22 21 19 16 14 13 11 8 7 4 2 1 ]
124/256 (max 124) 0.00852 s
kplex size 125
[248 247 244 242 241 239 236 234 233 230 229 227 224 223 220 218 217 214 213 211 208 206 205 203 200 199 196 194 193 191 188 186 185 182 181 179 176 174 173 171 168 167 164 162 161 158 157 155 152 151 148 146 145 143 140 138 137 134 133 131 128 127 124 122 121 118 117 115 112 110 109 107 104 103 100 98 97 94 93 91 88 87 84 82 81 79 76 74 73 70 69 67 64 62 61 59 56 55 52 50 49 47 44 42 41 38 37 35 32 31 28 26 25 22 21 19 16 14 13 11 8 7 4 2 1 ]
125/256 (max 125) 0.00862 s
kplex size 126
[251 248 247 244 242 241 239 236 234 233 230 229 227 224 223 220 218 217 214 213 211 208 206 205 203 200 199 196 194 193 191 188 186 185 182 181 179 176 174 173 171 168 167 164 162 161 158 157 155 152 151 148 146 145 143 140 138 137 134 133 131 128 127 124 122 121 118 117 115 112 110 109 107 104 103 100 98 97 94 93 91 88 87 84 82 81 79 76 74 73 70 69 67 64 62 61 59 56 55 52 50 49 47 44 42 41 38 37 35 32 31 28 26 25 22 21 19 16 14 13 11 8 7 4 2 1 ]
126/256 (max 126) 0.00872 s
kplex size 127
[253 251 248 247 244 242 241 239 236 234 233 230 229 227 224 223 220 218 217 214 213 211 208 206 205 203 200 199 196 194 193 191 188 186 185 182 181 179 176 174 173 171 168 167 164 162 161 158 157 155 152 151 148 146 145 143 140 138 137 134 133 131 128 127 124 122 121 118 117 115 112 110 109 107 104 103 100 98 97 94 93 91 88 87 84 82 81 79 76 74 73 70 69 67 64 62 61 59 56 55 52 50 49 47 44 42 41 38 37 35 32 31 28 26 25 22 21 19 16 14 13 11 8 7 4 2 1 ]
127/256 (max 127) 0.00882 s
kplex size 128
[254 253 251 248 247 244 242 241 239 236 234 233 230 229 227 224 223 220 218 217 214 213 211 208 206 205 203 200 199 196 194 193 191 188 186 185 182 181 179 176 174 173 171 168 167 164 162 161 158 157 155 152 151 148 146 145 143 140 138 137 134 133 131 128 127 124 122 121 118 117 115 112 110 109 107 104 103 100 98 97 94 93 91 88 87 84 82 81 79 76 74 73 70 69 67 64 62 61 59 56 55 52 50 49 47 44 42 41 38 37 35 32 31 28 26 25 22 21 19 16 14 13 11 8 7 4 2 1 ]
128/256 (max 128) 0.00893 s
129/256 (max 128) 0.00896 s
130/256 (max 128) 0.00899 s
131/256 (max 128) 0.00902 s
132/256 (max 128) 0.00905 s
133/256 (max 128) 0.00990 s
134/256 (max 128) 0.01073 s
135/256 (max 128) 0.01154 s
136/256 (max 128) 0.01234 s
137/256 (max 128) 0.01554 s
138/256 (max 128) 0.01871 s
139/256 (max 128) 0.02187 s
140/256 (max 128) 0.02506 s
141/256 (max 128) 0.02909 s
142/256 (max 128) 0.03324 s
143/256 (max 128) 0.03767 s
144/256 (max 128) 0.04273 s
145/256 (max 128) 0.19659 s
146/256 (max 128) 0.34685 s
147/256 (max 128) 0.49473 s
148/256 (max 128) 0.64159 s
149/256 (max 128) 1.04993 s
150/256 (max 128) 1.44393 s
151/256 (max 128) 1.82983 s
152/256 (max 128) 2.21911 s
153/256 (max 128) 3.18042 s
154/256 (max 128) 4.12914 s
155/256 (max 128) 5.09948 s
156/256 (max 128) 6.15453 s
157/256 (max 128) 7.47199 s
158/256 (max 128) 9.09002 s
159/256 (max 128) 11.31700 s
160/256 (max 128) 14.79685 s
161/256 (max 128) 34.45859 s
162/256 (max 128) 56.21670 s
163/256 (max 128) 81.19684 s
164/256 (max 128) 111.89780 s
165/256 (max 128) 165.00169 s
166/256 (max 128) 229.04003 s
167/256 (max 128) 310.75776 s
168/256 (max 128) 422.29067 s
169/256 (max 128) 603.60498 s
170/256 (max 128) 841.04128 s
171/256 (max 128) 1166.47577 s
172/256 (max 128) 1636.04939 s
173/256 (max 128) 2313.89895 s
174/256 (max 128) 3327.76116 s
TIMEOUT
best clique: 254 253 251 248 247 244 242 241 239 236 234 233 230 229 227 224 223 220 218 217 214 213 211 208 206 205 203 200 199 196 194 193 191 188 186 185 182 181 179 176 174 173 171 168 167 164 162 161 158 157 155 152 151 148 146 145 143 140 138 137 134 133 131 128 127 124 122 121 118 117 115 112 110 109 107 104 103 100 98 97 94 93 91 88 87 84 82 81 79 76 74 73 70 69 67 64 62 61 59 56 55 52 50 49 47 44 42 41 38 37 35 32 31 28 26 25 22 21 19 16 14 13 11 8 7 4 2 1 
record          =         128
subp            =  6997668678
time            =  3600.00009
