timeout 3600 s
Graph with 28 vertices and 210 edges density 0.555556
t = 420, Enbr = 210
pos[27] = 27 degree 15
pos[26] = 14 degree 14
pos[25] = 5 degree 13
pos[24] = 0 degree 12
pos[23] = 26 degree 13
pos[22] = 19 degree 12
pos[21] = 4 degree 11
pos[20] = 1 degree 10
pos[19] = 25 degree 11
pos[18] = 20 degree 10
pos[17] = 3 degree 9
pos[16] = 2 degree 8
pos[15] = 24 degree 9
pos[14] = 17 degree 8
pos[13] = 11 degree 7
pos[12] = 6 degree 6
pos[11] = 23 degree 7
pos[10] = 18 degree 6
pos[9] = 10 degree 5
pos[8] = 7 degree 4
pos[7] = 22 degree 5
pos[6] = 15 degree 4
pos[5] = 13 degree 3
pos[4] = 8 degree 2
pos[3] = 21 degree 3
pos[2] = 16 degree 2
pos[1] = 12 degree 1
pos[0] = 9 degree 0
kplex size 1
[9 ]
1/28 (max 1) 0.00004 s
kplex size 2
[12 9 ]
2/28 (max 2) 0.00004 s
kplex size 3
[16 12 9 ]
3/28 (max 3) 0.00004 s
kplex size 4
[21 16 12 9 ]
4/28 (max 4) 0.00005 s
5/28 (max 4) 0.00005 s
6/28 (max 4) 0.00005 s
7/28 (max 4) 0.00005 s
8/28 (max 4) 0.00006 s
kplex size 5
[7 22 15 13 12 ]
9/28 (max 5) 0.00006 s
10/28 (max 5) 0.00006 s
11/28 (max 5) 0.00007 s
12/28 (max 5) 0.00007 s
13/28 (max 5) 0.00008 s
14/28 (max 5) 0.00009 s
15/28 (max 5) 0.00010 s
16/28 (max 5) 0.00011 s
17/28 (max 5) 0.00013 s
18/28 (max 5) 0.00016 s
19/28 (max 5) 0.00019 s
20/28 (max 5) 0.00022 s
21/28 (max 5) 0.00026 s
22/28 (max 5) 0.00031 s
23/28 (max 5) 0.00036 s
24/28 (max 5) 0.00044 s
25/28 (max 5) 0.00050 s
26/28 (max 5) 0.00058 s
27/28 (max 5) 0.00067 s
28/28 (max 5) 0.00079 s
best clique: 7 22 15 13 12 
subp                 =       4096
record               =          5
time                 =    0.00079
