timeout 3600 s
Graph with 70 vertices and 1855 edges density 0.768116
t = 3710, Enbr = 1855
pos[69] = 69 degree 53
pos[68] = 60 degree 52
pos[67] = 55 degree 51
pos[66] = 49 degree 50
pos[65] = 46 degree 49
pos[64] = 42 degree 48
pos[63] = 41 degree 47
pos[62] = 28 degree 46
pos[61] = 27 degree 45
pos[60] = 23 degree 44
pos[59] = 20 degree 43
pos[58] = 14 degree 42
pos[57] = 9 degree 41
pos[56] = 0 degree 40
pos[55] = 68 degree 43
pos[54] = 63 degree 42
pos[53] = 52 degree 41
pos[52] = 38 degree 40
pos[51] = 31 degree 39
pos[50] = 17 degree 38
pos[49] = 6 degree 37
pos[48] = 1 degree 36
pos[47] = 67 degree 37
pos[46] = 64 degree 36
pos[45] = 51 degree 35
pos[44] = 37 degree 34
pos[43] = 32 degree 33
pos[42] = 18 degree 32
pos[41] = 5 degree 31
pos[40] = 2 degree 30
pos[39] = 66 degree 31
pos[38] = 61 degree 30
pos[37] = 54 degree 29
pos[36] = 36 degree 28
pos[35] = 33 degree 27
pos[34] = 15 degree 26
pos[33] = 8 degree 25
pos[32] = 3 degree 24
pos[31] = 65 degree 25
pos[30] = 62 degree 24
pos[29] = 53 degree 23
pos[28] = 35 degree 22
pos[27] = 34 degree 21
pos[26] = 16 degree 20
pos[25] = 7 degree 19
pos[24] = 4 degree 18
pos[23] = 59 degree 19
pos[22] = 56 degree 18
pos[21] = 50 degree 17
pos[20] = 45 degree 16
pos[19] = 24 degree 15
pos[18] = 19 degree 14
pos[17] = 13 degree 13
pos[16] = 10 degree 12
pos[15] = 58 degree 13
pos[14] = 57 degree 12
pos[13] = 44 degree 11
pos[12] = 39 degree 10
pos[11] = 30 degree 9
pos[10] = 25 degree 8
pos[9] = 12 degree 7
pos[8] = 11 degree 6
pos[7] = 48 degree 7
pos[6] = 47 degree 6
pos[5] = 43 degree 5
pos[4] = 40 degree 4
pos[3] = 29 degree 3
pos[2] = 26 degree 2
pos[1] = 22 degree 1
pos[0] = 21 degree 0
kplex size 1
[21 ]
1/70 (max 1) 0.00011 s
kplex size 2
[22 21 ]
2/70 (max 2) 0.00012 s
kplex size 3
[26 22 21 ]
3/70 (max 3) 0.00012 s
kplex size 4
[29 26 22 21 ]
4/70 (max 4) 0.00013 s
kplex size 5
[40 29 26 22 21 ]
5/70 (max 5) 0.00013 s
kplex size 6
[43 40 29 26 22 21 ]
6/70 (max 6) 0.00013 s
kplex size 7
[47 43 40 29 26 22 21 ]
7/70 (max 7) 0.00014 s
kplex size 8
[48 47 43 40 29 26 22 21 ]
8/70 (max 8) 0.00014 s
9/70 (max 8) 0.00014 s
10/70 (max 8) 0.00014 s
11/70 (max 8) 0.00015 s
12/70 (max 8) 0.00016 s
13/70 (max 8) 0.00018 s
14/70 (max 8) 0.00021 s
15/70 (max 8) 0.00028 s
16/70 (max 8) 0.00040 s
kplex size 9
[10 58 57 44 39 30 25 12 47 ]
17/70 (max 9) 0.00043 s
kplex size 10
[13 10 58 57 44 39 30 25 48 47 ]
18/70 (max 10) 0.00045 s
kplex size 11
[19 13 10 58 57 44 39 48 47 29 26 ]
19/70 (max 11) 0.00046 s
kplex size 12
[24 19 13 10 58 57 44 39 48 47 29 26 ]
20/70 (max 12) 0.00047 s
21/70 (max 12) 0.00047 s
22/70 (max 12) 0.00048 s
23/70 (max 12) 0.00051 s
24/70 (max 12) 0.00058 s
25/70 (max 12) 0.00067 s
26/70 (max 12) 0.00082 s
27/70 (max 12) 0.00105 s
28/70 (max 12) 0.00141 s
29/70 (max 12) 0.00197 s
30/70 (max 12) 0.00286 s
31/70 (max 12) 0.00419 s
32/70 (max 12) 0.00618 s
33/70 (max 12) 0.00802 s
34/70 (max 12) 0.01054 s
35/70 (max 12) 0.01381 s
36/70 (max 12) 0.01821 s
37/70 (max 12) 0.02158 s
38/70 (max 12) 0.02635 s
39/70 (max 12) 0.03242 s
40/70 (max 12) 0.04081 s
41/70 (max 12) 0.05010 s
42/70 (max 12) 0.06135 s
43/70 (max 12) 0.07660 s
44/70 (max 12) 0.09556 s
45/70 (max 12) 0.11837 s
46/70 (max 12) 0.14677 s
47/70 (max 12) 0.18506 s
48/70 (max 12) 0.23253 s
kplex size 13
[1 67 51 37 61 34 16 7 24 57 25 11 43 ]
49/70 (max 13) 0.23924 s
kplex size 14
[6 1 51 37 66 61 34 16 50 24 57 11 43 26 ]
50/70 (max 14) 0.24263 s
51/70 (max 14) 0.24401 s
52/70 (max 14) 0.24759 s
53/70 (max 14) 0.25515 s
54/70 (max 14) 0.26740 s
55/70 (max 14) 0.28741 s
56/70 (max 14) 0.31879 s
57/70 (max 14) 0.32508 s
58/70 (max 14) 0.33967 s
59/70 (max 14) 0.38569 s
60/70 (max 14) 0.41707 s
61/70 (max 14) 0.48890 s
62/70 (max 14) 0.58344 s
63/70 (max 14) 0.67046 s
64/70 (max 14) 0.77360 s
65/70 (max 14) 0.93204 s
66/70 (max 14) 1.14054 s
67/70 (max 14) 1.33528 s
68/70 (max 14) 1.66430 s
69/70 (max 14) 1.96836 s
70/70 (max 14) 2.28152 s
best clique: 6 1 51 37 66 61 34 16 50 24 57 11 43 26 
subp                 =   11594085
record               =         14
time                 =    2.28153
