timeout 3600 s
Graph with 776 vertices and 225990 edges density 0.751546
t = 451980, Enbr = 225990
pos[775] = 773 degree 560
pos[774] = 705 degree 559
pos[773] = 658 degree 558
pos[772] = 559 degree 557
pos[771] = 471 degree 556
pos[770] = 337 degree 555
pos[769] = 299 degree 554
pos[768] = 219 degree 553
pos[767] = 775 degree 555
pos[766] = 759 degree 554
pos[765] = 706 degree 553
pos[764] = 672 degree 552
pos[763] = 646 degree 551
pos[762] = 502 degree 550
pos[761] = 343 degree 549
pos[760] = 317 degree 548
pos[759] = 244 degree 547
pos[758] = 228 degree 546
pos[757] = 338 degree 546
pos[756] = 220 degree 545
pos[755] = 774 degree 545
pos[754] = 758 degree 544
pos[753] = 704 degree 543
pos[752] = 671 degree 542
pos[751] = 659 degree 541
pos[750] = 560 degree 540
pos[749] = 472 degree 539
pos[748] = 342 degree 538
pos[747] = 300 degree 537
pos[746] = 227 degree 536
pos[745] = 566 degree 536
pos[744] = 221 degree 535
pos[743] = 770 degree 535
pos[742] = 470 degree 534
pos[741] = 430 degree 533
pos[740] = 239 degree 532
pos[739] = 768 degree 532
pos[738] = 663 degree 531
pos[737] = 345 degree 530
pos[736] = 321 degree 529
pos[735] = 274 degree 528
pos[734] = 752 degree 528
pos[733] = 736 degree 527
pos[732] = 696 degree 526
pos[731] = 650 degree 525
pos[730] = 590 degree 524
pos[729] = 237 degree 523
pos[728] = 669 degree 523
pos[727] = 665 degree 522
pos[726] = 336 degree 521
pos[725] = 334 degree 520
pos[724] = 298 degree 519
pos[723] = 218 degree 518
pos[722] = 760 degree 518
pos[721] = 749 degree 517
pos[720] = 440 degree 516
pos[719] = 268 degree 515
pos[718] = 243 degree 514
pos[717] = 738 degree 514
pos[716] = 558 degree 513
pos[715] = 772 degree 513
pos[714] = 657 degree 512
pos[713] = 651 degree 511
pos[712] = 600 degree 510
pos[711] = 464 degree 509
pos[710] = 340 degree 508
pos[709] = 306 degree 507
pos[708] = 216 degree 506
pos[707] = 751 degree 506
pos[706] = 330 degree 505
pos[705] = 322 degree 504
pos[704] = 747 degree 504
pos[703] = 730 degree 503
pos[702] = 674 degree 502
pos[701] = 438 degree 501
pos[700] = 328 degree 500
pos[699] = 276 degree 499
pos[698] = 241 degree 498
pos[697] = 766 degree 498
pos[696] = 432 degree 497
pos[695] = 344 degree 496
pos[694] = 319 degree 495
pos[693] = 728 degree 495
pos[692] = 673 degree 494
pos[691] = 648 degree 493
pos[690] = 598 degree 492
pos[689] = 568 degree 491
pos[688] = 266 degree 490
pos[687] = 235 degree 489
pos[686] = 229 degree 488
pos[685] = 698 degree 488
pos[684] = 667 degree 487
pos[683] = 462 degree 486
pos[682] = 308 degree 485
pos[681] = 592 degree 485
pos[680] = 767 degree 486
pos[679] = 712 degree 485
pos[678] = 456 degree 484
pos[677] = 302 degree 483
pos[676] = 267 degree 482
pos[675] = 567 degree 482
pos[674] = 737 degree 482
pos[673] = 714 degree 481
pos[672] = 439 degree 480
pos[671] = 697 degree 480
pos[670] = 466 degree 479
pos[669] = 320 degree 478
pos[668] = 304 degree 477
pos[667] = 231 degree 477
pos[666] = 762 degree 477
pos[665] = 596 degree 476
pos[664] = 436 degree 475
pos[663] = 732 degree 475
pos[662] = 290 degree 474
pos[661] = 750 degree 474
pos[660] = 536 degree 473
pos[659] = 448 degree 472
pos[658] = 329 degree 471
pos[657] = 700 degree 471
pos[656] = 282 degree 470
pos[655] = 275 degree 469
pos[654] = 764 degree 470
pos[653] = 666 degree 469
pos[652] = 526 degree 468
pos[651] = 431 degree 467
pos[650] = 307 degree 466
pos[649] = 576 degree 466
pos[648] = 292 degree 465
pos[647] = 720 degree 465
pos[646] = 463 degree 464
pos[645] = 270 degree 463
pos[644] = 649 degree 463
pos[643] = 734 degree 463
pos[642] = 594 degree 462
pos[641] = 564 degree 461
pos[640] = 242 degree 460
pos[639] = 582 degree 460
pos[638] = 504 degree 459
pos[637] = 494 degree 458
pos[636] = 729 degree 458
pos[635] = 284 degree 457
pos[634] = 236 degree 456
pos[633] = 599 degree 456
pos[632] = 702 degree 456
pos[631] = 661 degree 455
pos[630] = 574 degree 454
pos[629] = 528 degree 453
pos[628] = 454 degree 453
pos[627] = 332 degree 452
pos[626] = 272 degree 451
pos[625] = 722 degree 451
pos[624] = 434 degree 450
pos[623] = 233 degree 449
pos[622] = 591 degree 450
pos[621] = 584 degree 449
pos[620] = 562 degree 448
pos[619] = 534 degree 447
pos[618] = 496 degree 446
pos[617] = 468 degree 445
pos[616] = 446 degree 444
pos[615] = 771 degree 451
pos[614] = 769 degree 450
pos[613] = 703 degree 449
pos[612] = 656 degree 448
pos[611] = 645 degree 447
pos[610] = 557 degree 446
pos[609] = 469 degree 445
pos[608] = 335 degree 444
pos[607] = 316 degree 443
pos[606] = 297 degree 442
pos[605] = 238 degree 441
pos[604] = 217 degree 440
pos[603] = 745 degree 440
pos[602] = 639 degree 439
pos[601] = 310 degree 438
pos[600] = 214 degree 437
pos[599] = 637 degree 437
pos[598] = 609 degree 436
pos[597] = 202 degree 435
pos[596] = 184 degree 434
pos[595] = 765 degree 434
pos[594] = 727 degree 433
pos[593] = 647 degree 432
pos[592] = 341 degree 431
pos[591] = 273 degree 430
pos[590] = 226 degree 429
pos[589] = 170 degree 428
pos[588] = 142 degree 427
pos[587] = 65 degree 426
pos[586] = 47 degree 425
pos[585] = 757 degree 426
pos[584] = 735 degree 425
pos[583] = 565 degree 424
pos[582] = 461 degree 423
pos[581] = 265 degree 422
pos[580] = 234 degree 421
pos[579] = 746 degree 421
pos[578] = 668 degree 420
pos[577] = 339 degree 419
pos[576] = 215 degree 418
pos[575] = 748 degree 418
pos[574] = 740 degree 417
pos[573] = 670 degree 416
pos[572] = 644 degree 415
pos[571] = 597 degree 414
pos[570] = 437 degree 413
pos[569] = 327 degree 412
pos[568] = 315 degree 411
pos[567] = 209 degree 410
pos[566] = 695 degree 410
pos[565] = 632 degree 409
pos[564] = 614 degree 408
pos[563] = 305 degree 407
pos[562] = 207 degree 406
pos[561] = 179 degree 405
pos[560] = 664 degree 405
pos[559] = 589 degree 404
pos[558] = 429 degree 403
pos[557] = 318 degree 402
pos[556] = 240 degree 401
pos[555] = 165 degree 400
pos[554] = 147 degree 399
pos[553] = 70 degree 398
pos[552] = 42 degree 397
pos[551] = 756 degree 407
pos[550] = 744 degree 406
pos[549] = 724 degree 405
pos[548] = 641 degree 404
pos[547] = 628 degree 403
pos[546] = 460 degree 402
pos[545] = 324 degree 401
pos[544] = 312 degree 400
pos[543] = 264 degree 399
pos[542] = 213 degree 398
pos[541] = 692 degree 398
pos[540] = 636 degree 397
pos[539] = 620 degree 396
pos[538] = 258 degree 395
pos[537] = 223 degree 394
pos[536] = 204 degree 393
pos[535] = 200 degree 392
pos[534] = 690 degree 392
pos[533] = 655 degree 391
pos[532] = 613 degree 390
pos[531] = 296 degree 389
pos[530] = 250 degree 388
pos[529] = 192 degree 387
pos[528] = 181 degree 386
pos[527] = 742 degree 386
pos[526] = 682 degree 385
pos[525] = 314 degree 384
pos[524] = 754 degree 386
pos[523] = 694 degree 385
pos[522] = 688 degree 384
pos[521] = 634 degree 383
pos[520] = 326 degree 382
pos[519] = 294 degree 381
pos[518] = 206 degree 380
pos[517] = 198 degree 379
pos[516] = 46 degree 378
pos[515] = 680 degree 378
pos[514] = 653 degree 377
pos[513] = 611 degree 376
pos[512] = 262 degree 375
pos[511] = 211 degree 374
pos[510] = 190 degree 373
pos[509] = 726 degree 373
pos[508] = 643 degree 372
pos[507] = 630 degree 371
pos[506] = 260 degree 370
pos[505] = 225 degree 369
pos[504] = 183 degree 368
pos[503] = 622 degree 368
pos[502] = 252 degree 367
pos[501] = 763 degree 368
pos[500] = 303 degree 367
pos[499] = 586 degree 367
pos[498] = 556 degree 366
pos[497] = 426 degree 365
pos[496] = 733 degree 365
pos[495] = 333 degree 364
pos[494] = 44 degree 363
pos[493] = 701 degree 364
pos[492] = 588 degree 363
pos[491] = 554 degree 362
pos[490] = 458 degree 361
pos[489] = 428 degree 360
pos[488] = 232 degree 359
pos[487] = 761 degree 359
pos[486] = 301 degree 358
pos[485] = 662 degree 358
pos[484] = 313 degree 357
pos[483] = 731 degree 357
pos[482] = 635 degree 356
pos[481] = 331 degree 355
pos[480] = 271 degree 354
pos[479] = 755 degree 355
pos[478] = 743 degree 354
pos[477] = 699 degree 353
pos[476] = 295 degree 352
pos[475] = 230 degree 351
pos[474] = 205 degree 350
pos[473] = 693 degree 350
pos[472] = 224 degree 349
pos[471] = 660 degree 349
pos[470] = 642 degree 348
pos[469] = 269 degree 347
pos[468] = 182 degree 346
pos[467] = 725 degree 346
pos[466] = 325 degree 345
pos[465] = 654 degree 345
pos[464] = 612 degree 344
pos[463] = 263 degree 343
pos[462] = 212 degree 342
pos[461] = 169 degree 341
pos[460] = 167 degree 341
pos[459] = 146 degree 341
pos[458] = 69 degree 340
pos[457] = 144 degree 340
pos[456] = 67 degree 339
pos[455] = 552 degree 343
pos[454] = 542 degree 342
pos[453] = 422 degree 341
pos[452] = 416 degree 340
pos[451] = 753 degree 340
pos[450] = 222 degree 339
pos[449] = 721 degree 340
pos[448] = 652 degree 339
pos[447] = 550 degree 338
pos[446] = 544 degree 337
pos[445] = 424 degree 336
pos[444] = 414 degree 335
pos[443] = 323 degree 334
pos[442] = 288 degree 333
pos[441] = 716 degree 333
pos[440] = 283 degree 332
pos[439] = 626 degree 332
pos[438] = 199 degree 331
pos[437] = 713 degree 331
pos[436] = 398 degree 330
pos[435] = 289 degree 329
pos[434] = 711 degree 329
pos[433] = 374 degree 328
pos[432] = 368 degree 327
pos[431] = 286 degree 326
pos[430] = 710 degree 326
pos[429] = 408 degree 325
pos[428] = 278 degree 324
pos[427] = 686 degree 324
pos[426] = 624 degree 323
pos[425] = 259 degree 322
pos[424] = 191 degree 321
pos[423] = 719 degree 321
pos[422] = 280 degree 320
pos[421] = 739 degree 320
pos[420] = 684 degree 319
pos[419] = 629 degree 318
pos[418] = 311 degree 317
pos[417] = 251 degree 316
pos[416] = 196 degree 315
pos[415] = 718 degree 315
pos[414] = 708 degree 314
pos[413] = 638 degree 313
pos[412] = 621 degree 312
pos[411] = 291 degree 311
pos[410] = 281 degree 310
pos[409] = 210 degree 309
pos[408] = 194 degree 308
pos[407] = 741 degree 309
pos[406] = 309 degree 308
pos[405] = 723 degree 308
pos[404] = 689 degree 307
pos[403] = 640 degree 306
pos[402] = 261 degree 305
pos[401] = 256 degree 304
pos[400] = 208 degree 303
pos[399] = 681 degree 303
pos[398] = 254 degree 302
pos[397] = 691 degree 302
pos[396] = 633 degree 301
pos[395] = 631 degree 300
pos[394] = 293 degree 299
pos[393] = 180 degree 298
pos[392] = 178 degree 297
pos[391] = 610 degree 298
pos[390] = 608 degree 297
pos[389] = 203 degree 296
pos[388] = 201 degree 295
pos[387] = 627 degree 298
pos[386] = 189 degree 297
pos[385] = 618 degree 297
pos[384] = 186 degree 296
pos[383] = 717 degree 296
pos[382] = 687 degree 295
pos[381] = 285 degree 294
pos[380] = 279 degree 293
pos[379] = 249 degree 292
pos[378] = 678 degree 292
pos[377] = 619 degree 291
pos[376] = 246 degree 290
pos[375] = 197 degree 289
pos[374] = 715 degree 289
pos[373] = 709 degree 288
pos[372] = 616 degree 287
pos[371] = 607 degree 286
pos[370] = 188 degree 285
pos[369] = 176 degree 284
pos[368] = 679 degree 284
pos[367] = 604 degree 283
pos[366] = 287 degree 282
pos[365] = 257 degree 281
pos[364] = 172 degree 280
pos[363] = 676 degree 280
pos[362] = 248 degree 279
pos[361] = 625 degree 279
pos[360] = 606 degree 278
pos[359] = 177 degree 277
pos[358] = 707 degree 277
pos[357] = 602 degree 276
pos[356] = 195 degree 275
pos[355] = 174 degree 274
pos[354] = 277 degree 274
pos[353] = 685 degree 275
pos[352] = 623 degree 275
pos[351] = 617 degree 274
pos[350] = 255 degree 273
pos[349] = 193 degree 273
pos[348] = 187 degree 272
pos[347] = 683 degree 274
pos[346] = 677 degree 273
pos[345] = 406 degree 272
pos[344] = 400 degree 271
pos[343] = 376 degree 270
pos[342] = 366 degree 269
pos[341] = 253 degree 269
pos[340] = 247 degree 268
pos[339] = 168 degree 272
pos[338] = 45 degree 271
pos[337] = 551 degree 272
pos[336] = 420 degree 271
pos[335] = 350 degree 270
pos[334] = 145 degree 269
pos[333] = 68 degree 268
pos[332] = 581 degree 269
pos[331] = 548 degree 268
pos[330] = 445 degree 267
pos[329] = 423 degree 266
pos[328] = 572 degree 266
pos[327] = 546 degree 265
pos[326] = 442 degree 264
pos[325] = 415 degree 263
pos[324] = 163 degree 262
pos[323] = 153 degree 261
pos[322] = 131 degree 260
pos[321] = 125 degree 259
pos[320] = 421 degree 259
pos[319] = 392 degree 258
pos[318] = 352 degree 257
pos[317] = 101 degree 256
pos[316] = 91 degree 255
pos[315] = 61 degree 254
pos[314] = 55 degree 253
pos[313] = 575 degree 253
pos[312] = 538 degree 252
pos[311] = 390 degree 251
pos[310] = 573 degree 251
pos[309] = 480 degree 250
pos[308] = 444 degree 249
pos[307] = 418 degree 248
pos[306] = 518 degree 248
pos[305] = 360 degree 247
pos[304] = 162 degree 246
pos[303] = 155 degree 245
pos[302] = 123 degree 244
pos[301] = 63 degree 243
pos[300] = 478 degree 243
pos[299] = 452 degree 242
pos[298] = 382 degree 241
pos[297] = 161 degree 240
pos[296] = 93 degree 239
pos[295] = 57 degree 238
pos[294] = 549 degree 238
pos[293] = 133 degree 237
pos[292] = 53 degree 236
pos[291] = 543 degree 236
pos[290] = 520 degree 235
pos[289] = 412 degree 234
pos[288] = 358 degree 233
pos[287] = 99 degree 232
pos[286] = 578 degree 232
pos[285] = 447 degree 231
pos[284] = 159 degree 230
pos[283] = 570 degree 230
pos[282] = 541 degree 229
pos[281] = 488 degree 228
pos[280] = 453 degree 227
pos[279] = 410 degree 226
pos[278] = 384 degree 225
pos[277] = 129 degree 224
pos[276] = 95 degree 223
pos[275] = 124 degree 223
pos[274] = 540 degree 223
pos[273] = 512 degree 222
pos[272] = 486 degree 221
pos[271] = 455 degree 220
pos[270] = 413 degree 219
pos[269] = 100 degree 218
pos[268] = 510 degree 218
pos[267] = 127 degree 217
pos[266] = 97 degree 216
pos[265] = 605 degree 216
pos[264] = 583 degree 215
pos[263] = 92 degree 214
pos[262] = 64 degree 213
pos[261] = 580 degree 213
pos[260] = 450 degree 212
pos[259] = 175 degree 211
pos[258] = 166 degree 211
pos[257] = 164 degree 210
pos[256] = 89 degree 209
pos[255] = 59 degree 208
pos[254] = 143 degree 208
pos[253] = 119 degree 207
pos[252] = 41 degree 206
pos[251] = 66 degree 206
pos[250] = 8 degree 205
pos[249] = 149 degree 205
pos[248] = 121 degree 204
pos[247] = 141 degree 204
pos[246] = 43 degree 203
pos[245] = 32 degree 202
pos[244] = 157 degree 202
pos[243] = 87 degree 201
pos[242] = 51 degree 200
pos[241] = 30 degree 200
pos[240] = 10 degree 199
pos[239] = 132 degree 199
pos[238] = 585 degree 199
pos[237] = 545 degree 198
pos[236] = 539 degree 197
pos[235] = 441 degree 196
pos[234] = 49 degree 195
pos[233] = 553 degree 195
pos[232] = 465 degree 194
pos[231] = 459 degree 193
pos[230] = 375 degree 192
pos[229] = 151 degree 191
pos[228] = 128 degree 190
pos[227] = 433 degree 190
pos[226] = 399 degree 189
pos[225] = 96 degree 188
pos[224] = 577 degree 188
pos[223] = 519 degree 187
pos[222] = 425 degree 186
pos[221] = 417 degree 185
pos[220] = 367 degree 184
pos[219] = 359 degree 183
pos[218] = 130 degree 182
pos[217] = 94 degree 181
pos[216] = 569 degree 181
pos[215] = 511 degree 180
pos[214] = 122 degree 179
pos[213] = 33 degree 178
pos[212] = 9 degree 177
pos[211] = 593 degree 177
pos[210] = 479 degree 176
pos[209] = 457 degree 175
pos[208] = 98 degree 174
pos[207] = 28 degree 173
pos[206] = 561 degree 173
pos[205] = 535 degree 172
pos[204] = 409 degree 171
pos[203] = 391 degree 170
pos[202] = 351 degree 169
pos[201] = 126 degree 168
pos[200] = 120 degree 167
pos[199] = 90 degree 166
pos[198] = 6 degree 165
pos[197] = 503 degree 165
pos[196] = 449 degree 164
pos[195] = 88 degree 163
pos[194] = 31 degree 162
pos[193] = 537 degree 162
pos[192] = 495 degree 161
pos[191] = 407 degree 160
pos[190] = 383 degree 159
pos[189] = 11 degree 158
pos[188] = 615 degree 158
pos[187] = 487 degree 157
pos[186] = 527 degree 157
pos[185] = 185 degree 156
pos[184] = 356 degree 157
pos[183] = 118 degree 156
pos[182] = 50 degree 155
pos[181] = 29 degree 154
pos[180] = 485 degree 154
pos[179] = 402 degree 153
pos[178] = 86 degree 152
pos[177] = 7 degree 151
pos[176] = 525 degree 151
pos[175] = 372 degree 150
pos[174] = 354 degree 149
pos[173] = 154 degree 148
pos[172] = 601 degree 148
pos[171] = 516 degree 147
pos[170] = 492 degree 146
pos[169] = 380 degree 145
pos[168] = 156 degree 144
pos[167] = 150 degree 143
pos[166] = 62 degree 142
pos[165] = 514 degree 142
pos[164] = 490 degree 141
pos[163] = 404 degree 140
pos[162] = 378 degree 139
pos[161] = 370 degree 138
pos[160] = 171 degree 137
pos[159] = 138 degree 136
pos[158] = 58 degree 135
pos[157] = 477 degree 135
pos[156] = 81 degree 134
pos[155] = 56 degree 133
pos[154] = 54 degree 132
pos[153] = 533 degree 132
pos[152] = 83 degree 131
pos[151] = 476 degree 131
pos[150] = 388 degree 130
pos[149] = 160 degree 129
pos[148] = 80 degree 128
pos[147] = 52 degree 127
pos[146] = 522 degree 127
pos[145] = 500 degree 126
pos[144] = 482 degree 125
pos[143] = 396 degree 124
pos[142] = 386 degree 123
pos[141] = 362 degree 122
pos[140] = 158 degree 121
pos[139] = 148 degree 120
pos[138] = 77 degree 119
pos[137] = 37 degree 118
pos[136] = 27 degree 117
pos[135] = 508 degree 117
pos[134] = 346 degree 116
pos[133] = 71 degree 115
pos[132] = 60 degree 114
pos[131] = 5 degree 113
pos[130] = 603 degree 113
pos[129] = 532 degree 112
pos[128] = 506 degree 111
pos[127] = 498 degree 110
pos[126] = 364 degree 109
pos[125] = 152 degree 108
pos[124] = 85 degree 107
pos[123] = 48 degree 106
pos[122] = 173 degree 106
pos[121] = 79 degree 105
pos[120] = 394 degree 105
pos[119] = 348 degree 104
pos[118] = 76 degree 103
pos[117] = 531 degree 103
pos[116] = 524 degree 102
pos[115] = 474 degree 101
pos[114] = 75 degree 100
pos[113] = 4 degree 99
pos[112] = 530 degree 99
pos[111] = 484 degree 98
pos[110] = 387 degree 97
pos[109] = 114 degree 96
pos[108] = 104 degree 95
pos[107] = 73 degree 94
pos[106] = 3 degree 93
pos[105] = 489 degree 93
pos[104] = 401 degree 92
pos[103] = 355 degree 91
pos[102] = 110 degree 90
pos[101] = 21 degree 89
pos[100] = 515 degree 89
pos[99] = 475 degree 88
pos[98] = 389 degree 87
pos[97] = 379 degree 86
pos[96] = 139 degree 85
pos[95] = 106 degree 84
pos[94] = 20 degree 83
pos[93] = 505 degree 83
pos[92] = 499 degree 82
pos[91] = 385 degree 81
pos[90] = 363 degree 80
pos[89] = 137 degree 79
pos[88] = 116 degree 78
pos[87] = 39 degree 77
pos[86] = 17 degree 76
pos[85] = 501 degree 76
pos[84] = 419 degree 75
pos[83] = 393 degree 74
pos[82] = 369 degree 73
pos[81] = 26 degree 72
pos[80] = 1 degree 71
pos[79] = 571 degree 71
pos[78] = 493 degree 70
pos[77] = 109 degree 69
pos[76] = 34 degree 68
pos[75] = 15 degree 67
pos[74] = 595 degree 67
pos[73] = 523 degree 66
pos[72] = 481 degree 65
pos[71] = 427 degree 64
pos[70] = 365 degree 63
pos[69] = 115 degree 62
pos[68] = 82 degree 61
pos[67] = 14 degree 60
pos[66] = 563 degree 60
pos[65] = 521 degree 59
pos[64] = 451 degree 58
pos[63] = 140 degree 57
pos[62] = 113 degree 56
pos[61] = 107 degree 55
pos[60] = 38 degree 54
pos[59] = 24 degree 53
pos[58] = 509 degree 53
pos[57] = 405 degree 52
pos[56] = 403 degree 51
pos[55] = 361 degree 50
pos[54] = 135 degree 49
pos[53] = 103 degree 48
pos[52] = 74 degree 47
pos[51] = 587 degree 47
pos[50] = 491 degree 46
pos[49] = 397 degree 45
pos[48] = 72 degree 44
pos[47] = 25 degree 43
pos[46] = 19 degree 42
pos[45] = 547 degree 42
pos[44] = 529 degree 41
pos[43] = 443 degree 40
pos[42] = 435 degree 39
pos[41] = 373 degree 38
pos[40] = 349 degree 37
pos[39] = 347 degree 36
pos[38] = 117 degree 35
pos[37] = 108 degree 34
pos[36] = 40 degree 33
pos[35] = 18 degree 32
pos[34] = 12 degree 31
pos[33] = 0 degree 30
pos[32] = 675 degree 30
pos[31] = 517 degree 29
pos[30] = 136 degree 28
pos[29] = 579 degree 28
pos[28] = 555 degree 27
pos[27] = 513 degree 26
pos[26] = 483 degree 25
pos[25] = 473 degree 24
pos[24] = 411 degree 23
pos[23] = 381 degree 22
pos[22] = 357 degree 21
pos[21] = 134 degree 20
pos[20] = 112 degree 19
pos[19] = 105 degree 18
pos[18] = 78 degree 17
pos[17] = 35 degree 16
pos[16] = 23 degree 15
pos[15] = 16 degree 14
pos[14] = 507 degree 14
pos[13] = 497 degree 13
pos[12] = 467 degree 12
pos[11] = 395 degree 11
pos[10] = 377 degree 10
pos[9] = 371 degree 9
pos[8] = 353 degree 8
pos[7] = 245 degree 7
pos[6] = 111 degree 6
pos[5] = 102 degree 5
pos[4] = 84 degree 4
pos[3] = 36 degree 3
pos[2] = 22 degree 2
pos[1] = 13 degree 1
pos[0] = 2 degree 0
kplex size 1
[2 ]
1/776 (max 1) 0.00388 s
kplex size 2
[13 2 ]
2/776 (max 2) 0.00389 s
kplex size 3
[22 13 2 ]
3/776 (max 3) 0.00389 s
kplex size 4
[36 22 13 2 ]
4/776 (max 4) 0.00390 s
kplex size 5
[84 36 22 13 2 ]
5/776 (max 5) 0.00390 s
kplex size 6
[102 84 36 22 13 2 ]
6/776 (max 6) 0.00391 s
kplex size 7
[111 102 84 36 22 13 2 ]
7/776 (max 7) 0.00391 s
kplex size 8
[245 111 102 84 36 22 13 2 ]
8/776 (max 8) 0.00391 s
kplex size 9
[353 245 111 102 84 36 22 13 2 ]
9/776 (max 9) 0.00392 s
kplex size 10
[371 353 245 111 102 84 36 22 13 2 ]
10/776 (max 10) 0.00392 s
kplex size 11
[377 371 353 245 111 102 84 36 22 13 2 ]
11/776 (max 11) 0.00393 s
kplex size 12
[395 377 371 353 245 111 102 84 36 22 13 2 ]
12/776 (max 12) 0.00394 s
kplex size 13
[467 395 377 371 353 245 111 102 84 36 22 13 2 ]
13/776 (max 13) 0.00395 s
kplex size 14
[497 467 395 377 371 353 245 111 102 84 36 22 13 2 ]
14/776 (max 14) 0.00395 s
kplex size 15
[507 497 467 395 377 371 353 245 111 102 84 36 22 13 2 ]
15/776 (max 15) 0.00396 s
kplex size 16
[16 507 497 467 395 377 371 353 245 111 102 84 36 22 13 2 ]
16/776 (max 16) 0.00397 s
kplex size 17
[23 16 507 497 467 395 377 371 353 245 111 102 84 36 22 13 2 ]
17/776 (max 17) 0.00398 s
kplex size 18
[35 23 16 507 497 467 395 377 371 353 245 111 102 84 36 22 13 2 ]
18/776 (max 18) 0.00399 s
kplex size 19
[78 35 23 16 507 497 467 395 377 371 353 245 111 102 84 36 22 13 2 ]
19/776 (max 19) 0.00400 s
kplex size 20
[105 78 35 23 16 507 497 467 395 377 371 353 245 111 102 84 36 22 13 2 ]
20/776 (max 20) 0.00401 s
kplex size 21
[112 105 78 35 23 16 507 497 467 395 377 371 353 245 111 102 84 36 22 13 2 ]
21/776 (max 21) 0.00402 s
kplex size 22
[134 112 105 78 35 23 16 507 497 467 395 377 371 353 245 111 102 84 36 22 13 2 ]
22/776 (max 22) 0.00403 s
kplex size 23
[357 134 112 105 78 35 23 16 507 497 467 395 377 371 353 245 111 102 84 36 22 13 2 ]
23/776 (max 23) 0.00404 s
kplex size 24
[381 357 134 112 105 78 35 23 16 507 497 467 395 377 371 353 245 111 102 84 36 22 13 2 ]
24/776 (max 24) 0.00405 s
kplex size 25
[411 381 357 134 112 105 78 35 23 16 507 497 467 395 377 371 353 245 111 102 84 36 22 13 2 ]
25/776 (max 25) 0.00407 s
kplex size 26
[473 411 381 357 134 112 105 78 35 23 16 507 497 467 395 377 371 353 245 111 102 84 36 22 13 2 ]
26/776 (max 26) 0.00408 s
kplex size 27
[483 473 411 381 357 134 112 105 78 35 23 16 507 497 467 395 377 371 353 245 111 102 84 36 22 13 2 ]
27/776 (max 27) 0.00409 s
kplex size 28
[513 483 473 411 381 357 134 112 105 78 35 23 16 507 497 467 395 377 371 353 245 111 102 84 36 22 13 2 ]
28/776 (max 28) 0.00411 s
kplex size 29
[555 513 483 473 411 381 357 134 112 105 78 35 23 16 507 497 467 395 377 371 353 245 111 102 84 36 22 13 2 ]
29/776 (max 29) 0.00412 s
kplex size 30
[579 555 513 483 473 411 381 357 134 112 105 78 35 23 16 507 497 467 395 377 371 353 245 111 102 84 36 22 13 2 ]
30/776 (max 30) 0.00414 s
31/776 (max 30) 0.00414 s
32/776 (max 30) 0.00416 s
33/776 (max 30) 0.00418 s
34/776 (max 30) 0.00429 s
35/776 (max 30) 0.00481 s
36/776 (max 30) 0.00546 s
37/776 (max 30) 0.00674 s
38/776 (max 30) 0.01210 s
39/776 (max 30) 0.01958 s
40/776 (max 30) 0.02842 s
41/776 (max 30) 0.05311 s
42/776 (max 30) 0.09586 s
43/776 (max 30) 0.17245 s
44/776 (max 30) 0.31716 s
45/776 (max 30) 0.60654 s
46/776 (max 30) 1.06027 s
47/776 (max 30) 1.71403 s
48/776 (max 30) 2.90778 s
49/776 (max 30) 4.66828 s
50/776 (max 30) 7.76826 s
51/776 (max 30) 11.73814 s
52/776 (max 30) 21.68823 s
53/776 (max 30) 27.62850 s
54/776 (max 30) 37.96917 s
55/776 (max 30) 56.40657 s
56/776 (max 30) 76.85400 s
57/776 (max 30) 118.00798 s
58/776 (max 30) 177.12595 s
59/776 (max 30) 243.97684 s
60/776 (max 30) 328.16196 s
61/776 (max 30) 416.67780 s
62/776 (max 30) 565.25792 s
63/776 (max 30) 754.99649 s
64/776 (max 30) 1025.65517 s
65/776 (max 30) 1257.32947 s
66/776 (max 30) 1507.64085 s
67/776 (max 30) 1980.80247 s
68/776 (max 30) 2526.48932 s
69/776 (max 30) 3242.44943 s
TIMEOUT
best clique: 579 555 513 483 473 411 381 357 134 112 105 78 35 23 16 507 497 467 395 377 371 353 245 111 102 84 36 22 13 2 
record          =          30
subp            =  11184728555
time            =  3600.00005
