timeout 3600 s
Graph with 45 vertices and 918 edges density 0.927273
t = 1836, Enbr = 918
pos[44] = 8 degree 40
pos[43] = 7 degree 39
pos[42] = 6 degree 38
pos[41] = 5 degree 37
pos[40] = 4 degree 36
pos[39] = 3 degree 35
pos[38] = 2 degree 34
pos[37] = 1 degree 33
pos[36] = 0 degree 32
pos[35] = 44 degree 33
pos[34] = 41 degree 32
pos[33] = 38 degree 31
pos[32] = 35 degree 30
pos[31] = 32 degree 29
pos[30] = 29 degree 28
pos[29] = 26 degree 27
pos[28] = 23 degree 26
pos[27] = 20 degree 25
pos[26] = 17 degree 24
pos[25] = 14 degree 23
pos[24] = 11 degree 22
pos[23] = 43 degree 22
pos[22] = 40 degree 21
pos[21] = 37 degree 20
pos[20] = 34 degree 19
pos[19] = 31 degree 18
pos[18] = 28 degree 17
pos[17] = 25 degree 16
pos[16] = 22 degree 15
pos[15] = 19 degree 14
pos[14] = 16 degree 13
pos[13] = 13 degree 12
pos[12] = 10 degree 11
pos[11] = 42 degree 11
pos[10] = 39 degree 10
pos[9] = 36 degree 9
pos[8] = 33 degree 8
pos[7] = 30 degree 7
pos[6] = 27 degree 6
pos[5] = 24 degree 5
pos[4] = 21 degree 4
pos[3] = 18 degree 3
pos[2] = 15 degree 2
pos[1] = 12 degree 1
pos[0] = 9 degree 0
kplex size 1
[9 ]
1/45 (max 1) 0.00005 s
kplex size 2
[12 9 ]
2/45 (max 2) 0.00005 s
kplex size 3
[15 12 9 ]
3/45 (max 3) 0.00005 s
kplex size 4
[18 15 12 9 ]
4/45 (max 4) 0.00006 s
kplex size 5
[21 18 15 12 9 ]
5/45 (max 5) 0.00006 s
kplex size 6
[24 21 18 15 12 9 ]
6/45 (max 6) 0.00006 s
kplex size 7
[27 24 21 18 15 12 9 ]
7/45 (max 7) 0.00007 s
kplex size 8
[30 27 24 21 18 15 12 9 ]
8/45 (max 8) 0.00007 s
kplex size 9
[33 30 27 24 21 18 15 12 9 ]
9/45 (max 9) 0.00007 s
kplex size 10
[36 33 30 27 24 21 18 15 12 9 ]
10/45 (max 10) 0.00008 s
kplex size 11
[39 36 33 30 27 24 21 18 15 12 9 ]
11/45 (max 11) 0.00008 s
kplex size 12
[42 39 36 33 30 27 24 21 18 15 12 9 ]
12/45 (max 12) 0.00009 s
kplex size 13
[10 42 39 36 33 30 27 24 21 18 15 12 9 ]
13/45 (max 13) 0.00009 s
kplex size 14
[13 10 42 39 36 33 30 27 24 21 18 15 12 9 ]
14/45 (max 14) 0.00010 s
kplex size 15
[16 13 10 42 39 36 33 30 27 24 21 18 15 12 9 ]
15/45 (max 15) 0.00011 s
kplex size 16
[19 16 13 10 42 39 36 33 30 27 24 21 18 15 12 9 ]
16/45 (max 16) 0.00011 s
kplex size 17
[22 19 16 13 10 42 39 36 33 30 27 24 21 18 15 12 9 ]
17/45 (max 17) 0.00012 s
kplex size 18
[25 22 19 16 13 10 42 39 36 33 30 27 24 21 18 15 12 9 ]
18/45 (max 18) 0.00013 s
kplex size 19
[28 25 22 19 16 13 10 42 39 36 33 30 27 24 21 18 15 12 9 ]
19/45 (max 19) 0.00014 s
kplex size 20
[31 28 25 22 19 16 13 10 42 39 36 33 30 27 24 21 18 15 12 9 ]
20/45 (max 20) 0.00015 s
kplex size 21
[34 31 28 25 22 19 16 13 10 42 39 36 33 30 27 24 21 18 15 12 9 ]
21/45 (max 21) 0.00016 s
kplex size 22
[37 34 31 28 25 22 19 16 13 10 42 39 36 33 30 27 24 21 18 15 12 9 ]
22/45 (max 22) 0.00017 s
kplex size 23
[40 37 34 31 28 25 22 19 16 13 10 42 39 36 33 30 27 24 21 18 15 12 9 ]
23/45 (max 23) 0.00018 s
kplex size 24
[43 40 37 34 31 28 25 22 19 16 13 10 42 39 36 33 30 27 24 21 18 15 12 9 ]
24/45 (max 24) 0.00019 s
25/45 (max 24) 0.00020 s
26/45 (max 24) 0.00021 s
27/45 (max 24) 0.00028 s
28/45 (max 24) 0.00049 s
29/45 (max 24) 0.00107 s
30/45 (max 24) 0.00257 s
31/45 (max 24) 0.00645 s
32/45 (max 24) 0.01463 s
33/45 (max 24) 0.03115 s
34/45 (max 24) 0.07149 s
35/45 (max 24) 0.17343 s
36/45 (max 24) 0.42626 s
kplex size 25
[0 44 41 38 35 32 29 26 23 20 17 14 11 43 40 37 34 31 28 25 22 19 16 13 10 ]
37/45 (max 25) 0.46466 s
38/45 (max 25) 0.49150 s
kplex size 26
[2 1 0 44 41 38 35 32 29 26 23 20 17 14 11 43 40 37 34 31 28 25 22 19 16 13 ]
39/45 (max 26) 0.49679 s
40/45 (max 26) 0.50263 s
41/45 (max 26) 0.51719 s
42/45 (max 26) 0.54334 s
43/45 (max 26) 0.58023 s
44/45 (max 26) 0.63507 s
45/45 (max 26) 0.70154 s
best clique: 2 1 0 44 41 38 35 32 29 26 23 20 17 14 11 43 40 37 34 31 28 25 22 19 16 13 
subp                 =    3569516
record               =         26
time                 =    0.70154
