timeout 3600 s
Graph with 500 vertices and 62946 edges density 0.504577
t = 125892, Enbr = 62946
pos[499] = 381 degree 117
pos[498] = 13 degree 117
pos[497] = 366 degree 118
pos[496] = 184 degree 117
pos[495] = 174 degree 122
pos[494] = 487 degree 123
pos[493] = 419 degree 123
pos[492] = 389 degree 124
pos[491] = 129 degree 128
pos[490] = 408 degree 129
pos[489] = 124 degree 129
pos[488] = 420 degree 130
pos[487] = 362 degree 130
pos[486] = 272 degree 131
pos[485] = 254 degree 131
pos[484] = 496 degree 132
pos[483] = 277 degree 132
pos[482] = 163 degree 132
pos[481] = 126 degree 132
pos[480] = 16 degree 132
pos[479] = 432 degree 133
pos[478] = 294 degree 133
pos[477] = 430 degree 134
pos[476] = 243 degree 134
pos[475] = 395 degree 135
pos[474] = 57 degree 135
pos[473] = 190 degree 137
pos[472] = 178 degree 137
pos[471] = 154 degree 138
pos[470] = 204 degree 139
pos[469] = 112 degree 139
pos[468] = 61 degree 139
pos[467] = 318 degree 140
pos[466] = 186 degree 140
pos[465] = 141 degree 140
pos[464] = 15 degree 140
pos[463] = 471 degree 141
pos[462] = 385 degree 141
pos[461] = 415 degree 141
pos[460] = 130 degree 141
pos[459] = 95 degree 141
pos[458] = 363 degree 143
pos[457] = 342 degree 143
pos[456] = 76 degree 144
pos[455] = 346 degree 144
pos[454] = 458 degree 145
pos[453] = 284 degree 145
pos[452] = 492 degree 146
pos[451] = 48 degree 145
pos[450] = 188 degree 146
pos[449] = 484 degree 147
pos[448] = 217 degree 147
pos[447] = 356 degree 148
pos[446] = 253 degree 148
pos[445] = 156 degree 148
pos[444] = 175 degree 150
pos[443] = 150 degree 150
pos[442] = 52 degree 150
pos[441] = 39 degree 150
pos[440] = 176 degree 150
pos[439] = 30 degree 151
pos[438] = 440 degree 152
pos[437] = 292 degree 152
pos[436] = 235 degree 152
pos[435] = 14 degree 153
pos[434] = 151 degree 153
pos[433] = 5 degree 153
pos[432] = 334 degree 154
pos[431] = 259 degree 154
pos[430] = 173 degree 154
pos[429] = 72 degree 154
pos[428] = 19 degree 154
pos[427] = 211 degree 154
pos[426] = 422 degree 155
pos[425] = 79 degree 155
pos[424] = 317 degree 156
pos[423] = 302 degree 156
pos[422] = 63 degree 156
pos[421] = 24 degree 156
pos[420] = 306 degree 157
pos[419] = 157 degree 157
pos[418] = 71 degree 157
pos[417] = 187 degree 157
pos[416] = 26 degree 157
pos[415] = 207 degree 158
pos[414] = 421 degree 159
pos[413] = 304 degree 158
pos[412] = 354 degree 158
pos[411] = 232 degree 158
pos[410] = 337 degree 159
pos[409] = 134 degree 159
pos[408] = 386 degree 160
pos[407] = 225 degree 159
pos[406] = 260 degree 160
pos[405] = 166 degree 160
pos[404] = 89 degree 160
pos[403] = 316 degree 160
pos[402] = 86 degree 160
pos[401] = 40 degree 160
pos[400] = 92 degree 160
pos[399] = 461 degree 160
pos[398] = 336 degree 159
pos[397] = 23 degree 159
pos[396] = 4 degree 159
pos[395] = 365 degree 161
pos[394] = 8 degree 160
pos[393] = 310 degree 160
pos[392] = 203 degree 159
pos[391] = 113 degree 159
pos[390] = 476 degree 160
pos[389] = 37 degree 160
pos[388] = 447 degree 161
pos[387] = 100 degree 162
pos[386] = 105 degree 164
pos[385] = 283 degree 165
pos[384] = 195 degree 165
pos[383] = 397 degree 165
pos[382] = 466 degree 165
pos[381] = 405 degree 165
pos[380] = 392 degree 166
pos[379] = 241 degree 166
pos[378] = 135 degree 166
pos[377] = 400 degree 166
pos[376] = 77 degree 165
pos[375] = 349 degree 166
pos[374] = 416 degree 166
pos[373] = 273 degree 166
pos[372] = 125 degree 166
pos[371] = 450 degree 167
pos[370] = 359 degree 167
pos[369] = 298 degree 167
pos[368] = 263 degree 167
pos[367] = 475 degree 168
pos[366] = 423 degree 168
pos[365] = 256 degree 167
pos[364] = 457 degree 167
pos[363] = 279 degree 166
pos[362] = 144 degree 166
pos[361] = 229 degree 167
pos[360] = 191 degree 166
pos[359] = 255 degree 166
pos[358] = 449 degree 167
pos[357] = 361 degree 166
pos[356] = 328 degree 166
pos[355] = 216 degree 168
pos[354] = 55 degree 167
pos[353] = 111 degree 167
pos[352] = 181 degree 168
pos[351] = 391 degree 169
pos[350] = 3 degree 168
pos[349] = 152 degree 168
pos[348] = 155 degree 168
pos[347] = 25 degree 167
pos[346] = 119 degree 167
pos[345] = 353 degree 167
pos[344] = 378 degree 168
pos[343] = 103 degree 167
pos[342] = 493 degree 168
pos[341] = 371 degree 167
pos[340] = 251 degree 167
pos[339] = 413 degree 168
pos[338] = 394 degree 168
pos[337] = 171 degree 167
pos[336] = 330 degree 168
pos[335] = 104 degree 167
pos[334] = 399 degree 167
pos[333] = 426 degree 169
pos[332] = 167 degree 169
pos[331] = 114 degree 169
pos[330] = 238 degree 170
pos[329] = 160 degree 170
pos[328] = 139 degree 169
pos[327] = 219 degree 169
pos[326] = 107 degree 169
pos[325] = 387 degree 169
pos[324] = 12 degree 169
pos[323] = 418 degree 170
pos[322] = 379 degree 170
pos[321] = 250 degree 169
pos[320] = 121 degree 168
pos[319] = 239 degree 168
pos[318] = 164 degree 169
pos[317] = 231 degree 169
pos[316] = 289 degree 169
pos[315] = 355 degree 170
pos[314] = 455 degree 170
pos[313] = 206 degree 169
pos[312] = 376 degree 169
pos[311] = 198 degree 169
pos[310] = 274 degree 169
pos[309] = 384 degree 169
pos[308] = 59 degree 169
pos[307] = 44 degree 168
pos[306] = 406 degree 169
pos[305] = 267 degree 168
pos[304] = 213 degree 168
pos[303] = 200 degree 168
pos[302] = 305 degree 168
pos[301] = 437 degree 169
pos[300] = 429 degree 168
pos[299] = 494 degree 169
pos[298] = 375 degree 168
pos[297] = 41 degree 167
pos[296] = 311 degree 167
pos[295] = 410 degree 167
pos[294] = 32 degree 167
pos[293] = 240 degree 167
pos[292] = 245 degree 167
pos[291] = 75 degree 166
pos[290] = 53 degree 165
pos[289] = 453 degree 166
pos[288] = 266 degree 165
pos[287] = 96 degree 164
pos[286] = 91 degree 164
pos[285] = 271 degree 164
pos[284] = 7 degree 163
pos[283] = 118 degree 164
pos[282] = 47 degree 163
pos[281] = 81 degree 164
pos[280] = 483 degree 165
pos[279] = 472 degree 164
pos[278] = 425 degree 164
pos[277] = 360 degree 164
pos[276] = 10 degree 163
pos[275] = 287 degree 163
pos[274] = 148 degree 162
pos[273] = 262 degree 162
pos[272] = 404 degree 162
pos[271] = 209 degree 161
pos[270] = 478 degree 162
pos[269] = 368 degree 162
pos[268] = 452 degree 162
pos[267] = 297 degree 161
pos[266] = 497 degree 162
pos[265] = 110 degree 161
pos[264] = 351 degree 162
pos[263] = 300 degree 161
pos[262] = 194 degree 161
pos[261] = 43 degree 160
pos[260] = 303 degree 160
pos[259] = 11 degree 159
pos[258] = 99 degree 159
pos[257] = 343 degree 159
pos[256] = 208 degree 158
pos[255] = 288 degree 158
pos[254] = 17 degree 158
pos[253] = 234 degree 158
pos[252] = 73 degree 157
pos[251] = 326 degree 157
pos[250] = 35 degree 156
pos[249] = 438 degree 157
pos[248] = 127 degree 157
pos[247] = 97 degree 156
pos[246] = 327 degree 156
pos[245] = 435 degree 156
pos[244] = 312 degree 156
pos[243] = 321 degree 156
pos[242] = 117 degree 155
pos[241] = 88 degree 155
pos[240] = 242 degree 156
pos[239] = 138 degree 156
pos[238] = 85 degree 156
pos[237] = 133 degree 156
pos[236] = 6 degree 155
pos[235] = 20 degree 155
pos[234] = 1 degree 154
pos[233] = 433 degree 154
pos[232] = 264 degree 154
pos[231] = 324 degree 154
pos[230] = 282 degree 153
pos[229] = 108 degree 152
pos[228] = 45 degree 151
pos[227] = 87 degree 151
pos[226] = 445 degree 152
pos[225] = 142 degree 152
pos[224] = 320 degree 152
pos[223] = 42 degree 151
pos[222] = 74 degree 151
pos[221] = 50 degree 150
pos[220] = 49 degree 149
pos[219] = 333 degree 149
pos[218] = 344 degree 149
pos[217] = 278 degree 149
pos[216] = 244 degree 148
pos[215] = 109 degree 147
pos[214] = 248 degree 148
pos[213] = 21 degree 147
pos[212] = 469 degree 147
pos[211] = 314 degree 147
pos[210] = 309 degree 146
pos[209] = 275 degree 145
pos[208] = 252 degree 145
pos[207] = 473 degree 145
pos[206] = 199 degree 144
pos[205] = 462 degree 144
pos[204] = 227 degree 143
pos[203] = 179 degree 143
pos[202] = 146 degree 142
pos[201] = 170 degree 142
pos[200] = 94 degree 141
pos[199] = 31 degree 140
pos[198] = 313 degree 140
pos[197] = 290 degree 140
pos[196] = 224 degree 139
pos[195] = 481 degree 140
pos[194] = 460 degree 140
pos[193] = 374 degree 140
pos[192] = 212 degree 139
pos[191] = 325 degree 139
pos[190] = 308 degree 138
pos[189] = 402 degree 138
pos[188] = 345 degree 137
pos[187] = 249 degree 136
pos[186] = 486 degree 136
pos[185] = 485 degree 136
pos[184] = 65 degree 135
pos[183] = 27 degree 135
pos[182] = 285 degree 135
pos[181] = 51 degree 134
pos[180] = 182 degree 134
pos[179] = 180 degree 133
pos[178] = 177 degree 133
pos[177] = 332 degree 133
pos[176] = 276 degree 132
pos[175] = 409 degree 132
pos[174] = 280 degree 131
pos[173] = 215 degree 130
pos[172] = 448 degree 130
pos[171] = 315 degree 130
pos[170] = 228 degree 129
pos[169] = 116 degree 128
pos[168] = 491 degree 128
pos[167] = 428 degree 127
pos[166] = 490 degree 127
pos[165] = 465 degree 127
pos[164] = 223 degree 126
pos[163] = 120 degree 125
pos[162] = 46 degree 124
pos[161] = 246 degree 124
pos[160] = 102 degree 123
pos[159] = 56 degree 122
pos[158] = 140 degree 122
pos[157] = 33 degree 121
pos[156] = 331 degree 121
pos[155] = 393 degree 121
pos[154] = 339 degree 120
pos[153] = 477 degree 120
pos[152] = 390 degree 119
pos[151] = 323 degree 118
pos[150] = 295 degree 117
pos[149] = 443 degree 117
pos[148] = 196 degree 116
pos[147] = 143 degree 115
pos[146] = 482 degree 116
pos[145] = 441 degree 115
pos[144] = 329 degree 114
pos[143] = 168 degree 113
pos[142] = 2 degree 113
pos[141] = 377 degree 113
pos[140] = 286 degree 113
pos[139] = 54 degree 112
pos[138] = 463 degree 112
pos[137] = 261 degree 111
pos[136] = 34 degree 110
pos[135] = 401 degree 110
pos[134] = 373 degree 109
pos[133] = 370 degree 108
pos[132] = 210 degree 108
pos[131] = 197 degree 107
pos[130] = 0 degree 106
pos[129] = 372 degree 106
pos[128] = 357 degree 105
pos[127] = 470 degree 105
pos[126] = 446 degree 104
pos[125] = 350 degree 103
pos[124] = 106 degree 102
pos[123] = 82 degree 101
pos[122] = 222 degree 101
pos[121] = 322 degree 101
pos[120] = 128 degree 100
pos[119] = 60 degree 99
pos[118] = 28 degree 98
pos[117] = 412 degree 98
pos[116] = 451 degree 98
pos[115] = 291 degree 97
pos[114] = 269 degree 96
pos[113] = 90 degree 95
pos[112] = 467 degree 95
pos[111] = 352 degree 94
pos[110] = 226 degree 93
pos[109] = 192 degree 92
pos[108] = 84 degree 91
pos[107] = 78 degree 90
pos[106] = 236 degree 90
pos[105] = 67 degree 89
pos[104] = 436 degree 89
pos[103] = 396 degree 88
pos[102] = 183 degree 87
pos[101] = 459 degree 87
pos[100] = 233 degree 86
pos[99] = 153 degree 85
pos[98] = 122 degree 84
pos[97] = 22 degree 83
pos[96] = 172 degree 83
pos[95] = 169 degree 82
pos[94] = 358 degree 82
pos[93] = 270 degree 81
pos[92] = 161 degree 80
pos[91] = 296 degree 80
pos[90] = 218 degree 79
pos[89] = 495 degree 79
pos[88] = 427 degree 78
pos[87] = 414 degree 77
pos[86] = 364 degree 76
pos[85] = 136 degree 75
pos[84] = 115 degree 74
pos[83] = 66 degree 73
pos[82] = 18 degree 72
pos[81] = 442 degree 72
pos[80] = 131 degree 71
pos[79] = 93 degree 70
pos[78] = 80 degree 69
pos[77] = 480 degree 69
pos[76] = 340 degree 68
pos[75] = 258 degree 67
pos[74] = 189 degree 66
pos[73] = 165 degree 65
pos[72] = 69 degree 64
pos[71] = 338 degree 64
pos[70] = 307 degree 63
pos[69] = 293 degree 62
pos[68] = 101 degree 61
pos[67] = 468 degree 61
pos[66] = 398 degree 60
pos[65] = 319 degree 59
pos[64] = 158 degree 58
pos[63] = 83 degree 57
pos[62] = 464 degree 57
pos[61] = 388 degree 56
pos[60] = 247 degree 55
pos[59] = 201 degree 54
pos[58] = 162 degree 53
pos[57] = 498 degree 53
pos[56] = 456 degree 52
pos[55] = 202 degree 51
pos[54] = 147 degree 50
pos[53] = 68 degree 49
pos[52] = 444 degree 49
pos[51] = 434 degree 48
pos[50] = 424 degree 47
pos[49] = 281 degree 46
pos[48] = 214 degree 45
pos[47] = 159 degree 44
pos[46] = 64 degree 43
pos[45] = 58 degree 42
pos[44] = 38 degree 41
pos[43] = 474 degree 41
pos[42] = 439 degree 40
pos[41] = 348 degree 39
pos[40] = 137 degree 38
pos[39] = 9 degree 37
pos[38] = 499 degree 37
pos[37] = 454 degree 36
pos[36] = 417 degree 35
pos[35] = 407 degree 34
pos[34] = 380 degree 33
pos[33] = 369 degree 32
pos[32] = 335 degree 31
pos[31] = 489 degree 31
pos[30] = 488 degree 30
pos[29] = 479 degree 29
pos[28] = 431 degree 28
pos[27] = 411 degree 27
pos[26] = 403 degree 26
pos[25] = 383 degree 25
pos[24] = 382 degree 24
pos[23] = 367 degree 23
pos[22] = 347 degree 22
pos[21] = 341 degree 21
pos[20] = 301 degree 20
pos[19] = 299 degree 19
pos[18] = 268 degree 18
pos[17] = 265 degree 17
pos[16] = 257 degree 16
pos[15] = 237 degree 15
pos[14] = 230 degree 14
pos[13] = 221 degree 13
pos[12] = 220 degree 12
pos[11] = 205 degree 11
pos[10] = 193 degree 10
pos[9] = 185 degree 9
pos[8] = 149 degree 8
pos[7] = 145 degree 7
pos[6] = 132 degree 6
pos[5] = 123 degree 5
pos[4] = 98 degree 4
pos[3] = 70 degree 3
pos[2] = 62 degree 2
pos[1] = 36 degree 1
pos[0] = 29 degree 0
kplex size 1
[29 ]
1/500 (max 1) 0.00411 s
kplex size 2
[36 29 ]
2/500 (max 2) 0.00412 s
kplex size 3
[62 36 29 ]
3/500 (max 3) 0.00412 s
kplex size 4
[70 62 36 29 ]
4/500 (max 4) 0.00413 s
kplex size 5
[98 70 62 36 29 ]
5/500 (max 5) 0.00413 s
kplex size 6
[123 98 70 62 36 29 ]
6/500 (max 6) 0.00414 s
kplex size 7
[132 123 98 70 62 36 29 ]
7/500 (max 7) 0.00414 s
kplex size 8
[145 132 123 98 70 62 36 29 ]
8/500 (max 8) 0.00415 s
kplex size 9
[149 145 132 123 98 70 62 36 29 ]
9/500 (max 9) 0.00415 s
kplex size 10
[185 149 145 132 123 98 70 62 36 29 ]
10/500 (max 10) 0.00416 s
kplex size 11
[193 185 149 145 132 123 98 70 62 36 29 ]
11/500 (max 11) 0.00416 s
kplex size 12
[205 193 185 149 145 132 123 98 70 62 36 29 ]
12/500 (max 12) 0.00417 s
kplex size 13
[220 205 193 185 149 145 132 123 98 70 62 36 29 ]
13/500 (max 13) 0.00418 s
kplex size 14
[221 220 205 193 185 149 145 132 123 98 70 62 36 29 ]
14/500 (max 14) 0.00418 s
kplex size 15
[230 221 220 205 193 185 149 145 132 123 98 70 62 36 29 ]
15/500 (max 15) 0.00419 s
kplex size 16
[237 230 221 220 205 193 185 149 145 132 123 98 70 62 36 29 ]
16/500 (max 16) 0.00420 s
kplex size 17
[257 237 230 221 220 205 193 185 149 145 132 123 98 70 62 36 29 ]
17/500 (max 17) 0.00421 s
kplex size 18
[265 257 237 230 221 220 205 193 185 149 145 132 123 98 70 62 36 29 ]
18/500 (max 18) 0.00422 s
kplex size 19
[268 265 257 237 230 221 220 205 193 185 149 145 132 123 98 70 62 36 29 ]
19/500 (max 19) 0.00423 s
kplex size 20
[299 268 265 257 237 230 221 220 205 193 185 149 145 132 123 98 70 62 36 29 ]
20/500 (max 20) 0.00424 s
kplex size 21
[301 299 268 265 257 237 230 221 220 205 193 185 149 145 132 123 98 70 62 36 29 ]
21/500 (max 21) 0.00425 s
kplex size 22
[341 301 299 268 265 257 237 230 221 220 205 193 185 149 145 132 123 98 70 62 36 29 ]
22/500 (max 22) 0.00426 s
kplex size 23
[347 341 301 299 268 265 257 237 230 221 220 205 193 185 149 145 132 123 98 70 62 36 29 ]
23/500 (max 23) 0.00427 s
kplex size 24
[367 347 341 301 299 268 265 257 237 230 221 220 205 193 185 149 145 132 123 98 70 62 36 29 ]
24/500 (max 24) 0.00428 s
kplex size 25
[382 367 347 341 301 299 268 265 257 237 230 221 220 205 193 185 149 145 132 123 98 70 62 36 29 ]
25/500 (max 25) 0.00430 s
kplex size 26
[383 382 367 347 341 301 299 268 265 257 237 230 221 220 205 193 185 149 145 132 123 98 70 62 36 29 ]
26/500 (max 26) 0.00431 s
kplex size 27
[403 383 382 367 347 341 301 299 268 265 257 237 230 221 220 205 193 185 149 145 132 123 98 70 62 36 29 ]
27/500 (max 27) 0.00433 s
kplex size 28
[411 403 383 382 367 347 341 301 299 268 265 257 237 230 221 220 205 193 185 149 145 132 123 98 70 62 36 29 ]
28/500 (max 28) 0.00434 s
kplex size 29
[431 411 403 383 382 367 347 341 301 299 268 265 257 237 230 221 220 205 193 185 149 145 132 123 98 70 62 36 29 ]
29/500 (max 29) 0.00436 s
kplex size 30
[479 431 411 403 383 382 367 347 341 301 299 268 265 257 237 230 221 220 205 193 185 149 145 132 123 98 70 62 36 29 ]
30/500 (max 30) 0.00437 s
kplex size 31
[488 479 431 411 403 383 382 367 347 341 301 299 268 265 257 237 230 221 220 205 193 185 149 145 132 123 98 70 62 36 29 ]
31/500 (max 31) 0.00439 s
kplex size 32
[489 488 479 431 411 403 383 382 367 347 341 301 299 268 265 257 237 230 221 220 205 193 185 149 145 132 123 98 70 62 36 29 ]
32/500 (max 32) 0.00441 s
kplex size 33
[335 489 488 479 431 411 403 383 382 367 347 341 301 299 268 265 257 237 230 221 220 205 193 185 149 145 132 123 98 70 62 36 29 ]
33/500 (max 33) 0.00443 s
kplex size 34
[369 335 489 488 479 431 411 403 383 382 367 347 341 301 299 268 265 257 237 230 221 220 205 193 185 149 145 132 123 98 70 62 36 29 ]
34/500 (max 34) 0.00445 s
kplex size 35
[380 369 335 489 488 479 431 411 403 383 382 367 347 341 301 299 268 265 257 237 230 221 220 205 193 185 149 145 132 123 98 70 62 36 29 ]
35/500 (max 35) 0.00447 s
kplex size 36
[407 380 369 335 489 488 479 431 411 403 383 382 367 347 341 301 299 268 265 257 237 230 221 220 205 193 185 149 145 132 123 98 70 62 36 29 ]
36/500 (max 36) 0.00450 s
kplex size 37
[417 407 380 369 335 489 488 479 431 411 403 383 382 367 347 341 301 299 268 265 257 237 230 221 220 205 193 185 149 145 132 123 98 70 62 36 29 ]
37/500 (max 37) 0.00452 s
kplex size 38
[454 417 407 380 369 335 489 488 479 431 411 403 383 382 367 347 341 301 299 268 265 257 237 230 221 220 205 193 185 149 145 132 123 98 70 62 36 29 ]
38/500 (max 38) 0.00454 s
kplex size 39
[499 454 417 407 380 369 335 489 488 479 431 411 403 383 382 367 347 341 301 299 268 265 257 237 230 221 220 205 193 185 149 145 132 123 98 70 62 36 29 ]
39/500 (max 39) 0.00457 s
40/500 (max 39) 0.00458 s
41/500 (max 39) 0.00460 s
42/500 (max 39) 0.00476 s
43/500 (max 39) 0.00508 s
44/500 (max 39) 0.00814 s
45/500 (max 39) 0.01039 s
46/500 (max 39) 0.01260 s
47/500 (max 39) 0.01639 s
48/500 (max 39) 0.01892 s
49/500 (max 39) 0.04762 s
50/500 (max 39) 0.15376 s
51/500 (max 39) 0.22270 s
52/500 (max 39) 0.43456 s
53/500 (max 39) 0.64248 s
54/500 (max 39) 0.92369 s
55/500 (max 39) 1.21670 s
56/500 (max 39) 2.07031 s
57/500 (max 39) 2.39921 s
58/500 (max 39) 3.44084 s
59/500 (max 39) 5.68509 s
60/500 (max 39) 8.23627 s
61/500 (max 39) 10.85414 s
62/500 (max 39) 14.37136 s
63/500 (max 39) 19.36494 s
64/500 (max 39) 26.50578 s
65/500 (max 39) 31.24564 s
66/500 (max 39) 39.50468 s
67/500 (max 39) 49.00407 s
68/500 (max 39) 65.54664 s
kplex size 40
[101 158 83 388 201 456 444 159 439 348 137 9 499 454 380 489 488 479 431 411 383 382 367 347 301 268 265 257 237 230 221 220 205 149 145 132 123 70 62 36 ]
69/500 (max 40) 72.68319 s
70/500 (max 40) 73.85534 s
71/500 (max 40) 77.28464 s
72/500 (max 40) 85.32373 s
73/500 (max 40) 95.92208 s
74/500 (max 40) 110.14374 s
kplex size 41
[189 307 293 101 158 83 456 444 434 424 281 58 439 348 137 499 454 417 380 489 488 479 431 411 383 367 347 341 301 268 257 237 230 221 205 185 149 123 70 62 36 ]
75/500 (max 41) 124.05521 s
76/500 (max 41) 126.06039 s
77/500 (max 41) 133.06538 s
78/500 (max 41) 141.88381 s
79/500 (max 41) 149.55643 s
80/500 (max 41) 160.56096 s
81/500 (max 41) 186.92108 s
82/500 (max 41) 212.43340 s
83/500 (max 41) 253.72348 s
84/500 (max 41) 310.26720 s
85/500 (max 41) 343.05899 s
kplex size 42
[136 80 340 189 307 293 101 456 68 434 424 159 58 348 137 499 454 417 407 380 489 488 479 431 411 382 367 347 341 301 299 268 237 230 205 185 149 145 123 70 62 36 ]
86/500 (max 42) 387.37900 s
87/500 (max 42) 391.21386 s
88/500 (max 42) 406.13566 s
89/500 (max 42) 433.32449 s
90/500 (max 42) 481.69578 s
91/500 (max 42) 545.08152 s
92/500 (max 42) 618.89521 s
93/500 (max 42) 687.16698 s
94/500 (max 42) 799.34613 s
95/500 (max 42) 887.94833 s
96/500 (max 42) 1032.24218 s
97/500 (max 42) 1164.05240 s
98/500 (max 42) 1304.97296 s
99/500 (max 42) 1488.01307 s
100/500 (max 42) 1680.48006 s
101/500 (max 42) 1934.05408 s
102/500 (max 42) 2196.33576 s
103/500 (max 42) 2522.53773 s
104/500 (max 42) 2814.47075 s
105/500 (max 42) 3225.80843 s
TIMEOUT
best clique: 136 80 340 189 307 293 101 456 68 434 424 159 58 348 137 499 454 417 407 380 489 488 479 431 411 382 367 347 341 301 299 268 237 230 205 185 149 145 123 70 62 36 
record          =          42
subp            =  10374958594
time            =  3600.00027
