timeout 3600 s
Graph with 1000 vertices and 250500 edges density 0.501502
t = 501000, Enbr = 250500
pos[999] = 251 degree 445
pos[998] = 40 degree 449
pos[997] = 44 degree 449
pos[996] = 481 degree 450
pos[995] = 948 degree 450
pos[994] = 675 degree 449
pos[993] = 254 degree 448
pos[992] = 623 degree 448
pos[991] = 135 degree 447
pos[990] = 2 degree 446
pos[989] = 891 degree 447
pos[988] = 840 degree 446
pos[987] = 744 degree 445
pos[986] = 383 degree 444
pos[985] = 145 degree 444
pos[984] = 131 degree 443
pos[983] = 126 degree 443
pos[982] = 893 degree 443
pos[981] = 614 degree 443
pos[980] = 425 degree 442
pos[979] = 67 degree 441
pos[978] = 994 degree 441
pos[977] = 842 degree 440
pos[976] = 565 degree 439
pos[975] = 533 degree 438
pos[974] = 345 degree 437
pos[973] = 938 degree 437
pos[972] = 829 degree 437
pos[971] = 743 degree 436
pos[970] = 589 degree 435
pos[969] = 324 degree 434
pos[968] = 262 degree 433
pos[967] = 666 degree 433
pos[966] = 411 degree 432
pos[965] = 221 degree 431
pos[964] = 57 degree 430
pos[963] = 763 degree 430
pos[962] = 542 degree 429
pos[961] = 627 degree 429
pos[960] = 624 degree 428
pos[959] = 551 degree 427
pos[958] = 426 degree 426
pos[957] = 632 degree 426
pos[956] = 485 degree 425
pos[955] = 346 degree 424
pos[954] = 200 degree 423
pos[953] = 93 degree 422
pos[952] = 466 degree 422
pos[951] = 429 degree 421
pos[950] = 169 degree 420
pos[949] = 81 degree 419
pos[948] = 932 degree 419
pos[947] = 753 degree 418
pos[946] = 433 degree 417
pos[945] = 65 degree 416
pos[944] = 17 degree 415
pos[943] = 980 degree 415
pos[942] = 813 degree 414
pos[941] = 996 degree 414
pos[940] = 875 degree 413
pos[939] = 797 degree 412
pos[938] = 768 degree 411
pos[937] = 519 degree 410
pos[936] = 422 degree 409
pos[935] = 163 degree 408
pos[934] = 761 degree 408
pos[933] = 619 degree 407
pos[932] = 265 degree 406
pos[931] = 217 degree 405
pos[930] = 869 degree 405
pos[929] = 549 degree 404
pos[928] = 524 degree 403
pos[927] = 238 degree 402
pos[926] = 222 degree 401
pos[925] = 49 degree 400
pos[924] = 822 degree 400
pos[923] = 782 degree 399
pos[922] = 453 degree 398
pos[921] = 121 degree 397
pos[920] = 58 degree 396
pos[919] = 706 degree 396
pos[918] = 654 degree 395
pos[917] = 649 degree 394
pos[916] = 456 degree 393
pos[915] = 435 degree 392
pos[914] = 945 degree 392
pos[913] = 825 degree 391
pos[912] = 413 degree 390
pos[911] = 319 degree 389
pos[910] = 981 degree 389
pos[909] = 696 degree 388
pos[908] = 671 degree 387
pos[907] = 650 degree 386
pos[906] = 437 degree 385
pos[905] = 323 degree 384
pos[904] = 928 degree 384
pos[903] = 376 degree 383
pos[902] = 357 degree 382
pos[901] = 128 degree 381
pos[900] = 942 degree 381
pos[899] = 892 degree 380
pos[898] = 682 degree 379
pos[897] = 462 degree 378
pos[896] = 276 degree 377
pos[895] = 92 degree 376
pos[894] = 929 degree 376
pos[893] = 507 degree 375
pos[892] = 458 degree 374
pos[891] = 393 degree 373
pos[890] = 896 degree 373
pos[889] = 760 degree 372
pos[888] = 726 degree 371
pos[887] = 518 degree 370
pos[886] = 139 degree 369
pos[885] = 789 degree 369
pos[884] = 783 degree 368
pos[883] = 503 degree 367
pos[882] = 482 degree 366
pos[881] = 457 degree 365
pos[880] = 886 degree 365
pos[879] = 446 degree 364
pos[878] = 385 degree 363
pos[877] = 178 degree 362
pos[876] = 777 degree 362
pos[875] = 745 degree 361
pos[874] = 609 degree 360
pos[873] = 587 degree 359
pos[872] = 203 degree 358
pos[871] = 51 degree 357
pos[870] = 935 degree 357
pos[869] = 693 degree 356
pos[868] = 563 degree 355
pos[867] = 532 degree 354
pos[866] = 35 degree 353
pos[865] = 985 degree 353
pos[864] = 722 degree 352
pos[863] = 546 degree 351
pos[862] = 517 degree 350
pos[861] = 371 degree 349
pos[860] = 719 degree 349
pos[859] = 500 degree 348
pos[858] = 412 degree 347
pos[857] = 285 degree 346
pos[856] = 183 degree 345
pos[855] = 182 degree 344
pos[854] = 819 degree 344
pos[853] = 645 degree 343
pos[852] = 174 degree 342
pos[851] = 134 degree 341
pos[850] = 775 degree 341
pos[849] = 647 degree 340
pos[848] = 579 degree 339
pos[847] = 374 degree 338
pos[846] = 114 degree 337
pos[845] = 46 degree 336
pos[844] = 642 degree 336
pos[843] = 556 degree 335
pos[842] = 59 degree 334
pos[841] = 959 degree 334
pos[840] = 688 degree 333
pos[839] = 664 degree 332
pos[838] = 414 degree 331
pos[837] = 256 degree 330
pos[836] = 154 degree 329
pos[835] = 988 degree 329
pos[834] = 926 degree 328
pos[833] = 653 degree 327
pos[832] = 460 degree 326
pos[831] = 394 degree 325
pos[830] = 146 degree 324
pos[829] = 54 degree 323
pos[828] = 900 degree 323
pos[827] = 883 degree 322
pos[826] = 553 degree 321
pos[825] = 289 degree 320
pos[824] = 970 degree 320
pos[823] = 951 degree 319
pos[822] = 792 degree 318
pos[821] = 772 degree 317
pos[820] = 97 degree 316
pos[819] = 43 degree 315
pos[818] = 32 degree 314
pos[817] = 741 degree 314
pos[816] = 674 degree 313
pos[815] = 668 degree 312
pos[814] = 181 degree 311
pos[813] = 917 degree 311
pos[812] = 868 degree 310
pos[811] = 663 degree 309
pos[810] = 598 degree 308
pos[809] = 465 degree 307
pos[808] = 162 degree 306
pos[807] = 799 degree 306
pos[806] = 732 degree 305
pos[805] = 572 degree 304
pos[804] = 469 degree 303
pos[803] = 398 degree 302
pos[802] = 99 degree 301
pos[801] = 975 degree 301
pos[800] = 408 degree 300
pos[799] = 297 degree 299
pos[798] = 246 degree 298
pos[797] = 245 degree 297
pos[796] = 107 degree 296
pos[795] = 960 degree 296
pos[794] = 640 degree 295
pos[793] = 86 degree 294
pos[792] = 68 degree 293
pos[791] = 28 degree 292
pos[790] = 902 degree 292
pos[789] = 887 degree 291
pos[788] = 630 degree 290
pos[787] = 590 degree 289
pos[786] = 993 degree 289
pos[785] = 894 degree 288
pos[784] = 725 degree 287
pos[783] = 694 degree 286
pos[782] = 550 degree 285
pos[781] = 445 degree 284
pos[780] = 197 degree 283
pos[779] = 859 degree 283
pos[778] = 809 degree 282
pos[777] = 397 degree 281
pos[776] = 155 degree 280
pos[775] = 124 degree 279
pos[774] = 34 degree 278
pos[773] = 925 degree 278
pos[772] = 596 degree 277
pos[771] = 528 degree 276
pos[770] = 229 degree 275
pos[769] = 151 degree 274
pos[768] = 76 degree 273
pos[767] = 834 degree 273
pos[766] = 373 degree 272
pos[765] = 72 degree 271
pos[764] = 973 degree 271
pos[763] = 924 degree 270
pos[762] = 608 degree 269
pos[761] = 595 degree 268
pos[760] = 561 degree 267
pos[759] = 337 degree 266
pos[758] = 866 degree 266
pos[757] = 514 degree 265
pos[756] = 487 degree 264
pos[755] = 379 degree 263
pos[754] = 243 degree 262
pos[753] = 798 degree 262
pos[752] = 621 degree 261
pos[751] = 467 degree 260
pos[750] = 382 degree 259
pos[749] = 339 degree 258
pos[748] = 218 degree 257
pos[747] = 831 degree 257
pos[746] = 672 degree 256
pos[745] = 240 degree 255
pos[744] = 186 degree 254
pos[743] = 172 degree 253
pos[742] = 84 degree 252
pos[741] = 6 degree 251
pos[740] = 180 degree 251
pos[739] = 179 degree 250
pos[738] = 87 degree 249
pos[737] = 78 degree 248
pos[736] = 962 degree 248
pos[735] = 815 degree 247
pos[734] = 738 degree 246
pos[733] = 83 degree 245
pos[732] = 66 degree 244
pos[731] = 856 degree 244
pos[730] = 767 degree 243
pos[729] = 634 degree 242
pos[728] = 599 degree 241
pos[727] = 329 degree 240
pos[726] = 849 degree 240
pos[725] = 802 degree 239
pos[724] = 713 degree 238
pos[723] = 613 degree 237
pos[722] = 562 degree 236
pos[721] = 275 degree 235
pos[720] = 194 degree 234
pos[719] = 710 degree 234
pos[718] = 472 degree 233
pos[717] = 406 degree 232
pos[716] = 349 degree 231
pos[715] = 224 degree 230
pos[714] = 979 degree 230
pos[713] = 665 degree 229
pos[712] = 424 degree 228
pos[711] = 208 degree 227
pos[710] = 189 degree 226
pos[709] = 10 degree 225
pos[708] = 873 degree 225
pos[707] = 633 degree 224
pos[706] = 400 degree 223
pos[705] = 351 degree 222
pos[704] = 974 degree 222
pos[703] = 808 degree 221
pos[702] = 690 degree 220
pos[701] = 443 degree 219
pos[700] = 399 degree 218
pos[699] = 115 degree 217
pos[698] = 742 degree 217
pos[697] = 646 degree 216
pos[696] = 603 degree 215
pos[695] = 389 degree 214
pos[694] = 360 degree 213
pos[693] = 202 degree 212
pos[692] = 110 degree 211
pos[691] = 586 degree 211
pos[690] = 476 degree 210
pos[689] = 315 degree 209
pos[688] = 209 degree 208
pos[687] = 144 degree 207
pos[686] = 885 degree 207
pos[685] = 863 degree 206
pos[684] = 296 degree 205
pos[683] = 268 degree 204
pos[682] = 166 degree 203
pos[681] = 812 degree 203
pos[680] = 793 degree 202
pos[679] = 748 degree 201
pos[678] = 470 degree 200
pos[677] = 944 degree 200
pos[676] = 757 degree 199
pos[675] = 669 degree 198
pos[674] = 600 degree 197
pos[673] = 348 degree 196
pos[672] = 249 degree 195
pos[671] = 750 degree 195
pos[670] = 652 degree 194
pos[669] = 622 degree 193
pos[668] = 387 degree 192
pos[667] = 270 degree 191
pos[666] = 176 degree 190
pos[665] = 692 degree 190
pos[664] = 604 degree 189
pos[663] = 350 degree 188
pos[662] = 98 degree 187
pos[661] = 1 degree 186
pos[660] = 880 degree 186
pos[659] = 658 degree 185
pos[658] = 601 degree 184
pos[657] = 531 degree 183
pos[656] = 851 degree 183
pos[655] = 801 degree 182
pos[654] = 796 degree 181
pos[653] = 591 degree 180
pos[652] = 395 degree 179
pos[651] = 13 degree 178
pos[650] = 843 degree 178
pos[649] = 817 degree 177
pos[648] = 516 degree 176
pos[647] = 478 degree 175
pos[646] = 281 degree 174
pos[645] = 105 degree 173
pos[644] = 781 degree 173
pos[643] = 731 degree 172
pos[642] = 512 degree 171
pos[641] = 109 degree 170
pos[640] = 11 degree 169
pos[639] = 492 degree 169
pos[638] = 321 degree 168
pos[637] = 253 degree 167
pos[636] = 191 degree 166
pos[635] = 69 degree 165
pos[634] = 990 degree 165
pos[633] = 820 degree 164
pos[632] = 305 degree 163
pos[631] = 165 degree 162
pos[630] = 967 degree 162
pos[629] = 800 degree 161
pos[628] = 778 degree 160
pos[627] = 635 degree 159
pos[626] = 498 degree 158
pos[625] = 237 degree 157
pos[624] = 847 degree 157
pos[623] = 448 degree 156
pos[622] = 441 degree 155
pos[621] = 336 degree 154
pos[620] = 955 degree 154
pos[619] = 730 degree 153
pos[618] = 681 degree 152
pos[617] = 641 degree 151
pos[616] = 94 degree 150
pos[615] = 953 degree 150
pos[614] = 860 degree 149
pos[613] = 638 degree 148
pos[612] = 593 degree 147
pos[611] = 333 degree 146
pos[610] = 177 degree 145
pos[609] = 852 degree 145
pos[608] = 791 degree 144
pos[607] = 450 degree 143
pos[606] = 300 degree 142
pos[605] = 26 degree 141
pos[604] = 995 degree 141
pos[603] = 806 degree 140
pos[602] = 80 degree 139
pos[601] = 23 degree 138
pos[600] = 814 degree 138
pos[599] = 709 degree 137
pos[598] = 670 degree 136
pos[597] = 575 degree 135
pos[596] = 779 degree 135
pos[595] = 724 degree 134
pos[594] = 419 degree 133
pos[593] = 344 degree 132
pos[592] = 192 degree 131
pos[591] = 137 degree 130
pos[590] = 171 degree 130
pos[589] = 73 degree 129
pos[588] = 927 degree 129
pos[587] = 736 degree 128
pos[586] = 684 degree 127
pos[585] = 644 degree 126
pos[584] = 625 degree 125
pos[583] = 22 degree 124
pos[582] = 567 degree 124
pos[581] = 361 degree 123
pos[580] = 142 degree 122
pos[579] = 138 degree 121
pos[578] = 70 degree 120
pos[577] = 794 degree 120
pos[576] = 18 degree 119
pos[575] = 0 degree 118
pos[574] = 966 degree 118
pos[573] = 292 degree 117
pos[572] = 161 degree 116
pos[571] = 74 degree 115
pos[570] = 854 degree 115
pos[569] = 364 degree 114
pos[568] = 104 degree 113
pos[567] = 71 degree 112
pos[566] = 20 degree 111
pos[565] = 708 degree 111
pos[564] = 355 degree 110
pos[563] = 915 degree 110
pos[562] = 839 degree 109
pos[561] = 283 degree 108
pos[560] = 228 degree 107
pos[559] = 936 degree 107
pos[558] = 343 degree 106
pos[557] = 279 degree 105
pos[556] = 211 degree 104
pos[555] = 998 degree 104
pos[554] = 895 degree 103
pos[553] = 440 degree 102
pos[552] = 45 degree 101
pos[551] = 417 degree 101
pos[550] = 187 degree 100
pos[549] = 934 degree 100
pos[548] = 826 degree 99
pos[547] = 660 degree 98
pos[546] = 897 degree 98
pos[545] = 204 degree 97
pos[544] = 127 degree 96
pos[543] = 459 degree 96
pos[542] = 972 degree 96
pos[541] = 410 degree 95
pos[540] = 235 degree 94
pos[539] = 818 degree 94
pos[538] = 190 degree 94
pos[537] = 864 degree 94
pos[536] = 452 degree 93
pos[535] = 230 degree 92
pos[534] = 106 degree 91
pos[533] = 739 degree 91
pos[532] = 274 degree 90
pos[531] = 787 degree 93
pos[530] = 991 degree 464
pos[529] = 989 degree 463
pos[528] = 963 degree 462
pos[527] = 999 degree 462
pos[526] = 997 degree 461
pos[525] = 986 degree 460
pos[524] = 984 degree 459
pos[523] = 976 degree 458
pos[522] = 965 degree 457
pos[521] = 954 degree 456
pos[520] = 952 degree 455
pos[519] = 992 degree 455
pos[518] = 983 degree 454
pos[517] = 978 degree 453
pos[516] = 956 degree 452
pos[515] = 950 degree 451
pos[514] = 947 degree 450
pos[513] = 943 degree 449
pos[512] = 933 degree 448
pos[511] = 987 degree 448
pos[510] = 982 degree 447
pos[509] = 971 degree 446
pos[508] = 946 degree 445
pos[507] = 941 degree 444
pos[506] = 939 degree 443
pos[505] = 921 degree 442
pos[504] = 911 degree 441
pos[503] = 977 degree 441
pos[502] = 969 degree 440
pos[501] = 968 degree 439
pos[500] = 930 degree 438
pos[499] = 920 degree 437
pos[498] = 918 degree 436
pos[497] = 909 degree 435
pos[496] = 908 degree 434
pos[495] = 964 degree 434
pos[494] = 961 degree 433
pos[493] = 919 degree 432
pos[492] = 914 degree 431
pos[491] = 912 degree 430
pos[490] = 907 degree 429
pos[489] = 905 degree 428
pos[488] = 874 degree 427
pos[487] = 958 degree 427
pos[486] = 949 degree 426
pos[485] = 910 degree 425
pos[484] = 906 degree 424
pos[483] = 904 degree 423
pos[482] = 898 degree 422
pos[481] = 889 degree 421
pos[480] = 871 degree 420
pos[479] = 957 degree 420
pos[478] = 940 degree 419
pos[477] = 901 degree 418
pos[476] = 884 degree 417
pos[475] = 881 degree 416
pos[474] = 867 degree 415
pos[473] = 855 degree 414
pos[472] = 836 degree 413
pos[471] = 937 degree 413
pos[470] = 903 degree 412
pos[469] = 882 degree 411
pos[468] = 876 degree 410
pos[467] = 858 degree 409
pos[466] = 850 degree 408
pos[465] = 848 degree 407
pos[464] = 830 degree 406
pos[463] = 931 degree 406
pos[462] = 899 degree 405
pos[461] = 879 degree 404
pos[460] = 872 degree 403
pos[459] = 846 degree 402
pos[458] = 838 degree 401
pos[457] = 832 degree 400
pos[456] = 786 degree 399
pos[455] = 923 degree 399
pos[454] = 888 degree 398
pos[453] = 862 degree 397
pos[452] = 844 degree 396
pos[451] = 835 degree 395
pos[450] = 824 degree 394
pos[449] = 821 degree 393
pos[448] = 771 degree 392
pos[447] = 922 degree 392
pos[446] = 877 degree 391
pos[445] = 857 degree 390
pos[444] = 841 degree 389
pos[443] = 833 degree 388
pos[442] = 823 degree 387
pos[441] = 811 degree 386
pos[440] = 766 degree 385
pos[439] = 916 degree 385
pos[438] = 853 degree 384
pos[437] = 828 degree 383
pos[436] = 816 degree 382
pos[435] = 805 degree 381
pos[434] = 795 degree 380
pos[433] = 790 degree 379
pos[432] = 749 degree 378
pos[431] = 913 degree 378
pos[430] = 827 degree 377
pos[429] = 807 degree 376
pos[428] = 804 degree 375
pos[427] = 803 degree 374
pos[426] = 759 degree 373
pos[425] = 733 degree 372
pos[424] = 714 degree 371
pos[423] = 890 degree 371
pos[422] = 810 degree 370
pos[421] = 785 degree 369
pos[420] = 776 degree 368
pos[419] = 765 degree 367
pos[418] = 758 degree 366
pos[417] = 716 degree 365
pos[416] = 702 degree 364
pos[415] = 878 degree 364
pos[414] = 784 degree 363
pos[413] = 780 degree 362
pos[412] = 773 degree 361
pos[411] = 755 degree 360
pos[410] = 729 degree 359
pos[409] = 700 degree 358
pos[408] = 661 degree 357
pos[407] = 870 degree 357
pos[406] = 770 degree 356
pos[405] = 769 degree 355
pos[404] = 762 degree 354
pos[403] = 752 degree 353
pos[402] = 721 degree 352
pos[401] = 691 degree 351
pos[400] = 656 degree 350
pos[399] = 865 degree 350
pos[398] = 764 degree 349
pos[397] = 756 degree 348
pos[396] = 751 degree 347
pos[395] = 747 degree 346
pos[394] = 720 degree 345
pos[393] = 683 degree 344
pos[392] = 605 degree 343
pos[391] = 861 degree 343
pos[390] = 754 degree 342
pos[389] = 734 degree 341
pos[388] = 723 degree 340
pos[387] = 715 degree 339
pos[386] = 711 degree 338
pos[385] = 676 degree 337
pos[384] = 594 degree 336
pos[383] = 845 degree 336
pos[382] = 746 degree 335
pos[381] = 718 degree 334
pos[380] = 712 degree 333
pos[379] = 707 degree 332
pos[378] = 699 degree 331
pos[377] = 639 degree 330
pos[376] = 592 degree 329
pos[375] = 837 degree 329
pos[374] = 735 degree 328
pos[373] = 717 degree 327
pos[372] = 703 degree 326
pos[371] = 695 degree 325
pos[370] = 689 degree 324
pos[369] = 628 degree 323
pos[368] = 584 degree 322
pos[367] = 788 degree 322
pos[366] = 728 degree 321
pos[365] = 704 degree 320
pos[364] = 687 degree 319
pos[363] = 686 degree 318
pos[362] = 680 degree 317
pos[361] = 626 degree 316
pos[360] = 582 degree 315
pos[359] = 774 degree 315
pos[358] = 727 degree 314
pos[357] = 701 degree 313
pos[356] = 685 degree 312
pos[355] = 678 degree 311
pos[354] = 611 degree 310
pos[353] = 607 degree 309
pos[352] = 577 degree 308
pos[351] = 740 degree 308
pos[350] = 705 degree 307
pos[349] = 679 degree 306
pos[348] = 673 degree 305
pos[347] = 651 degree 304
pos[346] = 602 degree 303
pos[345] = 573 degree 302
pos[344] = 559 degree 301
pos[343] = 737 degree 301
pos[342] = 697 degree 300
pos[341] = 667 degree 299
pos[340] = 659 degree 298
pos[339] = 648 degree 297
pos[338] = 588 degree 296
pos[337] = 568 degree 295
pos[336] = 537 degree 294
pos[335] = 698 degree 294
pos[334] = 662 degree 293
pos[333] = 657 degree 292
pos[332] = 643 degree 291
pos[331] = 637 degree 290
pos[330] = 570 degree 289
pos[329] = 564 degree 288
pos[328] = 535 degree 287
pos[327] = 677 degree 287
pos[326] = 655 degree 286
pos[325] = 636 degree 285
pos[324] = 629 degree 284
pos[323] = 620 degree 283
pos[322] = 566 degree 282
pos[321] = 560 degree 281
pos[320] = 529 degree 280
pos[319] = 631 degree 280
pos[318] = 618 degree 279
pos[317] = 617 degree 278
pos[316] = 616 degree 277
pos[315] = 585 degree 276
pos[314] = 558 degree 275
pos[313] = 548 degree 274
pos[312] = 523 degree 273
pos[311] = 615 degree 273
pos[310] = 612 degree 272
pos[309] = 610 degree 271
pos[308] = 606 degree 270
pos[307] = 576 degree 269
pos[306] = 557 degree 268
pos[305] = 541 degree 267
pos[304] = 488 degree 266
pos[303] = 597 degree 266
pos[302] = 580 degree 265
pos[301] = 578 degree 264
pos[300] = 569 degree 263
pos[299] = 545 degree 262
pos[298] = 544 degree 261
pos[297] = 539 degree 260
pos[296] = 480 degree 259
pos[295] = 583 degree 259
pos[294] = 574 degree 258
pos[293] = 552 degree 257
pos[292] = 543 degree 256
pos[291] = 527 degree 255
pos[290] = 526 degree 254
pos[289] = 509 degree 253
pos[288] = 473 degree 252
pos[287] = 581 degree 252
pos[286] = 555 degree 251
pos[285] = 547 degree 250
pos[284] = 540 degree 249
pos[283] = 521 degree 248
pos[282] = 511 degree 247
pos[281] = 491 degree 246
pos[280] = 464 degree 245
pos[279] = 571 degree 245
pos[278] = 538 degree 244
pos[277] = 536 degree 243
pos[276] = 520 degree 242
pos[275] = 505 degree 241
pos[274] = 493 degree 240
pos[273] = 483 degree 239
pos[272] = 447 degree 238
pos[271] = 554 degree 238
pos[270] = 534 degree 237
pos[269] = 510 degree 236
pos[268] = 504 degree 235
pos[267] = 489 degree 234
pos[266] = 486 degree 233
pos[265] = 468 degree 232
pos[264] = 442 degree 231
pos[263] = 530 degree 231
pos[262] = 525 degree 230
pos[261] = 502 degree 229
pos[260] = 499 degree 228
pos[259] = 479 degree 227
pos[258] = 471 degree 226
pos[257] = 449 degree 225
pos[256] = 436 degree 224
pos[255] = 522 degree 224
pos[254] = 515 degree 223
pos[253] = 495 degree 222
pos[252] = 477 degree 221
pos[251] = 455 degree 220
pos[250] = 432 degree 219
pos[249] = 427 degree 218
pos[248] = 421 degree 217
pos[247] = 513 degree 217
pos[246] = 508 degree 216
pos[245] = 474 degree 215
pos[244] = 463 degree 214
pos[243] = 438 degree 213
pos[242] = 428 degree 212
pos[241] = 407 degree 211
pos[240] = 380 degree 210
pos[239] = 506 degree 210
pos[238] = 496 degree 209
pos[237] = 451 degree 208
pos[236] = 439 degree 207
pos[235] = 415 degree 206
pos[234] = 403 degree 205
pos[233] = 402 degree 204
pos[232] = 369 degree 203
pos[231] = 501 degree 203
pos[230] = 484 degree 202
pos[229] = 444 degree 201
pos[228] = 416 degree 200
pos[227] = 401 degree 199
pos[226] = 392 degree 198
pos[225] = 378 degree 197
pos[224] = 363 degree 196
pos[223] = 497 degree 196
pos[222] = 475 degree 195
pos[221] = 434 degree 194
pos[220] = 409 degree 193
pos[219] = 396 degree 192
pos[218] = 390 degree 191
pos[217] = 372 degree 190
pos[216] = 358 degree 189
pos[215] = 494 degree 189
pos[214] = 454 degree 188
pos[213] = 431 degree 187
pos[212] = 384 degree 186
pos[211] = 381 degree 185
pos[210] = 377 degree 184
pos[209] = 353 degree 183
pos[208] = 341 degree 182
pos[207] = 490 degree 182
pos[206] = 430 degree 181
pos[205] = 386 degree 180
pos[204] = 375 degree 179
pos[203] = 370 degree 178
pos[202] = 342 degree 177
pos[201] = 335 degree 176
pos[200] = 328 degree 175
pos[199] = 461 degree 175
pos[198] = 405 degree 174
pos[197] = 368 degree 173
pos[196] = 367 degree 172
pos[195] = 354 degree 171
pos[194] = 334 degree 170
pos[193] = 330 degree 169
pos[192] = 318 degree 168
pos[191] = 423 degree 168
pos[190] = 388 degree 167
pos[189] = 365 degree 166
pos[188] = 359 degree 165
pos[187] = 352 degree 164
pos[186] = 327 degree 163
pos[185] = 326 degree 162
pos[184] = 303 degree 161
pos[183] = 420 degree 161
pos[182] = 362 degree 160
pos[181] = 356 degree 159
pos[180] = 347 degree 158
pos[179] = 340 degree 157
pos[178] = 322 degree 156
pos[177] = 320 degree 155
pos[176] = 291 degree 154
pos[175] = 418 degree 154
pos[174] = 338 degree 153
pos[173] = 332 degree 152
pos[172] = 331 degree 151
pos[171] = 317 degree 150
pos[170] = 306 degree 149
pos[169] = 304 degree 148
pos[168] = 273 degree 147
pos[167] = 404 degree 147
pos[166] = 314 degree 146
pos[165] = 313 degree 145
pos[164] = 312 degree 144
pos[163] = 308 degree 143
pos[162] = 295 degree 142
pos[161] = 286 degree 141
pos[160] = 269 degree 140
pos[159] = 391 degree 140
pos[158] = 311 degree 139
pos[157] = 310 degree 138
pos[156] = 302 degree 137
pos[155] = 301 degree 136
pos[154] = 282 degree 135
pos[153] = 277 degree 134
pos[152] = 259 degree 133
pos[151] = 366 degree 133
pos[150] = 299 degree 132
pos[149] = 294 degree 131
pos[148] = 288 degree 130
pos[147] = 272 degree 129
pos[146] = 271 degree 128
pos[145] = 260 degree 127
pos[144] = 258 degree 126
pos[143] = 325 degree 126
pos[142] = 298 degree 125
pos[141] = 284 degree 124
pos[140] = 278 degree 123
pos[139] = 267 degree 122
pos[138] = 257 degree 121
pos[137] = 244 degree 120
pos[136] = 231 degree 119
pos[135] = 316 degree 119
pos[134] = 293 degree 118
pos[133] = 266 degree 117
pos[132] = 255 degree 116
pos[131] = 252 degree 115
pos[130] = 247 degree 114
pos[129] = 239 degree 113
pos[128] = 206 degree 112
pos[127] = 309 degree 112
pos[126] = 290 degree 111
pos[125] = 264 degree 110
pos[124] = 250 degree 109
pos[123] = 248 degree 108
pos[122] = 232 degree 107
pos[121] = 219 degree 106
pos[120] = 199 degree 105
pos[119] = 307 degree 105
pos[118] = 261 degree 104
pos[117] = 241 degree 103
pos[116] = 234 degree 102
pos[115] = 233 degree 101
pos[114] = 220 degree 100
pos[113] = 212 degree 99
pos[112] = 158 degree 98
pos[111] = 287 degree 98
pos[110] = 242 degree 97
pos[109] = 236 degree 96
pos[108] = 227 degree 95
pos[107] = 216 degree 94
pos[106] = 215 degree 93
pos[105] = 207 degree 92
pos[104] = 157 degree 91
pos[103] = 280 degree 91
pos[102] = 226 degree 90
pos[101] = 225 degree 89
pos[100] = 214 degree 88
pos[99] = 210 degree 87
pos[98] = 205 degree 86
pos[97] = 193 degree 85
pos[96] = 133 degree 84
pos[95] = 263 degree 84
pos[94] = 223 degree 83
pos[93] = 213 degree 82
pos[92] = 196 degree 81
pos[91] = 168 degree 80
pos[90] = 148 degree 79
pos[89] = 120 degree 78
pos[88] = 112 degree 77
pos[87] = 201 degree 77
pos[86] = 198 degree 76
pos[85] = 185 degree 75
pos[84] = 184 degree 74
pos[83] = 164 degree 73
pos[82] = 141 degree 72
pos[81] = 102 degree 71
pos[80] = 96 degree 70
pos[79] = 195 degree 70
pos[78] = 188 degree 69
pos[77] = 173 degree 68
pos[76] = 159 degree 67
pos[75] = 136 degree 66
pos[74] = 125 degree 65
pos[73] = 100 degree 64
pos[72] = 95 degree 63
pos[71] = 175 degree 63
pos[70] = 167 degree 62
pos[69] = 156 degree 61
pos[68] = 143 degree 60
pos[67] = 132 degree 59
pos[66] = 122 degree 58
pos[65] = 90 degree 57
pos[64] = 79 degree 56
pos[63] = 170 degree 56
pos[62] = 160 degree 55
pos[61] = 152 degree 54
pos[60] = 129 degree 53
pos[59] = 123 degree 52
pos[58] = 118 degree 51
pos[57] = 88 degree 50
pos[56] = 62 degree 49
pos[55] = 153 degree 49
pos[54] = 150 degree 48
pos[53] = 147 degree 47
pos[52] = 119 degree 46
pos[51] = 111 degree 45
pos[50] = 75 degree 44
pos[49] = 64 degree 43
pos[48] = 56 degree 42
pos[47] = 149 degree 42
pos[46] = 140 degree 41
pos[45] = 130 degree 40
pos[44] = 117 degree 39
pos[43] = 108 degree 38
pos[42] = 63 degree 37
pos[41] = 50 degree 36
pos[40] = 48 degree 35
pos[39] = 116 degree 35
pos[38] = 113 degree 34
pos[37] = 103 degree 33
pos[36] = 89 degree 32
pos[35] = 61 degree 31
pos[34] = 55 degree 30
pos[33] = 42 degree 29
pos[32] = 36 degree 28
pos[31] = 101 degree 28
pos[30] = 85 degree 27
pos[29] = 82 degree 26
pos[28] = 52 degree 25
pos[27] = 47 degree 24
pos[26] = 33 degree 23
pos[25] = 31 degree 22
pos[24] = 19 degree 21
pos[23] = 91 degree 21
pos[22] = 77 degree 20
pos[21] = 60 degree 19
pos[20] = 39 degree 18
pos[19] = 30 degree 17
pos[18] = 27 degree 16
pos[17] = 16 degree 15
pos[16] = 14 degree 14
pos[15] = 53 degree 14
pos[14] = 41 degree 13
pos[13] = 38 degree 12
pos[12] = 25 degree 11
pos[11] = 24 degree 10
pos[10] = 15 degree 9
pos[9] = 12 degree 8
pos[8] = 4 degree 7
pos[7] = 37 degree 7
pos[6] = 29 degree 6
pos[5] = 21 degree 5
pos[4] = 9 degree 4
pos[3] = 8 degree 3
pos[2] = 7 degree 2
pos[1] = 5 degree 1
pos[0] = 3 degree 0
kplex size 1
[3 ]
1/1000 (max 1) 0.01914 s
kplex size 2
[5 3 ]
2/1000 (max 2) 0.01921 s
kplex size 3
[7 5 3 ]
3/1000 (max 3) 0.01923 s
kplex size 4
[8 7 5 3 ]
4/1000 (max 4) 0.01925 s
kplex size 5
[9 8 7 5 3 ]
5/1000 (max 5) 0.01926 s
kplex size 6
[21 9 8 7 5 3 ]
6/1000 (max 6) 0.01928 s
kplex size 7
[29 21 9 8 7 5 3 ]
7/1000 (max 7) 0.01930 s
kplex size 8
[37 29 21 9 8 7 5 3 ]
8/1000 (max 8) 0.01931 s
kplex size 9
[4 37 29 21 9 8 7 5 3 ]
9/1000 (max 9) 0.01935 s
kplex size 10
[12 4 37 29 21 9 8 7 5 3 ]
10/1000 (max 10) 0.01939 s
kplex size 11
[15 12 4 37 29 21 9 8 7 5 3 ]
11/1000 (max 11) 0.01944 s
kplex size 12
[24 15 12 4 37 29 21 9 8 7 5 3 ]
12/1000 (max 12) 0.01946 s
kplex size 13
[25 24 15 12 4 37 29 21 9 8 7 5 3 ]
13/1000 (max 13) 0.01949 s
kplex size 14
[38 25 24 15 12 4 37 29 21 9 8 7 5 3 ]
14/1000 (max 14) 0.01952 s
kplex size 15
[41 38 25 24 15 12 4 37 29 21 9 8 7 5 3 ]
15/1000 (max 15) 0.01955 s
kplex size 16
[53 41 38 25 24 15 12 4 37 29 21 9 8 7 5 3 ]
16/1000 (max 16) 0.01959 s
17/1000 (max 16) 0.01960 s
18/1000 (max 16) 0.01963 s
19/1000 (max 16) 0.01969 s
20/1000 (max 16) 0.01985 s
21/1000 (max 16) 0.02023 s
22/1000 (max 16) 0.02128 s
23/1000 (max 16) 0.02354 s
24/1000 (max 16) 0.02814 s
25/1000 (max 16) 0.03505 s
26/1000 (max 16) 0.04752 s
27/1000 (max 16) 0.07094 s
28/1000 (max 16) 0.11976 s
29/1000 (max 16) 0.22826 s
30/1000 (max 16) 0.38971 s
31/1000 (max 16) 0.68964 s
32/1000 (max 16) 1.19055 s
33/1000 (max 16) 1.91200 s
34/1000 (max 16) 2.68999 s
35/1000 (max 16) 4.13576 s
36/1000 (max 16) 7.06006 s
37/1000 (max 16) 11.15677 s
38/1000 (max 16) 17.28660 s
39/1000 (max 16) 26.98148 s
40/1000 (max 16) 42.88322 s
41/1000 (max 16) 62.68447 s
42/1000 (max 16) 91.11575 s
43/1000 (max 16) 136.49176 s
44/1000 (max 16) 202.65926 s
45/1000 (max 16) 297.25831 s
46/1000 (max 16) 431.81017 s
47/1000 (max 16) 651.89178 s
48/1000 (max 16) 944.52044 s
49/1000 (max 16) 1299.94767 s
50/1000 (max 16) 1779.18180 s
51/1000 (max 16) 2460.01334 s
52/1000 (max 16) 3360.23308 s
TIMEOUT
best clique: 53 41 38 25 24 15 12 4 37 29 21 9 8 7 5 3 
record          =          16
subp            =  12712112413
time            =  3600.00011
