timeout 3600 s
Graph with 200 vertices and 17910 edges density 0.900000
t = 35820, Enbr = 17910
pos[199] = 45 degree 159
pos[198] = 179 degree 162
pos[197] = 145 degree 162
pos[196] = 131 degree 161
pos[195] = 78 degree 160
pos[194] = 20 degree 159
pos[193] = 156 degree 159
pos[192] = 166 degree 159
pos[191] = 138 degree 159
pos[190] = 114 degree 158
pos[189] = 28 degree 157
pos[188] = 198 degree 157
pos[187] = 101 degree 156
pos[186] = 192 degree 156
pos[185] = 168 degree 155
pos[184] = 152 degree 155
pos[183] = 149 degree 155
pos[182] = 124 degree 154
pos[181] = 117 degree 153
pos[180] = 111 degree 152
pos[179] = 100 degree 151
pos[178] = 83 degree 150
pos[177] = 35 degree 149
pos[176] = 107 degree 149
pos[175] = 15 degree 148
pos[174] = 183 degree 148
pos[173] = 165 degree 147
pos[172] = 96 degree 146
pos[171] = 48 degree 145
pos[170] = 41 degree 144
pos[169] = 36 degree 143
pos[168] = 196 degree 143
pos[167] = 125 degree 142
pos[166] = 109 degree 141
pos[165] = 60 degree 140
pos[164] = 14 degree 139
pos[163] = 146 degree 139
pos[162] = 122 degree 138
pos[161] = 102 degree 137
pos[160] = 87 degree 136
pos[159] = 80 degree 135
pos[158] = 51 degree 134
pos[157] = 23 degree 133
pos[156] = 186 degree 133
pos[155] = 178 degree 132
pos[154] = 104 degree 131
pos[153] = 56 degree 130
pos[152] = 12 degree 129
pos[151] = 185 degree 129
pos[150] = 151 degree 128
pos[149] = 137 degree 127
pos[148] = 121 degree 126
pos[147] = 110 degree 125
pos[146] = 47 degree 124
pos[145] = 42 degree 123
pos[144] = 32 degree 122
pos[143] = 10 degree 121
pos[142] = 193 degree 121
pos[141] = 153 degree 120
pos[140] = 3 degree 119
pos[139] = 173 degree 119
pos[138] = 16 degree 118
pos[137] = 8 degree 117
pos[136] = 157 degree 117
pos[135] = 148 degree 116
pos[134] = 72 degree 115
pos[133] = 70 degree 114
pos[132] = 11 degree 113
pos[131] = 163 degree 113
pos[130] = 37 degree 112
pos[129] = 194 degree 112
pos[128] = 199 degree 112
pos[127] = 95 degree 111
pos[126] = 161 degree 111
pos[125] = 43 degree 110
pos[124] = 197 degree 122
pos[123] = 195 degree 121
pos[122] = 191 degree 120
pos[121] = 189 degree 119
pos[120] = 188 degree 118
pos[119] = 184 degree 117
pos[118] = 182 degree 116
pos[117] = 181 degree 115
pos[116] = 180 degree 114
pos[115] = 176 degree 113
pos[114] = 174 degree 112
pos[113] = 171 degree 111
pos[112] = 170 degree 110
pos[111] = 160 degree 109
pos[110] = 155 degree 108
pos[109] = 154 degree 107
pos[108] = 150 degree 106
pos[107] = 144 degree 105
pos[106] = 143 degree 104
pos[105] = 142 degree 103
pos[104] = 141 degree 102
pos[103] = 139 degree 101
pos[102] = 136 degree 100
pos[101] = 132 degree 99
pos[100] = 127 degree 98
pos[99] = 126 degree 97
pos[98] = 116 degree 96
pos[97] = 115 degree 95
pos[96] = 113 degree 94
pos[95] = 93 degree 93
pos[94] = 91 degree 92
pos[93] = 82 degree 91
pos[92] = 76 degree 90
pos[91] = 69 degree 89
pos[90] = 57 degree 88
pos[89] = 190 degree 88
pos[88] = 187 degree 87
pos[87] = 177 degree 86
pos[86] = 175 degree 85
pos[85] = 172 degree 84
pos[84] = 167 degree 83
pos[83] = 164 degree 82
pos[82] = 162 degree 81
pos[81] = 159 degree 80
pos[80] = 158 degree 79
pos[79] = 147 degree 78
pos[78] = 135 degree 77
pos[77] = 133 degree 76
pos[76] = 130 degree 75
pos[75] = 129 degree 74
pos[74] = 123 degree 73
pos[73] = 118 degree 72
pos[72] = 112 degree 71
pos[71] = 108 degree 70
pos[70] = 105 degree 69
pos[69] = 103 degree 68
pos[68] = 98 degree 67
pos[67] = 97 degree 66
pos[66] = 94 degree 65
pos[65] = 92 degree 64
pos[64] = 90 degree 63
pos[63] = 86 degree 62
pos[62] = 85 degree 61
pos[61] = 84 degree 60
pos[60] = 77 degree 59
pos[59] = 74 degree 58
pos[58] = 68 degree 57
pos[57] = 66 degree 56
pos[56] = 63 degree 55
pos[55] = 62 degree 54
pos[54] = 61 degree 53
pos[53] = 59 degree 52
pos[52] = 58 degree 51
pos[51] = 55 degree 50
pos[50] = 52 degree 49
pos[49] = 49 degree 48
pos[48] = 44 degree 47
pos[47] = 40 degree 46
pos[46] = 24 degree 45
pos[45] = 2 degree 44
pos[44] = 169 degree 44
pos[43] = 140 degree 43
pos[42] = 134 degree 42
pos[41] = 128 degree 41
pos[40] = 120 degree 40
pos[39] = 119 degree 39
pos[38] = 106 degree 38
pos[37] = 99 degree 37
pos[36] = 89 degree 36
pos[35] = 88 degree 35
pos[34] = 81 degree 34
pos[33] = 79 degree 33
pos[32] = 75 degree 32
pos[31] = 73 degree 31
pos[30] = 71 degree 30
pos[29] = 67 degree 29
pos[28] = 65 degree 28
pos[27] = 64 degree 27
pos[26] = 54 degree 26
pos[25] = 53 degree 25
pos[24] = 50 degree 24
pos[23] = 46 degree 23
pos[22] = 39 degree 22
pos[21] = 38 degree 21
pos[20] = 34 degree 20
pos[19] = 33 degree 19
pos[18] = 31 degree 18
pos[17] = 30 degree 17
pos[16] = 29 degree 16
pos[15] = 27 degree 15
pos[14] = 26 degree 14
pos[13] = 25 degree 13
pos[12] = 22 degree 12
pos[11] = 21 degree 11
pos[10] = 19 degree 10
pos[9] = 18 degree 9
pos[8] = 17 degree 8
pos[7] = 13 degree 7
pos[6] = 9 degree 6
pos[5] = 7 degree 5
pos[4] = 6 degree 4
pos[3] = 5 degree 3
pos[2] = 4 degree 2
pos[1] = 1 degree 1
pos[0] = 0 degree 0
kplex size 1
[0 ]
1/200 (max 1) 0.00059 s
kplex size 2
[1 0 ]
2/200 (max 2) 0.00060 s
kplex size 3
[4 1 0 ]
3/200 (max 3) 0.00060 s
kplex size 4
[5 4 1 0 ]
4/200 (max 4) 0.00060 s
kplex size 5
[6 5 4 1 0 ]
5/200 (max 5) 0.00061 s
kplex size 6
[7 6 5 4 1 0 ]
6/200 (max 6) 0.00061 s
kplex size 7
[9 7 6 5 4 1 0 ]
7/200 (max 7) 0.00061 s
kplex size 8
[13 9 7 6 5 4 1 0 ]
8/200 (max 8) 0.00062 s
kplex size 9
[17 13 9 7 6 5 4 1 0 ]
9/200 (max 9) 0.00062 s
kplex size 10
[18 17 13 9 7 6 5 4 1 0 ]
10/200 (max 10) 0.00063 s
kplex size 11
[19 18 17 13 9 7 6 5 4 1 0 ]
11/200 (max 11) 0.00063 s
kplex size 12
[21 19 18 17 13 9 7 6 5 4 1 0 ]
12/200 (max 12) 0.00065 s
kplex size 13
[22 21 19 18 17 13 9 7 6 5 4 1 0 ]
13/200 (max 13) 0.00066 s
kplex size 14
[25 22 21 19 18 17 13 9 7 6 5 4 1 0 ]
14/200 (max 14) 0.00067 s
kplex size 15
[26 25 22 21 19 18 17 13 9 7 6 5 4 1 0 ]
15/200 (max 15) 0.00067 s
kplex size 16
[27 26 25 22 21 19 18 17 13 9 7 6 5 4 1 0 ]
16/200 (max 16) 0.00068 s
kplex size 17
[29 27 26 25 22 21 19 18 17 13 9 7 6 5 4 1 0 ]
17/200 (max 17) 0.00069 s
kplex size 18
[30 29 27 26 25 22 21 19 18 17 13 9 7 6 5 4 1 0 ]
18/200 (max 18) 0.00070 s
kplex size 19
[31 30 29 27 26 25 22 21 19 18 17 13 9 7 6 5 4 1 0 ]
19/200 (max 19) 0.00071 s
kplex size 20
[33 31 30 29 27 26 25 22 21 19 18 17 13 9 7 6 5 4 1 0 ]
20/200 (max 20) 0.00072 s
kplex size 21
[34 33 31 30 29 27 26 25 22 21 19 18 17 13 9 7 6 5 4 1 0 ]
21/200 (max 21) 0.00073 s
kplex size 22
[38 34 33 31 30 29 27 26 25 22 21 19 18 17 13 9 7 6 5 4 1 0 ]
22/200 (max 22) 0.00074 s
kplex size 23
[39 38 34 33 31 30 29 27 26 25 22 21 19 18 17 13 9 7 6 5 4 1 0 ]
23/200 (max 23) 0.00076 s
kplex size 24
[46 39 38 34 33 31 30 29 27 26 25 22 21 19 18 17 13 9 7 6 5 4 1 0 ]
24/200 (max 24) 0.00077 s
kplex size 25
[50 46 39 38 34 33 31 30 29 27 26 25 22 21 19 18 17 13 9 7 6 5 4 1 0 ]
25/200 (max 25) 0.00078 s
kplex size 26
[53 50 46 39 38 34 33 31 30 29 27 26 25 22 21 19 18 17 13 9 7 6 5 4 1 0 ]
26/200 (max 26) 0.00080 s
kplex size 27
[54 53 50 46 39 38 34 33 31 30 29 27 26 25 22 21 19 18 17 13 9 7 6 5 4 1 0 ]
27/200 (max 27) 0.00081 s
kplex size 28
[64 54 53 50 46 39 38 34 33 31 30 29 27 26 25 22 21 19 18 17 13 9 7 6 5 4 1 0 ]
28/200 (max 28) 0.00083 s
kplex size 29
[65 64 54 53 50 46 39 38 34 33 31 30 29 27 26 25 22 21 19 18 17 13 9 7 6 5 4 1 0 ]
29/200 (max 29) 0.00084 s
kplex size 30
[67 65 64 54 53 50 46 39 38 34 33 31 30 29 27 26 25 22 21 19 18 17 13 9 7 6 5 4 1 0 ]
30/200 (max 30) 0.00086 s
kplex size 31
[71 67 65 64 54 53 50 46 39 38 34 33 31 30 29 27 26 25 22 21 19 18 17 13 9 7 6 5 4 1 0 ]
31/200 (max 31) 0.00088 s
kplex size 32
[73 71 67 65 64 54 53 50 46 39 38 34 33 31 30 29 27 26 25 22 21 19 18 17 13 9 7 6 5 4 1 0 ]
32/200 (max 32) 0.00090 s
kplex size 33
[75 73 71 67 65 64 54 53 50 46 39 38 34 33 31 30 29 27 26 25 22 21 19 18 17 13 9 7 6 5 4 1 0 ]
33/200 (max 33) 0.00092 s
kplex size 34
[79 75 73 71 67 65 64 54 53 50 46 39 38 34 33 31 30 29 27 26 25 22 21 19 18 17 13 9 7 6 5 4 1 0 ]
34/200 (max 34) 0.00094 s
kplex size 35
[81 79 75 73 71 67 65 64 54 53 50 46 39 38 34 33 31 30 29 27 26 25 22 21 19 18 17 13 9 7 6 5 4 1 0 ]
35/200 (max 35) 0.00096 s
kplex size 36
[88 81 79 75 73 71 67 65 64 54 53 50 46 39 38 34 33 31 30 29 27 26 25 22 21 19 18 17 13 9 7 6 5 4 1 0 ]
36/200 (max 36) 0.00099 s
kplex size 37
[89 88 81 79 75 73 71 67 65 64 54 53 50 46 39 38 34 33 31 30 29 27 26 25 22 21 19 18 17 13 9 7 6 5 4 1 0 ]
37/200 (max 37) 0.00101 s
kplex size 38
[99 89 88 81 79 75 73 71 67 65 64 54 53 50 46 39 38 34 33 31 30 29 27 26 25 22 21 19 18 17 13 9 7 6 5 4 1 0 ]
38/200 (max 38) 0.00104 s
kplex size 39
[106 99 89 88 81 79 75 73 71 67 65 64 54 53 50 46 39 38 34 33 31 30 29 27 26 25 22 21 19 18 17 13 9 7 6 5 4 1 0 ]
39/200 (max 39) 0.00106 s
kplex size 40
[119 106 99 89 88 81 79 75 73 71 67 65 64 54 53 50 46 39 38 34 33 31 30 29 27 26 25 22 21 19 18 17 13 9 7 6 5 4 1 0 ]
40/200 (max 40) 0.00109 s
kplex size 41
[120 119 106 99 89 88 81 79 75 73 71 67 65 64 54 53 50 46 39 38 34 33 31 30 29 27 26 25 22 21 19 18 17 13 9 7 6 5 4 1 0 ]
41/200 (max 41) 0.00111 s
kplex size 42
[128 120 119 106 99 89 88 81 79 75 73 71 67 65 64 54 53 50 46 39 38 34 33 31 30 29 27 26 25 22 21 19 18 17 13 9 7 6 5 4 1 0 ]
42/200 (max 42) 0.00114 s
kplex size 43
[134 128 120 119 106 99 89 88 81 79 75 73 71 67 65 64 54 53 50 46 39 38 34 33 31 30 29 27 26 25 22 21 19 18 17 13 9 7 6 5 4 1 0 ]
43/200 (max 43) 0.00117 s
kplex size 44
[140 134 128 120 119 106 99 89 88 81 79 75 73 71 67 65 64 54 53 50 46 39 38 34 33 31 30 29 27 26 25 22 21 19 18 17 13 9 7 6 5 4 1 0 ]
44/200 (max 44) 0.00120 s
kplex size 45
[169 140 134 128 120 119 106 99 89 88 81 79 75 73 71 67 65 64 54 53 50 46 39 38 34 33 31 30 29 27 26 25 22 21 19 18 17 13 9 7 6 5 4 1 0 ]
45/200 (max 45) 0.00123 s
kplex size 46
[2 169 140 134 128 120 119 106 99 89 88 81 79 75 73 71 67 65 64 54 53 50 46 39 38 34 33 31 30 29 27 26 25 22 21 19 18 17 13 9 7 6 5 4 1 0 ]
46/200 (max 46) 0.00126 s
kplex size 47
[24 2 169 140 134 128 120 119 106 99 89 88 81 79 75 73 71 67 65 64 54 53 50 46 39 38 34 33 31 30 29 27 26 25 22 21 19 18 17 13 9 7 6 5 4 1 0 ]
47/200 (max 47) 0.00129 s
kplex size 48
[40 24 2 169 140 134 128 120 119 106 99 89 88 81 79 75 73 71 67 65 64 54 53 50 46 39 38 34 33 31 30 29 27 26 25 22 21 19 18 17 13 9 7 6 5 4 1 0 ]
48/200 (max 48) 0.00133 s
kplex size 49
[44 40 24 2 169 140 134 128 120 119 106 99 89 88 81 79 75 73 71 67 65 64 54 53 50 46 39 38 34 33 31 30 29 27 26 25 22 21 19 18 17 13 9 7 6 5 4 1 0 ]
49/200 (max 49) 0.00137 s
kplex size 50
[49 44 40 24 2 169 140 134 128 120 119 106 99 89 88 81 79 75 73 71 67 65 64 54 53 50 46 39 38 34 33 31 30 29 27 26 25 22 21 19 18 17 13 9 7 6 5 4 1 0 ]
50/200 (max 50) 0.00141 s
kplex size 51
[52 49 44 40 24 2 169 140 134 128 120 119 106 99 89 88 81 79 75 73 71 67 65 64 54 53 50 46 39 38 34 33 31 30 29 27 26 25 22 21 19 18 17 13 9 7 6 5 4 1 0 ]
51/200 (max 51) 0.00145 s
kplex size 52
[55 52 49 44 40 24 2 169 140 134 128 120 119 106 99 89 88 81 79 75 73 71 67 65 64 54 53 50 46 39 38 34 33 31 30 29 27 26 25 22 21 19 18 17 13 9 7 6 5 4 1 0 ]
52/200 (max 52) 0.00149 s
kplex size 53
[58 55 52 49 44 40 24 2 169 140 134 128 120 119 106 99 89 88 81 79 75 73 71 67 65 64 54 53 50 46 39 38 34 33 31 30 29 27 26 25 22 21 19 18 17 13 9 7 6 5 4 1 0 ]
53/200 (max 53) 0.00153 s
kplex size 54
[59 58 55 52 49 44 40 24 2 169 140 134 128 120 119 106 99 89 88 81 79 75 73 71 67 65 64 54 53 50 46 39 38 34 33 31 30 29 27 26 25 22 21 19 18 17 13 9 7 6 5 4 1 0 ]
54/200 (max 54) 0.00157 s
kplex size 55
[61 59 58 55 52 49 44 40 24 2 169 140 134 128 120 119 106 99 89 88 81 79 75 73 71 67 65 64 54 53 50 46 39 38 34 33 31 30 29 27 26 25 22 21 19 18 17 13 9 7 6 5 4 1 0 ]
55/200 (max 55) 0.00162 s
kplex size 56
[62 61 59 58 55 52 49 44 40 24 2 169 140 134 128 120 119 106 99 89 88 81 79 75 73 71 67 65 64 54 53 50 46 39 38 34 33 31 30 29 27 26 25 22 21 19 18 17 13 9 7 6 5 4 1 0 ]
56/200 (max 56) 0.00167 s
kplex size 57
[63 62 61 59 58 55 52 49 44 40 24 2 169 140 134 128 120 119 106 99 89 88 81 79 75 73 71 67 65 64 54 53 50 46 39 38 34 33 31 30 29 27 26 25 22 21 19 18 17 13 9 7 6 5 4 1 0 ]
57/200 (max 57) 0.00172 s
kplex size 58
[66 63 62 61 59 58 55 52 49 44 40 24 2 169 140 134 128 120 119 106 99 89 88 81 79 75 73 71 67 65 64 54 53 50 46 39 38 34 33 31 30 29 27 26 25 22 21 19 18 17 13 9 7 6 5 4 1 0 ]
58/200 (max 58) 0.00177 s
kplex size 59
[68 66 63 62 61 59 58 55 52 49 44 40 24 2 169 140 134 128 120 119 106 99 89 88 81 79 75 73 71 67 65 64 54 53 50 46 39 38 34 33 31 30 29 27 26 25 22 21 19 18 17 13 9 7 6 5 4 1 0 ]
59/200 (max 59) 0.00183 s
kplex size 60
[74 68 66 63 62 61 59 58 55 52 49 44 40 24 2 169 140 134 128 120 119 106 99 89 88 81 79 75 73 71 67 65 64 54 53 50 46 39 38 34 33 31 30 29 27 26 25 22 21 19 18 17 13 9 7 6 5 4 1 0 ]
60/200 (max 60) 0.00189 s
kplex size 61
[77 74 68 66 63 62 61 59 58 55 52 49 44 40 24 2 169 140 134 128 120 119 106 99 89 88 81 79 75 73 71 67 65 64 54 53 50 46 39 38 34 33 31 30 29 27 26 25 22 21 19 18 17 13 9 7 6 5 4 1 0 ]
61/200 (max 61) 0.00195 s
kplex size 62
[84 77 74 68 66 63 62 61 59 58 55 52 49 44 40 24 2 169 140 134 128 120 119 106 99 89 88 81 79 75 73 71 67 65 64 54 53 50 46 39 38 34 33 31 30 29 27 26 25 22 21 19 18 17 13 9 7 6 5 4 1 0 ]
62/200 (max 62) 0.00201 s
kplex size 63
[85 84 77 74 68 66 63 62 61 59 58 55 52 49 44 40 24 2 169 140 134 128 120 119 106 99 89 88 81 79 75 73 71 67 65 64 54 53 50 46 39 38 34 33 31 30 29 27 26 25 22 21 19 18 17 13 9 7 6 5 4 1 0 ]
63/200 (max 63) 0.00207 s
kplex size 64
[86 85 84 77 74 68 66 63 62 61 59 58 55 52 49 44 40 24 2 169 140 134 128 120 119 106 99 89 88 81 79 75 73 71 67 65 64 54 53 50 46 39 38 34 33 31 30 29 27 26 25 22 21 19 18 17 13 9 7 6 5 4 1 0 ]
64/200 (max 64) 0.00213 s
kplex size 65
[90 86 85 84 77 74 68 66 63 62 61 59 58 55 52 49 44 40 24 2 169 140 134 128 120 119 106 99 89 88 81 79 75 73 71 67 65 64 54 53 50 46 39 38 34 33 31 30 29 27 26 25 22 21 19 18 17 13 9 7 6 5 4 1 0 ]
65/200 (max 65) 0.00219 s
kplex size 66
[92 90 86 85 84 77 74 68 66 63 62 61 59 58 55 52 49 44 40 24 2 169 140 134 128 120 119 106 99 89 88 81 79 75 73 71 67 65 64 54 53 50 46 39 38 34 33 31 30 29 27 26 25 22 21 19 18 17 13 9 7 6 5 4 1 0 ]
66/200 (max 66) 0.00227 s
kplex size 67
[94 92 90 86 85 84 77 74 68 66 63 62 61 59 58 55 52 49 44 40 24 2 169 140 134 128 120 119 106 99 89 88 81 79 75 73 71 67 65 64 54 53 50 46 39 38 34 33 31 30 29 27 26 25 22 21 19 18 17 13 9 7 6 5 4 1 0 ]
67/200 (max 67) 0.00233 s
kplex size 68
[97 94 92 90 86 85 84 77 74 68 66 63 62 61 59 58 55 52 49 44 40 24 2 169 140 134 128 120 119 106 99 89 88 81 79 75 73 71 67 65 64 54 53 50 46 39 38 34 33 31 30 29 27 26 25 22 21 19 18 17 13 9 7 6 5 4 1 0 ]
68/200 (max 68) 0.00241 s
kplex size 69
[98 97 94 92 90 86 85 84 77 74 68 66 63 62 61 59 58 55 52 49 44 40 24 2 169 140 134 128 120 119 106 99 89 88 81 79 75 73 71 67 65 64 54 53 50 46 39 38 34 33 31 30 29 27 26 25 22 21 19 18 17 13 9 7 6 5 4 1 0 ]
69/200 (max 69) 0.00249 s
kplex size 70
[103 98 97 94 92 90 86 85 84 77 74 68 66 63 62 61 59 58 55 52 49 44 40 24 2 169 140 134 128 120 119 106 99 89 88 81 79 75 73 71 67 65 64 54 53 50 46 39 38 34 33 31 30 29 27 26 25 22 21 19 18 17 13 9 7 6 5 4 1 0 ]
70/200 (max 70) 0.00256 s
kplex size 71
[105 103 98 97 94 92 90 86 85 84 77 74 68 66 63 62 61 59 58 55 52 49 44 40 24 2 169 140 134 128 120 119 106 99 89 88 81 79 75 73 71 67 65 64 54 53 50 46 39 38 34 33 31 30 29 27 26 25 22 21 19 18 17 13 9 7 6 5 4 1 0 ]
71/200 (max 71) 0.00265 s
kplex size 72
[108 105 103 98 97 94 92 90 86 85 84 77 74 68 66 63 62 61 59 58 55 52 49 44 40 24 2 169 140 134 128 120 119 106 99 89 88 81 79 75 73 71 67 65 64 54 53 50 46 39 38 34 33 31 30 29 27 26 25 22 21 19 18 17 13 9 7 6 5 4 1 0 ]
72/200 (max 72) 0.00273 s
kplex size 73
[112 108 105 103 98 97 94 92 90 86 85 84 77 74 68 66 63 62 61 59 58 55 52 49 44 40 24 2 169 140 134 128 120 119 106 99 89 88 81 79 75 73 71 67 65 64 54 53 50 46 39 38 34 33 31 30 29 27 26 25 22 21 19 18 17 13 9 7 6 5 4 1 0 ]
73/200 (max 73) 0.00281 s
kplex size 74
[118 112 108 105 103 98 97 94 92 90 86 85 84 77 74 68 66 63 62 61 59 58 55 52 49 44 40 24 2 169 140 134 128 120 119 106 99 89 88 81 79 75 73 71 67 65 64 54 53 50 46 39 38 34 33 31 30 29 27 26 25 22 21 19 18 17 13 9 7 6 5 4 1 0 ]
74/200 (max 74) 0.00290 s
kplex size 75
[123 118 112 108 105 103 98 97 94 92 90 86 85 84 77 74 68 66 63 62 61 59 58 55 52 49 44 40 24 2 169 140 134 128 120 119 106 99 89 88 81 79 75 73 71 67 65 64 54 53 50 46 39 38 34 33 31 30 29 27 26 25 22 21 19 18 17 13 9 7 6 5 4 1 0 ]
75/200 (max 75) 0.00300 s
kplex size 76
[129 123 118 112 108 105 103 98 97 94 92 90 86 85 84 77 74 68 66 63 62 61 59 58 55 52 49 44 40 24 2 169 140 134 128 120 119 106 99 89 88 81 79 75 73 71 67 65 64 54 53 50 46 39 38 34 33 31 30 29 27 26 25 22 21 19 18 17 13 9 7 6 5 4 1 0 ]
76/200 (max 76) 0.00310 s
kplex size 77
[130 129 123 118 112 108 105 103 98 97 94 92 90 86 85 84 77 74 68 66 63 62 61 59 58 55 52 49 44 40 24 2 169 140 134 128 120 119 106 99 89 88 81 79 75 73 71 67 65 64 54 53 50 46 39 38 34 33 31 30 29 27 26 25 22 21 19 18 17 13 9 7 6 5 4 1 0 ]
77/200 (max 77) 0.00320 s
kplex size 78
[133 130 129 123 118 112 108 105 103 98 97 94 92 90 86 85 84 77 74 68 66 63 62 61 59 58 55 52 49 44 40 24 2 169 140 134 128 120 119 106 99 89 88 81 79 75 73 71 67 65 64 54 53 50 46 39 38 34 33 31 30 29 27 26 25 22 21 19 18 17 13 9 7 6 5 4 1 0 ]
78/200 (max 78) 0.00330 s
kplex size 79
[135 133 130 129 123 118 112 108 105 103 98 97 94 92 90 86 85 84 77 74 68 66 63 62 61 59 58 55 52 49 44 40 24 2 169 140 134 128 120 119 106 99 89 88 81 79 75 73 71 67 65 64 54 53 50 46 39 38 34 33 31 30 29 27 26 25 22 21 19 18 17 13 9 7 6 5 4 1 0 ]
79/200 (max 79) 0.00340 s
kplex size 80
[147 135 133 130 129 123 118 112 108 105 103 98 97 94 92 90 86 85 84 77 74 68 66 63 62 61 59 58 55 52 49 44 40 24 2 169 140 134 128 120 119 106 99 89 88 81 79 75 73 71 67 65 64 54 53 50 46 39 38 34 33 31 30 29 27 26 25 22 21 19 18 17 13 9 7 6 5 4 1 0 ]
80/200 (max 80) 0.00351 s
kplex size 81
[158 147 135 133 130 129 123 118 112 108 105 103 98 97 94 92 90 86 85 84 77 74 68 66 63 62 61 59 58 55 52 49 44 40 24 2 169 140 134 128 120 119 106 99 89 88 81 79 75 73 71 67 65 64 54 53 50 46 39 38 34 33 31 30 29 27 26 25 22 21 19 18 17 13 9 7 6 5 4 1 0 ]
81/200 (max 81) 0.00363 s
kplex size 82
[159 158 147 135 133 130 129 123 118 112 108 105 103 98 97 94 92 90 86 85 84 77 74 68 66 63 62 61 59 58 55 52 49 44 40 24 2 169 140 134 128 120 119 106 99 89 88 81 79 75 73 71 67 65 64 54 53 50 46 39 38 34 33 31 30 29 27 26 25 22 21 19 18 17 13 9 7 6 5 4 1 0 ]
82/200 (max 82) 0.00374 s
kplex size 83
[162 159 158 147 135 133 130 129 123 118 112 108 105 103 98 97 94 92 90 86 85 84 77 74 68 66 63 62 61 59 58 55 52 49 44 40 24 2 169 140 134 128 120 119 106 99 89 88 81 79 75 73 71 67 65 64 54 53 50 46 39 38 34 33 31 30 29 27 26 25 22 21 19 18 17 13 9 7 6 5 4 1 0 ]
83/200 (max 83) 0.00386 s
kplex size 84
[164 162 159 158 147 135 133 130 129 123 118 112 108 105 103 98 97 94 92 90 86 85 84 77 74 68 66 63 62 61 59 58 55 52 49 44 40 24 2 169 140 134 128 120 119 106 99 89 88 81 79 75 73 71 67 65 64 54 53 50 46 39 38 34 33 31 30 29 27 26 25 22 21 19 18 17 13 9 7 6 5 4 1 0 ]
84/200 (max 84) 0.00398 s
kplex size 85
[167 164 162 159 158 147 135 133 130 129 123 118 112 108 105 103 98 97 94 92 90 86 85 84 77 74 68 66 63 62 61 59 58 55 52 49 44 40 24 2 169 140 134 128 120 119 106 99 89 88 81 79 75 73 71 67 65 64 54 53 50 46 39 38 34 33 31 30 29 27 26 25 22 21 19 18 17 13 9 7 6 5 4 1 0 ]
85/200 (max 85) 0.00411 s
kplex size 86
[172 167 164 162 159 158 147 135 133 130 129 123 118 112 108 105 103 98 97 94 92 90 86 85 84 77 74 68 66 63 62 61 59 58 55 52 49 44 40 24 2 169 140 134 128 120 119 106 99 89 88 81 79 75 73 71 67 65 64 54 53 50 46 39 38 34 33 31 30 29 27 26 25 22 21 19 18 17 13 9 7 6 5 4 1 0 ]
86/200 (max 86) 0.00424 s
kplex size 87
[175 172 167 164 162 159 158 147 135 133 130 129 123 118 112 108 105 103 98 97 94 92 90 86 85 84 77 74 68 66 63 62 61 59 58 55 52 49 44 40 24 2 169 140 134 128 120 119 106 99 89 88 81 79 75 73 71 67 65 64 54 53 50 46 39 38 34 33 31 30 29 27 26 25 22 21 19 18 17 13 9 7 6 5 4 1 0 ]
87/200 (max 87) 0.00438 s
kplex size 88
[177 175 172 167 164 162 159 158 147 135 133 130 129 123 118 112 108 105 103 98 97 94 92 90 86 85 84 77 74 68 66 63 62 61 59 58 55 52 49 44 40 24 2 169 140 134 128 120 119 106 99 89 88 81 79 75 73 71 67 65 64 54 53 50 46 39 38 34 33 31 30 29 27 26 25 22 21 19 18 17 13 9 7 6 5 4 1 0 ]
88/200 (max 88) 0.00452 s
kplex size 89
[187 177 175 172 167 164 162 159 158 147 135 133 130 129 123 118 112 108 105 103 98 97 94 92 90 86 85 84 77 74 68 66 63 62 61 59 58 55 52 49 44 40 24 2 169 140 134 128 120 119 106 99 89 88 81 79 75 73 71 67 65 64 54 53 50 46 39 38 34 33 31 30 29 27 26 25 22 21 19 18 17 13 9 7 6 5 4 1 0 ]
89/200 (max 89) 0.00467 s
kplex size 90
[190 187 177 175 172 167 164 162 159 158 147 135 133 130 129 123 118 112 108 105 103 98 97 94 92 90 86 85 84 77 74 68 66 63 62 61 59 58 55 52 49 44 40 24 2 169 140 134 128 120 119 106 99 89 88 81 79 75 73 71 67 65 64 54 53 50 46 39 38 34 33 31 30 29 27 26 25 22 21 19 18 17 13 9 7 6 5 4 1 0 ]
90/200 (max 90) 0.00482 s
91/200 (max 90) 0.00485 s
92/200 (max 90) 0.00523 s
93/200 (max 90) 0.00939 s
94/200 (max 90) 0.03696 s
95/200 (max 90) 0.22771 s
96/200 (max 90) 1.58553 s
97/200 (max 90) 8.17394 s
98/200 (max 90) 28.75881 s
99/200 (max 90) 152.61463 s
100/200 (max 90) 600.99510 s
101/200 (max 90) 1706.49721 s
TIMEOUT
best clique: 190 187 177 175 172 167 164 162 159 158 147 135 133 130 129 123 118 112 108 105 103 98 97 94 92 90 86 85 84 77 74 68 66 63 62 61 59 58 55 52 49 44 40 24 2 169 140 134 128 120 119 106 99 89 88 81 79 75 73 71 67 65 64 54 53 50 46 39 38 34 33 31 30 29 27 26 25 22 21 19 18 17 13 9 7 6 5 4 1 0 
record          =          90
subp            =  7391478094
time            =  3600.00040
