timeout 3600 s
Graph with 200 vertices and 17863 edges density 0.897638
t = 35726, Enbr = 17863
pos[199] = 195 degree 166
pos[198] = 28 degree 165
pos[197] = 10 degree 164
pos[196] = 155 degree 166
pos[195] = 127 degree 165
pos[194] = 53 degree 164
pos[193] = 57 degree 164
pos[192] = 193 degree 165
pos[191] = 36 degree 164
pos[190] = 183 degree 164
pos[189] = 108 degree 163
pos[188] = 98 degree 162
pos[187] = 0 degree 161
pos[186] = 114 degree 161
pos[185] = 111 degree 160
pos[184] = 68 degree 159
pos[183] = 16 degree 158
pos[182] = 178 degree 158
pos[181] = 168 degree 157
pos[180] = 162 degree 156
pos[179] = 40 degree 155
pos[178] = 145 degree 155
pos[177] = 107 degree 154
pos[176] = 31 degree 153
pos[175] = 133 degree 153
pos[174] = 76 degree 152
pos[173] = 20 degree 151
pos[172] = 143 degree 151
pos[171] = 90 degree 150
pos[170] = 88 degree 149
pos[169] = 63 degree 148
pos[168] = 37 degree 147
pos[167] = 4 degree 146
pos[166] = 194 degree 147
pos[165] = 150 degree 146
pos[164] = 138 degree 145
pos[163] = 84 degree 144
pos[162] = 82 degree 143
pos[161] = 47 degree 142
pos[160] = 23 degree 141
pos[159] = 154 degree 141
pos[158] = 135 degree 140
pos[157] = 72 degree 139
pos[156] = 41 degree 138
pos[155] = 177 degree 138
pos[154] = 169 degree 137
pos[153] = 146 degree 136
pos[152] = 141 degree 135
pos[151] = 122 degree 134
pos[150] = 54 degree 133
pos[149] = 43 degree 132
pos[148] = 137 degree 132
pos[147] = 38 degree 131
pos[146] = 7 degree 130
pos[145] = 136 degree 130
pos[144] = 131 degree 129
pos[143] = 118 degree 128
pos[142] = 61 degree 127
pos[141] = 60 degree 126
pos[140] = 27 degree 125
pos[139] = 187 degree 125
pos[138] = 182 degree 124
pos[137] = 156 degree 123
pos[136] = 103 degree 122
pos[135] = 96 degree 121
pos[134] = 87 degree 120
pos[133] = 59 degree 119
pos[132] = 185 degree 119
pos[131] = 164 degree 118
pos[130] = 160 degree 117
pos[129] = 126 degree 116
pos[128] = 78 degree 115
pos[127] = 33 degree 114
pos[126] = 13 degree 113
pos[125] = 132 degree 113
pos[124] = 119 degree 112
pos[123] = 104 degree 111
pos[122] = 75 degree 110
pos[121] = 18 degree 109
pos[120] = 1 degree 108
pos[119] = 198 degree 108
pos[118] = 181 degree 107
pos[117] = 173 degree 106
pos[116] = 153 degree 105
pos[115] = 95 degree 104
pos[114] = 51 degree 103
pos[113] = 34 degree 102
pos[112] = 30 degree 101
pos[111] = 184 degree 101
pos[110] = 176 degree 100
pos[109] = 140 degree 99
pos[108] = 100 degree 98
pos[107] = 81 degree 97
pos[106] = 8 degree 96
pos[105] = 151 degree 96
pos[104] = 144 degree 95
pos[103] = 115 degree 94
pos[102] = 99 degree 93
pos[101] = 86 degree 92
pos[100] = 46 degree 91
pos[99] = 24 degree 90
pos[98] = 21 degree 89
pos[97] = 186 degree 89
pos[96] = 134 degree 88
pos[95] = 113 degree 87
pos[94] = 102 degree 86
pos[93] = 50 degree 85
pos[92] = 48 degree 84
pos[91] = 179 degree 84
pos[90] = 152 degree 83
pos[89] = 128 degree 82
pos[88] = 85 degree 81
pos[87] = 74 degree 80
pos[86] = 64 degree 79
pos[85] = 172 degree 79
pos[84] = 105 degree 78
pos[83] = 77 degree 77
pos[82] = 66 degree 76
pos[81] = 49 degree 75
pos[80] = 42 degree 74
pos[79] = 26 degree 73
pos[78] = 197 degree 73
pos[77] = 189 degree 72
pos[76] = 175 degree 71
pos[75] = 174 degree 70
pos[74] = 120 degree 69
pos[73] = 116 degree 68
pos[72] = 65 degree 67
pos[71] = 55 degree 66
pos[70] = 45 degree 65
pos[69] = 35 degree 64
pos[68] = 12 degree 63
pos[67] = 171 degree 63
pos[66] = 167 degree 62
pos[65] = 147 degree 61
pos[64] = 121 degree 60
pos[63] = 112 degree 59
pos[62] = 110 degree 58
pos[61] = 11 degree 57
pos[60] = 165 degree 57
pos[59] = 161 degree 56
pos[58] = 129 degree 55
pos[57] = 125 degree 54
pos[56] = 94 degree 53
pos[55] = 91 degree 52
pos[54] = 79 degree 51
pos[53] = 29 degree 50
pos[52] = 199 degree 50
pos[51] = 190 degree 49
pos[50] = 157 degree 48
pos[49] = 124 degree 47
pos[48] = 89 degree 46
pos[47] = 67 degree 45
pos[46] = 52 degree 44
pos[45] = 180 degree 44
pos[44] = 170 degree 43
pos[43] = 166 degree 42
pos[42] = 97 degree 41
pos[41] = 93 degree 40
pos[40] = 83 degree 39
pos[39] = 39 degree 38
pos[38] = 19 degree 37
pos[37] = 196 degree 37
pos[36] = 192 degree 36
pos[35] = 191 degree 35
pos[34] = 188 degree 34
pos[33] = 163 degree 33
pos[32] = 159 degree 32
pos[31] = 158 degree 31
pos[30] = 149 degree 30
pos[29] = 148 degree 29
pos[28] = 142 degree 28
pos[27] = 139 degree 27
pos[26] = 130 degree 26
pos[25] = 123 degree 25
pos[24] = 117 degree 24
pos[23] = 109 degree 23
pos[22] = 106 degree 22
pos[21] = 101 degree 21
pos[20] = 92 degree 20
pos[19] = 80 degree 19
pos[18] = 73 degree 18
pos[17] = 71 degree 17
pos[16] = 70 degree 16
pos[15] = 69 degree 15
pos[14] = 62 degree 14
pos[13] = 58 degree 13
pos[12] = 56 degree 12
pos[11] = 44 degree 11
pos[10] = 32 degree 10
pos[9] = 25 degree 9
pos[8] = 22 degree 8
pos[7] = 17 degree 7
pos[6] = 15 degree 6
pos[5] = 14 degree 5
pos[4] = 9 degree 4
pos[3] = 6 degree 3
pos[2] = 5 degree 2
pos[1] = 3 degree 1
pos[0] = 2 degree 0
kplex size 1
[2 ]
1/200 (max 1) 0.00064 s
kplex size 2
[3 2 ]
2/200 (max 2) 0.00064 s
kplex size 3
[5 3 2 ]
3/200 (max 3) 0.00065 s
kplex size 4
[6 5 3 2 ]
4/200 (max 4) 0.00065 s
kplex size 5
[9 6 5 3 2 ]
5/200 (max 5) 0.00065 s
kplex size 6
[14 9 6 5 3 2 ]
6/200 (max 6) 0.00066 s
kplex size 7
[15 14 9 6 5 3 2 ]
7/200 (max 7) 0.00066 s
kplex size 8
[17 15 14 9 6 5 3 2 ]
8/200 (max 8) 0.00066 s
kplex size 9
[22 17 15 14 9 6 5 3 2 ]
9/200 (max 9) 0.00067 s
kplex size 10
[25 22 17 15 14 9 6 5 3 2 ]
10/200 (max 10) 0.00068 s
kplex size 11
[32 25 22 17 15 14 9 6 5 3 2 ]
11/200 (max 11) 0.00068 s
kplex size 12
[44 32 25 22 17 15 14 9 6 5 3 2 ]
12/200 (max 12) 0.00069 s
kplex size 13
[56 44 32 25 22 17 15 14 9 6 5 3 2 ]
13/200 (max 13) 0.00069 s
kplex size 14
[58 56 44 32 25 22 17 15 14 9 6 5 3 2 ]
14/200 (max 14) 0.00070 s
kplex size 15
[62 58 56 44 32 25 22 17 15 14 9 6 5 3 2 ]
15/200 (max 15) 0.00071 s
kplex size 16
[69 62 58 56 44 32 25 22 17 15 14 9 6 5 3 2 ]
16/200 (max 16) 0.00072 s
kplex size 17
[70 69 62 58 56 44 32 25 22 17 15 14 9 6 5 3 2 ]
17/200 (max 17) 0.00072 s
kplex size 18
[71 70 69 62 58 56 44 32 25 22 17 15 14 9 6 5 3 2 ]
18/200 (max 18) 0.00073 s
kplex size 19
[73 71 70 69 62 58 56 44 32 25 22 17 15 14 9 6 5 3 2 ]
19/200 (max 19) 0.00074 s
kplex size 20
[80 73 71 70 69 62 58 56 44 32 25 22 17 15 14 9 6 5 3 2 ]
20/200 (max 20) 0.00075 s
kplex size 21
[92 80 73 71 70 69 62 58 56 44 32 25 22 17 15 14 9 6 5 3 2 ]
21/200 (max 21) 0.00076 s
kplex size 22
[101 92 80 73 71 70 69 62 58 56 44 32 25 22 17 15 14 9 6 5 3 2 ]
22/200 (max 22) 0.00078 s
kplex size 23
[106 101 92 80 73 71 70 69 62 58 56 44 32 25 22 17 15 14 9 6 5 3 2 ]
23/200 (max 23) 0.00079 s
kplex size 24
[109 106 101 92 80 73 71 70 69 62 58 56 44 32 25 22 17 15 14 9 6 5 3 2 ]
24/200 (max 24) 0.00080 s
kplex size 25
[117 109 106 101 92 80 73 71 70 69 62 58 56 44 32 25 22 17 15 14 9 6 5 3 2 ]
25/200 (max 25) 0.00081 s
kplex size 26
[123 117 109 106 101 92 80 73 71 70 69 62 58 56 44 32 25 22 17 15 14 9 6 5 3 2 ]
26/200 (max 26) 0.00083 s
kplex size 27
[130 123 117 109 106 101 92 80 73 71 70 69 62 58 56 44 32 25 22 17 15 14 9 6 5 3 2 ]
27/200 (max 27) 0.00084 s
kplex size 28
[139 130 123 117 109 106 101 92 80 73 71 70 69 62 58 56 44 32 25 22 17 15 14 9 6 5 3 2 ]
28/200 (max 28) 0.00086 s
kplex size 29
[142 139 130 123 117 109 106 101 92 80 73 71 70 69 62 58 56 44 32 25 22 17 15 14 9 6 5 3 2 ]
29/200 (max 29) 0.00088 s
kplex size 30
[148 142 139 130 123 117 109 106 101 92 80 73 71 70 69 62 58 56 44 32 25 22 17 15 14 9 6 5 3 2 ]
30/200 (max 30) 0.00089 s
kplex size 31
[149 148 142 139 130 123 117 109 106 101 92 80 73 71 70 69 62 58 56 44 32 25 22 17 15 14 9 6 5 3 2 ]
31/200 (max 31) 0.00091 s
kplex size 32
[158 149 148 142 139 130 123 117 109 106 101 92 80 73 71 70 69 62 58 56 44 32 25 22 17 15 14 9 6 5 3 2 ]
32/200 (max 32) 0.00093 s
kplex size 33
[159 158 149 148 142 139 130 123 117 109 106 101 92 80 73 71 70 69 62 58 56 44 32 25 22 17 15 14 9 6 5 3 2 ]
33/200 (max 33) 0.00095 s
kplex size 34
[163 159 158 149 148 142 139 130 123 117 109 106 101 92 80 73 71 70 69 62 58 56 44 32 25 22 17 15 14 9 6 5 3 2 ]
34/200 (max 34) 0.00097 s
kplex size 35
[188 163 159 158 149 148 142 139 130 123 117 109 106 101 92 80 73 71 70 69 62 58 56 44 32 25 22 17 15 14 9 6 5 3 2 ]
35/200 (max 35) 0.00101 s
kplex size 36
[191 188 163 159 158 149 148 142 139 130 123 117 109 106 101 92 80 73 71 70 69 62 58 56 44 32 25 22 17 15 14 9 6 5 3 2 ]
36/200 (max 36) 0.00103 s
kplex size 37
[192 191 188 163 159 158 149 148 142 139 130 123 117 109 106 101 92 80 73 71 70 69 62 58 56 44 32 25 22 17 15 14 9 6 5 3 2 ]
37/200 (max 37) 0.00106 s
kplex size 38
[196 192 191 188 163 159 158 149 148 142 139 130 123 117 109 106 101 92 80 73 71 70 69 62 58 56 44 32 25 22 17 15 14 9 6 5 3 2 ]
38/200 (max 38) 0.00108 s
kplex size 39
[19 196 192 191 188 163 159 158 149 148 142 139 130 123 117 109 106 101 92 80 73 71 70 69 62 58 56 44 32 25 22 17 15 14 9 6 5 3 2 ]
39/200 (max 39) 0.00111 s
kplex size 40
[39 19 196 192 191 188 163 159 158 149 148 142 139 130 123 117 109 106 101 92 80 73 71 70 69 62 58 56 44 32 25 22 17 15 14 9 6 5 3 2 ]
40/200 (max 40) 0.00113 s
kplex size 41
[83 39 19 196 192 191 188 163 159 158 149 148 142 139 130 123 117 109 106 101 92 80 73 71 70 69 62 58 56 44 32 25 22 17 15 14 9 6 5 3 2 ]
41/200 (max 41) 0.00116 s
kplex size 42
[93 83 39 19 196 192 191 188 163 159 158 149 148 142 139 130 123 117 109 106 101 92 80 73 71 70 69 62 58 56 44 32 25 22 17 15 14 9 6 5 3 2 ]
42/200 (max 42) 0.00119 s
kplex size 43
[97 93 83 39 19 196 192 191 188 163 159 158 149 148 142 139 130 123 117 109 106 101 92 80 73 71 70 69 62 58 56 44 32 25 22 17 15 14 9 6 5 3 2 ]
43/200 (max 43) 0.00122 s
kplex size 44
[166 97 93 83 39 19 196 192 191 188 163 159 158 149 148 142 139 130 123 117 109 106 101 92 80 73 71 70 69 62 58 56 44 32 25 22 17 15 14 9 6 5 3 2 ]
44/200 (max 44) 0.00125 s
kplex size 45
[170 166 97 93 83 39 19 196 192 191 188 163 159 158 149 148 142 139 130 123 117 109 106 101 92 80 73 71 70 69 62 58 56 44 32 25 22 17 15 14 9 6 5 3 2 ]
45/200 (max 45) 0.00128 s
kplex size 46
[180 170 166 97 93 83 39 19 196 192 191 188 163 159 158 149 148 142 139 130 123 117 109 106 101 92 80 73 71 70 69 62 58 56 44 32 25 22 17 15 14 9 6 5 3 2 ]
46/200 (max 46) 0.00132 s
47/200 (max 46) 0.00132 s
48/200 (max 46) 0.00133 s
49/200 (max 46) 0.00142 s
50/200 (max 46) 0.00172 s
51/200 (max 46) 0.00243 s
52/200 (max 46) 0.00374 s
kplex size 47
[199 190 157 124 89 67 52 180 170 166 97 83 39 192 191 188 163 159 158 149 148 142 139 130 123 117 109 106 101 92 73 71 69 62 58 56 44 32 22 17 15 14 9 6 5 3 2 ]
53/200 (max 47) 0.00451 s
54/200 (max 47) 0.00610 s
55/200 (max 47) 0.00794 s
56/200 (max 47) 0.01406 s
57/200 (max 47) 0.02056 s
kplex size 48
[125 94 199 190 124 89 180 170 166 97 83 39 19 192 191 188 163 159 149 148 142 139 130 123 117 109 106 101 92 73 71 70 69 62 58 56 44 32 25 22 17 15 14 9 6 5 3 2 ]
58/200 (max 48) 0.02480 s
59/200 (max 48) 0.03759 s
60/200 (max 48) 0.12863 s
61/200 (max 48) 0.22330 s
62/200 (max 48) 0.31968 s
63/200 (max 48) 0.48625 s
64/200 (max 48) 0.75655 s
65/200 (max 48) 1.06295 s
66/200 (max 48) 1.80771 s
67/200 (max 48) 3.01648 s
68/200 (max 48) 4.31012 s
69/200 (max 48) 6.83287 s
70/200 (max 48) 10.60821 s
71/200 (max 48) 14.59128 s
72/200 (max 48) 31.32109 s
73/200 (max 48) 40.95780 s
74/200 (max 48) 64.69560 s
75/200 (max 48) 106.86589 s
76/200 (max 48) 138.43484 s
77/200 (max 48) 227.14195 s
78/200 (max 48) 308.46100 s
79/200 (max 48) 395.75243 s
80/200 (max 48) 549.60006 s
81/200 (max 48) 757.00971 s
82/200 (max 48) 1011.53472 s
83/200 (max 48) 1306.28155 s
84/200 (max 48) 1769.14991 s
85/200 (max 48) 2427.23847 s
86/200 (max 48) 2989.09604 s
kplex size 49
[64 105 66 189 175 174 147 165 129 29 199 190 157 67 52 170 166 97 83 39 196 192 191 188 163 158 149 148 142 139 123 117 109 106 101 92 80 71 58 56 44 32 17 15 14 9 6 5 2 ]
87/200 (max 49) 3182.58648 s
88/200 (max 49) 3343.58868 s
89/200 (max 49) 3569.06109 s
TIMEOUT
best clique: 64 105 66 189 175 174 147 165 129 29 199 190 157 67 52 170 166 97 83 39 196 192 191 188 163 158 149 148 142 139 123 117 109 106 101 92 80 71 58 56 44 32 17 15 14 9 6 5 2 
record          =          49
subp            =  11192384203
time            =  3600.00007
