timeout 3600 s
Graph with 400 vertices and 59786 edges density 0.749198
t = 119572, Enbr = 59786
degree[399] = 328, pos[399] = 130
degree[398] = 318, pos[398] = 399
degree[397] = 317, pos[397] = 208
degree[396] = 316, pos[396] = 15
degree[395] = 315, pos[395] = 291
degree[394] = 312, pos[394] = 366
degree[393] = 311, pos[393] = 289
degree[392] = 310, pos[392] = 143
degree[391] = 309, pos[391] = 56
degree[390] = 307, pos[390] = 329
degree[389] = 307, pos[389] = 123
degree[388] = 306, pos[388] = 113
degree[387] = 305, pos[387] = 206
degree[386] = 304, pos[386] = 16
degree[385] = 303, pos[385] = 131
degree[384] = 301, pos[384] = 350
degree[383] = 300, pos[383] = 319
degree[382] = 299, pos[382] = 286
degree[381] = 298, pos[381] = 166
degree[380] = 298, pos[380] = 6
degree[379] = 297, pos[379] = 116
degree[378] = 295, pos[378] = 185
degree[377] = 294, pos[377] = 285
degree[376] = 294, pos[376] = 81
degree[375] = 293, pos[375] = 351
degree[374] = 292, pos[374] = 108
degree[373] = 292, pos[373] = 97
degree[372] = 290, pos[372] = 256
degree[371] = 289, pos[371] = 246
degree[370] = 289, pos[370] = 198
degree[369] = 288, pos[369] = 126
degree[368] = 287, pos[368] = 218
degree[367] = 286, pos[367] = 335
degree[366] = 285, pos[366] = 98
degree[365] = 283, pos[365] = 148
degree[364] = 283, pos[364] = 50
degree[363] = 282, pos[363] = 89
degree[362] = 280, pos[362] = 389
degree[361] = 280, pos[361] = 245
degree[360] = 279, pos[360] = 134
degree[359] = 278, pos[359] = 30
degree[358] = 277, pos[358] = 392
degree[357] = 277, pos[357] = 261
degree[356] = 277, pos[356] = 164
degree[355] = 275, pos[355] = 269
degree[354] = 273, pos[354] = 381
degree[353] = 272, pos[353] = 318
degree[352] = 272, pos[352] = 84
degree[351] = 270, pos[351] = 390
degree[350] = 270, pos[350] = 378
degree[349] = 269, pos[349] = 248
degree[348] = 269, pos[348] = 203
degree[347] = 269, pos[347] = 188
degree[346] = 266, pos[346] = 358
degree[345] = 265, pos[345] = 362
degree[344] = 264, pos[344] = 298
degree[343] = 264, pos[343] = 159
degree[342] = 264, pos[342] = 40
degree[341] = 263, pos[341] = 212
degree[340] = 262, pos[340] = 221
degree[339] = 261, pos[339] = 74
degree[338] = 260, pos[338] = 310
degree[337] = 259, pos[337] = 295
degree[336] = 259, pos[336] = 180
degree[335] = 257, pos[335] = 184
degree[334] = 256, pos[334] = 172
degree[333] = 256, pos[333] = 34
degree[332] = 255, pos[332] = 170
degree[331] = 254, pos[331] = 121
degree[330] = 252, pos[330] = 314
degree[329] = 252, pos[329] = 9
degree[328] = 250, pos[328] = 338
degree[327] = 250, pos[327] = 128
degree[326] = 249, pos[326] = 244
degree[325] = 248, pos[325] = 360
degree[324] = 248, pos[324] = 66
degree[323] = 247, pos[323] = 35
degree[322] = 246, pos[322] = 14
degree[321] = 245, pos[321] = 88
degree[320] = 244, pos[320] = 386
degree[319] = 243, pos[319] = 282
degree[318] = 243, pos[318] = 67
degree[317] = 242, pos[317] = 294
degree[316] = 242, pos[316] = 230
degree[315] = 241, pos[315] = 235
degree[314] = 241, pos[314] = 137
degree[313] = 238, pos[313] = 242
degree[312] = 237, pos[312] = 276
degree[311] = 236, pos[311] = 375
degree[310] = 235, pos[310] = 353
degree[309] = 235, pos[309] = 259
degree[308] = 234, pos[308] = 186
degree[307] = 234, pos[307] = 70
degree[306] = 233, pos[306] = 357
degree[305] = 232, pos[305] = 33
degree[304] = 231, pos[304] = 133
degree[303] = 230, pos[303] = 287
degree[302] = 230, pos[302] = 260
degree[301] = 228, pos[301] = 207
degree[300] = 228, pos[300] = 104
degree[299] = 227, pos[299] = 281
degree[298] = 227, pos[298] = 157
degree[297] = 225, pos[297] = 178
degree[296] = 225, pos[296] = 5
degree[295] = 224, pos[295] = 264
degree[294] = 224, pos[294] = 83
degree[293] = 223, pos[293] = 64
degree[292] = 222, pos[292] = 101
degree[291] = 221, pos[291] = 72
degree[290] = 220, pos[290] = 312
degree[289] = 219, pos[289] = 19
degree[288] = 218, pos[288] = 320
degree[287] = 217, pos[287] = 309
degree[286] = 217, pos[286] = 205
degree[285] = 217, pos[285] = 69
degree[284] = 215, pos[284] = 18
degree[283] = 214, pos[283] = 273
degree[282] = 213, pos[282] = 332
degree[281] = 212, pos[281] = 257
degree[280] = 212, pos[280] = 24
degree[279] = 211, pos[279] = 302
degree[278] = 210, pos[278] = 284
degree[277] = 209, pos[277] = 225
degree[276] = 208, pos[276] = 228
degree[275] = 207, pos[275] = 391
degree[274] = 207, pos[274] = 211
degree[273] = 207, pos[273] = 181
degree[272] = 206, pos[272] = 189
degree[271] = 205, pos[271] = 234
degree[270] = 204, pos[270] = 371
degree[269] = 203, pos[269] = 296
degree[268] = 202, pos[268] = 393
degree[267] = 202, pos[267] = 1
degree[266] = 201, pos[266] = 48
degree[265] = 199, pos[265] = 352
degree[264] = 199, pos[264] = 92
degree[263] = 198, pos[263] = 49
degree[262] = 197, pos[262] = 124
degree[261] = 196, pos[261] = 59
degree[260] = 195, pos[260] = 25
degree[259] = 194, pos[259] = 374
degree[258] = 194, pos[258] = 10
degree[257] = 193, pos[257] = 55
degree[256] = 192, pos[256] = 277
degree[255] = 191, pos[255] = 102
degree[254] = 190, pos[254] = 272
degree[253] = 189, pos[253] = 382
degree[252] = 189, pos[252] = 341
degree[251] = 188, pos[251] = 347
degree[250] = 188, pos[250] = 60
degree[249] = 186, pos[249] = 271
degree[248] = 186, pos[248] = 119
degree[247] = 184, pos[247] = 359
degree[246] = 183, pos[246] = 368
degree[245] = 183, pos[245] = 149
degree[244] = 183, pos[244] = 100
degree[243] = 182, pos[243] = 122
degree[242] = 181, pos[242] = 229
degree[241] = 180, pos[241] = 313
degree[240] = 179, pos[240] = 267
degree[239] = 178, pos[239] = 183
degree[238] = 177, pos[238] = 176
degree[237] = 176, pos[237] = 174
degree[236] = 175, pos[236] = 278
degree[235] = 175, pos[235] = 227
degree[234] = 174, pos[234] = 213
degree[233] = 173, pos[233] = 151
degree[232] = 172, pos[232] = 336
degree[231] = 172, pos[231] = 23
degree[230] = 171, pos[230] = 379
degree[229] = 170, pos[229] = 380
degree[228] = 170, pos[228] = 42
degree[227] = 169, pos[227] = 396
degree[226] = 169, pos[226] = 158
degree[225] = 168, pos[225] = 136
degree[224] = 167, pos[224] = 103
degree[223] = 166, pos[223] = 63
degree[222] = 165, pos[222] = 139
degree[221] = 164, pos[221] = 146
degree[220] = 163, pos[220] = 43
degree[219] = 162, pos[219] = 384
degree[218] = 162, pos[218] = 216
degree[217] = 161, pos[217] = 377
degree[216] = 160, pos[216] = 238
degree[215] = 160, pos[215] = 155
degree[214] = 159, pos[214] = 68
degree[213] = 158, pos[213] = 303
degree[212] = 158, pos[212] = 21
degree[211] = 156, pos[211] = 31
degree[210] = 155, pos[210] = 334
degree[209] = 154, pos[209] = 340
degree[208] = 153, pos[208] = 372
degree[207] = 152, pos[207] = 330
degree[206] = 152, pos[206] = 279
degree[205] = 151, pos[205] = 219
degree[204] = 151, pos[204] = 135
degree[203] = 150, pos[203] = 107
degree[202] = 149, pos[202] = 195
degree[201] = 149, pos[201] = 152
degree[200] = 147, pos[200] = 365
degree[199] = 146, pos[199] = 61
degree[198] = 145, pos[198] = 376
degree[197] = 145, pos[197] = 356
degree[196] = 144, pos[196] = 364
degree[195] = 144, pos[195] = 288
degree[194] = 143, pos[194] = 3
degree[193] = 142, pos[193] = 57
degree[192] = 140, pos[192] = 398
degree[191] = 140, pos[191] = 199
degree[190] = 139, pos[190] = 361
degree[189] = 139, pos[189] = 175
degree[188] = 138, pos[188] = 169
degree[187] = 137, pos[187] = 258
degree[186] = 137, pos[186] = 12
degree[185] = 135, pos[185] = 274
degree[184] = 135, pos[184] = 191
degree[183] = 134, pos[183] = 44
degree[182] = 133, pos[182] = 120
degree[181] = 132, pos[181] = 224
degree[180] = 132, pos[180] = 110
degree[179] = 131, pos[179] = 163
degree[178] = 131, pos[178] = 2
degree[177] = 130, pos[177] = 239
degree[176] = 130, pos[176] = 161
degree[175] = 128, pos[175] = 316
degree[174] = 127, pos[174] = 268
degree[173] = 127, pos[173] = 76
degree[172] = 126, pos[172] = 141
degree[171] = 124, pos[171] = 394
degree[170] = 124, pos[170] = 192
degree[169] = 123, pos[169] = 297
degree[168] = 123, pos[168] = 275
degree[167] = 122, pos[167] = 194
degree[166] = 121, pos[166] = 95
degree[165] = 120, pos[165] = 58
degree[164] = 119, pos[164] = 77
degree[163] = 119, pos[163] = 53
degree[162] = 118, pos[162] = 52
degree[161] = 116, pos[161] = 300
degree[160] = 115, pos[160] = 293
degree[159] = 115, pos[159] = 129
degree[158] = 114, pos[158] = 283
degree[157] = 114, pos[157] = 125
degree[156] = 113, pos[156] = 217
degree[155] = 112, pos[155] = 323
degree[154] = 111, pos[154] = 299
degree[153] = 110, pos[153] = 355
degree[152] = 110, pos[152] = 232
degree[151] = 109, pos[151] = 280
degree[150] = 109, pos[150] = 223
degree[149] = 107, pos[149] = 266
degree[148] = 107, pos[148] = 160
degree[147] = 106, pos[147] = 262
degree[146] = 105, pos[146] = 201
degree[145] = 105, pos[145] = 7
degree[144] = 104, pos[144] = 165
degree[143] = 103, pos[143] = 265
degree[142] = 102, pos[142] = 342
degree[141] = 102, pos[141] = 241
degree[140] = 101, pos[140] = 305
degree[139] = 100, pos[139] = 150
degree[138] = 100, pos[138] = 47
degree[137] = 100, pos[137] = 38
degree[136] = 98, pos[136] = 337
degree[135] = 96, pos[135] = 247
degree[134] = 95, pos[134] = 363
degree[133] = 95, pos[133] = 255
degree[132] = 95, pos[132] = 117
degree[131] = 94, pos[131] = 26
degree[130] = 93, pos[130] = 383
degree[129] = 91, pos[129] = 373
degree[128] = 91, pos[128] = 79
degree[127] = 90, pos[127] = 349
degree[126] = 89, pos[126] = 354
degree[125] = 88, pos[125] = 45
degree[124] = 88, pos[124] = 36
degree[123] = 88, pos[123] = 13
degree[122] = 86, pos[122] = 231
degree[121] = 85, pos[121] = 173
degree[120] = 85, pos[120] = 27
degree[119] = 84, pos[119] = 196
degree[118] = 84, pos[118] = 177
degree[117] = 83, pos[117] = 65
degree[116] = 82, pos[116] = 54
degree[115] = 81, pos[115] = 142
degree[114] = 81, pos[114] = 94
degree[113] = 80, pos[113] = 344
degree[112] = 79, pos[112] = 324
degree[111] = 78, pos[111] = 270
degree[110] = 78, pos[110] = 20
degree[109] = 77, pos[109] = 325
degree[108] = 77, pos[108] = 162
degree[107] = 76, pos[107] = 39
degree[106] = 75, pos[106] = 80
degree[105] = 75, pos[105] = 29
degree[104] = 73, pos[104] = 301
degree[103] = 73, pos[103] = 168
degree[102] = 71, pos[102] = 237
degree[101] = 71, pos[101] = 93
degree[100] = 70, pos[100] = 345
degree[99] = 69, pos[99] = 147
degree[98] = 69, pos[98] = 96
degree[97] = 68, pos[97] = 236
degree[96] = 67, pos[96] = 51
degree[95] = 66, pos[95] = 82
degree[94] = 65, pos[94] = 322
degree[93] = 64, pos[93] = 317
degree[92] = 63, pos[92] = 307
degree[91] = 63, pos[91] = 37
degree[90] = 62, pos[90] = 71
degree[89] = 61, pos[89] = 327
degree[88] = 61, pos[88] = 144
degree[87] = 60, pos[87] = 253
degree[86] = 59, pos[86] = 251
degree[85] = 59, pos[85] = 106
degree[84] = 57, pos[84] = 397
degree[83] = 56, pos[83] = 167
degree[82] = 55, pos[82] = 308
degree[81] = 54, pos[81] = 311
degree[80] = 54, pos[80] = 222
degree[79] = 53, pos[79] = 118
degree[78] = 52, pos[78] = 32
degree[77] = 51, pos[77] = 321
degree[76] = 50, pos[76] = 343
degree[75] = 50, pos[75] = 140
degree[74] = 50, pos[74] = 62
degree[73] = 49, pos[73] = 17
degree[72] = 48, pos[72] = 112
degree[71] = 47, pos[71] = 91
degree[70] = 47, pos[70] = 85
degree[69] = 46, pos[69] = 367
degree[68] = 45, pos[68] = 306
degree[67] = 44, pos[67] = 114
degree[66] = 43, pos[66] = 252
degree[65] = 42, pos[65] = 145
degree[64] = 41, pos[64] = 369
degree[63] = 41, pos[63] = 328
degree[62] = 40, pos[62] = 215
degree[61] = 40, pos[61] = 78
degree[60] = 38, pos[60] = 315
degree[59] = 38, pos[59] = 292
degree[58] = 37, pos[58] = 214
degree[57] = 37, pos[57] = 8
degree[56] = 35, pos[56] = 370
degree[55] = 35, pos[55] = 210
degree[54] = 35, pos[54] = 115
degree[53] = 34, pos[53] = 187
degree[52] = 33, pos[52] = 87
degree[51] = 32, pos[51] = 233
degree[50] = 31, pos[50] = 240
degree[49] = 31, pos[49] = 138
degree[48] = 31, pos[48] = 109
degree[47] = 30, pos[47] = 326
degree[46] = 29, pos[46] = 395
degree[45] = 28, pos[45] = 193
degree[44] = 28, pos[44] = 46
degree[43] = 26, pos[43] = 226
degree[42] = 25, pos[42] = 200
degree[41] = 25, pos[41] = 86
degree[40] = 24, pos[40] = 190
degree[39] = 24, pos[39] = 154
degree[38] = 22, pos[38] = 339
degree[37] = 22, pos[37] = 254
degree[36] = 22, pos[36] = 127
degree[35] = 21, pos[35] = 99
degree[34] = 20, pos[34] = 90
degree[33] = 19, pos[33] = 171
degree[32] = 19, pos[32] = 11
degree[31] = 18, pos[31] = 153
degree[30] = 17, pos[30] = 105
degree[29] = 16, pos[29] = 387
degree[28] = 16, pos[28] = 75
degree[27] = 15, pos[27] = 385
degree[26] = 15, pos[26] = 28
degree[25] = 14, pos[25] = 204
degree[24] = 13, pos[24] = 333
degree[23] = 13, pos[23] = 202
degree[22] = 12, pos[22] = 249
degree[21] = 12, pos[21] = 73
degree[20] = 10, pos[20] = 348
degree[19] = 10, pos[19] = 346
degree[18] = 9, pos[18] = 331
degree[17] = 8, pos[17] = 243
degree[16] = 8, pos[16] = 220
degree[15] = 8, pos[15] = 156
degree[14] = 7, pos[14] = 197
degree[13] = 7, pos[13] = 111
degree[12] = 5, pos[12] = 22
degree[11] = 4, pos[11] = 388
degree[10] = 4, pos[10] = 209
degree[9] = 3, pos[9] = 290
degree[8] = 3, pos[8] = 41
degree[7] = 2, pos[7] = 250
degree[6] = 1, pos[6] = 263
degree[5] = 1, pos[5] = 132
degree[4] = 0, pos[4] = 304
degree[3] = 0, pos[3] = 182
degree[2] = 0, pos[2] = 179
degree[1] = 0, pos[1] = 4
degree[0] = 0, pos[0] = 0
Pos[0] = 0
Pos[1] = 4
Pos[2] = 179
Pos[3] = 182
Pos[4] = 304
Pos[5] = 132
Pos[6] = 263
Pos[7] = 250
Pos[8] = 41
Pos[9] = 290
Pos[10] = 209
Pos[11] = 388
Pos[12] = 22
Pos[13] = 111
Pos[14] = 197
Pos[15] = 156
Pos[16] = 220
Pos[17] = 243
Pos[18] = 331
Pos[19] = 346
Pos[20] = 348
Pos[21] = 73
Pos[22] = 249
Pos[23] = 202
Pos[24] = 333
Pos[25] = 204
Pos[26] = 28
Pos[27] = 385
Pos[28] = 75
Pos[29] = 387
Pos[30] = 105
Pos[31] = 153
Pos[32] = 11
Pos[33] = 171
Pos[34] = 90
Pos[35] = 99
Pos[36] = 127
Pos[37] = 254
Pos[38] = 339
Pos[39] = 154
Pos[40] = 190
Pos[41] = 86
Pos[42] = 200
Pos[43] = 226
Pos[44] = 46
Pos[45] = 193
Pos[46] = 395
Pos[47] = 326
Pos[48] = 109
Pos[49] = 138
Pos[50] = 240
Pos[51] = 233
Pos[52] = 87
Pos[53] = 187
Pos[54] = 115
Pos[55] = 210
Pos[56] = 370
Pos[57] = 8
Pos[58] = 214
Pos[59] = 292
Pos[60] = 315
Pos[61] = 78
Pos[62] = 215
Pos[63] = 328
Pos[64] = 369
Pos[65] = 145
Pos[66] = 252
Pos[67] = 114
Pos[68] = 306
Pos[69] = 367
Pos[70] = 85
Pos[71] = 91
Pos[72] = 112
Pos[73] = 17
Pos[74] = 62
Pos[75] = 140
Pos[76] = 343
Pos[77] = 321
Pos[78] = 32
Pos[79] = 118
Pos[80] = 222
Pos[81] = 311
Pos[82] = 308
Pos[83] = 167
Pos[84] = 397
Pos[85] = 106
Pos[86] = 251
Pos[87] = 253
Pos[88] = 144
Pos[89] = 327
Pos[90] = 71
Pos[91] = 37
Pos[92] = 307
Pos[93] = 317
Pos[94] = 322
Pos[95] = 82
Pos[96] = 51
Pos[97] = 236
Pos[98] = 96
Pos[99] = 147
Pos[100] = 345
Pos[101] = 93
Pos[102] = 237
Pos[103] = 168
Pos[104] = 301
Pos[105] = 29
Pos[106] = 80
Pos[107] = 39
Pos[108] = 162
Pos[109] = 325
Pos[110] = 20
Pos[111] = 270
Pos[112] = 324
Pos[113] = 344
Pos[114] = 94
Pos[115] = 142
Pos[116] = 54
Pos[117] = 65
Pos[118] = 177
Pos[119] = 196
Pos[120] = 27
Pos[121] = 173
Pos[122] = 231
Pos[123] = 13
Pos[124] = 36
Pos[125] = 45
Pos[126] = 354
Pos[127] = 349
Pos[128] = 79
Pos[129] = 373
Pos[130] = 383
Pos[131] = 26
Pos[132] = 117
Pos[133] = 255
Pos[134] = 363
Pos[135] = 247
Pos[136] = 337
Pos[137] = 38
Pos[138] = 47
Pos[139] = 150
Pos[140] = 305
Pos[141] = 241
Pos[142] = 342
Pos[143] = 265
Pos[144] = 165
Pos[145] = 7
Pos[146] = 201
Pos[147] = 262
Pos[148] = 160
Pos[149] = 266
Pos[150] = 223
Pos[151] = 280
Pos[152] = 232
Pos[153] = 355
Pos[154] = 299
Pos[155] = 323
Pos[156] = 217
Pos[157] = 125
Pos[158] = 283
Pos[159] = 129
Pos[160] = 293
Pos[161] = 300
Pos[162] = 52
Pos[163] = 53
Pos[164] = 77
Pos[165] = 58
Pos[166] = 95
Pos[167] = 194
Pos[168] = 275
Pos[169] = 297
Pos[170] = 192
Pos[171] = 394
Pos[172] = 141
Pos[173] = 76
Pos[174] = 268
Pos[175] = 316
Pos[176] = 161
Pos[177] = 239
Pos[178] = 2
Pos[179] = 163
Pos[180] = 110
Pos[181] = 224
Pos[182] = 120
Pos[183] = 44
Pos[184] = 191
Pos[185] = 274
Pos[186] = 12
Pos[187] = 258
Pos[188] = 169
Pos[189] = 175
Pos[190] = 361
Pos[191] = 199
Pos[192] = 398
Pos[193] = 57
Pos[194] = 3
Pos[195] = 288
Pos[196] = 364
Pos[197] = 356
Pos[198] = 376
Pos[199] = 61
Pos[200] = 365
Pos[201] = 152
Pos[202] = 195
Pos[203] = 107
Pos[204] = 135
Pos[205] = 219
Pos[206] = 279
Pos[207] = 330
Pos[208] = 372
Pos[209] = 340
Pos[210] = 334
Pos[211] = 31
Pos[212] = 21
Pos[213] = 303
Pos[214] = 68
Pos[215] = 155
Pos[216] = 238
Pos[217] = 377
Pos[218] = 216
Pos[219] = 384
Pos[220] = 43
Pos[221] = 146
Pos[222] = 139
Pos[223] = 63
Pos[224] = 103
Pos[225] = 136
Pos[226] = 158
Pos[227] = 396
Pos[228] = 42
Pos[229] = 380
Pos[230] = 379
Pos[231] = 23
Pos[232] = 336
Pos[233] = 151
Pos[234] = 213
Pos[235] = 227
Pos[236] = 278
Pos[237] = 174
Pos[238] = 176
Pos[239] = 183
Pos[240] = 267
Pos[241] = 313
Pos[242] = 229
Pos[243] = 122
Pos[244] = 100
Pos[245] = 149
Pos[246] = 368
Pos[247] = 359
Pos[248] = 119
Pos[249] = 271
Pos[250] = 60
Pos[251] = 347
Pos[252] = 341
Pos[253] = 382
Pos[254] = 272
Pos[255] = 102
Pos[256] = 277
Pos[257] = 55
Pos[258] = 10
Pos[259] = 374
Pos[260] = 25
Pos[261] = 59
Pos[262] = 124
Pos[263] = 49
Pos[264] = 92
Pos[265] = 352
Pos[266] = 48
Pos[267] = 1
Pos[268] = 393
Pos[269] = 296
Pos[270] = 371
Pos[271] = 234
Pos[272] = 189
Pos[273] = 181
Pos[274] = 211
Pos[275] = 391
Pos[276] = 228
Pos[277] = 225
Pos[278] = 284
Pos[279] = 302
Pos[280] = 24
Pos[281] = 257
Pos[282] = 332
Pos[283] = 273
Pos[284] = 18
Pos[285] = 69
Pos[286] = 205
Pos[287] = 309
Pos[288] = 320
Pos[289] = 19
Pos[290] = 312
Pos[291] = 72
Pos[292] = 101
Pos[293] = 64
Pos[294] = 83
Pos[295] = 264
Pos[296] = 5
Pos[297] = 178
Pos[298] = 157
Pos[299] = 281
Pos[300] = 104
Pos[301] = 207
Pos[302] = 260
Pos[303] = 287
Pos[304] = 133
Pos[305] = 33
Pos[306] = 357
Pos[307] = 70
Pos[308] = 186
Pos[309] = 259
Pos[310] = 353
Pos[311] = 375
Pos[312] = 276
Pos[313] = 242
Pos[314] = 137
Pos[315] = 235
Pos[316] = 230
Pos[317] = 294
Pos[318] = 67
Pos[319] = 282
Pos[320] = 386
Pos[321] = 88
Pos[322] = 14
Pos[323] = 35
Pos[324] = 66
Pos[325] = 360
Pos[326] = 244
Pos[327] = 128
Pos[328] = 338
Pos[329] = 9
Pos[330] = 314
Pos[331] = 121
Pos[332] = 170
Pos[333] = 34
Pos[334] = 172
Pos[335] = 184
Pos[336] = 180
Pos[337] = 295
Pos[338] = 310
Pos[339] = 74
Pos[340] = 221
Pos[341] = 212
Pos[342] = 40
Pos[343] = 159
Pos[344] = 298
Pos[345] = 362
Pos[346] = 358
Pos[347] = 188
Pos[348] = 203
Pos[349] = 248
Pos[350] = 378
Pos[351] = 390
Pos[352] = 84
Pos[353] = 318
Pos[354] = 381
Pos[355] = 269
Pos[356] = 164
Pos[357] = 261
Pos[358] = 392
Pos[359] = 30
Pos[360] = 134
Pos[361] = 245
Pos[362] = 389
Pos[363] = 89
Pos[364] = 50
Pos[365] = 148
Pos[366] = 98
Pos[367] = 335
Pos[368] = 218
Pos[369] = 126
Pos[370] = 198
Pos[371] = 246
Pos[372] = 256
Pos[373] = 97
Pos[374] = 108
Pos[375] = 351
Pos[376] = 81
Pos[377] = 285
Pos[378] = 185
Pos[379] = 116
Pos[380] = 6
Pos[381] = 166
Pos[382] = 286
Pos[383] = 319
Pos[384] = 350
Pos[385] = 131
Pos[386] = 16
Pos[387] = 206
Pos[388] = 113
Pos[389] = 123
Pos[390] = 329
Pos[391] = 56
Pos[392] = 143
Pos[393] = 289
Pos[394] = 366
Pos[395] = 291
Pos[396] = 15
Pos[397] = 208
Pos[398] = 399
Pos[399] = 130
Enbr = 59786
start search
improving solution size 1
improving solution size 2
improving solution size 3
improving solution size 4
improving solution size 5
improving solution size 6
improving solution size 7
improving solution size 8
improving solution size 9
improving solution size 10
improving solution size 11
improving solution size 12
improving solution size 13
improving solution size 14
improving solution size 15
improving solution size 16
improving solution size 17
improving solution size 18
improving solution size 19
improving solution size 20
improving solution size 21
improving solution size 22
improving solution size 23
improving solution size 24
improving solution size 25
improving solution size 26
improving solution size 27
improving solution size 28
TIMEOUT
best clique: 131 400 209 16 292 290 82 246 41 67 138 376 333 375 69 258 289 121 261 78 256 40 143 107 350 63 307 291 
record          =          28
subp            =  3667808144
time            =  3600.00068
