timeout 3600 s
Graph with 200 vertices and 1534 edges density 0.077085
t = 3068, Enbr = 1534
degree[199] = 17, pos[199] = 198
degree[198] = 17, pos[198] = 196
degree[197] = 17, pos[197] = 194
degree[196] = 17, pos[196] = 192
degree[195] = 17, pos[195] = 190
degree[194] = 17, pos[194] = 188
degree[193] = 17, pos[193] = 186
degree[192] = 16, pos[192] = 161
degree[191] = 16, pos[191] = 159
degree[190] = 16, pos[190] = 157
degree[189] = 16, pos[189] = 155
degree[188] = 16, pos[188] = 153
degree[187] = 16, pos[187] = 151
degree[186] = 16, pos[186] = 149
degree[185] = 15, pos[185] = 184
degree[184] = 15, pos[184] = 163
degree[183] = 15, pos[183] = 124
degree[182] = 15, pos[182] = 122
degree[181] = 15, pos[181] = 120
degree[180] = 15, pos[180] = 118
degree[179] = 15, pos[179] = 116
degree[178] = 15, pos[178] = 114
degree[177] = 15, pos[177] = 112
degree[176] = 14, pos[176] = 182
degree[175] = 14, pos[175] = 180
degree[174] = 14, pos[174] = 178
degree[173] = 14, pos[173] = 176
degree[172] = 14, pos[172] = 174
degree[171] = 14, pos[171] = 172
degree[170] = 14, pos[170] = 170
degree[169] = 14, pos[169] = 168
degree[168] = 14, pos[168] = 166
degree[167] = 14, pos[167] = 147
degree[166] = 14, pos[166] = 126
degree[165] = 14, pos[165] = 87
degree[164] = 14, pos[164] = 85
degree[163] = 14, pos[163] = 83
degree[162] = 14, pos[162] = 81
degree[161] = 14, pos[161] = 79
degree[160] = 14, pos[160] = 77
degree[159] = 14, pos[159] = 75
degree[158] = 13, pos[158] = 165
degree[157] = 13, pos[157] = 145
degree[156] = 13, pos[156] = 143
degree[155] = 13, pos[155] = 141
degree[154] = 13, pos[154] = 139
degree[153] = 13, pos[153] = 137
degree[152] = 13, pos[152] = 135
degree[151] = 13, pos[151] = 133
degree[150] = 13, pos[150] = 131
degree[149] = 13, pos[149] = 110
degree[148] = 13, pos[148] = 89
degree[147] = 13, pos[147] = 50
degree[146] = 13, pos[146] = 48
degree[145] = 13, pos[145] = 46
degree[144] = 13, pos[144] = 44
degree[143] = 13, pos[143] = 42
degree[142] = 13, pos[142] = 40
degree[141] = 13, pos[141] = 38
degree[140] = 12, pos[140] = 129
degree[139] = 12, pos[139] = 108
degree[138] = 12, pos[138] = 106
degree[137] = 12, pos[137] = 104
degree[136] = 12, pos[136] = 102
degree[135] = 12, pos[135] = 100
degree[134] = 12, pos[134] = 98
degree[133] = 12, pos[133] = 96
degree[132] = 12, pos[132] = 94
degree[131] = 12, pos[131] = 73
degree[130] = 12, pos[130] = 52
degree[129] = 12, pos[129] = 13
degree[128] = 12, pos[128] = 11
degree[127] = 12, pos[127] = 9
degree[126] = 12, pos[126] = 7
degree[125] = 12, pos[125] = 5
degree[124] = 12, pos[124] = 3
degree[123] = 12, pos[123] = 1
degree[122] = 11, pos[122] = 128
degree[121] = 11, pos[121] = 71
degree[120] = 11, pos[120] = 69
degree[119] = 11, pos[119] = 67
degree[118] = 11, pos[118] = 65
degree[117] = 11, pos[117] = 63
degree[116] = 11, pos[116] = 61
degree[115] = 11, pos[115] = 59
degree[114] = 11, pos[114] = 57
degree[113] = 11, pos[113] = 36
degree[112] = 11, pos[112] = 15
degree[111] = 10, pos[111] = 92
degree[110] = 10, pos[110] = 34
degree[109] = 10, pos[109] = 32
degree[108] = 10, pos[108] = 30
degree[107] = 10, pos[107] = 28
degree[106] = 10, pos[106] = 26
degree[105] = 10, pos[105] = 24
degree[104] = 10, pos[104] = 22
degree[103] = 10, pos[103] = 20
degree[102] = 9, pos[102] = 91
degree[101] = 8, pos[101] = 55
degree[100] = 7, pos[100] = 54
degree[99] = 6, pos[99] = 18
degree[98] = 5, pos[98] = 199
degree[97] = 5, pos[97] = 197
degree[96] = 5, pos[96] = 195
degree[95] = 5, pos[95] = 193
degree[94] = 5, pos[94] = 191
degree[93] = 5, pos[93] = 189
degree[92] = 5, pos[92] = 187
degree[91] = 5, pos[91] = 185
degree[90] = 5, pos[90] = 164
degree[89] = 4, pos[89] = 183
degree[88] = 4, pos[88] = 181
degree[87] = 4, pos[87] = 179
degree[86] = 4, pos[86] = 177
degree[85] = 4, pos[85] = 175
degree[84] = 4, pos[84] = 173
degree[83] = 4, pos[83] = 171
degree[82] = 4, pos[82] = 169
degree[81] = 4, pos[81] = 167
degree[80] = 4, pos[80] = 162
degree[79] = 4, pos[79] = 160
degree[78] = 4, pos[78] = 158
degree[77] = 4, pos[77] = 156
degree[76] = 4, pos[76] = 154
degree[75] = 4, pos[75] = 152
degree[74] = 4, pos[74] = 150
degree[73] = 4, pos[73] = 148
degree[72] = 4, pos[72] = 127
degree[71] = 3, pos[71] = 146
degree[70] = 3, pos[70] = 144
degree[69] = 3, pos[69] = 142
degree[68] = 3, pos[68] = 140
degree[67] = 3, pos[67] = 138
degree[66] = 3, pos[66] = 136
degree[65] = 3, pos[65] = 134
degree[64] = 3, pos[64] = 132
degree[63] = 3, pos[63] = 130
degree[62] = 3, pos[62] = 125
degree[61] = 3, pos[61] = 123
degree[60] = 3, pos[60] = 121
degree[59] = 3, pos[59] = 119
degree[58] = 3, pos[58] = 117
degree[57] = 3, pos[57] = 115
degree[56] = 3, pos[56] = 113
degree[55] = 3, pos[55] = 111
degree[54] = 3, pos[54] = 90
degree[53] = 2, pos[53] = 109
degree[52] = 2, pos[52] = 107
degree[51] = 2, pos[51] = 105
degree[50] = 2, pos[50] = 103
degree[49] = 2, pos[49] = 101
degree[48] = 2, pos[48] = 99
degree[47] = 2, pos[47] = 97
degree[46] = 2, pos[46] = 95
degree[45] = 2, pos[45] = 93
degree[44] = 2, pos[44] = 88
degree[43] = 2, pos[43] = 86
degree[42] = 2, pos[42] = 84
degree[41] = 2, pos[41] = 82
degree[40] = 2, pos[40] = 80
degree[39] = 2, pos[39] = 78
degree[38] = 2, pos[38] = 76
degree[37] = 2, pos[37] = 74
degree[36] = 2, pos[36] = 53
degree[35] = 1, pos[35] = 72
degree[34] = 1, pos[34] = 70
degree[33] = 1, pos[33] = 68
degree[32] = 1, pos[32] = 66
degree[31] = 1, pos[31] = 64
degree[30] = 1, pos[30] = 62
degree[29] = 1, pos[29] = 60
degree[28] = 1, pos[28] = 58
degree[27] = 1, pos[27] = 56
degree[26] = 1, pos[26] = 51
degree[25] = 1, pos[25] = 49
degree[24] = 1, pos[24] = 47
degree[23] = 1, pos[23] = 45
degree[22] = 1, pos[22] = 43
degree[21] = 1, pos[21] = 41
degree[20] = 1, pos[20] = 39
degree[19] = 1, pos[19] = 37
degree[18] = 1, pos[18] = 17
degree[17] = 0, pos[17] = 35
degree[16] = 0, pos[16] = 33
degree[15] = 0, pos[15] = 31
degree[14] = 0, pos[14] = 29
degree[13] = 0, pos[13] = 27
degree[12] = 0, pos[12] = 25
degree[11] = 0, pos[11] = 23
degree[10] = 0, pos[10] = 21
degree[9] = 0, pos[9] = 19
degree[8] = 0, pos[8] = 16
degree[7] = 0, pos[7] = 14
degree[6] = 0, pos[6] = 12
degree[5] = 0, pos[5] = 10
degree[4] = 0, pos[4] = 8
degree[3] = 0, pos[3] = 6
degree[2] = 0, pos[2] = 4
degree[1] = 0, pos[1] = 2
degree[0] = 0, pos[0] = 0
Pos[0] = 0
Pos[1] = 2
Pos[2] = 4
Pos[3] = 6
Pos[4] = 8
Pos[5] = 10
Pos[6] = 12
Pos[7] = 14
Pos[8] = 16
Pos[9] = 19
Pos[10] = 21
Pos[11] = 23
Pos[12] = 25
Pos[13] = 27
Pos[14] = 29
Pos[15] = 31
Pos[16] = 33
Pos[17] = 35
Pos[18] = 17
Pos[19] = 37
Pos[20] = 39
Pos[21] = 41
Pos[22] = 43
Pos[23] = 45
Pos[24] = 47
Pos[25] = 49
Pos[26] = 51
Pos[27] = 56
Pos[28] = 58
Pos[29] = 60
Pos[30] = 62
Pos[31] = 64
Pos[32] = 66
Pos[33] = 68
Pos[34] = 70
Pos[35] = 72
Pos[36] = 53
Pos[37] = 74
Pos[38] = 76
Pos[39] = 78
Pos[40] = 80
Pos[41] = 82
Pos[42] = 84
Pos[43] = 86
Pos[44] = 88
Pos[45] = 93
Pos[46] = 95
Pos[47] = 97
Pos[48] = 99
Pos[49] = 101
Pos[50] = 103
Pos[51] = 105
Pos[52] = 107
Pos[53] = 109
Pos[54] = 90
Pos[55] = 111
Pos[56] = 113
Pos[57] = 115
Pos[58] = 117
Pos[59] = 119
Pos[60] = 121
Pos[61] = 123
Pos[62] = 125
Pos[63] = 130
Pos[64] = 132
Pos[65] = 134
Pos[66] = 136
Pos[67] = 138
Pos[68] = 140
Pos[69] = 142
Pos[70] = 144
Pos[71] = 146
Pos[72] = 127
Pos[73] = 148
Pos[74] = 150
Pos[75] = 152
Pos[76] = 154
Pos[77] = 156
Pos[78] = 158
Pos[79] = 160
Pos[80] = 162
Pos[81] = 167
Pos[82] = 169
Pos[83] = 171
Pos[84] = 173
Pos[85] = 175
Pos[86] = 177
Pos[87] = 179
Pos[88] = 181
Pos[89] = 183
Pos[90] = 164
Pos[91] = 185
Pos[92] = 187
Pos[93] = 189
Pos[94] = 191
Pos[95] = 193
Pos[96] = 195
Pos[97] = 197
Pos[98] = 199
Pos[99] = 18
Pos[100] = 54
Pos[101] = 55
Pos[102] = 91
Pos[103] = 20
Pos[104] = 22
Pos[105] = 24
Pos[106] = 26
Pos[107] = 28
Pos[108] = 30
Pos[109] = 32
Pos[110] = 34
Pos[111] = 92
Pos[112] = 15
Pos[113] = 36
Pos[114] = 57
Pos[115] = 59
Pos[116] = 61
Pos[117] = 63
Pos[118] = 65
Pos[119] = 67
Pos[120] = 69
Pos[121] = 71
Pos[122] = 128
Pos[123] = 1
Pos[124] = 3
Pos[125] = 5
Pos[126] = 7
Pos[127] = 9
Pos[128] = 11
Pos[129] = 13
Pos[130] = 52
Pos[131] = 73
Pos[132] = 94
Pos[133] = 96
Pos[134] = 98
Pos[135] = 100
Pos[136] = 102
Pos[137] = 104
Pos[138] = 106
Pos[139] = 108
Pos[140] = 129
Pos[141] = 38
Pos[142] = 40
Pos[143] = 42
Pos[144] = 44
Pos[145] = 46
Pos[146] = 48
Pos[147] = 50
Pos[148] = 89
Pos[149] = 110
Pos[150] = 131
Pos[151] = 133
Pos[152] = 135
Pos[153] = 137
Pos[154] = 139
Pos[155] = 141
Pos[156] = 143
Pos[157] = 145
Pos[158] = 165
Pos[159] = 75
Pos[160] = 77
Pos[161] = 79
Pos[162] = 81
Pos[163] = 83
Pos[164] = 85
Pos[165] = 87
Pos[166] = 126
Pos[167] = 147
Pos[168] = 166
Pos[169] = 168
Pos[170] = 170
Pos[171] = 172
Pos[172] = 174
Pos[173] = 176
Pos[174] = 178
Pos[175] = 180
Pos[176] = 182
Pos[177] = 112
Pos[178] = 114
Pos[179] = 116
Pos[180] = 118
Pos[181] = 120
Pos[182] = 122
Pos[183] = 124
Pos[184] = 163
Pos[185] = 184
Pos[186] = 149
Pos[187] = 151
Pos[188] = 153
Pos[189] = 155
Pos[190] = 157
Pos[191] = 159
Pos[192] = 161
Pos[193] = 186
Pos[194] = 188
Pos[195] = 190
Pos[196] = 192
Pos[197] = 194
Pos[198] = 196
Pos[199] = 198
Enbr = 1534
start search
improving solution size 1
improving solution size 2
improving solution size 3
improving solution size 4
improving solution size 5
improving solution size 6
improving solution size 7
improving solution size 8
improving solution size 9
improving solution size 10
improving solution size 11
improving solution size 12
best clique: 199 162 125 88 51 14 200 163 126 89 52 15 
record          =          12
subp            =        8743
time            =     0.01048
