timeout 3600 s
Graph with 500 vertices and 4459 edges density 0.035743
t = 8918, Enbr = 4459
degree[499] = 20, pos[499] = 498
degree[498] = 20, pos[498] = 496
degree[497] = 20, pos[497] = 494
degree[496] = 20, pos[496] = 492
degree[495] = 20, pos[495] = 490
degree[494] = 20, pos[494] = 488
degree[493] = 20, pos[493] = 486
degree[492] = 20, pos[492] = 484
degree[491] = 20, pos[491] = 482
degree[490] = 19, pos[490] = 481
degree[489] = 19, pos[489] = 418
degree[488] = 19, pos[488] = 416
degree[487] = 19, pos[487] = 414
degree[486] = 19, pos[486] = 412
degree[485] = 19, pos[485] = 410
degree[484] = 19, pos[484] = 408
degree[483] = 19, pos[483] = 406
degree[482] = 19, pos[482] = 404
degree[481] = 18, pos[481] = 480
degree[480] = 18, pos[480] = 420
degree[479] = 18, pos[479] = 402
degree[478] = 18, pos[478] = 338
degree[477] = 18, pos[477] = 336
degree[476] = 18, pos[476] = 334
degree[475] = 18, pos[475] = 332
degree[474] = 18, pos[474] = 330
degree[473] = 18, pos[473] = 328
degree[472] = 18, pos[472] = 326
degree[471] = 18, pos[471] = 324
degree[470] = 17, pos[470] = 479
degree[469] = 17, pos[469] = 477
degree[468] = 17, pos[468] = 475
degree[467] = 17, pos[467] = 473
degree[466] = 17, pos[466] = 471
degree[465] = 17, pos[465] = 469
degree[464] = 17, pos[464] = 467
degree[463] = 17, pos[463] = 465
degree[462] = 17, pos[462] = 463
degree[461] = 17, pos[461] = 461
degree[460] = 17, pos[460] = 459
degree[459] = 17, pos[459] = 457
degree[458] = 17, pos[458] = 455
degree[457] = 17, pos[457] = 453
degree[456] = 17, pos[456] = 451
degree[455] = 17, pos[455] = 449
degree[454] = 17, pos[454] = 447
degree[453] = 17, pos[453] = 445
degree[452] = 17, pos[452] = 443
degree[451] = 17, pos[451] = 441
degree[450] = 17, pos[450] = 439
degree[449] = 17, pos[449] = 437
degree[448] = 17, pos[448] = 435
degree[447] = 17, pos[447] = 433
degree[446] = 17, pos[446] = 431
degree[445] = 17, pos[445] = 429
degree[444] = 17, pos[444] = 427
degree[443] = 17, pos[443] = 425
degree[442] = 17, pos[442] = 423
degree[441] = 17, pos[441] = 340
degree[440] = 17, pos[440] = 322
degree[439] = 17, pos[439] = 258
degree[438] = 17, pos[438] = 256
degree[437] = 17, pos[437] = 254
degree[436] = 17, pos[436] = 252
degree[435] = 17, pos[435] = 250
degree[434] = 17, pos[434] = 248
degree[433] = 17, pos[433] = 246
degree[432] = 17, pos[432] = 244
degree[431] = 16, pos[431] = 422
degree[430] = 16, pos[430] = 400
degree[429] = 16, pos[429] = 397
degree[428] = 16, pos[428] = 395
degree[427] = 16, pos[427] = 393
degree[426] = 16, pos[426] = 391
degree[425] = 16, pos[425] = 389
degree[424] = 16, pos[424] = 387
degree[423] = 16, pos[423] = 385
degree[422] = 16, pos[422] = 383
degree[421] = 16, pos[421] = 381
degree[420] = 16, pos[420] = 379
degree[419] = 16, pos[419] = 377
degree[418] = 16, pos[418] = 375
degree[417] = 16, pos[417] = 373
degree[416] = 16, pos[416] = 371
degree[415] = 16, pos[415] = 369
degree[414] = 16, pos[414] = 367
degree[413] = 16, pos[413] = 365
degree[412] = 16, pos[412] = 363
degree[411] = 16, pos[411] = 361
degree[410] = 16, pos[410] = 359
degree[409] = 16, pos[409] = 357
degree[408] = 16, pos[408] = 355
degree[407] = 16, pos[407] = 353
degree[406] = 16, pos[406] = 351
degree[405] = 16, pos[405] = 349
degree[404] = 16, pos[404] = 347
degree[403] = 16, pos[403] = 345
degree[402] = 16, pos[402] = 260
degree[401] = 16, pos[401] = 242
degree[400] = 16, pos[400] = 178
degree[399] = 16, pos[399] = 176
degree[398] = 16, pos[398] = 174
degree[397] = 16, pos[397] = 172
degree[396] = 16, pos[396] = 170
degree[395] = 16, pos[395] = 168
degree[394] = 16, pos[394] = 166
degree[393] = 16, pos[393] = 164
degree[392] = 15, pos[392] = 399
degree[391] = 15, pos[391] = 343
degree[390] = 15, pos[390] = 317
degree[389] = 15, pos[389] = 315
degree[388] = 15, pos[388] = 313
degree[387] = 15, pos[387] = 311
degree[386] = 15, pos[386] = 309
degree[385] = 15, pos[385] = 307
degree[384] = 15, pos[384] = 305
degree[383] = 15, pos[383] = 303
degree[382] = 15, pos[382] = 301
degree[381] = 15, pos[381] = 299
degree[380] = 15, pos[380] = 297
degree[379] = 15, pos[379] = 295
degree[378] = 15, pos[378] = 293
degree[377] = 15, pos[377] = 291
degree[376] = 15, pos[376] = 289
degree[375] = 15, pos[375] = 287
degree[374] = 15, pos[374] = 285
degree[373] = 15, pos[373] = 283
degree[372] = 15, pos[372] = 281
degree[371] = 15, pos[371] = 279
degree[370] = 15, pos[370] = 277
degree[369] = 15, pos[369] = 275
degree[368] = 15, pos[368] = 273
degree[367] = 15, pos[367] = 271
degree[366] = 15, pos[366] = 269
degree[365] = 15, pos[365] = 267
degree[364] = 15, pos[364] = 265
degree[363] = 15, pos[363] = 180
degree[362] = 15, pos[362] = 162
degree[361] = 15, pos[361] = 98
degree[360] = 15, pos[360] = 96
degree[359] = 15, pos[359] = 94
degree[358] = 15, pos[358] = 92
degree[357] = 15, pos[357] = 90
degree[356] = 15, pos[356] = 88
degree[355] = 15, pos[355] = 86
degree[354] = 15, pos[354] = 84
degree[353] = 14, pos[353] = 342
degree[352] = 14, pos[352] = 320
degree[351] = 14, pos[351] = 237
degree[350] = 14, pos[350] = 235
degree[349] = 14, pos[349] = 233
degree[348] = 14, pos[348] = 231
degree[347] = 14, pos[347] = 229
degree[346] = 14, pos[346] = 227
degree[345] = 14, pos[345] = 225
degree[344] = 14, pos[344] = 223
degree[343] = 14, pos[343] = 221
degree[342] = 14, pos[342] = 219
degree[341] = 14, pos[341] = 217
degree[340] = 14, pos[340] = 215
degree[339] = 14, pos[339] = 213
degree[338] = 14, pos[338] = 211
degree[337] = 14, pos[337] = 209
degree[336] = 14, pos[336] = 207
degree[335] = 14, pos[335] = 205
degree[334] = 14, pos[334] = 203
degree[333] = 14, pos[333] = 201
degree[332] = 14, pos[332] = 199
degree[331] = 14, pos[331] = 197
degree[330] = 14, pos[330] = 195
degree[329] = 14, pos[329] = 193
degree[328] = 14, pos[328] = 191
degree[327] = 14, pos[327] = 189
degree[326] = 14, pos[326] = 187
degree[325] = 14, pos[325] = 185
degree[324] = 14, pos[324] = 100
degree[323] = 14, pos[323] = 82
degree[322] = 14, pos[322] = 18
degree[321] = 14, pos[321] = 16
degree[320] = 14, pos[320] = 14
degree[319] = 14, pos[319] = 12
degree[318] = 14, pos[318] = 10
degree[317] = 14, pos[317] = 8
degree[316] = 14, pos[316] = 6
degree[315] = 14, pos[315] = 4
degree[314] = 13, pos[314] = 319
degree[313] = 13, pos[313] = 263
degree[312] = 13, pos[312] = 157
degree[311] = 13, pos[311] = 155
degree[310] = 13, pos[310] = 153
degree[309] = 13, pos[309] = 151
degree[308] = 13, pos[308] = 149
degree[307] = 13, pos[307] = 147
degree[306] = 13, pos[306] = 145
degree[305] = 13, pos[305] = 143
degree[304] = 13, pos[304] = 141
degree[303] = 13, pos[303] = 139
degree[302] = 13, pos[302] = 137
degree[301] = 13, pos[301] = 135
degree[300] = 13, pos[300] = 133
degree[299] = 13, pos[299] = 131
degree[298] = 13, pos[298] = 129
degree[297] = 13, pos[297] = 127
degree[296] = 13, pos[296] = 125
degree[295] = 13, pos[295] = 123
degree[294] = 13, pos[294] = 121
degree[293] = 13, pos[293] = 119
degree[292] = 13, pos[292] = 117
degree[291] = 13, pos[291] = 115
degree[290] = 13, pos[290] = 113
degree[289] = 13, pos[289] = 111
degree[288] = 13, pos[288] = 109
degree[287] = 13, pos[287] = 107
degree[286] = 13, pos[286] = 105
degree[285] = 13, pos[285] = 20
degree[284] = 13, pos[284] = 2
degree[283] = 12, pos[283] = 262
degree[282] = 12, pos[282] = 240
degree[281] = 12, pos[281] = 77
degree[280] = 12, pos[280] = 75
degree[279] = 12, pos[279] = 73
degree[278] = 12, pos[278] = 71
degree[277] = 12, pos[277] = 69
degree[276] = 12, pos[276] = 67
degree[275] = 12, pos[275] = 65
degree[274] = 12, pos[274] = 63
degree[273] = 12, pos[273] = 61
degree[272] = 12, pos[272] = 59
degree[271] = 12, pos[271] = 57
degree[270] = 12, pos[270] = 55
degree[269] = 12, pos[269] = 53
degree[268] = 12, pos[268] = 51
degree[267] = 12, pos[267] = 49
degree[266] = 12, pos[266] = 47
degree[265] = 12, pos[265] = 45
degree[264] = 12, pos[264] = 43
degree[263] = 12, pos[263] = 41
degree[262] = 12, pos[262] = 39
degree[261] = 12, pos[261] = 37
degree[260] = 12, pos[260] = 35
degree[259] = 12, pos[259] = 33
degree[258] = 12, pos[258] = 31
degree[257] = 12, pos[257] = 29
degree[256] = 12, pos[256] = 27
degree[255] = 12, pos[255] = 25
degree[254] = 11, pos[254] = 239
degree[253] = 11, pos[253] = 183
degree[252] = 10, pos[252] = 182
degree[251] = 10, pos[251] = 160
degree[250] = 9, pos[250] = 159
degree[249] = 9, pos[249] = 103
degree[248] = 8, pos[248] = 102
degree[247] = 8, pos[247] = 80
degree[246] = 7, pos[246] = 79
degree[245] = 7, pos[245] = 23
degree[244] = 6, pos[244] = 499
degree[243] = 6, pos[243] = 497
degree[242] = 6, pos[242] = 495
degree[241] = 6, pos[241] = 493
degree[240] = 6, pos[240] = 491
degree[239] = 6, pos[239] = 489
degree[238] = 6, pos[238] = 487
degree[237] = 6, pos[237] = 485
degree[236] = 6, pos[236] = 483
degree[235] = 6, pos[235] = 421
degree[234] = 6, pos[234] = 401
degree[233] = 5, pos[233] = 478
degree[232] = 5, pos[232] = 476
degree[231] = 5, pos[231] = 474
degree[230] = 5, pos[230] = 472
degree[229] = 5, pos[229] = 470
degree[228] = 5, pos[228] = 468
degree[227] = 5, pos[227] = 466
degree[226] = 5, pos[226] = 464
degree[225] = 5, pos[225] = 462
degree[224] = 5, pos[224] = 460
degree[223] = 5, pos[223] = 458
degree[222] = 5, pos[222] = 456
degree[221] = 5, pos[221] = 454
degree[220] = 5, pos[220] = 452
degree[219] = 5, pos[219] = 450
degree[218] = 5, pos[218] = 448
degree[217] = 5, pos[217] = 446
degree[216] = 5, pos[216] = 444
degree[215] = 5, pos[215] = 442
degree[214] = 5, pos[214] = 440
degree[213] = 5, pos[213] = 438
degree[212] = 5, pos[212] = 436
degree[211] = 5, pos[211] = 434
degree[210] = 5, pos[210] = 432
degree[209] = 5, pos[209] = 430
degree[208] = 5, pos[208] = 428
degree[207] = 5, pos[207] = 426
degree[206] = 5, pos[206] = 424
degree[205] = 5, pos[205] = 419
degree[204] = 5, pos[204] = 417
degree[203] = 5, pos[203] = 415
degree[202] = 5, pos[202] = 413
degree[201] = 5, pos[201] = 411
degree[200] = 5, pos[200] = 409
degree[199] = 5, pos[199] = 407
degree[198] = 5, pos[198] = 405
degree[197] = 5, pos[197] = 403
degree[196] = 5, pos[196] = 341
degree[195] = 5, pos[195] = 321
degree[194] = 4, pos[194] = 398
degree[193] = 4, pos[193] = 396
degree[192] = 4, pos[192] = 394
degree[191] = 4, pos[191] = 392
degree[190] = 4, pos[190] = 390
degree[189] = 4, pos[189] = 388
degree[188] = 4, pos[188] = 386
degree[187] = 4, pos[187] = 384
degree[186] = 4, pos[186] = 382
degree[185] = 4, pos[185] = 380
degree[184] = 4, pos[184] = 378
degree[183] = 4, pos[183] = 376
degree[182] = 4, pos[182] = 374
degree[181] = 4, pos[181] = 372
degree[180] = 4, pos[180] = 370
degree[179] = 4, pos[179] = 368
degree[178] = 4, pos[178] = 366
degree[177] = 4, pos[177] = 364
degree[176] = 4, pos[176] = 362
degree[175] = 4, pos[175] = 360
degree[174] = 4, pos[174] = 358
degree[173] = 4, pos[173] = 356
degree[172] = 4, pos[172] = 354
degree[171] = 4, pos[171] = 352
degree[170] = 4, pos[170] = 350
degree[169] = 4, pos[169] = 348
degree[168] = 4, pos[168] = 346
degree[167] = 4, pos[167] = 344
degree[166] = 4, pos[166] = 339
degree[165] = 4, pos[165] = 337
degree[164] = 4, pos[164] = 335
degree[163] = 4, pos[163] = 333
degree[162] = 4, pos[162] = 331
degree[161] = 4, pos[161] = 329
degree[160] = 4, pos[160] = 327
degree[159] = 4, pos[159] = 325
degree[158] = 4, pos[158] = 323
degree[157] = 4, pos[157] = 261
degree[156] = 4, pos[156] = 241
degree[155] = 3, pos[155] = 318
degree[154] = 3, pos[154] = 316
degree[153] = 3, pos[153] = 314
degree[152] = 3, pos[152] = 312
degree[151] = 3, pos[151] = 310
degree[150] = 3, pos[150] = 308
degree[149] = 3, pos[149] = 306
degree[148] = 3, pos[148] = 304
degree[147] = 3, pos[147] = 302
degree[146] = 3, pos[146] = 300
degree[145] = 3, pos[145] = 298
degree[144] = 3, pos[144] = 296
degree[143] = 3, pos[143] = 294
degree[142] = 3, pos[142] = 292
degree[141] = 3, pos[141] = 290
degree[140] = 3, pos[140] = 288
degree[139] = 3, pos[139] = 286
degree[138] = 3, pos[138] = 284
degree[137] = 3, pos[137] = 282
degree[136] = 3, pos[136] = 280
degree[135] = 3, pos[135] = 278
degree[134] = 3, pos[134] = 276
degree[133] = 3, pos[133] = 274
degree[132] = 3, pos[132] = 272
degree[131] = 3, pos[131] = 270
degree[130] = 3, pos[130] = 268
degree[129] = 3, pos[129] = 266
degree[128] = 3, pos[128] = 264
degree[127] = 3, pos[127] = 259
degree[126] = 3, pos[126] = 257
degree[125] = 3, pos[125] = 255
degree[124] = 3, pos[124] = 253
degree[123] = 3, pos[123] = 251
degree[122] = 3, pos[122] = 249
degree[121] = 3, pos[121] = 247
degree[120] = 3, pos[120] = 245
degree[119] = 3, pos[119] = 243
degree[118] = 3, pos[118] = 181
degree[117] = 3, pos[117] = 161
degree[116] = 2, pos[116] = 238
degree[115] = 2, pos[115] = 236
degree[114] = 2, pos[114] = 234
degree[113] = 2, pos[113] = 232
degree[112] = 2, pos[112] = 230
degree[111] = 2, pos[111] = 228
degree[110] = 2, pos[110] = 226
degree[109] = 2, pos[109] = 224
degree[108] = 2, pos[108] = 222
degree[107] = 2, pos[107] = 220
degree[106] = 2, pos[106] = 218
degree[105] = 2, pos[105] = 216
degree[104] = 2, pos[104] = 214
degree[103] = 2, pos[103] = 212
degree[102] = 2, pos[102] = 210
degree[101] = 2, pos[101] = 208
degree[100] = 2, pos[100] = 206
degree[99] = 2, pos[99] = 204
degree[98] = 2, pos[98] = 202
degree[97] = 2, pos[97] = 200
degree[96] = 2, pos[96] = 198
degree[95] = 2, pos[95] = 196
degree[94] = 2, pos[94] = 194
degree[93] = 2, pos[93] = 192
degree[92] = 2, pos[92] = 190
degree[91] = 2, pos[91] = 188
degree[90] = 2, pos[90] = 186
degree[89] = 2, pos[89] = 184
degree[88] = 2, pos[88] = 179
degree[87] = 2, pos[87] = 177
degree[86] = 2, pos[86] = 175
degree[85] = 2, pos[85] = 173
degree[84] = 2, pos[84] = 171
degree[83] = 2, pos[83] = 169
degree[82] = 2, pos[82] = 167
degree[81] = 2, pos[81] = 165
degree[80] = 2, pos[80] = 163
degree[79] = 2, pos[79] = 101
degree[78] = 2, pos[78] = 81
degree[77] = 1, pos[77] = 158
degree[76] = 1, pos[76] = 156
degree[75] = 1, pos[75] = 154
degree[74] = 1, pos[74] = 152
degree[73] = 1, pos[73] = 150
degree[72] = 1, pos[72] = 148
degree[71] = 1, pos[71] = 146
degree[70] = 1, pos[70] = 144
degree[69] = 1, pos[69] = 142
degree[68] = 1, pos[68] = 140
degree[67] = 1, pos[67] = 138
degree[66] = 1, pos[66] = 136
degree[65] = 1, pos[65] = 134
degree[64] = 1, pos[64] = 132
degree[63] = 1, pos[63] = 130
degree[62] = 1, pos[62] = 128
degree[61] = 1, pos[61] = 126
degree[60] = 1, pos[60] = 124
degree[59] = 1, pos[59] = 122
degree[58] = 1, pos[58] = 120
degree[57] = 1, pos[57] = 118
degree[56] = 1, pos[56] = 116
degree[55] = 1, pos[55] = 114
degree[54] = 1, pos[54] = 112
degree[53] = 1, pos[53] = 110
degree[52] = 1, pos[52] = 108
degree[51] = 1, pos[51] = 106
degree[50] = 1, pos[50] = 104
degree[49] = 1, pos[49] = 99
degree[48] = 1, pos[48] = 97
degree[47] = 1, pos[47] = 95
degree[46] = 1, pos[46] = 93
degree[45] = 1, pos[45] = 91
degree[44] = 1, pos[44] = 89
degree[43] = 1, pos[43] = 87
degree[42] = 1, pos[42] = 85
degree[41] = 1, pos[41] = 83
degree[40] = 1, pos[40] = 22
degree[39] = 1, pos[39] = 1
degree[38] = 0, pos[38] = 78
degree[37] = 0, pos[37] = 76
degree[36] = 0, pos[36] = 74
degree[35] = 0, pos[35] = 72
degree[34] = 0, pos[34] = 70
degree[33] = 0, pos[33] = 68
degree[32] = 0, pos[32] = 66
degree[31] = 0, pos[31] = 64
degree[30] = 0, pos[30] = 62
degree[29] = 0, pos[29] = 60
degree[28] = 0, pos[28] = 58
degree[27] = 0, pos[27] = 56
degree[26] = 0, pos[26] = 54
degree[25] = 0, pos[25] = 52
degree[24] = 0, pos[24] = 50
degree[23] = 0, pos[23] = 48
degree[22] = 0, pos[22] = 46
degree[21] = 0, pos[21] = 44
degree[20] = 0, pos[20] = 42
degree[19] = 0, pos[19] = 40
degree[18] = 0, pos[18] = 38
degree[17] = 0, pos[17] = 36
degree[16] = 0, pos[16] = 34
degree[15] = 0, pos[15] = 32
degree[14] = 0, pos[14] = 30
degree[13] = 0, pos[13] = 28
degree[12] = 0, pos[12] = 26
degree[11] = 0, pos[11] = 24
degree[10] = 0, pos[10] = 21
degree[9] = 0, pos[9] = 19
degree[8] = 0, pos[8] = 17
degree[7] = 0, pos[7] = 15
degree[6] = 0, pos[6] = 13
degree[5] = 0, pos[5] = 11
degree[4] = 0, pos[4] = 9
degree[3] = 0, pos[3] = 7
degree[2] = 0, pos[2] = 5
degree[1] = 0, pos[1] = 3
degree[0] = 0, pos[0] = 0
Pos[0] = 0
Pos[1] = 3
Pos[2] = 5
Pos[3] = 7
Pos[4] = 9
Pos[5] = 11
Pos[6] = 13
Pos[7] = 15
Pos[8] = 17
Pos[9] = 19
Pos[10] = 21
Pos[11] = 24
Pos[12] = 26
Pos[13] = 28
Pos[14] = 30
Pos[15] = 32
Pos[16] = 34
Pos[17] = 36
Pos[18] = 38
Pos[19] = 40
Pos[20] = 42
Pos[21] = 44
Pos[22] = 46
Pos[23] = 48
Pos[24] = 50
Pos[25] = 52
Pos[26] = 54
Pos[27] = 56
Pos[28] = 58
Pos[29] = 60
Pos[30] = 62
Pos[31] = 64
Pos[32] = 66
Pos[33] = 68
Pos[34] = 70
Pos[35] = 72
Pos[36] = 74
Pos[37] = 76
Pos[38] = 78
Pos[39] = 1
Pos[40] = 22
Pos[41] = 83
Pos[42] = 85
Pos[43] = 87
Pos[44] = 89
Pos[45] = 91
Pos[46] = 93
Pos[47] = 95
Pos[48] = 97
Pos[49] = 99
Pos[50] = 104
Pos[51] = 106
Pos[52] = 108
Pos[53] = 110
Pos[54] = 112
Pos[55] = 114
Pos[56] = 116
Pos[57] = 118
Pos[58] = 120
Pos[59] = 122
Pos[60] = 124
Pos[61] = 126
Pos[62] = 128
Pos[63] = 130
Pos[64] = 132
Pos[65] = 134
Pos[66] = 136
Pos[67] = 138
Pos[68] = 140
Pos[69] = 142
Pos[70] = 144
Pos[71] = 146
Pos[72] = 148
Pos[73] = 150
Pos[74] = 152
Pos[75] = 154
Pos[76] = 156
Pos[77] = 158
Pos[78] = 81
Pos[79] = 101
Pos[80] = 163
Pos[81] = 165
Pos[82] = 167
Pos[83] = 169
Pos[84] = 171
Pos[85] = 173
Pos[86] = 175
Pos[87] = 177
Pos[88] = 179
Pos[89] = 184
Pos[90] = 186
Pos[91] = 188
Pos[92] = 190
Pos[93] = 192
Pos[94] = 194
Pos[95] = 196
Pos[96] = 198
Pos[97] = 200
Pos[98] = 202
Pos[99] = 204
Pos[100] = 206
Pos[101] = 208
Pos[102] = 210
Pos[103] = 212
Pos[104] = 214
Pos[105] = 216
Pos[106] = 218
Pos[107] = 220
Pos[108] = 222
Pos[109] = 224
Pos[110] = 226
Pos[111] = 228
Pos[112] = 230
Pos[113] = 232
Pos[114] = 234
Pos[115] = 236
Pos[116] = 238
Pos[117] = 161
Pos[118] = 181
Pos[119] = 243
Pos[120] = 245
Pos[121] = 247
Pos[122] = 249
Pos[123] = 251
Pos[124] = 253
Pos[125] = 255
Pos[126] = 257
Pos[127] = 259
Pos[128] = 264
Pos[129] = 266
Pos[130] = 268
Pos[131] = 270
Pos[132] = 272
Pos[133] = 274
Pos[134] = 276
Pos[135] = 278
Pos[136] = 280
Pos[137] = 282
Pos[138] = 284
Pos[139] = 286
Pos[140] = 288
Pos[141] = 290
Pos[142] = 292
Pos[143] = 294
Pos[144] = 296
Pos[145] = 298
Pos[146] = 300
Pos[147] = 302
Pos[148] = 304
Pos[149] = 306
Pos[150] = 308
Pos[151] = 310
Pos[152] = 312
Pos[153] = 314
Pos[154] = 316
Pos[155] = 318
Pos[156] = 241
Pos[157] = 261
Pos[158] = 323
Pos[159] = 325
Pos[160] = 327
Pos[161] = 329
Pos[162] = 331
Pos[163] = 333
Pos[164] = 335
Pos[165] = 337
Pos[166] = 339
Pos[167] = 344
Pos[168] = 346
Pos[169] = 348
Pos[170] = 350
Pos[171] = 352
Pos[172] = 354
Pos[173] = 356
Pos[174] = 358
Pos[175] = 360
Pos[176] = 362
Pos[177] = 364
Pos[178] = 366
Pos[179] = 368
Pos[180] = 370
Pos[181] = 372
Pos[182] = 374
Pos[183] = 376
Pos[184] = 378
Pos[185] = 380
Pos[186] = 382
Pos[187] = 384
Pos[188] = 386
Pos[189] = 388
Pos[190] = 390
Pos[191] = 392
Pos[192] = 394
Pos[193] = 396
Pos[194] = 398
Pos[195] = 321
Pos[196] = 341
Pos[197] = 403
Pos[198] = 405
Pos[199] = 407
Pos[200] = 409
Pos[201] = 411
Pos[202] = 413
Pos[203] = 415
Pos[204] = 417
Pos[205] = 419
Pos[206] = 424
Pos[207] = 426
Pos[208] = 428
Pos[209] = 430
Pos[210] = 432
Pos[211] = 434
Pos[212] = 436
Pos[213] = 438
Pos[214] = 440
Pos[215] = 442
Pos[216] = 444
Pos[217] = 446
Pos[218] = 448
Pos[219] = 450
Pos[220] = 452
Pos[221] = 454
Pos[222] = 456
Pos[223] = 458
Pos[224] = 460
Pos[225] = 462
Pos[226] = 464
Pos[227] = 466
Pos[228] = 468
Pos[229] = 470
Pos[230] = 472
Pos[231] = 474
Pos[232] = 476
Pos[233] = 478
Pos[234] = 401
Pos[235] = 421
Pos[236] = 483
Pos[237] = 485
Pos[238] = 487
Pos[239] = 489
Pos[240] = 491
Pos[241] = 493
Pos[242] = 495
Pos[243] = 497
Pos[244] = 499
Pos[245] = 23
Pos[246] = 79
Pos[247] = 80
Pos[248] = 102
Pos[249] = 103
Pos[250] = 159
Pos[251] = 160
Pos[252] = 182
Pos[253] = 183
Pos[254] = 239
Pos[255] = 25
Pos[256] = 27
Pos[257] = 29
Pos[258] = 31
Pos[259] = 33
Pos[260] = 35
Pos[261] = 37
Pos[262] = 39
Pos[263] = 41
Pos[264] = 43
Pos[265] = 45
Pos[266] = 47
Pos[267] = 49
Pos[268] = 51
Pos[269] = 53
Pos[270] = 55
Pos[271] = 57
Pos[272] = 59
Pos[273] = 61
Pos[274] = 63
Pos[275] = 65
Pos[276] = 67
Pos[277] = 69
Pos[278] = 71
Pos[279] = 73
Pos[280] = 75
Pos[281] = 77
Pos[282] = 240
Pos[283] = 262
Pos[284] = 2
Pos[285] = 20
Pos[286] = 105
Pos[287] = 107
Pos[288] = 109
Pos[289] = 111
Pos[290] = 113
Pos[291] = 115
Pos[292] = 117
Pos[293] = 119
Pos[294] = 121
Pos[295] = 123
Pos[296] = 125
Pos[297] = 127
Pos[298] = 129
Pos[299] = 131
Pos[300] = 133
Pos[301] = 135
Pos[302] = 137
Pos[303] = 139
Pos[304] = 141
Pos[305] = 143
Pos[306] = 145
Pos[307] = 147
Pos[308] = 149
Pos[309] = 151
Pos[310] = 153
Pos[311] = 155
Pos[312] = 157
Pos[313] = 263
Pos[314] = 319
Pos[315] = 4
Pos[316] = 6
Pos[317] = 8
Pos[318] = 10
Pos[319] = 12
Pos[320] = 14
Pos[321] = 16
Pos[322] = 18
Pos[323] = 82
Pos[324] = 100
Pos[325] = 185
Pos[326] = 187
Pos[327] = 189
Pos[328] = 191
Pos[329] = 193
Pos[330] = 195
Pos[331] = 197
Pos[332] = 199
Pos[333] = 201
Pos[334] = 203
Pos[335] = 205
Pos[336] = 207
Pos[337] = 209
Pos[338] = 211
Pos[339] = 213
Pos[340] = 215
Pos[341] = 217
Pos[342] = 219
Pos[343] = 221
Pos[344] = 223
Pos[345] = 225
Pos[346] = 227
Pos[347] = 229
Pos[348] = 231
Pos[349] = 233
Pos[350] = 235
Pos[351] = 237
Pos[352] = 320
Pos[353] = 342
Pos[354] = 84
Pos[355] = 86
Pos[356] = 88
Pos[357] = 90
Pos[358] = 92
Pos[359] = 94
Pos[360] = 96
Pos[361] = 98
Pos[362] = 162
Pos[363] = 180
Pos[364] = 265
Pos[365] = 267
Pos[366] = 269
Pos[367] = 271
Pos[368] = 273
Pos[369] = 275
Pos[370] = 277
Pos[371] = 279
Pos[372] = 281
Pos[373] = 283
Pos[374] = 285
Pos[375] = 287
Pos[376] = 289
Pos[377] = 291
Pos[378] = 293
Pos[379] = 295
Pos[380] = 297
Pos[381] = 299
Pos[382] = 301
Pos[383] = 303
Pos[384] = 305
Pos[385] = 307
Pos[386] = 309
Pos[387] = 311
Pos[388] = 313
Pos[389] = 315
Pos[390] = 317
Pos[391] = 343
Pos[392] = 399
Pos[393] = 164
Pos[394] = 166
Pos[395] = 168
Pos[396] = 170
Pos[397] = 172
Pos[398] = 174
Pos[399] = 176
Pos[400] = 178
Pos[401] = 242
Pos[402] = 260
Pos[403] = 345
Pos[404] = 347
Pos[405] = 349
Pos[406] = 351
Pos[407] = 353
Pos[408] = 355
Pos[409] = 357
Pos[410] = 359
Pos[411] = 361
Pos[412] = 363
Pos[413] = 365
Pos[414] = 367
Pos[415] = 369
Pos[416] = 371
Pos[417] = 373
Pos[418] = 375
Pos[419] = 377
Pos[420] = 379
Pos[421] = 381
Pos[422] = 383
Pos[423] = 385
Pos[424] = 387
Pos[425] = 389
Pos[426] = 391
Pos[427] = 393
Pos[428] = 395
Pos[429] = 397
Pos[430] = 400
Pos[431] = 422
Pos[432] = 244
Pos[433] = 246
Pos[434] = 248
Pos[435] = 250
Pos[436] = 252
Pos[437] = 254
Pos[438] = 256
Pos[439] = 258
Pos[440] = 322
Pos[441] = 340
Pos[442] = 423
Pos[443] = 425
Pos[444] = 427
Pos[445] = 429
Pos[446] = 431
Pos[447] = 433
Pos[448] = 435
Pos[449] = 437
Pos[450] = 439
Pos[451] = 441
Pos[452] = 443
Pos[453] = 445
Pos[454] = 447
Pos[455] = 449
Pos[456] = 451
Pos[457] = 453
Pos[458] = 455
Pos[459] = 457
Pos[460] = 459
Pos[461] = 461
Pos[462] = 463
Pos[463] = 465
Pos[464] = 467
Pos[465] = 469
Pos[466] = 471
Pos[467] = 473
Pos[468] = 475
Pos[469] = 477
Pos[470] = 479
Pos[471] = 324
Pos[472] = 326
Pos[473] = 328
Pos[474] = 330
Pos[475] = 332
Pos[476] = 334
Pos[477] = 336
Pos[478] = 338
Pos[479] = 402
Pos[480] = 420
Pos[481] = 480
Pos[482] = 404
Pos[483] = 406
Pos[484] = 408
Pos[485] = 410
Pos[486] = 412
Pos[487] = 414
Pos[488] = 416
Pos[489] = 418
Pos[490] = 481
Pos[491] = 482
Pos[492] = 484
Pos[493] = 486
Pos[494] = 488
Pos[495] = 490
Pos[496] = 492
Pos[497] = 494
Pos[498] = 496
Pos[499] = 498
Enbr = 4459
start search
improving solution size 1
improving solution size 2
improving solution size 3
improving solution size 4
improving solution size 5
improving solution size 6
improving solution size 7
improving solution size 8
improving solution size 9
improving solution size 10
improving solution size 11
improving solution size 12
improving solution size 13
improving solution size 14
best clique: 499 419 339 259 179 99 19 500 420 340 260 180 100 20 
record          =          14
subp            =       43495
time            =     0.12223
