timeout 3600 s
Graph with 500 vertices and 23191 edges density 0.185900
t = 46382, Enbr = 23191
degree[499] = 95, pos[499] = 498
degree[498] = 94, pos[498] = 497
degree[497] = 93, pos[497] = 499
degree[496] = 93, pos[496] = 496
degree[495] = 92, pos[495] = 495
degree[494] = 92, pos[494] = 493
degree[493] = 92, pos[493] = 491
degree[492] = 92, pos[492] = 489
degree[491] = 92, pos[491] = 487
degree[490] = 92, pos[490] = 485
degree[489] = 92, pos[489] = 483
degree[488] = 92, pos[488] = 481
degree[487] = 91, pos[487] = 479
degree[486] = 91, pos[486] = 477
degree[485] = 91, pos[485] = 475
degree[484] = 91, pos[484] = 473
degree[483] = 91, pos[483] = 471
degree[482] = 91, pos[482] = 469
degree[481] = 91, pos[481] = 467
degree[480] = 91, pos[480] = 465
degree[479] = 90, pos[479] = 463
degree[478] = 90, pos[478] = 461
degree[477] = 90, pos[477] = 459
degree[476] = 90, pos[476] = 457
degree[475] = 90, pos[475] = 455
degree[474] = 90, pos[474] = 453
degree[473] = 90, pos[473] = 451
degree[472] = 90, pos[472] = 449
degree[471] = 89, pos[471] = 447
degree[470] = 89, pos[470] = 445
degree[469] = 89, pos[469] = 443
degree[468] = 89, pos[468] = 441
degree[467] = 89, pos[467] = 439
degree[466] = 89, pos[466] = 437
degree[465] = 89, pos[465] = 435
degree[464] = 89, pos[464] = 433
degree[463] = 88, pos[463] = 431
degree[462] = 88, pos[462] = 429
degree[461] = 88, pos[461] = 427
degree[460] = 88, pos[460] = 425
degree[459] = 88, pos[459] = 423
degree[458] = 88, pos[458] = 421
degree[457] = 88, pos[457] = 419
degree[456] = 88, pos[456] = 417
degree[455] = 87, pos[455] = 415
degree[454] = 87, pos[454] = 413
degree[453] = 87, pos[453] = 411
degree[452] = 87, pos[452] = 409
degree[451] = 87, pos[451] = 407
degree[450] = 87, pos[450] = 405
degree[449] = 87, pos[449] = 403
degree[448] = 87, pos[448] = 401
degree[447] = 86, pos[447] = 399
degree[446] = 86, pos[446] = 397
degree[445] = 86, pos[445] = 395
degree[444] = 86, pos[444] = 393
degree[443] = 86, pos[443] = 391
degree[442] = 86, pos[442] = 389
degree[441] = 86, pos[441] = 387
degree[440] = 86, pos[440] = 385
degree[439] = 85, pos[439] = 383
degree[438] = 85, pos[438] = 381
degree[437] = 85, pos[437] = 379
degree[436] = 85, pos[436] = 377
degree[435] = 85, pos[435] = 375
degree[434] = 85, pos[434] = 373
degree[433] = 85, pos[433] = 371
degree[432] = 85, pos[432] = 369
degree[431] = 84, pos[431] = 367
degree[430] = 84, pos[430] = 365
degree[429] = 84, pos[429] = 363
degree[428] = 84, pos[428] = 361
degree[427] = 84, pos[427] = 359
degree[426] = 84, pos[426] = 357
degree[425] = 84, pos[425] = 355
degree[424] = 84, pos[424] = 353
degree[423] = 83, pos[423] = 351
degree[422] = 83, pos[422] = 349
degree[421] = 83, pos[421] = 347
degree[420] = 83, pos[420] = 345
degree[419] = 83, pos[419] = 343
degree[418] = 83, pos[418] = 341
degree[417] = 83, pos[417] = 339
degree[416] = 83, pos[416] = 337
degree[415] = 82, pos[415] = 335
degree[414] = 82, pos[414] = 333
degree[413] = 82, pos[413] = 331
degree[412] = 82, pos[412] = 329
degree[411] = 82, pos[411] = 327
degree[410] = 82, pos[410] = 325
degree[409] = 82, pos[409] = 323
degree[408] = 82, pos[408] = 321
degree[407] = 81, pos[407] = 319
degree[406] = 81, pos[406] = 317
degree[405] = 81, pos[405] = 315
degree[404] = 81, pos[404] = 313
degree[403] = 81, pos[403] = 311
degree[402] = 81, pos[402] = 309
degree[401] = 81, pos[401] = 307
degree[400] = 81, pos[400] = 305
degree[399] = 80, pos[399] = 303
degree[398] = 80, pos[398] = 301
degree[397] = 80, pos[397] = 299
degree[396] = 80, pos[396] = 297
degree[395] = 80, pos[395] = 295
degree[394] = 80, pos[394] = 293
degree[393] = 80, pos[393] = 291
degree[392] = 80, pos[392] = 289
degree[391] = 79, pos[391] = 287
degree[390] = 79, pos[390] = 285
degree[389] = 79, pos[389] = 283
degree[388] = 79, pos[388] = 281
degree[387] = 79, pos[387] = 279
degree[386] = 79, pos[386] = 277
degree[385] = 79, pos[385] = 275
degree[384] = 79, pos[384] = 273
degree[383] = 78, pos[383] = 271
degree[382] = 78, pos[382] = 269
degree[381] = 78, pos[381] = 267
degree[380] = 78, pos[380] = 265
degree[379] = 78, pos[379] = 263
degree[378] = 78, pos[378] = 261
degree[377] = 78, pos[377] = 259
degree[376] = 78, pos[376] = 257
degree[375] = 77, pos[375] = 255
degree[374] = 77, pos[374] = 253
degree[373] = 77, pos[373] = 251
degree[372] = 77, pos[372] = 249
degree[371] = 77, pos[371] = 247
degree[370] = 77, pos[370] = 245
degree[369] = 77, pos[369] = 243
degree[368] = 77, pos[368] = 241
degree[367] = 76, pos[367] = 239
degree[366] = 76, pos[366] = 237
degree[365] = 76, pos[365] = 235
degree[364] = 76, pos[364] = 233
degree[363] = 76, pos[363] = 231
degree[362] = 76, pos[362] = 229
degree[361] = 76, pos[361] = 227
degree[360] = 76, pos[360] = 225
degree[359] = 75, pos[359] = 223
degree[358] = 75, pos[358] = 221
degree[357] = 75, pos[357] = 219
degree[356] = 75, pos[356] = 217
degree[355] = 75, pos[355] = 215
degree[354] = 75, pos[354] = 213
degree[353] = 75, pos[353] = 211
degree[352] = 75, pos[352] = 209
degree[351] = 74, pos[351] = 207
degree[350] = 74, pos[350] = 205
degree[349] = 74, pos[349] = 203
degree[348] = 74, pos[348] = 201
degree[347] = 74, pos[347] = 199
degree[346] = 74, pos[346] = 197
degree[345] = 74, pos[345] = 195
degree[344] = 74, pos[344] = 193
degree[343] = 73, pos[343] = 191
degree[342] = 73, pos[342] = 189
degree[341] = 73, pos[341] = 187
degree[340] = 73, pos[340] = 185
degree[339] = 73, pos[339] = 183
degree[338] = 73, pos[338] = 181
degree[337] = 73, pos[337] = 179
degree[336] = 73, pos[336] = 177
degree[335] = 72, pos[335] = 175
degree[334] = 72, pos[334] = 173
degree[333] = 72, pos[333] = 171
degree[332] = 72, pos[332] = 169
degree[331] = 72, pos[331] = 167
degree[330] = 72, pos[330] = 165
degree[329] = 72, pos[329] = 163
degree[328] = 72, pos[328] = 161
degree[327] = 71, pos[327] = 159
degree[326] = 71, pos[326] = 157
degree[325] = 71, pos[325] = 155
degree[324] = 71, pos[324] = 153
degree[323] = 71, pos[323] = 151
degree[322] = 71, pos[322] = 149
degree[321] = 71, pos[321] = 147
degree[320] = 71, pos[320] = 145
degree[319] = 70, pos[319] = 143
degree[318] = 70, pos[318] = 141
degree[317] = 70, pos[317] = 139
degree[316] = 70, pos[316] = 137
degree[315] = 70, pos[315] = 135
degree[314] = 70, pos[314] = 133
degree[313] = 70, pos[313] = 131
degree[312] = 70, pos[312] = 129
degree[311] = 69, pos[311] = 127
degree[310] = 69, pos[310] = 125
degree[309] = 69, pos[309] = 123
degree[308] = 69, pos[308] = 121
degree[307] = 69, pos[307] = 119
degree[306] = 69, pos[306] = 117
degree[305] = 69, pos[305] = 115
degree[304] = 69, pos[304] = 113
degree[303] = 68, pos[303] = 111
degree[302] = 68, pos[302] = 109
degree[301] = 68, pos[301] = 107
degree[300] = 68, pos[300] = 105
degree[299] = 68, pos[299] = 103
degree[298] = 68, pos[298] = 101
degree[297] = 68, pos[297] = 99
degree[296] = 68, pos[296] = 97
degree[295] = 67, pos[295] = 95
degree[294] = 67, pos[294] = 93
degree[293] = 67, pos[293] = 91
degree[292] = 67, pos[292] = 89
degree[291] = 67, pos[291] = 87
degree[290] = 67, pos[290] = 85
degree[289] = 67, pos[289] = 83
degree[288] = 67, pos[288] = 81
degree[287] = 66, pos[287] = 79
degree[286] = 66, pos[286] = 77
degree[285] = 66, pos[285] = 75
degree[284] = 66, pos[284] = 73
degree[283] = 66, pos[283] = 71
degree[282] = 66, pos[282] = 69
degree[281] = 66, pos[281] = 67
degree[280] = 66, pos[280] = 65
degree[279] = 65, pos[279] = 63
degree[278] = 65, pos[278] = 61
degree[277] = 65, pos[277] = 59
degree[276] = 65, pos[276] = 57
degree[275] = 65, pos[275] = 55
degree[274] = 65, pos[274] = 53
degree[273] = 65, pos[273] = 51
degree[272] = 65, pos[272] = 49
degree[271] = 64, pos[271] = 47
degree[270] = 64, pos[270] = 45
degree[269] = 64, pos[269] = 43
degree[268] = 64, pos[268] = 41
degree[267] = 64, pos[267] = 39
degree[266] = 64, pos[266] = 37
degree[265] = 64, pos[265] = 35
degree[264] = 64, pos[264] = 33
degree[263] = 63, pos[263] = 31
degree[262] = 63, pos[262] = 29
degree[261] = 63, pos[261] = 27
degree[260] = 63, pos[260] = 25
degree[259] = 63, pos[259] = 23
degree[258] = 63, pos[258] = 21
degree[257] = 63, pos[257] = 19
degree[256] = 63, pos[256] = 17
degree[255] = 62, pos[255] = 15
degree[254] = 62, pos[254] = 13
degree[253] = 62, pos[253] = 11
degree[252] = 62, pos[252] = 9
degree[251] = 62, pos[251] = 7
degree[250] = 62, pos[250] = 5
degree[249] = 62, pos[249] = 3
degree[248] = 62, pos[248] = 1
degree[247] = 30, pos[247] = 494
degree[246] = 30, pos[246] = 492
degree[245] = 30, pos[245] = 490
degree[244] = 30, pos[244] = 488
degree[243] = 30, pos[243] = 486
degree[242] = 30, pos[242] = 484
degree[241] = 30, pos[241] = 482
degree[240] = 30, pos[240] = 480
degree[239] = 29, pos[239] = 478
degree[238] = 29, pos[238] = 476
degree[237] = 29, pos[237] = 474
degree[236] = 29, pos[236] = 472
degree[235] = 29, pos[235] = 470
degree[234] = 29, pos[234] = 468
degree[233] = 29, pos[233] = 466
degree[232] = 29, pos[232] = 464
degree[231] = 28, pos[231] = 462
degree[230] = 28, pos[230] = 460
degree[229] = 28, pos[229] = 458
degree[228] = 28, pos[228] = 456
degree[227] = 28, pos[227] = 454
degree[226] = 28, pos[226] = 452
degree[225] = 28, pos[225] = 450
degree[224] = 28, pos[224] = 448
degree[223] = 27, pos[223] = 446
degree[222] = 27, pos[222] = 444
degree[221] = 27, pos[221] = 442
degree[220] = 27, pos[220] = 440
degree[219] = 27, pos[219] = 438
degree[218] = 27, pos[218] = 436
degree[217] = 27, pos[217] = 434
degree[216] = 27, pos[216] = 432
degree[215] = 26, pos[215] = 430
degree[214] = 26, pos[214] = 428
degree[213] = 26, pos[213] = 426
degree[212] = 26, pos[212] = 424
degree[211] = 26, pos[211] = 422
degree[210] = 26, pos[210] = 420
degree[209] = 26, pos[209] = 418
degree[208] = 26, pos[208] = 416
degree[207] = 25, pos[207] = 414
degree[206] = 25, pos[206] = 412
degree[205] = 25, pos[205] = 410
degree[204] = 25, pos[204] = 408
degree[203] = 25, pos[203] = 406
degree[202] = 25, pos[202] = 404
degree[201] = 25, pos[201] = 402
degree[200] = 25, pos[200] = 400
degree[199] = 24, pos[199] = 398
degree[198] = 24, pos[198] = 396
degree[197] = 24, pos[197] = 394
degree[196] = 24, pos[196] = 392
degree[195] = 24, pos[195] = 390
degree[194] = 24, pos[194] = 388
degree[193] = 24, pos[193] = 386
degree[192] = 24, pos[192] = 384
degree[191] = 23, pos[191] = 382
degree[190] = 23, pos[190] = 380
degree[189] = 23, pos[189] = 378
degree[188] = 23, pos[188] = 376
degree[187] = 23, pos[187] = 374
degree[186] = 23, pos[186] = 372
degree[185] = 23, pos[185] = 370
degree[184] = 23, pos[184] = 368
degree[183] = 22, pos[183] = 366
degree[182] = 22, pos[182] = 364
degree[181] = 22, pos[181] = 362
degree[180] = 22, pos[180] = 360
degree[179] = 22, pos[179] = 358
degree[178] = 22, pos[178] = 356
degree[177] = 22, pos[177] = 354
degree[176] = 22, pos[176] = 352
degree[175] = 21, pos[175] = 350
degree[174] = 21, pos[174] = 348
degree[173] = 21, pos[173] = 346
degree[172] = 21, pos[172] = 344
degree[171] = 21, pos[171] = 342
degree[170] = 21, pos[170] = 340
degree[169] = 21, pos[169] = 338
degree[168] = 21, pos[168] = 336
degree[167] = 20, pos[167] = 334
degree[166] = 20, pos[166] = 332
degree[165] = 20, pos[165] = 330
degree[164] = 20, pos[164] = 328
degree[163] = 20, pos[163] = 326
degree[162] = 20, pos[162] = 324
degree[161] = 20, pos[161] = 322
degree[160] = 20, pos[160] = 320
degree[159] = 19, pos[159] = 318
degree[158] = 19, pos[158] = 316
degree[157] = 19, pos[157] = 314
degree[156] = 19, pos[156] = 312
degree[155] = 19, pos[155] = 310
degree[154] = 19, pos[154] = 308
degree[153] = 19, pos[153] = 306
degree[152] = 19, pos[152] = 304
degree[151] = 18, pos[151] = 302
degree[150] = 18, pos[150] = 300
degree[149] = 18, pos[149] = 298
degree[148] = 18, pos[148] = 296
degree[147] = 18, pos[147] = 294
degree[146] = 18, pos[146] = 292
degree[145] = 18, pos[145] = 290
degree[144] = 18, pos[144] = 288
degree[143] = 17, pos[143] = 286
degree[142] = 17, pos[142] = 284
degree[141] = 17, pos[141] = 282
degree[140] = 17, pos[140] = 280
degree[139] = 17, pos[139] = 278
degree[138] = 17, pos[138] = 276
degree[137] = 17, pos[137] = 274
degree[136] = 17, pos[136] = 272
degree[135] = 16, pos[135] = 270
degree[134] = 16, pos[134] = 268
degree[133] = 16, pos[133] = 266
degree[132] = 16, pos[132] = 264
degree[131] = 16, pos[131] = 262
degree[130] = 16, pos[130] = 260
degree[129] = 16, pos[129] = 258
degree[128] = 16, pos[128] = 256
degree[127] = 15, pos[127] = 254
degree[126] = 15, pos[126] = 252
degree[125] = 15, pos[125] = 250
degree[124] = 15, pos[124] = 248
degree[123] = 15, pos[123] = 246
degree[122] = 15, pos[122] = 244
degree[121] = 15, pos[121] = 242
degree[120] = 15, pos[120] = 240
degree[119] = 14, pos[119] = 238
degree[118] = 14, pos[118] = 236
degree[117] = 14, pos[117] = 234
degree[116] = 14, pos[116] = 232
degree[115] = 14, pos[115] = 230
degree[114] = 14, pos[114] = 228
degree[113] = 14, pos[113] = 226
degree[112] = 14, pos[112] = 224
degree[111] = 13, pos[111] = 222
degree[110] = 13, pos[110] = 220
degree[109] = 13, pos[109] = 218
degree[108] = 13, pos[108] = 216
degree[107] = 13, pos[107] = 214
degree[106] = 13, pos[106] = 212
degree[105] = 13, pos[105] = 210
degree[104] = 13, pos[104] = 208
degree[103] = 12, pos[103] = 206
degree[102] = 12, pos[102] = 204
degree[101] = 12, pos[101] = 202
degree[100] = 12, pos[100] = 200
degree[99] = 12, pos[99] = 198
degree[98] = 12, pos[98] = 196
degree[97] = 12, pos[97] = 194
degree[96] = 12, pos[96] = 192
degree[95] = 11, pos[95] = 190
degree[94] = 11, pos[94] = 188
degree[93] = 11, pos[93] = 186
degree[92] = 11, pos[92] = 184
degree[91] = 11, pos[91] = 182
degree[90] = 11, pos[90] = 180
degree[89] = 11, pos[89] = 178
degree[88] = 11, pos[88] = 176
degree[87] = 10, pos[87] = 174
degree[86] = 10, pos[86] = 172
degree[85] = 10, pos[85] = 170
degree[84] = 10, pos[84] = 168
degree[83] = 10, pos[83] = 166
degree[82] = 10, pos[82] = 164
degree[81] = 10, pos[81] = 162
degree[80] = 10, pos[80] = 160
degree[79] = 9, pos[79] = 158
degree[78] = 9, pos[78] = 156
degree[77] = 9, pos[77] = 154
degree[76] = 9, pos[76] = 152
degree[75] = 9, pos[75] = 150
degree[74] = 9, pos[74] = 148
degree[73] = 9, pos[73] = 146
degree[72] = 9, pos[72] = 144
degree[71] = 8, pos[71] = 142
degree[70] = 8, pos[70] = 140
degree[69] = 8, pos[69] = 138
degree[68] = 8, pos[68] = 136
degree[67] = 8, pos[67] = 134
degree[66] = 8, pos[66] = 132
degree[65] = 8, pos[65] = 130
degree[64] = 8, pos[64] = 128
degree[63] = 7, pos[63] = 126
degree[62] = 7, pos[62] = 124
degree[61] = 7, pos[61] = 122
degree[60] = 7, pos[60] = 120
degree[59] = 7, pos[59] = 118
degree[58] = 7, pos[58] = 116
degree[57] = 7, pos[57] = 114
degree[56] = 7, pos[56] = 112
degree[55] = 6, pos[55] = 110
degree[54] = 6, pos[54] = 108
degree[53] = 6, pos[53] = 106
degree[52] = 6, pos[52] = 104
degree[51] = 6, pos[51] = 102
degree[50] = 6, pos[50] = 100
degree[49] = 6, pos[49] = 98
degree[48] = 6, pos[48] = 96
degree[47] = 5, pos[47] = 94
degree[46] = 5, pos[46] = 92
degree[45] = 5, pos[45] = 90
degree[44] = 5, pos[44] = 88
degree[43] = 5, pos[43] = 86
degree[42] = 5, pos[42] = 84
degree[41] = 5, pos[41] = 82
degree[40] = 5, pos[40] = 80
degree[39] = 4, pos[39] = 78
degree[38] = 4, pos[38] = 76
degree[37] = 4, pos[37] = 74
degree[36] = 4, pos[36] = 72
degree[35] = 4, pos[35] = 70
degree[34] = 4, pos[34] = 68
degree[33] = 4, pos[33] = 66
degree[32] = 4, pos[32] = 64
degree[31] = 3, pos[31] = 62
degree[30] = 3, pos[30] = 60
degree[29] = 3, pos[29] = 58
degree[28] = 3, pos[28] = 56
degree[27] = 3, pos[27] = 54
degree[26] = 3, pos[26] = 52
degree[25] = 3, pos[25] = 50
degree[24] = 3, pos[24] = 48
degree[23] = 2, pos[23] = 46
degree[22] = 2, pos[22] = 44
degree[21] = 2, pos[21] = 42
degree[20] = 2, pos[20] = 40
degree[19] = 2, pos[19] = 38
degree[18] = 2, pos[18] = 36
degree[17] = 2, pos[17] = 34
degree[16] = 2, pos[16] = 32
degree[15] = 1, pos[15] = 30
degree[14] = 1, pos[14] = 28
degree[13] = 1, pos[13] = 26
degree[12] = 1, pos[12] = 24
degree[11] = 1, pos[11] = 22
degree[10] = 1, pos[10] = 20
degree[9] = 1, pos[9] = 18
degree[8] = 1, pos[8] = 16
degree[7] = 0, pos[7] = 14
degree[6] = 0, pos[6] = 12
degree[5] = 0, pos[5] = 10
degree[4] = 0, pos[4] = 8
degree[3] = 0, pos[3] = 6
degree[2] = 0, pos[2] = 4
degree[1] = 0, pos[1] = 2
degree[0] = 0, pos[0] = 0
Pos[0] = 0
Pos[1] = 2
Pos[2] = 4
Pos[3] = 6
Pos[4] = 8
Pos[5] = 10
Pos[6] = 12
Pos[7] = 14
Pos[8] = 16
Pos[9] = 18
Pos[10] = 20
Pos[11] = 22
Pos[12] = 24
Pos[13] = 26
Pos[14] = 28
Pos[15] = 30
Pos[16] = 32
Pos[17] = 34
Pos[18] = 36
Pos[19] = 38
Pos[20] = 40
Pos[21] = 42
Pos[22] = 44
Pos[23] = 46
Pos[24] = 48
Pos[25] = 50
Pos[26] = 52
Pos[27] = 54
Pos[28] = 56
Pos[29] = 58
Pos[30] = 60
Pos[31] = 62
Pos[32] = 64
Pos[33] = 66
Pos[34] = 68
Pos[35] = 70
Pos[36] = 72
Pos[37] = 74
Pos[38] = 76
Pos[39] = 78
Pos[40] = 80
Pos[41] = 82
Pos[42] = 84
Pos[43] = 86
Pos[44] = 88
Pos[45] = 90
Pos[46] = 92
Pos[47] = 94
Pos[48] = 96
Pos[49] = 98
Pos[50] = 100
Pos[51] = 102
Pos[52] = 104
Pos[53] = 106
Pos[54] = 108
Pos[55] = 110
Pos[56] = 112
Pos[57] = 114
Pos[58] = 116
Pos[59] = 118
Pos[60] = 120
Pos[61] = 122
Pos[62] = 124
Pos[63] = 126
Pos[64] = 128
Pos[65] = 130
Pos[66] = 132
Pos[67] = 134
Pos[68] = 136
Pos[69] = 138
Pos[70] = 140
Pos[71] = 142
Pos[72] = 144
Pos[73] = 146
Pos[74] = 148
Pos[75] = 150
Pos[76] = 152
Pos[77] = 154
Pos[78] = 156
Pos[79] = 158
Pos[80] = 160
Pos[81] = 162
Pos[82] = 164
Pos[83] = 166
Pos[84] = 168
Pos[85] = 170
Pos[86] = 172
Pos[87] = 174
Pos[88] = 176
Pos[89] = 178
Pos[90] = 180
Pos[91] = 182
Pos[92] = 184
Pos[93] = 186
Pos[94] = 188
Pos[95] = 190
Pos[96] = 192
Pos[97] = 194
Pos[98] = 196
Pos[99] = 198
Pos[100] = 200
Pos[101] = 202
Pos[102] = 204
Pos[103] = 206
Pos[104] = 208
Pos[105] = 210
Pos[106] = 212
Pos[107] = 214
Pos[108] = 216
Pos[109] = 218
Pos[110] = 220
Pos[111] = 222
Pos[112] = 224
Pos[113] = 226
Pos[114] = 228
Pos[115] = 230
Pos[116] = 232
Pos[117] = 234
Pos[118] = 236
Pos[119] = 238
Pos[120] = 240
Pos[121] = 242
Pos[122] = 244
Pos[123] = 246
Pos[124] = 248
Pos[125] = 250
Pos[126] = 252
Pos[127] = 254
Pos[128] = 256
Pos[129] = 258
Pos[130] = 260
Pos[131] = 262
Pos[132] = 264
Pos[133] = 266
Pos[134] = 268
Pos[135] = 270
Pos[136] = 272
Pos[137] = 274
Pos[138] = 276
Pos[139] = 278
Pos[140] = 280
Pos[141] = 282
Pos[142] = 284
Pos[143] = 286
Pos[144] = 288
Pos[145] = 290
Pos[146] = 292
Pos[147] = 294
Pos[148] = 296
Pos[149] = 298
Pos[150] = 300
Pos[151] = 302
Pos[152] = 304
Pos[153] = 306
Pos[154] = 308
Pos[155] = 310
Pos[156] = 312
Pos[157] = 314
Pos[158] = 316
Pos[159] = 318
Pos[160] = 320
Pos[161] = 322
Pos[162] = 324
Pos[163] = 326
Pos[164] = 328
Pos[165] = 330
Pos[166] = 332
Pos[167] = 334
Pos[168] = 336
Pos[169] = 338
Pos[170] = 340
Pos[171] = 342
Pos[172] = 344
Pos[173] = 346
Pos[174] = 348
Pos[175] = 350
Pos[176] = 352
Pos[177] = 354
Pos[178] = 356
Pos[179] = 358
Pos[180] = 360
Pos[181] = 362
Pos[182] = 364
Pos[183] = 366
Pos[184] = 368
Pos[185] = 370
Pos[186] = 372
Pos[187] = 374
Pos[188] = 376
Pos[189] = 378
Pos[190] = 380
Pos[191] = 382
Pos[192] = 384
Pos[193] = 386
Pos[194] = 388
Pos[195] = 390
Pos[196] = 392
Pos[197] = 394
Pos[198] = 396
Pos[199] = 398
Pos[200] = 400
Pos[201] = 402
Pos[202] = 404
Pos[203] = 406
Pos[204] = 408
Pos[205] = 410
Pos[206] = 412
Pos[207] = 414
Pos[208] = 416
Pos[209] = 418
Pos[210] = 420
Pos[211] = 422
Pos[212] = 424
Pos[213] = 426
Pos[214] = 428
Pos[215] = 430
Pos[216] = 432
Pos[217] = 434
Pos[218] = 436
Pos[219] = 438
Pos[220] = 440
Pos[221] = 442
Pos[222] = 444
Pos[223] = 446
Pos[224] = 448
Pos[225] = 450
Pos[226] = 452
Pos[227] = 454
Pos[228] = 456
Pos[229] = 458
Pos[230] = 460
Pos[231] = 462
Pos[232] = 464
Pos[233] = 466
Pos[234] = 468
Pos[235] = 470
Pos[236] = 472
Pos[237] = 474
Pos[238] = 476
Pos[239] = 478
Pos[240] = 480
Pos[241] = 482
Pos[242] = 484
Pos[243] = 486
Pos[244] = 488
Pos[245] = 490
Pos[246] = 492
Pos[247] = 494
Pos[248] = 1
Pos[249] = 3
Pos[250] = 5
Pos[251] = 7
Pos[252] = 9
Pos[253] = 11
Pos[254] = 13
Pos[255] = 15
Pos[256] = 17
Pos[257] = 19
Pos[258] = 21
Pos[259] = 23
Pos[260] = 25
Pos[261] = 27
Pos[262] = 29
Pos[263] = 31
Pos[264] = 33
Pos[265] = 35
Pos[266] = 37
Pos[267] = 39
Pos[268] = 41
Pos[269] = 43
Pos[270] = 45
Pos[271] = 47
Pos[272] = 49
Pos[273] = 51
Pos[274] = 53
Pos[275] = 55
Pos[276] = 57
Pos[277] = 59
Pos[278] = 61
Pos[279] = 63
Pos[280] = 65
Pos[281] = 67
Pos[282] = 69
Pos[283] = 71
Pos[284] = 73
Pos[285] = 75
Pos[286] = 77
Pos[287] = 79
Pos[288] = 81
Pos[289] = 83
Pos[290] = 85
Pos[291] = 87
Pos[292] = 89
Pos[293] = 91
Pos[294] = 93
Pos[295] = 95
Pos[296] = 97
Pos[297] = 99
Pos[298] = 101
Pos[299] = 103
Pos[300] = 105
Pos[301] = 107
Pos[302] = 109
Pos[303] = 111
Pos[304] = 113
Pos[305] = 115
Pos[306] = 117
Pos[307] = 119
Pos[308] = 121
Pos[309] = 123
Pos[310] = 125
Pos[311] = 127
Pos[312] = 129
Pos[313] = 131
Pos[314] = 133
Pos[315] = 135
Pos[316] = 137
Pos[317] = 139
Pos[318] = 141
Pos[319] = 143
Pos[320] = 145
Pos[321] = 147
Pos[322] = 149
Pos[323] = 151
Pos[324] = 153
Pos[325] = 155
Pos[326] = 157
Pos[327] = 159
Pos[328] = 161
Pos[329] = 163
Pos[330] = 165
Pos[331] = 167
Pos[332] = 169
Pos[333] = 171
Pos[334] = 173
Pos[335] = 175
Pos[336] = 177
Pos[337] = 179
Pos[338] = 181
Pos[339] = 183
Pos[340] = 185
Pos[341] = 187
Pos[342] = 189
Pos[343] = 191
Pos[344] = 193
Pos[345] = 195
Pos[346] = 197
Pos[347] = 199
Pos[348] = 201
Pos[349] = 203
Pos[350] = 205
Pos[351] = 207
Pos[352] = 209
Pos[353] = 211
Pos[354] = 213
Pos[355] = 215
Pos[356] = 217
Pos[357] = 219
Pos[358] = 221
Pos[359] = 223
Pos[360] = 225
Pos[361] = 227
Pos[362] = 229
Pos[363] = 231
Pos[364] = 233
Pos[365] = 235
Pos[366] = 237
Pos[367] = 239
Pos[368] = 241
Pos[369] = 243
Pos[370] = 245
Pos[371] = 247
Pos[372] = 249
Pos[373] = 251
Pos[374] = 253
Pos[375] = 255
Pos[376] = 257
Pos[377] = 259
Pos[378] = 261
Pos[379] = 263
Pos[380] = 265
Pos[381] = 267
Pos[382] = 269
Pos[383] = 271
Pos[384] = 273
Pos[385] = 275
Pos[386] = 277
Pos[387] = 279
Pos[388] = 281
Pos[389] = 283
Pos[390] = 285
Pos[391] = 287
Pos[392] = 289
Pos[393] = 291
Pos[394] = 293
Pos[395] = 295
Pos[396] = 297
Pos[397] = 299
Pos[398] = 301
Pos[399] = 303
Pos[400] = 305
Pos[401] = 307
Pos[402] = 309
Pos[403] = 311
Pos[404] = 313
Pos[405] = 315
Pos[406] = 317
Pos[407] = 319
Pos[408] = 321
Pos[409] = 323
Pos[410] = 325
Pos[411] = 327
Pos[412] = 329
Pos[413] = 331
Pos[414] = 333
Pos[415] = 335
Pos[416] = 337
Pos[417] = 339
Pos[418] = 341
Pos[419] = 343
Pos[420] = 345
Pos[421] = 347
Pos[422] = 349
Pos[423] = 351
Pos[424] = 353
Pos[425] = 355
Pos[426] = 357
Pos[427] = 359
Pos[428] = 361
Pos[429] = 363
Pos[430] = 365
Pos[431] = 367
Pos[432] = 369
Pos[433] = 371
Pos[434] = 373
Pos[435] = 375
Pos[436] = 377
Pos[437] = 379
Pos[438] = 381
Pos[439] = 383
Pos[440] = 385
Pos[441] = 387
Pos[442] = 389
Pos[443] = 391
Pos[444] = 393
Pos[445] = 395
Pos[446] = 397
Pos[447] = 399
Pos[448] = 401
Pos[449] = 403
Pos[450] = 405
Pos[451] = 407
Pos[452] = 409
Pos[453] = 411
Pos[454] = 413
Pos[455] = 415
Pos[456] = 417
Pos[457] = 419
Pos[458] = 421
Pos[459] = 423
Pos[460] = 425
Pos[461] = 427
Pos[462] = 429
Pos[463] = 431
Pos[464] = 433
Pos[465] = 435
Pos[466] = 437
Pos[467] = 439
Pos[468] = 441
Pos[469] = 443
Pos[470] = 445
Pos[471] = 447
Pos[472] = 449
Pos[473] = 451
Pos[474] = 453
Pos[475] = 455
Pos[476] = 457
Pos[477] = 459
Pos[478] = 461
Pos[479] = 463
Pos[480] = 465
Pos[481] = 467
Pos[482] = 469
Pos[483] = 471
Pos[484] = 473
Pos[485] = 475
Pos[486] = 477
Pos[487] = 479
Pos[488] = 481
Pos[489] = 483
Pos[490] = 485
Pos[491] = 487
Pos[492] = 489
Pos[493] = 491
Pos[494] = 493
Pos[495] = 495
Pos[496] = 496
Pos[497] = 499
Pos[498] = 497
Pos[499] = 498
Enbr = 23191
start search
improving solution size 1
improving solution size 2
improving solution size 3
improving solution size 4
improving solution size 5
improving solution size 6
improving solution size 7
improving solution size 8
improving solution size 9
improving solution size 10
improving solution size 11
improving solution size 12
improving solution size 13
improving solution size 14
improving solution size 15
improving solution size 16
improving solution size 17
improving solution size 18
improving solution size 19
improving solution size 20
improving solution size 21
improving solution size 22
improving solution size 23
improving solution size 24
improving solution size 25
improving solution size 26
improving solution size 27
improving solution size 28
improving solution size 29
improving solution size 30
improving solution size 31
improving solution size 32
improving solution size 33
improving solution size 34
improving solution size 35
improving solution size 36
improving solution size 37
improving solution size 38
improving solution size 39
improving solution size 40
improving solution size 41
improving solution size 42
improving solution size 43
improving solution size 44
improving solution size 45
improving solution size 46
improving solution size 47
improving solution size 48
improving solution size 49
improving solution size 50
improving solution size 51
improving solution size 52
improving solution size 53
improving solution size 54
improving solution size 55
improving solution size 56
improving solution size 57
improving solution size 58
improving solution size 59
improving solution size 60
improving solution size 61
improving solution size 62
improving solution size 63
improving solution size 64
TIMEOUT
best clique: 499 498 482 466 450 434 418 402 386 370 354 338 322 306 290 274 258 242 226 210 194 178 162 146 130 114 98 82 66 50 34 18 2 483 467 451 435 419 403 387 371 355 339 323 307 291 275 259 243 227 211 195 179 163 147 131 115 99 83 67 51 35 19 3 
record          =          64
subp            =  3510334828
time            =  3600.00061
