timeout 3600 s
Graph with 400 vertices and 71820 edges density 0.900000
t = 143640, Enbr = 71820
degree[399] = 375, pos[399] = 366
degree[398] = 374, pos[398] = 295
degree[397] = 373, pos[397] = 268
degree[396] = 372, pos[396] = 160
degree[395] = 372, pos[395] = 64
degree[394] = 370, pos[394] = 326
degree[393] = 369, pos[393] = 287
degree[392] = 368, pos[392] = 283
degree[391] = 367, pos[391] = 68
degree[390] = 367, pos[390] = 28
degree[389] = 365, pos[389] = 19
degree[388] = 364, pos[388] = 17
degree[387] = 362, pos[387] = 399
degree[386] = 361, pos[386] = 198
degree[385] = 360, pos[385] = 173
degree[384] = 359, pos[384] = 158
degree[383] = 358, pos[383] = 126
degree[382] = 357, pos[382] = 59
degree[381] = 356, pos[381] = 191
degree[380] = 355, pos[380] = 97
degree[379] = 354, pos[379] = 9
degree[378] = 352, pos[378] = 389
degree[377] = 351, pos[377] = 379
degree[376] = 351, pos[376] = 357
degree[375] = 349, pos[375] = 333
degree[374] = 348, pos[374] = 321
degree[373] = 347, pos[373] = 312
degree[372] = 346, pos[372] = 311
degree[371] = 346, pos[371] = 73
degree[370] = 344, pos[370] = 299
degree[369] = 343, pos[369] = 284
degree[368] = 342, pos[368] = 234
degree[367] = 341, pos[367] = 224
degree[366] = 340, pos[366] = 95
degree[365] = 339, pos[365] = 82
degree[364] = 338, pos[364] = 65
degree[363] = 337, pos[363] = 1
degree[362] = 336, pos[362] = 90
degree[361] = 334, pos[361] = 394
degree[360] = 334, pos[360] = 46
degree[359] = 333, pos[359] = 244
degree[358] = 332, pos[358] = 349
degree[357] = 331, pos[357] = 301
degree[356] = 330, pos[356] = 344
degree[355] = 329, pos[355] = 340
degree[354] = 328, pos[354] = 275
degree[353] = 327, pos[353] = 265
degree[352] = 326, pos[352] = 176
degree[351] = 325, pos[351] = 138
degree[350] = 324, pos[350] = 261
degree[349] = 323, pos[349] = 155
degree[348] = 323, pos[348] = 66
degree[347] = 321, pos[347] = 228
degree[346] = 320, pos[346] = 133
degree[345] = 319, pos[345] = 10
degree[344] = 317, pos[344] = 383
degree[343] = 317, pos[343] = 75
degree[342] = 316, pos[342] = 70
degree[341] = 315, pos[341] = 339
degree[340] = 313, pos[340] = 378
degree[339] = 313, pos[339] = 127
degree[338] = 311, pos[338] = 372
degree[337] = 311, pos[337] = 54
degree[336] = 310, pos[336] = 330
degree[335] = 309, pos[335] = 257
degree[334] = 308, pos[334] = 80
degree[333] = 306, pos[333] = 360
degree[332] = 306, pos[332] = 184
degree[331] = 305, pos[331] = 104
degree[330] = 304, pos[330] = 13
degree[329] = 303, pos[329] = 238
degree[328] = 302, pos[328] = 341
degree[327] = 301, pos[327] = 314
degree[326] = 301, pos[326] = 248
degree[325] = 299, pos[325] = 286
degree[324] = 298, pos[324] = 175
degree[323] = 297, pos[323] = 300
degree[322] = 296, pos[322] = 55
degree[321] = 295, pos[321] = 270
degree[320] = 294, pos[320] = 141
degree[319] = 293, pos[319] = 6
degree[318] = 291, pos[318] = 386
degree[317] = 291, pos[317] = 96
degree[316] = 290, pos[316] = 370
degree[315] = 289, pos[315] = 317
degree[314] = 289, pos[314] = 254
degree[313] = 288, pos[313] = 125
degree[312] = 286, pos[312] = 202
degree[311] = 285, pos[311] = 132
degree[310] = 285, pos[310] = 105
degree[309] = 284, pos[309] = 3
degree[308] = 282, pos[308] = 112
degree[307] = 282, pos[307] = 100
degree[306] = 281, pos[306] = 69
degree[305] = 280, pos[305] = 5
degree[304] = 279, pos[304] = 8
degree[303] = 278, pos[303] = 42
degree[302] = 276, pos[302] = 298
degree[301] = 276, pos[301] = 49
degree[300] = 274, pos[300] = 272
degree[299] = 273, pos[299] = 320
degree[298] = 272, pos[298] = 264
degree[297] = 272, pos[297] = 182
degree[296] = 270, pos[296] = 215
degree[295] = 270, pos[295] = 214
degree[294] = 269, pos[294] = 146
degree[293] = 267, pos[293] = 338
degree[292] = 267, pos[292] = 32
degree[291] = 266, pos[291] = 16
degree[290] = 265, pos[290] = 328
degree[289] = 264, pos[289] = 159
degree[288] = 263, pos[288] = 137
degree[287] = 262, pos[287] = 102
degree[286] = 261, pos[286] = 363
degree[285] = 260, pos[285] = 331
degree[284] = 259, pos[284] = 181
degree[283] = 258, pos[283] = 285
degree[282] = 257, pos[282] = 276
degree[281] = 256, pos[281] = 27
degree[280] = 255, pos[280] = 72
degree[279] = 254, pos[279] = 322
degree[278] = 252, pos[278] = 397
degree[277] = 252, pos[277] = 239
degree[276] = 251, pos[276] = 323
degree[275] = 249, pos[275] = 385
degree[274] = 248, pos[274] = 329
degree[273] = 247, pos[273] = 305
degree[272] = 246, pos[272] = 306
degree[271] = 246, pos[271] = 226
degree[270] = 245, pos[270] = 52
degree[269] = 243, pos[269] = 318
degree[268] = 242, pos[268] = 308
degree[267] = 242, pos[267] = 223
degree[266] = 241, pos[266] = 220
degree[265] = 240, pos[265] = 114
degree[264] = 239, pos[264] = 186
degree[263] = 238, pos[263] = 86
degree[262] = 237, pos[262] = 24
degree[261] = 236, pos[261] = 216
degree[260] = 235, pos[260] = 37
degree[259] = 234, pos[259] = 18
degree[258] = 232, pos[258] = 391
degree[257] = 232, pos[257] = 209
degree[256] = 232, pos[256] = 201
degree[255] = 231, pos[255] = 108
degree[254] = 230, pos[254] = 79
degree[253] = 228, pos[253] = 390
degree[252] = 228, pos[252] = 348
degree[251] = 226, pos[251] = 334
degree[250] = 225, pos[250] = 170
degree[249] = 224, pos[249] = 166
degree[248] = 223, pos[248] = 131
degree[247] = 222, pos[247] = 98
degree[246] = 221, pos[246] = 207
degree[245] = 220, pos[245] = 367
degree[244] = 219, pos[244] = 302
degree[243] = 218, pos[243] = 297
degree[242] = 217, pos[242] = 293
degree[241] = 217, pos[241] = 240
degree[240] = 216, pos[240] = 161
degree[239] = 214, pos[239] = 247
degree[238] = 213, pos[238] = 193
degree[237] = 213, pos[237] = 128
degree[236] = 211, pos[236] = 222
degree[235] = 210, pos[235] = 395
degree[234] = 210, pos[234] = 310
degree[233] = 210, pos[233] = 26
degree[232] = 208, pos[232] = 61
degree[231] = 206, pos[231] = 309
degree[230] = 206, pos[230] = 91
degree[229] = 205, pos[229] = 296
degree[228] = 204, pos[228] = 263
degree[227] = 203, pos[227] = 117
degree[226] = 203, pos[226] = 116
degree[225] = 201, pos[225] = 60
degree[224] = 200, pos[224] = 83
degree[223] = 199, pos[223] = 30
degree[222] = 198, pos[222] = 29
degree[221] = 196, pos[221] = 342
degree[220] = 195, pos[220] = 345
degree[219] = 194, pos[219] = 336
degree[218] = 194, pos[218] = 195
degree[217] = 193, pos[217] = 167
degree[216] = 192, pos[216] = 245
degree[215] = 191, pos[215] = 148
degree[214] = 190, pos[214] = 292
degree[213] = 189, pos[213] = 200
degree[212] = 188, pos[212] = 369
degree[211] = 187, pos[211] = 382
degree[210] = 187, pos[210] = 136
degree[209] = 186, pos[209] = 25
degree[208] = 185, pos[208] = 266
degree[207] = 183, pos[207] = 324
degree[206] = 182, pos[206] = 289
degree[205] = 182, pos[205] = 143
degree[204] = 181, pos[204] = 134
degree[203] = 181, pos[203] = 0
degree[202] = 179, pos[202] = 15
degree[201] = 178, pos[201] = 288
degree[200] = 177, pos[200] = 219
degree[199] = 176, pos[199] = 316
degree[198] = 175, pos[198] = 213
degree[197] = 175, pos[197] = 62
degree[196] = 173, pos[196] = 99
degree[195] = 173, pos[195] = 2
degree[194] = 171, pos[194] = 361
degree[193] = 171, pos[193] = 162
degree[192] = 169, pos[192] = 313
degree[191] = 168, pos[191] = 259
degree[190] = 168, pos[190] = 39
degree[189] = 167, pos[189] = 76
degree[188] = 166, pos[188] = 51
degree[187] = 164, pos[187] = 327
degree[186] = 163, pos[186] = 218
degree[185] = 163, pos[185] = 211
degree[184] = 161, pos[184] = 398
degree[183] = 161, pos[183] = 43
degree[182] = 159, pos[182] = 346
degree[181] = 159, pos[181] = 20
degree[180] = 157, pos[180] = 325
degree[179] = 157, pos[179] = 67
degree[178] = 156, pos[178] = 371
degree[177] = 155, pos[177] = 230
degree[176] = 154, pos[176] = 180
degree[175] = 154, pos[175] = 145
degree[174] = 152, pos[174] = 351
degree[173] = 151, pos[173] = 206
degree[172] = 150, pos[172] = 273
degree[171] = 150, pos[171] = 101
degree[170] = 148, pos[170] = 373
degree[169] = 147, pos[169] = 163
degree[168] = 146, pos[168] = 380
degree[167] = 146, pos[167] = 269
degree[166] = 144, pos[166] = 343
degree[165] = 143, pos[165] = 281
degree[164] = 143, pos[164] = 236
degree[163] = 142, pos[163] = 4
degree[162] = 140, pos[162] = 280
degree[161] = 140, pos[161] = 255
degree[160] = 139, pos[160] = 71
degree[159] = 139, pos[159] = 36
degree[158] = 137, pos[158] = 354
degree[157] = 136, pos[157] = 279
degree[156] = 136, pos[156] = 151
degree[155] = 134, pos[155] = 319
degree[154] = 134, pos[154] = 93
degree[153] = 133, pos[153] = 156
degree[152] = 133, pos[152] = 110
degree[151] = 133, pos[151] = 57
degree[150] = 132, pos[150] = 217
degree[149] = 130, pos[149] = 77
degree[148] = 129, pos[148] = 164
degree[147] = 128, pos[147] = 81
degree[146] = 126, pos[146] = 337
degree[145] = 125, pos[145] = 274
degree[144] = 124, pos[144] = 356
degree[143] = 124, pos[143] = 171
degree[142] = 123, pos[142] = 34
degree[141] = 121, pos[141] = 387
degree[140] = 120, pos[140] = 315
degree[139] = 120, pos[139] = 177
degree[138] = 119, pos[138] = 178
degree[137] = 118, pos[137] = 89
degree[136] = 117, pos[136] = 332
degree[135] = 116, pos[135] = 199
degree[134] = 116, pos[134] = 23
degree[133] = 114, pos[133] = 85
degree[132] = 113, pos[132] = 40
degree[131] = 112, pos[131] = 347
degree[130] = 111, pos[130] = 362
degree[129] = 111, pos[129] = 33
degree[128] = 110, pos[128] = 169
degree[127] = 109, pos[127] = 335
degree[126] = 107, pos[126] = 185
degree[125] = 106, pos[125] = 235
degree[124] = 106, pos[124] = 14
degree[123] = 105, pos[123] = 359
degree[122] = 104, pos[122] = 358
degree[121] = 103, pos[121] = 120
degree[120] = 102, pos[120] = 172
degree[119] = 102, pos[119] = 115
degree[118] = 100, pos[118] = 122
degree[117] = 100, pos[117] = 41
degree[116] = 98, pos[116] = 267
degree[115] = 97, pos[115] = 294
degree[114] = 97, pos[114] = 144
degree[113] = 96, pos[113] = 154
degree[112] = 95, pos[112] = 113
degree[111] = 95, pos[111] = 21
degree[110] = 93, pos[110] = 242
degree[109] = 92, pos[109] = 258
degree[108] = 91, pos[108] = 377
degree[107] = 90, pos[107] = 174
degree[106] = 90, pos[106] = 119
degree[105] = 90, pos[105] = 88
degree[104] = 88, pos[104] = 58
degree[103] = 87, pos[103] = 290
degree[102] = 86, pos[102] = 48
degree[101] = 84, pos[101] = 392
degree[100] = 84, pos[100] = 243
degree[99] = 83, pos[99] = 303
degree[98] = 83, pos[98] = 103
degree[97] = 81, pos[97] = 368
degree[96] = 81, pos[96] = 47
degree[95] = 80, pos[95] = 221
degree[94] = 79, pos[94] = 135
degree[93] = 78, pos[93] = 84
degree[92] = 77, pos[92] = 203
degree[91] = 76, pos[91] = 124
degree[90] = 75, pos[90] = 152
degree[89] = 74, pos[89] = 31
degree[88] = 72, pos[88] = 350
degree[87] = 72, pos[87] = 277
degree[86] = 71, pos[86] = 278
degree[85] = 71, pos[85] = 251
degree[84] = 69, pos[84] = 262
degree[83] = 68, pos[83] = 365
degree[82] = 68, pos[82] = 121
degree[81] = 67, pos[81] = 111
degree[80] = 67, pos[80] = 78
degree[79] = 65, pos[79] = 353
degree[78] = 64, pos[78] = 231
degree[77] = 64, pos[77] = 38
degree[76] = 63, pos[76] = 232
degree[75] = 62, pos[75] = 150
degree[74] = 61, pos[74] = 123
degree[73] = 60, pos[73] = 183
degree[72] = 60, pos[72] = 168
degree[71] = 59, pos[71] = 44
degree[70] = 58, pos[70] = 190
degree[69] = 57, pos[69] = 187
degree[68] = 56, pos[68] = 229
degree[67] = 55, pos[67] = 227
degree[66] = 55, pos[66] = 208
degree[65] = 53, pos[65] = 250
degree[64] = 53, pos[64] = 157
degree[63] = 51, pos[63] = 249
degree[62] = 50, pos[62] = 291
degree[61] = 50, pos[61] = 129
degree[60] = 48, pos[60] = 252
degree[59] = 47, pos[59] = 241
degree[58] = 47, pos[58] = 233
degree[57] = 46, pos[57] = 94
degree[56] = 45, pos[56] = 142
degree[55] = 44, pos[55] = 271
degree[54] = 44, pos[54] = 107
degree[53] = 42, pos[53] = 237
degree[52] = 41, pos[52] = 212
degree[51] = 40, pos[51] = 307
degree[50] = 39, pos[50] = 376
degree[49] = 39, pos[49] = 374
degree[48] = 38, pos[48] = 197
degree[47] = 37, pos[47] = 381
degree[46] = 36, pos[46] = 189
degree[45] = 35, pos[45] = 130
degree[44] = 34, pos[44] = 149
degree[43] = 33, pos[43] = 393
degree[42] = 33, pos[42] = 50
degree[41] = 31, pos[41] = 256
degree[40] = 31, pos[40] = 253
degree[39] = 31, pos[39] = 45
degree[38] = 30, pos[38] = 140
degree[37] = 29, pos[37] = 139
degree[36] = 28, pos[36] = 12
degree[35] = 27, pos[35] = 205
degree[34] = 25, pos[34] = 194
degree[33] = 25, pos[33] = 153
degree[32] = 24, pos[32] = 106
degree[31] = 24, pos[31] = 74
degree[30] = 22, pos[30] = 396
degree[29] = 22, pos[29] = 11
degree[28] = 21, pos[28] = 179
degree[27] = 20, pos[27] = 22
degree[26] = 19, pos[26] = 282
degree[25] = 18, pos[25] = 384
degree[24] = 18, pos[24] = 352
degree[23] = 16, pos[23] = 260
degree[22] = 15, pos[22] = 204
degree[21] = 15, pos[21] = 188
degree[20] = 14, pos[20] = 87
degree[19] = 13, pos[19] = 210
degree[18] = 12, pos[18] = 165
degree[17] = 11, pos[17] = 246
degree[16] = 11, pos[16] = 118
degree[15] = 10, pos[15] = 196
degree[14] = 8, pos[14] = 388
degree[13] = 8, pos[13] = 92
degree[12] = 8, pos[12] = 7
degree[11] = 6, pos[11] = 355
degree[10] = 6, pos[10] = 304
degree[9] = 5, pos[9] = 192
degree[8] = 5, pos[8] = 109
degree[7] = 3, pos[7] = 375
degree[6] = 3, pos[6] = 147
degree[5] = 1, pos[5] = 364
degree[4] = 1, pos[4] = 63
degree[3] = 0, pos[3] = 225
degree[2] = 0, pos[2] = 56
degree[1] = 0, pos[1] = 53
degree[0] = 0, pos[0] = 35
Pos[0] = 35
Pos[1] = 53
Pos[2] = 56
Pos[3] = 225
Pos[4] = 63
Pos[5] = 364
Pos[6] = 147
Pos[7] = 375
Pos[8] = 109
Pos[9] = 192
Pos[10] = 304
Pos[11] = 355
Pos[12] = 7
Pos[13] = 92
Pos[14] = 388
Pos[15] = 196
Pos[16] = 118
Pos[17] = 246
Pos[18] = 165
Pos[19] = 210
Pos[20] = 87
Pos[21] = 188
Pos[22] = 204
Pos[23] = 260
Pos[24] = 352
Pos[25] = 384
Pos[26] = 282
Pos[27] = 22
Pos[28] = 179
Pos[29] = 11
Pos[30] = 396
Pos[31] = 74
Pos[32] = 106
Pos[33] = 153
Pos[34] = 194
Pos[35] = 205
Pos[36] = 12
Pos[37] = 139
Pos[38] = 140
Pos[39] = 45
Pos[40] = 253
Pos[41] = 256
Pos[42] = 50
Pos[43] = 393
Pos[44] = 149
Pos[45] = 130
Pos[46] = 189
Pos[47] = 381
Pos[48] = 197
Pos[49] = 374
Pos[50] = 376
Pos[51] = 307
Pos[52] = 212
Pos[53] = 237
Pos[54] = 107
Pos[55] = 271
Pos[56] = 142
Pos[57] = 94
Pos[58] = 233
Pos[59] = 241
Pos[60] = 252
Pos[61] = 129
Pos[62] = 291
Pos[63] = 249
Pos[64] = 157
Pos[65] = 250
Pos[66] = 208
Pos[67] = 227
Pos[68] = 229
Pos[69] = 187
Pos[70] = 190
Pos[71] = 44
Pos[72] = 168
Pos[73] = 183
Pos[74] = 123
Pos[75] = 150
Pos[76] = 232
Pos[77] = 38
Pos[78] = 231
Pos[79] = 353
Pos[80] = 78
Pos[81] = 111
Pos[82] = 121
Pos[83] = 365
Pos[84] = 262
Pos[85] = 251
Pos[86] = 278
Pos[87] = 277
Pos[88] = 350
Pos[89] = 31
Pos[90] = 152
Pos[91] = 124
Pos[92] = 203
Pos[93] = 84
Pos[94] = 135
Pos[95] = 221
Pos[96] = 47
Pos[97] = 368
Pos[98] = 103
Pos[99] = 303
Pos[100] = 243
Pos[101] = 392
Pos[102] = 48
Pos[103] = 290
Pos[104] = 58
Pos[105] = 88
Pos[106] = 119
Pos[107] = 174
Pos[108] = 377
Pos[109] = 258
Pos[110] = 242
Pos[111] = 21
Pos[112] = 113
Pos[113] = 154
Pos[114] = 144
Pos[115] = 294
Pos[116] = 267
Pos[117] = 41
Pos[118] = 122
Pos[119] = 115
Pos[120] = 172
Pos[121] = 120
Pos[122] = 358
Pos[123] = 359
Pos[124] = 14
Pos[125] = 235
Pos[126] = 185
Pos[127] = 335
Pos[128] = 169
Pos[129] = 33
Pos[130] = 362
Pos[131] = 347
Pos[132] = 40
Pos[133] = 85
Pos[134] = 23
Pos[135] = 199
Pos[136] = 332
Pos[137] = 89
Pos[138] = 178
Pos[139] = 177
Pos[140] = 315
Pos[141] = 387
Pos[142] = 34
Pos[143] = 171
Pos[144] = 356
Pos[145] = 274
Pos[146] = 337
Pos[147] = 81
Pos[148] = 164
Pos[149] = 77
Pos[150] = 217
Pos[151] = 57
Pos[152] = 110
Pos[153] = 156
Pos[154] = 93
Pos[155] = 319
Pos[156] = 151
Pos[157] = 279
Pos[158] = 354
Pos[159] = 36
Pos[160] = 71
Pos[161] = 255
Pos[162] = 280
Pos[163] = 4
Pos[164] = 236
Pos[165] = 281
Pos[166] = 343
Pos[167] = 269
Pos[168] = 380
Pos[169] = 163
Pos[170] = 373
Pos[171] = 101
Pos[172] = 273
Pos[173] = 206
Pos[174] = 351
Pos[175] = 145
Pos[176] = 180
Pos[177] = 230
Pos[178] = 371
Pos[179] = 67
Pos[180] = 325
Pos[181] = 20
Pos[182] = 346
Pos[183] = 43
Pos[184] = 398
Pos[185] = 211
Pos[186] = 218
Pos[187] = 327
Pos[188] = 51
Pos[189] = 76
Pos[190] = 39
Pos[191] = 259
Pos[192] = 313
Pos[193] = 162
Pos[194] = 361
Pos[195] = 2
Pos[196] = 99
Pos[197] = 62
Pos[198] = 213
Pos[199] = 316
Pos[200] = 219
Pos[201] = 288
Pos[202] = 15
Pos[203] = 0
Pos[204] = 134
Pos[205] = 143
Pos[206] = 289
Pos[207] = 324
Pos[208] = 266
Pos[209] = 25
Pos[210] = 136
Pos[211] = 382
Pos[212] = 369
Pos[213] = 200
Pos[214] = 292
Pos[215] = 148
Pos[216] = 245
Pos[217] = 167
Pos[218] = 195
Pos[219] = 336
Pos[220] = 345
Pos[221] = 342
Pos[222] = 29
Pos[223] = 30
Pos[224] = 83
Pos[225] = 60
Pos[226] = 116
Pos[227] = 117
Pos[228] = 263
Pos[229] = 296
Pos[230] = 91
Pos[231] = 309
Pos[232] = 61
Pos[233] = 26
Pos[234] = 310
Pos[235] = 395
Pos[236] = 222
Pos[237] = 128
Pos[238] = 193
Pos[239] = 247
Pos[240] = 161
Pos[241] = 240
Pos[242] = 293
Pos[243] = 297
Pos[244] = 302
Pos[245] = 367
Pos[246] = 207
Pos[247] = 98
Pos[248] = 131
Pos[249] = 166
Pos[250] = 170
Pos[251] = 334
Pos[252] = 348
Pos[253] = 390
Pos[254] = 79
Pos[255] = 108
Pos[256] = 201
Pos[257] = 209
Pos[258] = 391
Pos[259] = 18
Pos[260] = 37
Pos[261] = 216
Pos[262] = 24
Pos[263] = 86
Pos[264] = 186
Pos[265] = 114
Pos[266] = 220
Pos[267] = 223
Pos[268] = 308
Pos[269] = 318
Pos[270] = 52
Pos[271] = 226
Pos[272] = 306
Pos[273] = 305
Pos[274] = 329
Pos[275] = 385
Pos[276] = 323
Pos[277] = 239
Pos[278] = 397
Pos[279] = 322
Pos[280] = 72
Pos[281] = 27
Pos[282] = 276
Pos[283] = 285
Pos[284] = 181
Pos[285] = 331
Pos[286] = 363
Pos[287] = 102
Pos[288] = 137
Pos[289] = 159
Pos[290] = 328
Pos[291] = 16
Pos[292] = 32
Pos[293] = 338
Pos[294] = 146
Pos[295] = 214
Pos[296] = 215
Pos[297] = 182
Pos[298] = 264
Pos[299] = 320
Pos[300] = 272
Pos[301] = 49
Pos[302] = 298
Pos[303] = 42
Pos[304] = 8
Pos[305] = 5
Pos[306] = 69
Pos[307] = 100
Pos[308] = 112
Pos[309] = 3
Pos[310] = 105
Pos[311] = 132
Pos[312] = 202
Pos[313] = 125
Pos[314] = 254
Pos[315] = 317
Pos[316] = 370
Pos[317] = 96
Pos[318] = 386
Pos[319] = 6
Pos[320] = 141
Pos[321] = 270
Pos[322] = 55
Pos[323] = 300
Pos[324] = 175
Pos[325] = 286
Pos[326] = 248
Pos[327] = 314
Pos[328] = 341
Pos[329] = 238
Pos[330] = 13
Pos[331] = 104
Pos[332] = 184
Pos[333] = 360
Pos[334] = 80
Pos[335] = 257
Pos[336] = 330
Pos[337] = 54
Pos[338] = 372
Pos[339] = 127
Pos[340] = 378
Pos[341] = 339
Pos[342] = 70
Pos[343] = 75
Pos[344] = 383
Pos[345] = 10
Pos[346] = 133
Pos[347] = 228
Pos[348] = 66
Pos[349] = 155
Pos[350] = 261
Pos[351] = 138
Pos[352] = 176
Pos[353] = 265
Pos[354] = 275
Pos[355] = 340
Pos[356] = 344
Pos[357] = 301
Pos[358] = 349
Pos[359] = 244
Pos[360] = 46
Pos[361] = 394
Pos[362] = 90
Pos[363] = 1
Pos[364] = 65
Pos[365] = 82
Pos[366] = 95
Pos[367] = 224
Pos[368] = 234
Pos[369] = 284
Pos[370] = 299
Pos[371] = 73
Pos[372] = 311
Pos[373] = 312
Pos[374] = 321
Pos[375] = 333
Pos[376] = 357
Pos[377] = 379
Pos[378] = 389
Pos[379] = 9
Pos[380] = 97
Pos[381] = 191
Pos[382] = 59
Pos[383] = 126
Pos[384] = 158
Pos[385] = 173
Pos[386] = 198
Pos[387] = 399
Pos[388] = 17
Pos[389] = 19
Pos[390] = 28
Pos[391] = 68
Pos[392] = 283
Pos[393] = 287
Pos[394] = 326
Pos[395] = 64
Pos[396] = 160
Pos[397] = 268
Pos[398] = 295
Pos[399] = 366
Enbr = 71820
start search
improving solution size 1
improving solution size 2
improving solution size 3
improving solution size 4
improving solution size 5
improving solution size 6
improving solution size 7
improving solution size 8
improving solution size 9
improving solution size 10
improving solution size 11
improving solution size 12
improving solution size 13
improving solution size 14
improving solution size 15
improving solution size 16
improving solution size 17
improving solution size 18
improving solution size 19
improving solution size 20
improving solution size 21
improving solution size 22
improving solution size 23
improving solution size 24
improving solution size 25
improving solution size 26
improving solution size 27
improving solution size 28
improving solution size 29
improving solution size 30
improving solution size 31
improving solution size 32
improving solution size 33
improving solution size 34
improving solution size 35
improving solution size 36
improving solution size 37
improving solution size 38
improving solution size 39
improving solution size 40
improving solution size 41
improving solution size 42
improving solution size 43
improving solution size 44
improving solution size 45
improving solution size 46
improving solution size 47
improving solution size 48
improving solution size 49
improving solution size 50
improving solution size 51
improving solution size 52
improving solution size 53
improving solution size 54
improving solution size 55
improving solution size 56
improving solution size 57
TIMEOUT
best clique: 367 296 269 161 65 284 69 29 20 18 400 199 174 159 127 98 390 334 313 235 66 91 395 302 266 156 229 11 384 71 55 105 203 133 265 216 339 103 398 240 221 298 19 194 396 92 117 314 347 207 256 321 378 122 394 197 54 
record          =          57
subp            =  2550216669
time            =  3600.00099
