timeout 3600 s
Graph with 1024 vertices and 434176 edges density 0.828935
t = 868352, Enbr = 434176
degree[1023] = 848, pos[1023] = 1023
degree[1022] = 848, pos[1022] = 1022
degree[1021] = 848, pos[1021] = 1021
degree[1020] = 848, pos[1020] = 1020
degree[1019] = 848, pos[1019] = 1019
degree[1018] = 848, pos[1018] = 1018
degree[1017] = 848, pos[1017] = 1017
degree[1016] = 848, pos[1016] = 1016
degree[1015] = 847, pos[1015] = 1015
degree[1014] = 847, pos[1014] = 1014
degree[1013] = 847, pos[1013] = 1013
degree[1012] = 847, pos[1012] = 1012
degree[1011] = 847, pos[1011] = 1011
degree[1010] = 847, pos[1010] = 1010
degree[1009] = 847, pos[1009] = 1009
degree[1008] = 847, pos[1008] = 1008
degree[1007] = 843, pos[1007] = 1007
degree[1006] = 843, pos[1006] = 1006
degree[1005] = 843, pos[1005] = 1005
degree[1004] = 843, pos[1004] = 1004
degree[1003] = 843, pos[1003] = 1003
degree[1002] = 843, pos[1002] = 1002
degree[1001] = 843, pos[1001] = 1001
degree[1000] = 843, pos[1000] = 1000
degree[999] = 842, pos[999] = 999
degree[998] = 842, pos[998] = 998
degree[997] = 842, pos[997] = 997
degree[996] = 842, pos[996] = 996
degree[995] = 842, pos[995] = 995
degree[994] = 842, pos[994] = 994
degree[993] = 842, pos[993] = 993
degree[992] = 842, pos[992] = 992
degree[991] = 832, pos[991] = 991
degree[990] = 832, pos[990] = 990
degree[989] = 832, pos[989] = 989
degree[988] = 832, pos[988] = 988
degree[987] = 832, pos[987] = 987
degree[986] = 832, pos[986] = 986
degree[985] = 832, pos[985] = 985
degree[984] = 832, pos[984] = 984
degree[983] = 831, pos[983] = 983
degree[982] = 831, pos[982] = 982
degree[981] = 831, pos[981] = 981
degree[980] = 831, pos[980] = 980
degree[979] = 831, pos[979] = 979
degree[978] = 831, pos[978] = 978
degree[977] = 831, pos[977] = 977
degree[976] = 831, pos[976] = 976
degree[975] = 827, pos[975] = 975
degree[974] = 827, pos[974] = 974
degree[973] = 827, pos[973] = 973
degree[972] = 827, pos[972] = 972
degree[971] = 827, pos[971] = 971
degree[970] = 827, pos[970] = 970
degree[969] = 827, pos[969] = 969
degree[968] = 827, pos[968] = 968
degree[967] = 826, pos[967] = 967
degree[966] = 826, pos[966] = 966
degree[965] = 826, pos[965] = 965
degree[964] = 826, pos[964] = 964
degree[963] = 826, pos[963] = 963
degree[962] = 826, pos[962] = 962
degree[961] = 826, pos[961] = 961
degree[960] = 826, pos[960] = 960
degree[959] = 806, pos[959] = 959
degree[958] = 806, pos[958] = 958
degree[957] = 806, pos[957] = 957
degree[956] = 806, pos[956] = 956
degree[955] = 806, pos[955] = 955
degree[954] = 806, pos[954] = 954
degree[953] = 806, pos[953] = 953
degree[952] = 806, pos[952] = 952
degree[951] = 805, pos[951] = 951
degree[950] = 805, pos[950] = 950
degree[949] = 805, pos[949] = 949
degree[948] = 805, pos[948] = 948
degree[947] = 805, pos[947] = 947
degree[946] = 805, pos[946] = 946
degree[945] = 805, pos[945] = 945
degree[944] = 805, pos[944] = 944
degree[943] = 801, pos[943] = 943
degree[942] = 801, pos[942] = 942
degree[941] = 801, pos[941] = 941
degree[940] = 801, pos[940] = 940
degree[939] = 801, pos[939] = 939
degree[938] = 801, pos[938] = 938
degree[937] = 801, pos[937] = 937
degree[936] = 801, pos[936] = 936
degree[935] = 800, pos[935] = 935
degree[934] = 800, pos[934] = 934
degree[933] = 800, pos[933] = 933
degree[932] = 800, pos[932] = 932
degree[931] = 800, pos[931] = 931
degree[930] = 800, pos[930] = 930
degree[929] = 800, pos[929] = 929
degree[928] = 800, pos[928] = 928
degree[927] = 790, pos[927] = 927
degree[926] = 790, pos[926] = 926
degree[925] = 790, pos[925] = 925
degree[924] = 790, pos[924] = 924
degree[923] = 790, pos[923] = 923
degree[922] = 790, pos[922] = 922
degree[921] = 790, pos[921] = 921
degree[920] = 790, pos[920] = 920
degree[919] = 789, pos[919] = 919
degree[918] = 789, pos[918] = 918
degree[917] = 789, pos[917] = 917
degree[916] = 789, pos[916] = 916
degree[915] = 789, pos[915] = 915
degree[914] = 789, pos[914] = 914
degree[913] = 789, pos[913] = 913
degree[912] = 789, pos[912] = 912
degree[911] = 785, pos[911] = 911
degree[910] = 785, pos[910] = 910
degree[909] = 785, pos[909] = 909
degree[908] = 785, pos[908] = 908
degree[907] = 785, pos[907] = 907
degree[906] = 785, pos[906] = 906
degree[905] = 785, pos[905] = 905
degree[904] = 785, pos[904] = 904
degree[903] = 784, pos[903] = 903
degree[902] = 784, pos[902] = 902
degree[901] = 784, pos[901] = 901
degree[900] = 784, pos[900] = 900
degree[899] = 784, pos[899] = 899
degree[898] = 784, pos[898] = 898
degree[897] = 784, pos[897] = 897
degree[896] = 784, pos[896] = 896
degree[895] = 749, pos[895] = 895
degree[894] = 749, pos[894] = 894
degree[893] = 749, pos[893] = 893
degree[892] = 749, pos[892] = 892
degree[891] = 749, pos[891] = 891
degree[890] = 749, pos[890] = 890
degree[889] = 749, pos[889] = 889
degree[888] = 749, pos[888] = 888
degree[887] = 748, pos[887] = 887
degree[886] = 748, pos[886] = 886
degree[885] = 748, pos[885] = 885
degree[884] = 748, pos[884] = 884
degree[883] = 748, pos[883] = 883
degree[882] = 748, pos[882] = 882
degree[881] = 748, pos[881] = 881
degree[880] = 748, pos[880] = 880
degree[879] = 744, pos[879] = 879
degree[878] = 744, pos[878] = 878
degree[877] = 744, pos[877] = 877
degree[876] = 744, pos[876] = 876
degree[875] = 744, pos[875] = 875
degree[874] = 744, pos[874] = 874
degree[873] = 744, pos[873] = 873
degree[872] = 744, pos[872] = 872
degree[871] = 743, pos[871] = 871
degree[870] = 743, pos[870] = 870
degree[869] = 743, pos[869] = 869
degree[868] = 743, pos[868] = 868
degree[867] = 743, pos[867] = 867
degree[866] = 743, pos[866] = 866
degree[865] = 743, pos[865] = 865
degree[864] = 743, pos[864] = 864
degree[863] = 733, pos[863] = 863
degree[862] = 733, pos[862] = 862
degree[861] = 733, pos[861] = 861
degree[860] = 733, pos[860] = 860
degree[859] = 733, pos[859] = 859
degree[858] = 733, pos[858] = 858
degree[857] = 733, pos[857] = 857
degree[856] = 733, pos[856] = 856
degree[855] = 732, pos[855] = 855
degree[854] = 732, pos[854] = 854
degree[853] = 732, pos[853] = 853
degree[852] = 732, pos[852] = 852
degree[851] = 732, pos[851] = 851
degree[850] = 732, pos[850] = 850
degree[849] = 732, pos[849] = 849
degree[848] = 732, pos[848] = 848
degree[847] = 728, pos[847] = 847
degree[846] = 728, pos[846] = 846
degree[845] = 728, pos[845] = 845
degree[844] = 728, pos[844] = 844
degree[843] = 728, pos[843] = 843
degree[842] = 728, pos[842] = 842
degree[841] = 728, pos[841] = 841
degree[840] = 728, pos[840] = 840
degree[839] = 727, pos[839] = 839
degree[838] = 727, pos[838] = 838
degree[837] = 727, pos[837] = 837
degree[836] = 727, pos[836] = 836
degree[835] = 727, pos[835] = 835
degree[834] = 727, pos[834] = 834
degree[833] = 727, pos[833] = 833
degree[832] = 727, pos[832] = 832
degree[831] = 707, pos[831] = 831
degree[830] = 707, pos[830] = 830
degree[829] = 707, pos[829] = 829
degree[828] = 707, pos[828] = 828
degree[827] = 707, pos[827] = 827
degree[826] = 707, pos[826] = 826
degree[825] = 707, pos[825] = 825
degree[824] = 707, pos[824] = 824
degree[823] = 706, pos[823] = 823
degree[822] = 706, pos[822] = 822
degree[821] = 706, pos[821] = 821
degree[820] = 706, pos[820] = 820
degree[819] = 706, pos[819] = 819
degree[818] = 706, pos[818] = 818
degree[817] = 706, pos[817] = 817
degree[816] = 706, pos[816] = 816
degree[815] = 702, pos[815] = 815
degree[814] = 702, pos[814] = 814
degree[813] = 702, pos[813] = 813
degree[812] = 702, pos[812] = 812
degree[811] = 702, pos[811] = 811
degree[810] = 702, pos[810] = 810
degree[809] = 702, pos[809] = 809
degree[808] = 702, pos[808] = 808
degree[807] = 701, pos[807] = 807
degree[806] = 701, pos[806] = 806
degree[805] = 701, pos[805] = 805
degree[804] = 701, pos[804] = 804
degree[803] = 701, pos[803] = 803
degree[802] = 701, pos[802] = 802
degree[801] = 701, pos[801] = 801
degree[800] = 701, pos[800] = 800
degree[799] = 691, pos[799] = 799
degree[798] = 691, pos[798] = 798
degree[797] = 691, pos[797] = 797
degree[796] = 691, pos[796] = 796
degree[795] = 691, pos[795] = 795
degree[794] = 691, pos[794] = 794
degree[793] = 691, pos[793] = 793
degree[792] = 691, pos[792] = 792
degree[791] = 690, pos[791] = 791
degree[790] = 690, pos[790] = 790
degree[789] = 690, pos[789] = 789
degree[788] = 690, pos[788] = 788
degree[787] = 690, pos[787] = 787
degree[786] = 690, pos[786] = 786
degree[785] = 690, pos[785] = 785
degree[784] = 690, pos[784] = 784
degree[783] = 686, pos[783] = 783
degree[782] = 686, pos[782] = 782
degree[781] = 686, pos[781] = 781
degree[780] = 686, pos[780] = 780
degree[779] = 686, pos[779] = 779
degree[778] = 686, pos[778] = 778
degree[777] = 686, pos[777] = 777
degree[776] = 686, pos[776] = 776
degree[775] = 685, pos[775] = 775
degree[774] = 685, pos[774] = 774
degree[773] = 685, pos[773] = 773
degree[772] = 685, pos[772] = 772
degree[771] = 685, pos[771] = 771
degree[770] = 685, pos[770] = 770
degree[769] = 685, pos[769] = 769
degree[768] = 685, pos[768] = 768
degree[767] = 629, pos[767] = 767
degree[766] = 629, pos[766] = 766
degree[765] = 629, pos[765] = 765
degree[764] = 629, pos[764] = 764
degree[763] = 629, pos[763] = 763
degree[762] = 629, pos[762] = 762
degree[761] = 629, pos[761] = 761
degree[760] = 629, pos[760] = 760
degree[759] = 628, pos[759] = 759
degree[758] = 628, pos[758] = 758
degree[757] = 628, pos[757] = 757
degree[756] = 628, pos[756] = 756
degree[755] = 628, pos[755] = 755
degree[754] = 628, pos[754] = 754
degree[753] = 628, pos[753] = 753
degree[752] = 628, pos[752] = 752
degree[751] = 624, pos[751] = 751
degree[750] = 624, pos[750] = 750
degree[749] = 624, pos[749] = 749
degree[748] = 624, pos[748] = 748
degree[747] = 624, pos[747] = 747
degree[746] = 624, pos[746] = 746
degree[745] = 624, pos[745] = 745
degree[744] = 624, pos[744] = 744
degree[743] = 623, pos[743] = 743
degree[742] = 623, pos[742] = 742
degree[741] = 623, pos[741] = 741
degree[740] = 623, pos[740] = 740
degree[739] = 623, pos[739] = 739
degree[738] = 623, pos[738] = 738
degree[737] = 623, pos[737] = 737
degree[736] = 623, pos[736] = 736
degree[735] = 613, pos[735] = 735
degree[734] = 613, pos[734] = 734
degree[733] = 613, pos[733] = 733
degree[732] = 613, pos[732] = 732
degree[731] = 613, pos[731] = 731
degree[730] = 613, pos[730] = 730
degree[729] = 613, pos[729] = 729
degree[728] = 613, pos[728] = 728
degree[727] = 612, pos[727] = 727
degree[726] = 612, pos[726] = 726
degree[725] = 612, pos[725] = 725
degree[724] = 612, pos[724] = 724
degree[723] = 612, pos[723] = 723
degree[722] = 612, pos[722] = 722
degree[721] = 612, pos[721] = 721
degree[720] = 612, pos[720] = 720
degree[719] = 608, pos[719] = 719
degree[718] = 608, pos[718] = 718
degree[717] = 608, pos[717] = 717
degree[716] = 608, pos[716] = 716
degree[715] = 608, pos[715] = 715
degree[714] = 608, pos[714] = 714
degree[713] = 608, pos[713] = 713
degree[712] = 608, pos[712] = 712
degree[711] = 607, pos[711] = 711
degree[710] = 607, pos[710] = 710
degree[709] = 607, pos[709] = 709
degree[708] = 607, pos[708] = 708
degree[707] = 607, pos[707] = 707
degree[706] = 607, pos[706] = 706
degree[705] = 607, pos[705] = 705
degree[704] = 607, pos[704] = 704
degree[703] = 587, pos[703] = 703
degree[702] = 587, pos[702] = 702
degree[701] = 587, pos[701] = 701
degree[700] = 587, pos[700] = 700
degree[699] = 587, pos[699] = 699
degree[698] = 587, pos[698] = 698
degree[697] = 587, pos[697] = 697
degree[696] = 587, pos[696] = 696
degree[695] = 586, pos[695] = 695
degree[694] = 586, pos[694] = 694
degree[693] = 586, pos[693] = 693
degree[692] = 586, pos[692] = 692
degree[691] = 586, pos[691] = 691
degree[690] = 586, pos[690] = 690
degree[689] = 586, pos[689] = 689
degree[688] = 586, pos[688] = 688
degree[687] = 582, pos[687] = 687
degree[686] = 582, pos[686] = 686
degree[685] = 582, pos[685] = 685
degree[684] = 582, pos[684] = 684
degree[683] = 582, pos[683] = 683
degree[682] = 582, pos[682] = 682
degree[681] = 582, pos[681] = 681
degree[680] = 582, pos[680] = 680
degree[679] = 581, pos[679] = 679
degree[678] = 581, pos[678] = 678
degree[677] = 581, pos[677] = 677
degree[676] = 581, pos[676] = 676
degree[675] = 581, pos[675] = 675
degree[674] = 581, pos[674] = 674
degree[673] = 581, pos[673] = 673
degree[672] = 581, pos[672] = 672
degree[671] = 571, pos[671] = 671
degree[670] = 571, pos[670] = 670
degree[669] = 571, pos[669] = 669
degree[668] = 571, pos[668] = 668
degree[667] = 571, pos[667] = 667
degree[666] = 571, pos[666] = 666
degree[665] = 571, pos[665] = 665
degree[664] = 571, pos[664] = 664
degree[663] = 570, pos[663] = 663
degree[662] = 570, pos[662] = 662
degree[661] = 570, pos[661] = 661
degree[660] = 570, pos[660] = 660
degree[659] = 570, pos[659] = 659
degree[658] = 570, pos[658] = 658
degree[657] = 570, pos[657] = 657
degree[656] = 570, pos[656] = 656
degree[655] = 566, pos[655] = 655
degree[654] = 566, pos[654] = 654
degree[653] = 566, pos[653] = 653
degree[652] = 566, pos[652] = 652
degree[651] = 566, pos[651] = 651
degree[650] = 566, pos[650] = 650
degree[649] = 566, pos[649] = 649
degree[648] = 566, pos[648] = 648
degree[647] = 565, pos[647] = 647
degree[646] = 565, pos[646] = 646
degree[645] = 565, pos[645] = 645
degree[644] = 565, pos[644] = 644
degree[643] = 565, pos[643] = 643
degree[642] = 565, pos[642] = 642
degree[641] = 565, pos[641] = 641
degree[640] = 565, pos[640] = 640
degree[639] = 530, pos[639] = 639
degree[638] = 530, pos[638] = 638
degree[637] = 530, pos[637] = 637
degree[636] = 530, pos[636] = 636
degree[635] = 530, pos[635] = 635
degree[634] = 530, pos[634] = 634
degree[633] = 530, pos[633] = 633
degree[632] = 530, pos[632] = 632
degree[631] = 529, pos[631] = 631
degree[630] = 529, pos[630] = 630
degree[629] = 529, pos[629] = 629
degree[628] = 529, pos[628] = 628
degree[627] = 529, pos[627] = 627
degree[626] = 529, pos[626] = 626
degree[625] = 529, pos[625] = 625
degree[624] = 529, pos[624] = 624
degree[623] = 525, pos[623] = 623
degree[622] = 525, pos[622] = 622
degree[621] = 525, pos[621] = 621
degree[620] = 525, pos[620] = 620
degree[619] = 525, pos[619] = 619
degree[618] = 525, pos[618] = 618
degree[617] = 525, pos[617] = 617
degree[616] = 525, pos[616] = 616
degree[615] = 524, pos[615] = 615
degree[614] = 524, pos[614] = 614
degree[613] = 524, pos[613] = 613
degree[612] = 524, pos[612] = 612
degree[611] = 524, pos[611] = 611
degree[610] = 524, pos[610] = 610
degree[609] = 524, pos[609] = 609
degree[608] = 524, pos[608] = 608
degree[607] = 514, pos[607] = 607
degree[606] = 514, pos[606] = 606
degree[605] = 514, pos[605] = 605
degree[604] = 514, pos[604] = 604
degree[603] = 514, pos[603] = 603
degree[602] = 514, pos[602] = 602
degree[601] = 514, pos[601] = 601
degree[600] = 514, pos[600] = 600
degree[599] = 513, pos[599] = 599
degree[598] = 513, pos[598] = 598
degree[597] = 513, pos[597] = 597
degree[596] = 513, pos[596] = 596
degree[595] = 513, pos[595] = 595
degree[594] = 513, pos[594] = 594
degree[593] = 513, pos[593] = 593
degree[592] = 513, pos[592] = 592
degree[591] = 509, pos[591] = 591
degree[590] = 509, pos[590] = 590
degree[589] = 509, pos[589] = 589
degree[588] = 509, pos[588] = 588
degree[587] = 509, pos[587] = 587
degree[586] = 509, pos[586] = 586
degree[585] = 509, pos[585] = 585
degree[584] = 509, pos[584] = 584
degree[583] = 508, pos[583] = 583
degree[582] = 508, pos[582] = 582
degree[581] = 508, pos[581] = 581
degree[580] = 508, pos[580] = 580
degree[579] = 508, pos[579] = 579
degree[578] = 508, pos[578] = 578
degree[577] = 508, pos[577] = 577
degree[576] = 508, pos[576] = 576
degree[575] = 488, pos[575] = 575
degree[574] = 488, pos[574] = 574
degree[573] = 488, pos[573] = 573
degree[572] = 488, pos[572] = 572
degree[571] = 488, pos[571] = 571
degree[570] = 488, pos[570] = 570
degree[569] = 488, pos[569] = 569
degree[568] = 488, pos[568] = 568
degree[567] = 487, pos[567] = 567
degree[566] = 487, pos[566] = 566
degree[565] = 487, pos[565] = 565
degree[564] = 487, pos[564] = 564
degree[563] = 487, pos[563] = 563
degree[562] = 487, pos[562] = 562
degree[561] = 487, pos[561] = 561
degree[560] = 487, pos[560] = 560
degree[559] = 483, pos[559] = 559
degree[558] = 483, pos[558] = 558
degree[557] = 483, pos[557] = 557
degree[556] = 483, pos[556] = 556
degree[555] = 483, pos[555] = 555
degree[554] = 483, pos[554] = 554
degree[553] = 483, pos[553] = 553
degree[552] = 483, pos[552] = 552
degree[551] = 482, pos[551] = 551
degree[550] = 482, pos[550] = 550
degree[549] = 482, pos[549] = 549
degree[548] = 482, pos[548] = 548
degree[547] = 482, pos[547] = 547
degree[546] = 482, pos[546] = 546
degree[545] = 482, pos[545] = 545
degree[544] = 482, pos[544] = 544
degree[543] = 472, pos[543] = 543
degree[542] = 472, pos[542] = 542
degree[541] = 472, pos[541] = 541
degree[540] = 472, pos[540] = 540
degree[539] = 472, pos[539] = 539
degree[538] = 472, pos[538] = 538
degree[537] = 472, pos[537] = 537
degree[536] = 472, pos[536] = 536
degree[535] = 471, pos[535] = 535
degree[534] = 471, pos[534] = 534
degree[533] = 471, pos[533] = 533
degree[532] = 471, pos[532] = 532
degree[531] = 471, pos[531] = 531
degree[530] = 471, pos[530] = 530
degree[529] = 471, pos[529] = 529
degree[528] = 471, pos[528] = 528
degree[527] = 467, pos[527] = 527
degree[526] = 467, pos[526] = 526
degree[525] = 467, pos[525] = 525
degree[524] = 467, pos[524] = 524
degree[523] = 467, pos[523] = 523
degree[522] = 467, pos[522] = 522
degree[521] = 467, pos[521] = 521
degree[520] = 467, pos[520] = 520
degree[519] = 466, pos[519] = 519
degree[518] = 466, pos[518] = 518
degree[517] = 466, pos[517] = 517
degree[516] = 466, pos[516] = 516
degree[515] = 466, pos[515] = 515
degree[514] = 466, pos[514] = 514
degree[513] = 466, pos[513] = 513
degree[512] = 466, pos[512] = 512
degree[511] = 382, pos[511] = 511
degree[510] = 382, pos[510] = 510
degree[509] = 382, pos[509] = 509
degree[508] = 382, pos[508] = 508
degree[507] = 382, pos[507] = 507
degree[506] = 382, pos[506] = 506
degree[505] = 382, pos[505] = 505
degree[504] = 382, pos[504] = 504
degree[503] = 381, pos[503] = 503
degree[502] = 381, pos[502] = 502
degree[501] = 381, pos[501] = 501
degree[500] = 381, pos[500] = 500
degree[499] = 381, pos[499] = 499
degree[498] = 381, pos[498] = 498
degree[497] = 381, pos[497] = 497
degree[496] = 381, pos[496] = 496
degree[495] = 377, pos[495] = 495
degree[494] = 377, pos[494] = 494
degree[493] = 377, pos[493] = 493
degree[492] = 377, pos[492] = 492
degree[491] = 377, pos[491] = 491
degree[490] = 377, pos[490] = 490
degree[489] = 377, pos[489] = 489
degree[488] = 377, pos[488] = 488
degree[487] = 376, pos[487] = 487
degree[486] = 376, pos[486] = 486
degree[485] = 376, pos[485] = 485
degree[484] = 376, pos[484] = 484
degree[483] = 376, pos[483] = 483
degree[482] = 376, pos[482] = 482
degree[481] = 376, pos[481] = 481
degree[480] = 376, pos[480] = 480
degree[479] = 366, pos[479] = 479
degree[478] = 366, pos[478] = 478
degree[477] = 366, pos[477] = 477
degree[476] = 366, pos[476] = 476
degree[475] = 366, pos[475] = 475
degree[474] = 366, pos[474] = 474
degree[473] = 366, pos[473] = 473
degree[472] = 366, pos[472] = 472
degree[471] = 365, pos[471] = 471
degree[470] = 365, pos[470] = 470
degree[469] = 365, pos[469] = 469
degree[468] = 365, pos[468] = 468
degree[467] = 365, pos[467] = 467
degree[466] = 365, pos[466] = 466
degree[465] = 365, pos[465] = 465
degree[464] = 365, pos[464] = 464
degree[463] = 361, pos[463] = 463
degree[462] = 361, pos[462] = 462
degree[461] = 361, pos[461] = 461
degree[460] = 361, pos[460] = 460
degree[459] = 361, pos[459] = 459
degree[458] = 361, pos[458] = 458
degree[457] = 361, pos[457] = 457
degree[456] = 361, pos[456] = 456
degree[455] = 360, pos[455] = 455
degree[454] = 360, pos[454] = 454
degree[453] = 360, pos[453] = 453
degree[452] = 360, pos[452] = 452
degree[451] = 360, pos[451] = 451
degree[450] = 360, pos[450] = 450
degree[449] = 360, pos[449] = 449
degree[448] = 360, pos[448] = 448
degree[447] = 340, pos[447] = 447
degree[446] = 340, pos[446] = 446
degree[445] = 340, pos[445] = 445
degree[444] = 340, pos[444] = 444
degree[443] = 340, pos[443] = 443
degree[442] = 340, pos[442] = 442
degree[441] = 340, pos[441] = 441
degree[440] = 340, pos[440] = 440
degree[439] = 339, pos[439] = 439
degree[438] = 339, pos[438] = 438
degree[437] = 339, pos[437] = 437
degree[436] = 339, pos[436] = 436
degree[435] = 339, pos[435] = 435
degree[434] = 339, pos[434] = 434
degree[433] = 339, pos[433] = 433
degree[432] = 339, pos[432] = 432
degree[431] = 335, pos[431] = 431
degree[430] = 335, pos[430] = 430
degree[429] = 335, pos[429] = 429
degree[428] = 335, pos[428] = 428
degree[427] = 335, pos[427] = 427
degree[426] = 335, pos[426] = 426
degree[425] = 335, pos[425] = 425
degree[424] = 335, pos[424] = 424
degree[423] = 334, pos[423] = 423
degree[422] = 334, pos[422] = 422
degree[421] = 334, pos[421] = 421
degree[420] = 334, pos[420] = 420
degree[419] = 334, pos[419] = 419
degree[418] = 334, pos[418] = 418
degree[417] = 334, pos[417] = 417
degree[416] = 334, pos[416] = 416
degree[415] = 324, pos[415] = 415
degree[414] = 324, pos[414] = 414
degree[413] = 324, pos[413] = 413
degree[412] = 324, pos[412] = 412
degree[411] = 324, pos[411] = 411
degree[410] = 324, pos[410] = 410
degree[409] = 324, pos[409] = 409
degree[408] = 324, pos[408] = 408
degree[407] = 323, pos[407] = 407
degree[406] = 323, pos[406] = 406
degree[405] = 323, pos[405] = 405
degree[404] = 323, pos[404] = 404
degree[403] = 323, pos[403] = 403
degree[402] = 323, pos[402] = 402
degree[401] = 323, pos[401] = 401
degree[400] = 323, pos[400] = 400
degree[399] = 319, pos[399] = 399
degree[398] = 319, pos[398] = 398
degree[397] = 319, pos[397] = 397
degree[396] = 319, pos[396] = 396
degree[395] = 319, pos[395] = 395
degree[394] = 319, pos[394] = 394
degree[393] = 319, pos[393] = 393
degree[392] = 319, pos[392] = 392
degree[391] = 318, pos[391] = 391
degree[390] = 318, pos[390] = 390
degree[389] = 318, pos[389] = 389
degree[388] = 318, pos[388] = 388
degree[387] = 318, pos[387] = 387
degree[386] = 318, pos[386] = 386
degree[385] = 318, pos[385] = 385
degree[384] = 318, pos[384] = 384
degree[383] = 283, pos[383] = 383
degree[382] = 283, pos[382] = 382
degree[381] = 283, pos[381] = 381
degree[380] = 283, pos[380] = 380
degree[379] = 283, pos[379] = 379
degree[378] = 283, pos[378] = 378
degree[377] = 283, pos[377] = 377
degree[376] = 283, pos[376] = 376
degree[375] = 282, pos[375] = 375
degree[374] = 282, pos[374] = 374
degree[373] = 282, pos[373] = 373
degree[372] = 282, pos[372] = 372
degree[371] = 282, pos[371] = 371
degree[370] = 282, pos[370] = 370
degree[369] = 282, pos[369] = 369
degree[368] = 282, pos[368] = 368
degree[367] = 278, pos[367] = 367
degree[366] = 278, pos[366] = 366
degree[365] = 278, pos[365] = 365
degree[364] = 278, pos[364] = 364
degree[363] = 278, pos[363] = 363
degree[362] = 278, pos[362] = 362
degree[361] = 278, pos[361] = 361
degree[360] = 278, pos[360] = 360
degree[359] = 277, pos[359] = 359
degree[358] = 277, pos[358] = 358
degree[357] = 277, pos[357] = 357
degree[356] = 277, pos[356] = 356
degree[355] = 277, pos[355] = 355
degree[354] = 277, pos[354] = 354
degree[353] = 277, pos[353] = 353
degree[352] = 277, pos[352] = 352
degree[351] = 267, pos[351] = 351
degree[350] = 267, pos[350] = 350
degree[349] = 267, pos[349] = 349
degree[348] = 267, pos[348] = 348
degree[347] = 267, pos[347] = 347
degree[346] = 267, pos[346] = 346
degree[345] = 267, pos[345] = 345
degree[344] = 267, pos[344] = 344
degree[343] = 266, pos[343] = 343
degree[342] = 266, pos[342] = 342
degree[341] = 266, pos[341] = 341
degree[340] = 266, pos[340] = 340
degree[339] = 266, pos[339] = 339
degree[338] = 266, pos[338] = 338
degree[337] = 266, pos[337] = 337
degree[336] = 266, pos[336] = 336
degree[335] = 262, pos[335] = 335
degree[334] = 262, pos[334] = 334
degree[333] = 262, pos[333] = 333
degree[332] = 262, pos[332] = 332
degree[331] = 262, pos[331] = 331
degree[330] = 262, pos[330] = 330
degree[329] = 262, pos[329] = 329
degree[328] = 262, pos[328] = 328
degree[327] = 261, pos[327] = 327
degree[326] = 261, pos[326] = 326
degree[325] = 261, pos[325] = 325
degree[324] = 261, pos[324] = 324
degree[323] = 261, pos[323] = 323
degree[322] = 261, pos[322] = 322
degree[321] = 261, pos[321] = 321
degree[320] = 261, pos[320] = 320
degree[319] = 241, pos[319] = 319
degree[318] = 241, pos[318] = 318
degree[317] = 241, pos[317] = 317
degree[316] = 241, pos[316] = 316
degree[315] = 241, pos[315] = 315
degree[314] = 241, pos[314] = 314
degree[313] = 241, pos[313] = 313
degree[312] = 241, pos[312] = 312
degree[311] = 240, pos[311] = 311
degree[310] = 240, pos[310] = 310
degree[309] = 240, pos[309] = 309
degree[308] = 240, pos[308] = 308
degree[307] = 240, pos[307] = 307
degree[306] = 240, pos[306] = 306
degree[305] = 240, pos[305] = 305
degree[304] = 240, pos[304] = 304
degree[303] = 236, pos[303] = 303
degree[302] = 236, pos[302] = 302
degree[301] = 236, pos[301] = 301
degree[300] = 236, pos[300] = 300
degree[299] = 236, pos[299] = 299
degree[298] = 236, pos[298] = 298
degree[297] = 236, pos[297] = 297
degree[296] = 236, pos[296] = 296
degree[295] = 235, pos[295] = 295
degree[294] = 235, pos[294] = 294
degree[293] = 235, pos[293] = 293
degree[292] = 235, pos[292] = 292
degree[291] = 235, pos[291] = 291
degree[290] = 235, pos[290] = 290
degree[289] = 235, pos[289] = 289
degree[288] = 235, pos[288] = 288
degree[287] = 225, pos[287] = 287
degree[286] = 225, pos[286] = 286
degree[285] = 225, pos[285] = 285
degree[284] = 225, pos[284] = 284
degree[283] = 225, pos[283] = 283
degree[282] = 225, pos[282] = 282
degree[281] = 225, pos[281] = 281
degree[280] = 225, pos[280] = 280
degree[279] = 224, pos[279] = 279
degree[278] = 224, pos[278] = 278
degree[277] = 224, pos[277] = 277
degree[276] = 224, pos[276] = 276
degree[275] = 224, pos[275] = 275
degree[274] = 224, pos[274] = 274
degree[273] = 224, pos[273] = 273
degree[272] = 224, pos[272] = 272
degree[271] = 220, pos[271] = 271
degree[270] = 220, pos[270] = 270
degree[269] = 220, pos[269] = 269
degree[268] = 220, pos[268] = 268
degree[267] = 220, pos[267] = 267
degree[266] = 220, pos[266] = 266
degree[265] = 220, pos[265] = 265
degree[264] = 220, pos[264] = 264
degree[263] = 219, pos[263] = 263
degree[262] = 219, pos[262] = 262
degree[261] = 219, pos[261] = 261
degree[260] = 219, pos[260] = 260
degree[259] = 219, pos[259] = 259
degree[258] = 219, pos[258] = 258
degree[257] = 219, pos[257] = 257
degree[256] = 219, pos[256] = 256
degree[255] = 163, pos[255] = 255
degree[254] = 163, pos[254] = 254
degree[253] = 163, pos[253] = 253
degree[252] = 163, pos[252] = 252
degree[251] = 163, pos[251] = 251
degree[250] = 163, pos[250] = 250
degree[249] = 163, pos[249] = 249
degree[248] = 163, pos[248] = 248
degree[247] = 162, pos[247] = 247
degree[246] = 162, pos[246] = 246
degree[245] = 162, pos[245] = 245
degree[244] = 162, pos[244] = 244
degree[243] = 162, pos[243] = 243
degree[242] = 162, pos[242] = 242
degree[241] = 162, pos[241] = 241
degree[240] = 162, pos[240] = 240
degree[239] = 158, pos[239] = 239
degree[238] = 158, pos[238] = 238
degree[237] = 158, pos[237] = 237
degree[236] = 158, pos[236] = 236
degree[235] = 158, pos[235] = 235
degree[234] = 158, pos[234] = 234
degree[233] = 158, pos[233] = 233
degree[232] = 158, pos[232] = 232
degree[231] = 157, pos[231] = 231
degree[230] = 157, pos[230] = 230
degree[229] = 157, pos[229] = 229
degree[228] = 157, pos[228] = 228
degree[227] = 157, pos[227] = 227
degree[226] = 157, pos[226] = 226
degree[225] = 157, pos[225] = 225
degree[224] = 157, pos[224] = 224
degree[223] = 147, pos[223] = 223
degree[222] = 147, pos[222] = 222
degree[221] = 147, pos[221] = 221
degree[220] = 147, pos[220] = 220
degree[219] = 147, pos[219] = 219
degree[218] = 147, pos[218] = 218
degree[217] = 147, pos[217] = 217
degree[216] = 147, pos[216] = 216
degree[215] = 146, pos[215] = 215
degree[214] = 146, pos[214] = 214
degree[213] = 146, pos[213] = 213
degree[212] = 146, pos[212] = 212
degree[211] = 146, pos[211] = 211
degree[210] = 146, pos[210] = 210
degree[209] = 146, pos[209] = 209
degree[208] = 146, pos[208] = 208
degree[207] = 142, pos[207] = 207
degree[206] = 142, pos[206] = 206
degree[205] = 142, pos[205] = 205
degree[204] = 142, pos[204] = 204
degree[203] = 142, pos[203] = 203
degree[202] = 142, pos[202] = 202
degree[201] = 142, pos[201] = 201
degree[200] = 142, pos[200] = 200
degree[199] = 141, pos[199] = 199
degree[198] = 141, pos[198] = 198
degree[197] = 141, pos[197] = 197
degree[196] = 141, pos[196] = 196
degree[195] = 141, pos[195] = 195
degree[194] = 141, pos[194] = 194
degree[193] = 141, pos[193] = 193
degree[192] = 141, pos[192] = 192
degree[191] = 121, pos[191] = 191
degree[190] = 121, pos[190] = 190
degree[189] = 121, pos[189] = 189
degree[188] = 121, pos[188] = 188
degree[187] = 121, pos[187] = 187
degree[186] = 121, pos[186] = 186
degree[185] = 121, pos[185] = 185
degree[184] = 121, pos[184] = 184
degree[183] = 120, pos[183] = 183
degree[182] = 120, pos[182] = 182
degree[181] = 120, pos[181] = 181
degree[180] = 120, pos[180] = 180
degree[179] = 120, pos[179] = 179
degree[178] = 120, pos[178] = 178
degree[177] = 120, pos[177] = 177
degree[176] = 120, pos[176] = 176
degree[175] = 116, pos[175] = 175
degree[174] = 116, pos[174] = 174
degree[173] = 116, pos[173] = 173
degree[172] = 116, pos[172] = 172
degree[171] = 116, pos[171] = 171
degree[170] = 116, pos[170] = 170
degree[169] = 116, pos[169] = 169
degree[168] = 116, pos[168] = 168
degree[167] = 115, pos[167] = 167
degree[166] = 115, pos[166] = 166
degree[165] = 115, pos[165] = 165
degree[164] = 115, pos[164] = 164
degree[163] = 115, pos[163] = 163
degree[162] = 115, pos[162] = 162
degree[161] = 115, pos[161] = 161
degree[160] = 115, pos[160] = 160
degree[159] = 105, pos[159] = 159
degree[158] = 105, pos[158] = 158
degree[157] = 105, pos[157] = 157
degree[156] = 105, pos[156] = 156
degree[155] = 105, pos[155] = 155
degree[154] = 105, pos[154] = 154
degree[153] = 105, pos[153] = 153
degree[152] = 105, pos[152] = 152
degree[151] = 104, pos[151] = 151
degree[150] = 104, pos[150] = 150
degree[149] = 104, pos[149] = 149
degree[148] = 104, pos[148] = 148
degree[147] = 104, pos[147] = 147
degree[146] = 104, pos[146] = 146
degree[145] = 104, pos[145] = 145
degree[144] = 104, pos[144] = 144
degree[143] = 100, pos[143] = 143
degree[142] = 100, pos[142] = 142
degree[141] = 100, pos[141] = 141
degree[140] = 100, pos[140] = 140
degree[139] = 100, pos[139] = 139
degree[138] = 100, pos[138] = 138
degree[137] = 100, pos[137] = 137
degree[136] = 100, pos[136] = 136
degree[135] = 99, pos[135] = 135
degree[134] = 99, pos[134] = 134
degree[133] = 99, pos[133] = 133
degree[132] = 99, pos[132] = 132
degree[131] = 99, pos[131] = 131
degree[130] = 99, pos[130] = 130
degree[129] = 99, pos[129] = 129
degree[128] = 99, pos[128] = 128
degree[127] = 64, pos[127] = 127
degree[126] = 64, pos[126] = 126
degree[125] = 64, pos[125] = 125
degree[124] = 64, pos[124] = 124
degree[123] = 64, pos[123] = 123
degree[122] = 64, pos[122] = 122
degree[121] = 64, pos[121] = 121
degree[120] = 64, pos[120] = 120
degree[119] = 63, pos[119] = 119
degree[118] = 63, pos[118] = 118
degree[117] = 63, pos[117] = 117
degree[116] = 63, pos[116] = 116
degree[115] = 63, pos[115] = 115
degree[114] = 63, pos[114] = 114
degree[113] = 63, pos[113] = 113
degree[112] = 63, pos[112] = 112
degree[111] = 59, pos[111] = 111
degree[110] = 59, pos[110] = 110
degree[109] = 59, pos[109] = 109
degree[108] = 59, pos[108] = 108
degree[107] = 59, pos[107] = 107
degree[106] = 59, pos[106] = 106
degree[105] = 59, pos[105] = 105
degree[104] = 59, pos[104] = 104
degree[103] = 58, pos[103] = 103
degree[102] = 58, pos[102] = 102
degree[101] = 58, pos[101] = 101
degree[100] = 58, pos[100] = 100
degree[99] = 58, pos[99] = 99
degree[98] = 58, pos[98] = 98
degree[97] = 58, pos[97] = 97
degree[96] = 58, pos[96] = 96
degree[95] = 48, pos[95] = 95
degree[94] = 48, pos[94] = 94
degree[93] = 48, pos[93] = 93
degree[92] = 48, pos[92] = 92
degree[91] = 48, pos[91] = 91
degree[90] = 48, pos[90] = 90
degree[89] = 48, pos[89] = 89
degree[88] = 48, pos[88] = 88
degree[87] = 47, pos[87] = 87
degree[86] = 47, pos[86] = 86
degree[85] = 47, pos[85] = 85
degree[84] = 47, pos[84] = 84
degree[83] = 47, pos[83] = 83
degree[82] = 47, pos[82] = 82
degree[81] = 47, pos[81] = 81
degree[80] = 47, pos[80] = 80
degree[79] = 43, pos[79] = 79
degree[78] = 43, pos[78] = 78
degree[77] = 43, pos[77] = 77
degree[76] = 43, pos[76] = 76
degree[75] = 43, pos[75] = 75
degree[74] = 43, pos[74] = 74
degree[73] = 43, pos[73] = 73
degree[72] = 43, pos[72] = 72
degree[71] = 42, pos[71] = 71
degree[70] = 42, pos[70] = 70
degree[69] = 42, pos[69] = 69
degree[68] = 42, pos[68] = 68
degree[67] = 42, pos[67] = 67
degree[66] = 42, pos[66] = 66
degree[65] = 42, pos[65] = 65
degree[64] = 42, pos[64] = 64
degree[63] = 22, pos[63] = 63
degree[62] = 22, pos[62] = 62
degree[61] = 22, pos[61] = 61
degree[60] = 22, pos[60] = 60
degree[59] = 22, pos[59] = 59
degree[58] = 22, pos[58] = 58
degree[57] = 22, pos[57] = 57
degree[56] = 22, pos[56] = 56
degree[55] = 21, pos[55] = 55
degree[54] = 21, pos[54] = 54
degree[53] = 21, pos[53] = 53
degree[52] = 21, pos[52] = 52
degree[51] = 21, pos[51] = 51
degree[50] = 21, pos[50] = 50
degree[49] = 21, pos[49] = 49
degree[48] = 21, pos[48] = 48
degree[47] = 17, pos[47] = 47
degree[46] = 17, pos[46] = 46
degree[45] = 17, pos[45] = 45
degree[44] = 17, pos[44] = 44
degree[43] = 17, pos[43] = 43
degree[42] = 17, pos[42] = 42
degree[41] = 17, pos[41] = 41
degree[40] = 17, pos[40] = 40
degree[39] = 16, pos[39] = 39
degree[38] = 16, pos[38] = 38
degree[37] = 16, pos[37] = 37
degree[36] = 16, pos[36] = 36
degree[35] = 16, pos[35] = 35
degree[34] = 16, pos[34] = 34
degree[33] = 16, pos[33] = 33
degree[32] = 16, pos[32] = 32
degree[31] = 6, pos[31] = 31
degree[30] = 6, pos[30] = 30
degree[29] = 6, pos[29] = 29
degree[28] = 6, pos[28] = 28
degree[27] = 6, pos[27] = 27
degree[26] = 6, pos[26] = 26
degree[25] = 6, pos[25] = 25
degree[24] = 6, pos[24] = 24
degree[23] = 5, pos[23] = 23
degree[22] = 5, pos[22] = 22
degree[21] = 5, pos[21] = 21
degree[20] = 5, pos[20] = 20
degree[19] = 5, pos[19] = 19
degree[18] = 5, pos[18] = 18
degree[17] = 5, pos[17] = 17
degree[16] = 5, pos[16] = 16
degree[15] = 1, pos[15] = 15
degree[14] = 1, pos[14] = 14
degree[13] = 1, pos[13] = 13
degree[12] = 1, pos[12] = 12
degree[11] = 1, pos[11] = 11
degree[10] = 1, pos[10] = 10
degree[9] = 1, pos[9] = 9
degree[8] = 1, pos[8] = 8
degree[7] = 0, pos[7] = 7
degree[6] = 0, pos[6] = 6
degree[5] = 0, pos[5] = 5
degree[4] = 0, pos[4] = 4
degree[3] = 0, pos[3] = 3
degree[2] = 0, pos[2] = 2
degree[1] = 0, pos[1] = 1
degree[0] = 0, pos[0] = 0
Pos[0] = 0
Pos[1] = 1
Pos[2] = 2
Pos[3] = 3
Pos[4] = 4
Pos[5] = 5
Pos[6] = 6
Pos[7] = 7
Pos[8] = 8
Pos[9] = 9
Pos[10] = 10
Pos[11] = 11
Pos[12] = 12
Pos[13] = 13
Pos[14] = 14
Pos[15] = 15
Pos[16] = 16
Pos[17] = 17
Pos[18] = 18
Pos[19] = 19
Pos[20] = 20
Pos[21] = 21
Pos[22] = 22
Pos[23] = 23
Pos[24] = 24
Pos[25] = 25
Pos[26] = 26
Pos[27] = 27
Pos[28] = 28
Pos[29] = 29
Pos[30] = 30
Pos[31] = 31
Pos[32] = 32
Pos[33] = 33
Pos[34] = 34
Pos[35] = 35
Pos[36] = 36
Pos[37] = 37
Pos[38] = 38
Pos[39] = 39
Pos[40] = 40
Pos[41] = 41
Pos[42] = 42
Pos[43] = 43
Pos[44] = 44
Pos[45] = 45
Pos[46] = 46
Pos[47] = 47
Pos[48] = 48
Pos[49] = 49
Pos[50] = 50
Pos[51] = 51
Pos[52] = 52
Pos[53] = 53
Pos[54] = 54
Pos[55] = 55
Pos[56] = 56
Pos[57] = 57
Pos[58] = 58
Pos[59] = 59
Pos[60] = 60
Pos[61] = 61
Pos[62] = 62
Pos[63] = 63
Pos[64] = 64
Pos[65] = 65
Pos[66] = 66
Pos[67] = 67
Pos[68] = 68
Pos[69] = 69
Pos[70] = 70
Pos[71] = 71
Pos[72] = 72
Pos[73] = 73
Pos[74] = 74
Pos[75] = 75
Pos[76] = 76
Pos[77] = 77
Pos[78] = 78
Pos[79] = 79
Pos[80] = 80
Pos[81] = 81
Pos[82] = 82
Pos[83] = 83
Pos[84] = 84
Pos[85] = 85
Pos[86] = 86
Pos[87] = 87
Pos[88] = 88
Pos[89] = 89
Pos[90] = 90
Pos[91] = 91
Pos[92] = 92
Pos[93] = 93
Pos[94] = 94
Pos[95] = 95
Pos[96] = 96
Pos[97] = 97
Pos[98] = 98
Pos[99] = 99
Pos[100] = 100
Pos[101] = 101
Pos[102] = 102
Pos[103] = 103
Pos[104] = 104
Pos[105] = 105
Pos[106] = 106
Pos[107] = 107
Pos[108] = 108
Pos[109] = 109
Pos[110] = 110
Pos[111] = 111
Pos[112] = 112
Pos[113] = 113
Pos[114] = 114
Pos[115] = 115
Pos[116] = 116
Pos[117] = 117
Pos[118] = 118
Pos[119] = 119
Pos[120] = 120
Pos[121] = 121
Pos[122] = 122
Pos[123] = 123
Pos[124] = 124
Pos[125] = 125
Pos[126] = 126
Pos[127] = 127
Pos[128] = 128
Pos[129] = 129
Pos[130] = 130
Pos[131] = 131
Pos[132] = 132
Pos[133] = 133
Pos[134] = 134
Pos[135] = 135
Pos[136] = 136
Pos[137] = 137
Pos[138] = 138
Pos[139] = 139
Pos[140] = 140
Pos[141] = 141
Pos[142] = 142
Pos[143] = 143
Pos[144] = 144
Pos[145] = 145
Pos[146] = 146
Pos[147] = 147
Pos[148] = 148
Pos[149] = 149
Pos[150] = 150
Pos[151] = 151
Pos[152] = 152
Pos[153] = 153
Pos[154] = 154
Pos[155] = 155
Pos[156] = 156
Pos[157] = 157
Pos[158] = 158
Pos[159] = 159
Pos[160] = 160
Pos[161] = 161
Pos[162] = 162
Pos[163] = 163
Pos[164] = 164
Pos[165] = 165
Pos[166] = 166
Pos[167] = 167
Pos[168] = 168
Pos[169] = 169
Pos[170] = 170
Pos[171] = 171
Pos[172] = 172
Pos[173] = 173
Pos[174] = 174
Pos[175] = 175
Pos[176] = 176
Pos[177] = 177
Pos[178] = 178
Pos[179] = 179
Pos[180] = 180
Pos[181] = 181
Pos[182] = 182
Pos[183] = 183
Pos[184] = 184
Pos[185] = 185
Pos[186] = 186
Pos[187] = 187
Pos[188] = 188
Pos[189] = 189
Pos[190] = 190
Pos[191] = 191
Pos[192] = 192
Pos[193] = 193
Pos[194] = 194
Pos[195] = 195
Pos[196] = 196
Pos[197] = 197
Pos[198] = 198
Pos[199] = 199
Pos[200] = 200
Pos[201] = 201
Pos[202] = 202
Pos[203] = 203
Pos[204] = 204
Pos[205] = 205
Pos[206] = 206
Pos[207] = 207
Pos[208] = 208
Pos[209] = 209
Pos[210] = 210
Pos[211] = 211
Pos[212] = 212
Pos[213] = 213
Pos[214] = 214
Pos[215] = 215
Pos[216] = 216
Pos[217] = 217
Pos[218] = 218
Pos[219] = 219
Pos[220] = 220
Pos[221] = 221
Pos[222] = 222
Pos[223] = 223
Pos[224] = 224
Pos[225] = 225
Pos[226] = 226
Pos[227] = 227
Pos[228] = 228
Pos[229] = 229
Pos[230] = 230
Pos[231] = 231
Pos[232] = 232
Pos[233] = 233
Pos[234] = 234
Pos[235] = 235
Pos[236] = 236
Pos[237] = 237
Pos[238] = 238
Pos[239] = 239
Pos[240] = 240
Pos[241] = 241
Pos[242] = 242
Pos[243] = 243
Pos[244] = 244
Pos[245] = 245
Pos[246] = 246
Pos[247] = 247
Pos[248] = 248
Pos[249] = 249
Pos[250] = 250
Pos[251] = 251
Pos[252] = 252
Pos[253] = 253
Pos[254] = 254
Pos[255] = 255
Pos[256] = 256
Pos[257] = 257
Pos[258] = 258
Pos[259] = 259
Pos[260] = 260
Pos[261] = 261
Pos[262] = 262
Pos[263] = 263
Pos[264] = 264
Pos[265] = 265
Pos[266] = 266
Pos[267] = 267
Pos[268] = 268
Pos[269] = 269
Pos[270] = 270
Pos[271] = 271
Pos[272] = 272
Pos[273] = 273
Pos[274] = 274
Pos[275] = 275
Pos[276] = 276
Pos[277] = 277
Pos[278] = 278
Pos[279] = 279
Pos[280] = 280
Pos[281] = 281
Pos[282] = 282
Pos[283] = 283
Pos[284] = 284
Pos[285] = 285
Pos[286] = 286
Pos[287] = 287
Pos[288] = 288
Pos[289] = 289
Pos[290] = 290
Pos[291] = 291
Pos[292] = 292
Pos[293] = 293
Pos[294] = 294
Pos[295] = 295
Pos[296] = 296
Pos[297] = 297
Pos[298] = 298
Pos[299] = 299
Pos[300] = 300
Pos[301] = 301
Pos[302] = 302
Pos[303] = 303
Pos[304] = 304
Pos[305] = 305
Pos[306] = 306
Pos[307] = 307
Pos[308] = 308
Pos[309] = 309
Pos[310] = 310
Pos[311] = 311
Pos[312] = 312
Pos[313] = 313
Pos[314] = 314
Pos[315] = 315
Pos[316] = 316
Pos[317] = 317
Pos[318] = 318
Pos[319] = 319
Pos[320] = 320
Pos[321] = 321
Pos[322] = 322
Pos[323] = 323
Pos[324] = 324
Pos[325] = 325
Pos[326] = 326
Pos[327] = 327
Pos[328] = 328
Pos[329] = 329
Pos[330] = 330
Pos[331] = 331
Pos[332] = 332
Pos[333] = 333
Pos[334] = 334
Pos[335] = 335
Pos[336] = 336
Pos[337] = 337
Pos[338] = 338
Pos[339] = 339
Pos[340] = 340
Pos[341] = 341
Pos[342] = 342
Pos[343] = 343
Pos[344] = 344
Pos[345] = 345
Pos[346] = 346
Pos[347] = 347
Pos[348] = 348
Pos[349] = 349
Pos[350] = 350
Pos[351] = 351
Pos[352] = 352
Pos[353] = 353
Pos[354] = 354
Pos[355] = 355
Pos[356] = 356
Pos[357] = 357
Pos[358] = 358
Pos[359] = 359
Pos[360] = 360
Pos[361] = 361
Pos[362] = 362
Pos[363] = 363
Pos[364] = 364
Pos[365] = 365
Pos[366] = 366
Pos[367] = 367
Pos[368] = 368
Pos[369] = 369
Pos[370] = 370
Pos[371] = 371
Pos[372] = 372
Pos[373] = 373
Pos[374] = 374
Pos[375] = 375
Pos[376] = 376
Pos[377] = 377
Pos[378] = 378
Pos[379] = 379
Pos[380] = 380
Pos[381] = 381
Pos[382] = 382
Pos[383] = 383
Pos[384] = 384
Pos[385] = 385
Pos[386] = 386
Pos[387] = 387
Pos[388] = 388
Pos[389] = 389
Pos[390] = 390
Pos[391] = 391
Pos[392] = 392
Pos[393] = 393
Pos[394] = 394
Pos[395] = 395
Pos[396] = 396
Pos[397] = 397
Pos[398] = 398
Pos[399] = 399
Pos[400] = 400
Pos[401] = 401
Pos[402] = 402
Pos[403] = 403
Pos[404] = 404
Pos[405] = 405
Pos[406] = 406
Pos[407] = 407
Pos[408] = 408
Pos[409] = 409
Pos[410] = 410
Pos[411] = 411
Pos[412] = 412
Pos[413] = 413
Pos[414] = 414
Pos[415] = 415
Pos[416] = 416
Pos[417] = 417
Pos[418] = 418
Pos[419] = 419
Pos[420] = 420
Pos[421] = 421
Pos[422] = 422
Pos[423] = 423
Pos[424] = 424
Pos[425] = 425
Pos[426] = 426
Pos[427] = 427
Pos[428] = 428
Pos[429] = 429
Pos[430] = 430
Pos[431] = 431
Pos[432] = 432
Pos[433] = 433
Pos[434] = 434
Pos[435] = 435
Pos[436] = 436
Pos[437] = 437
Pos[438] = 438
Pos[439] = 439
Pos[440] = 440
Pos[441] = 441
Pos[442] = 442
Pos[443] = 443
Pos[444] = 444
Pos[445] = 445
Pos[446] = 446
Pos[447] = 447
Pos[448] = 448
Pos[449] = 449
Pos[450] = 450
Pos[451] = 451
Pos[452] = 452
Pos[453] = 453
Pos[454] = 454
Pos[455] = 455
Pos[456] = 456
Pos[457] = 457
Pos[458] = 458
Pos[459] = 459
Pos[460] = 460
Pos[461] = 461
Pos[462] = 462
Pos[463] = 463
Pos[464] = 464
Pos[465] = 465
Pos[466] = 466
Pos[467] = 467
Pos[468] = 468
Pos[469] = 469
Pos[470] = 470
Pos[471] = 471
Pos[472] = 472
Pos[473] = 473
Pos[474] = 474
Pos[475] = 475
Pos[476] = 476
Pos[477] = 477
Pos[478] = 478
Pos[479] = 479
Pos[480] = 480
Pos[481] = 481
Pos[482] = 482
Pos[483] = 483
Pos[484] = 484
Pos[485] = 485
Pos[486] = 486
Pos[487] = 487
Pos[488] = 488
Pos[489] = 489
Pos[490] = 490
Pos[491] = 491
Pos[492] = 492
Pos[493] = 493
Pos[494] = 494
Pos[495] = 495
Pos[496] = 496
Pos[497] = 497
Pos[498] = 498
Pos[499] = 499
Pos[500] = 500
Pos[501] = 501
Pos[502] = 502
Pos[503] = 503
Pos[504] = 504
Pos[505] = 505
Pos[506] = 506
Pos[507] = 507
Pos[508] = 508
Pos[509] = 509
Pos[510] = 510
Pos[511] = 511
Pos[512] = 512
Pos[513] = 513
Pos[514] = 514
Pos[515] = 515
Pos[516] = 516
Pos[517] = 517
Pos[518] = 518
Pos[519] = 519
Pos[520] = 520
Pos[521] = 521
Pos[522] = 522
Pos[523] = 523
Pos[524] = 524
Pos[525] = 525
Pos[526] = 526
Pos[527] = 527
Pos[528] = 528
Pos[529] = 529
Pos[530] = 530
Pos[531] = 531
Pos[532] = 532
Pos[533] = 533
Pos[534] = 534
Pos[535] = 535
Pos[536] = 536
Pos[537] = 537
Pos[538] = 538
Pos[539] = 539
Pos[540] = 540
Pos[541] = 541
Pos[542] = 542
Pos[543] = 543
Pos[544] = 544
Pos[545] = 545
Pos[546] = 546
Pos[547] = 547
Pos[548] = 548
Pos[549] = 549
Pos[550] = 550
Pos[551] = 551
Pos[552] = 552
Pos[553] = 553
Pos[554] = 554
Pos[555] = 555
Pos[556] = 556
Pos[557] = 557
Pos[558] = 558
Pos[559] = 559
Pos[560] = 560
Pos[561] = 561
Pos[562] = 562
Pos[563] = 563
Pos[564] = 564
Pos[565] = 565
Pos[566] = 566
Pos[567] = 567
Pos[568] = 568
Pos[569] = 569
Pos[570] = 570
Pos[571] = 571
Pos[572] = 572
Pos[573] = 573
Pos[574] = 574
Pos[575] = 575
Pos[576] = 576
Pos[577] = 577
Pos[578] = 578
Pos[579] = 579
Pos[580] = 580
Pos[581] = 581
Pos[582] = 582
Pos[583] = 583
Pos[584] = 584
Pos[585] = 585
Pos[586] = 586
Pos[587] = 587
Pos[588] = 588
Pos[589] = 589
Pos[590] = 590
Pos[591] = 591
Pos[592] = 592
Pos[593] = 593
Pos[594] = 594
Pos[595] = 595
Pos[596] = 596
Pos[597] = 597
Pos[598] = 598
Pos[599] = 599
Pos[600] = 600
Pos[601] = 601
Pos[602] = 602
Pos[603] = 603
Pos[604] = 604
Pos[605] = 605
Pos[606] = 606
Pos[607] = 607
Pos[608] = 608
Pos[609] = 609
Pos[610] = 610
Pos[611] = 611
Pos[612] = 612
Pos[613] = 613
Pos[614] = 614
Pos[615] = 615
Pos[616] = 616
Pos[617] = 617
Pos[618] = 618
Pos[619] = 619
Pos[620] = 620
Pos[621] = 621
Pos[622] = 622
Pos[623] = 623
Pos[624] = 624
Pos[625] = 625
Pos[626] = 626
Pos[627] = 627
Pos[628] = 628
Pos[629] = 629
Pos[630] = 630
Pos[631] = 631
Pos[632] = 632
Pos[633] = 633
Pos[634] = 634
Pos[635] = 635
Pos[636] = 636
Pos[637] = 637
Pos[638] = 638
Pos[639] = 639
Pos[640] = 640
Pos[641] = 641
Pos[642] = 642
Pos[643] = 643
Pos[644] = 644
Pos[645] = 645
Pos[646] = 646
Pos[647] = 647
Pos[648] = 648
Pos[649] = 649
Pos[650] = 650
Pos[651] = 651
Pos[652] = 652
Pos[653] = 653
Pos[654] = 654
Pos[655] = 655
Pos[656] = 656
Pos[657] = 657
Pos[658] = 658
Pos[659] = 659
Pos[660] = 660
Pos[661] = 661
Pos[662] = 662
Pos[663] = 663
Pos[664] = 664
Pos[665] = 665
Pos[666] = 666
Pos[667] = 667
Pos[668] = 668
Pos[669] = 669
Pos[670] = 670
Pos[671] = 671
Pos[672] = 672
Pos[673] = 673
Pos[674] = 674
Pos[675] = 675
Pos[676] = 676
Pos[677] = 677
Pos[678] = 678
Pos[679] = 679
Pos[680] = 680
Pos[681] = 681
Pos[682] = 682
Pos[683] = 683
Pos[684] = 684
Pos[685] = 685
Pos[686] = 686
Pos[687] = 687
Pos[688] = 688
Pos[689] = 689
Pos[690] = 690
Pos[691] = 691
Pos[692] = 692
Pos[693] = 693
Pos[694] = 694
Pos[695] = 695
Pos[696] = 696
Pos[697] = 697
Pos[698] = 698
Pos[699] = 699
Pos[700] = 700
Pos[701] = 701
Pos[702] = 702
Pos[703] = 703
Pos[704] = 704
Pos[705] = 705
Pos[706] = 706
Pos[707] = 707
Pos[708] = 708
Pos[709] = 709
Pos[710] = 710
Pos[711] = 711
Pos[712] = 712
Pos[713] = 713
Pos[714] = 714
Pos[715] = 715
Pos[716] = 716
Pos[717] = 717
Pos[718] = 718
Pos[719] = 719
Pos[720] = 720
Pos[721] = 721
Pos[722] = 722
Pos[723] = 723
Pos[724] = 724
Pos[725] = 725
Pos[726] = 726
Pos[727] = 727
Pos[728] = 728
Pos[729] = 729
Pos[730] = 730
Pos[731] = 731
Pos[732] = 732
Pos[733] = 733
Pos[734] = 734
Pos[735] = 735
Pos[736] = 736
Pos[737] = 737
Pos[738] = 738
Pos[739] = 739
Pos[740] = 740
Pos[741] = 741
Pos[742] = 742
Pos[743] = 743
Pos[744] = 744
Pos[745] = 745
Pos[746] = 746
Pos[747] = 747
Pos[748] = 748
Pos[749] = 749
Pos[750] = 750
Pos[751] = 751
Pos[752] = 752
Pos[753] = 753
Pos[754] = 754
Pos[755] = 755
Pos[756] = 756
Pos[757] = 757
Pos[758] = 758
Pos[759] = 759
Pos[760] = 760
Pos[761] = 761
Pos[762] = 762
Pos[763] = 763
Pos[764] = 764
Pos[765] = 765
Pos[766] = 766
Pos[767] = 767
Pos[768] = 768
Pos[769] = 769
Pos[770] = 770
Pos[771] = 771
Pos[772] = 772
Pos[773] = 773
Pos[774] = 774
Pos[775] = 775
Pos[776] = 776
Pos[777] = 777
Pos[778] = 778
Pos[779] = 779
Pos[780] = 780
Pos[781] = 781
Pos[782] = 782
Pos[783] = 783
Pos[784] = 784
Pos[785] = 785
Pos[786] = 786
Pos[787] = 787
Pos[788] = 788
Pos[789] = 789
Pos[790] = 790
Pos[791] = 791
Pos[792] = 792
Pos[793] = 793
Pos[794] = 794
Pos[795] = 795
Pos[796] = 796
Pos[797] = 797
Pos[798] = 798
Pos[799] = 799
Pos[800] = 800
Pos[801] = 801
Pos[802] = 802
Pos[803] = 803
Pos[804] = 804
Pos[805] = 805
Pos[806] = 806
Pos[807] = 807
Pos[808] = 808
Pos[809] = 809
Pos[810] = 810
Pos[811] = 811
Pos[812] = 812
Pos[813] = 813
Pos[814] = 814
Pos[815] = 815
Pos[816] = 816
Pos[817] = 817
Pos[818] = 818
Pos[819] = 819
Pos[820] = 820
Pos[821] = 821
Pos[822] = 822
Pos[823] = 823
Pos[824] = 824
Pos[825] = 825
Pos[826] = 826
Pos[827] = 827
Pos[828] = 828
Pos[829] = 829
Pos[830] = 830
Pos[831] = 831
Pos[832] = 832
Pos[833] = 833
Pos[834] = 834
Pos[835] = 835
Pos[836] = 836
Pos[837] = 837
Pos[838] = 838
Pos[839] = 839
Pos[840] = 840
Pos[841] = 841
Pos[842] = 842
Pos[843] = 843
Pos[844] = 844
Pos[845] = 845
Pos[846] = 846
Pos[847] = 847
Pos[848] = 848
Pos[849] = 849
Pos[850] = 850
Pos[851] = 851
Pos[852] = 852
Pos[853] = 853
Pos[854] = 854
Pos[855] = 855
Pos[856] = 856
Pos[857] = 857
Pos[858] = 858
Pos[859] = 859
Pos[860] = 860
Pos[861] = 861
Pos[862] = 862
Pos[863] = 863
Pos[864] = 864
Pos[865] = 865
Pos[866] = 866
Pos[867] = 867
Pos[868] = 868
Pos[869] = 869
Pos[870] = 870
Pos[871] = 871
Pos[872] = 872
Pos[873] = 873
Pos[874] = 874
Pos[875] = 875
Pos[876] = 876
Pos[877] = 877
Pos[878] = 878
Pos[879] = 879
Pos[880] = 880
Pos[881] = 881
Pos[882] = 882
Pos[883] = 883
Pos[884] = 884
Pos[885] = 885
Pos[886] = 886
Pos[887] = 887
Pos[888] = 888
Pos[889] = 889
Pos[890] = 890
Pos[891] = 891
Pos[892] = 892
Pos[893] = 893
Pos[894] = 894
Pos[895] = 895
Pos[896] = 896
Pos[897] = 897
Pos[898] = 898
Pos[899] = 899
Pos[900] = 900
Pos[901] = 901
Pos[902] = 902
Pos[903] = 903
Pos[904] = 904
Pos[905] = 905
Pos[906] = 906
Pos[907] = 907
Pos[908] = 908
Pos[909] = 909
Pos[910] = 910
Pos[911] = 911
Pos[912] = 912
Pos[913] = 913
Pos[914] = 914
Pos[915] = 915
Pos[916] = 916
Pos[917] = 917
Pos[918] = 918
Pos[919] = 919
Pos[920] = 920
Pos[921] = 921
Pos[922] = 922
Pos[923] = 923
Pos[924] = 924
Pos[925] = 925
Pos[926] = 926
Pos[927] = 927
Pos[928] = 928
Pos[929] = 929
Pos[930] = 930
Pos[931] = 931
Pos[932] = 932
Pos[933] = 933
Pos[934] = 934
Pos[935] = 935
Pos[936] = 936
Pos[937] = 937
Pos[938] = 938
Pos[939] = 939
Pos[940] = 940
Pos[941] = 941
Pos[942] = 942
Pos[943] = 943
Pos[944] = 944
Pos[945] = 945
Pos[946] = 946
Pos[947] = 947
Pos[948] = 948
Pos[949] = 949
Pos[950] = 950
Pos[951] = 951
Pos[952] = 952
Pos[953] = 953
Pos[954] = 954
Pos[955] = 955
Pos[956] = 956
Pos[957] = 957
Pos[958] = 958
Pos[959] = 959
Pos[960] = 960
Pos[961] = 961
Pos[962] = 962
Pos[963] = 963
Pos[964] = 964
Pos[965] = 965
Pos[966] = 966
Pos[967] = 967
Pos[968] = 968
Pos[969] = 969
Pos[970] = 970
Pos[971] = 971
Pos[972] = 972
Pos[973] = 973
Pos[974] = 974
Pos[975] = 975
Pos[976] = 976
Pos[977] = 977
Pos[978] = 978
Pos[979] = 979
Pos[980] = 980
Pos[981] = 981
Pos[982] = 982
Pos[983] = 983
Pos[984] = 984
Pos[985] = 985
Pos[986] = 986
Pos[987] = 987
Pos[988] = 988
Pos[989] = 989
Pos[990] = 990
Pos[991] = 991
Pos[992] = 992
Pos[993] = 993
Pos[994] = 994
Pos[995] = 995
Pos[996] = 996
Pos[997] = 997
Pos[998] = 998
Pos[999] = 999
Pos[1000] = 1000
Pos[1001] = 1001
Pos[1002] = 1002
Pos[1003] = 1003
Pos[1004] = 1004
Pos[1005] = 1005
Pos[1006] = 1006
Pos[1007] = 1007
Pos[1008] = 1008
Pos[1009] = 1009
Pos[1010] = 1010
Pos[1011] = 1011
Pos[1012] = 1012
Pos[1013] = 1013
Pos[1014] = 1014
Pos[1015] = 1015
Pos[1016] = 1016
Pos[1017] = 1017
Pos[1018] = 1018
Pos[1019] = 1019
Pos[1020] = 1020
Pos[1021] = 1021
Pos[1022] = 1022
Pos[1023] = 1023
Enbr = 434176
start search
improving solution size 1
improving solution size 2
improving solution size 3
improving solution size 4
improving solution size 5
improving solution size 6
improving solution size 7
improving solution size 8
improving solution size 9
improving solution size 10
improving solution size 11
improving solution size 12
improving solution size 13
improving solution size 14
improving solution size 15
improving solution size 16
improving solution size 17
improving solution size 18
improving solution size 19
improving solution size 20
improving solution size 21
improving solution size 22
improving solution size 23
improving solution size 24
improving solution size 25
improving solution size 26
improving solution size 27
improving solution size 28
improving solution size 29
improving solution size 30
improving solution size 31
improving solution size 32
TIMEOUT
best clique: 1024 1023 994 993 922 921 904 903 854 853 844 843 820 819 814 813 724 723 718 717 694 693 684 683 634 633 616 615 544 543 514 513 
record          =          32
subp            =  4967647685
time            =  3600.00002
