timeout 3600 s
Graph with 496 vertices and 107880 edges density 0.878788
t = 215760, Enbr = 107880
degree[495] = 435, pos[495] = 495
degree[494] = 435, pos[494] = 494
degree[493] = 435, pos[493] = 493
degree[492] = 435, pos[492] = 492
degree[491] = 435, pos[491] = 491
degree[490] = 435, pos[490] = 490
degree[489] = 435, pos[489] = 489
degree[488] = 435, pos[488] = 488
degree[487] = 435, pos[487] = 487
degree[486] = 435, pos[486] = 486
degree[485] = 435, pos[485] = 485
degree[484] = 435, pos[484] = 484
degree[483] = 435, pos[483] = 483
degree[482] = 435, pos[482] = 482
degree[481] = 435, pos[481] = 481
degree[480] = 435, pos[480] = 480
degree[479] = 435, pos[479] = 479
degree[478] = 435, pos[478] = 478
degree[477] = 435, pos[477] = 477
degree[476] = 435, pos[476] = 476
degree[475] = 435, pos[475] = 475
degree[474] = 435, pos[474] = 474
degree[473] = 435, pos[473] = 473
degree[472] = 435, pos[472] = 472
degree[471] = 435, pos[471] = 471
degree[470] = 435, pos[470] = 470
degree[469] = 435, pos[469] = 469
degree[468] = 435, pos[468] = 468
degree[467] = 435, pos[467] = 467
degree[466] = 435, pos[466] = 466
degree[465] = 435, pos[465] = 465
degree[464] = 406, pos[464] = 464
degree[463] = 406, pos[463] = 463
degree[462] = 406, pos[462] = 462
degree[461] = 406, pos[461] = 461
degree[460] = 406, pos[460] = 460
degree[459] = 406, pos[459] = 459
degree[458] = 406, pos[458] = 458
degree[457] = 406, pos[457] = 457
degree[456] = 406, pos[456] = 456
degree[455] = 406, pos[455] = 455
degree[454] = 406, pos[454] = 454
degree[453] = 406, pos[453] = 453
degree[452] = 406, pos[452] = 452
degree[451] = 406, pos[451] = 451
degree[450] = 406, pos[450] = 450
degree[449] = 406, pos[449] = 449
degree[448] = 406, pos[448] = 448
degree[447] = 406, pos[447] = 447
degree[446] = 406, pos[446] = 446
degree[445] = 406, pos[445] = 445
degree[444] = 406, pos[444] = 444
degree[443] = 406, pos[443] = 443
degree[442] = 406, pos[442] = 442
degree[441] = 406, pos[441] = 441
degree[440] = 406, pos[440] = 440
degree[439] = 406, pos[439] = 439
degree[438] = 406, pos[438] = 438
degree[437] = 406, pos[437] = 437
degree[436] = 406, pos[436] = 436
degree[435] = 406, pos[435] = 435
degree[434] = 378, pos[434] = 434
degree[433] = 378, pos[433] = 433
degree[432] = 378, pos[432] = 432
degree[431] = 378, pos[431] = 431
degree[430] = 378, pos[430] = 430
degree[429] = 378, pos[429] = 429
degree[428] = 378, pos[428] = 428
degree[427] = 378, pos[427] = 427
degree[426] = 378, pos[426] = 426
degree[425] = 378, pos[425] = 425
degree[424] = 378, pos[424] = 424
degree[423] = 378, pos[423] = 423
degree[422] = 378, pos[422] = 422
degree[421] = 378, pos[421] = 421
degree[420] = 378, pos[420] = 420
degree[419] = 378, pos[419] = 419
degree[418] = 378, pos[418] = 418
degree[417] = 378, pos[417] = 417
degree[416] = 378, pos[416] = 416
degree[415] = 378, pos[415] = 415
degree[414] = 378, pos[414] = 414
degree[413] = 378, pos[413] = 413
degree[412] = 378, pos[412] = 412
degree[411] = 378, pos[411] = 411
degree[410] = 378, pos[410] = 410
degree[409] = 378, pos[409] = 409
degree[408] = 378, pos[408] = 408
degree[407] = 378, pos[407] = 407
degree[406] = 378, pos[406] = 406
degree[405] = 351, pos[405] = 405
degree[404] = 351, pos[404] = 404
degree[403] = 351, pos[403] = 403
degree[402] = 351, pos[402] = 402
degree[401] = 351, pos[401] = 401
degree[400] = 351, pos[400] = 400
degree[399] = 351, pos[399] = 399
degree[398] = 351, pos[398] = 398
degree[397] = 351, pos[397] = 397
degree[396] = 351, pos[396] = 396
degree[395] = 351, pos[395] = 395
degree[394] = 351, pos[394] = 394
degree[393] = 351, pos[393] = 393
degree[392] = 351, pos[392] = 392
degree[391] = 351, pos[391] = 391
degree[390] = 351, pos[390] = 390
degree[389] = 351, pos[389] = 389
degree[388] = 351, pos[388] = 388
degree[387] = 351, pos[387] = 387
degree[386] = 351, pos[386] = 386
degree[385] = 351, pos[385] = 385
degree[384] = 351, pos[384] = 384
degree[383] = 351, pos[383] = 383
degree[382] = 351, pos[382] = 382
degree[381] = 351, pos[381] = 381
degree[380] = 351, pos[380] = 380
degree[379] = 351, pos[379] = 379
degree[378] = 351, pos[378] = 378
degree[377] = 325, pos[377] = 377
degree[376] = 325, pos[376] = 376
degree[375] = 325, pos[375] = 375
degree[374] = 325, pos[374] = 374
degree[373] = 325, pos[373] = 373
degree[372] = 325, pos[372] = 372
degree[371] = 325, pos[371] = 371
degree[370] = 325, pos[370] = 370
degree[369] = 325, pos[369] = 369
degree[368] = 325, pos[368] = 368
degree[367] = 325, pos[367] = 367
degree[366] = 325, pos[366] = 366
degree[365] = 325, pos[365] = 365
degree[364] = 325, pos[364] = 364
degree[363] = 325, pos[363] = 363
degree[362] = 325, pos[362] = 362
degree[361] = 325, pos[361] = 361
degree[360] = 325, pos[360] = 360
degree[359] = 325, pos[359] = 359
degree[358] = 325, pos[358] = 358
degree[357] = 325, pos[357] = 357
degree[356] = 325, pos[356] = 356
degree[355] = 325, pos[355] = 355
degree[354] = 325, pos[354] = 354
degree[353] = 325, pos[353] = 353
degree[352] = 325, pos[352] = 352
degree[351] = 325, pos[351] = 351
degree[350] = 300, pos[350] = 350
degree[349] = 300, pos[349] = 349
degree[348] = 300, pos[348] = 348
degree[347] = 300, pos[347] = 347
degree[346] = 300, pos[346] = 346
degree[345] = 300, pos[345] = 345
degree[344] = 300, pos[344] = 344
degree[343] = 300, pos[343] = 343
degree[342] = 300, pos[342] = 342
degree[341] = 300, pos[341] = 341
degree[340] = 300, pos[340] = 340
degree[339] = 300, pos[339] = 339
degree[338] = 300, pos[338] = 338
degree[337] = 300, pos[337] = 337
degree[336] = 300, pos[336] = 336
degree[335] = 300, pos[335] = 335
degree[334] = 300, pos[334] = 334
degree[333] = 300, pos[333] = 333
degree[332] = 300, pos[332] = 332
degree[331] = 300, pos[331] = 331
degree[330] = 300, pos[330] = 330
degree[329] = 300, pos[329] = 329
degree[328] = 300, pos[328] = 328
degree[327] = 300, pos[327] = 327
degree[326] = 300, pos[326] = 326
degree[325] = 300, pos[325] = 325
degree[324] = 276, pos[324] = 324
degree[323] = 276, pos[323] = 323
degree[322] = 276, pos[322] = 322
degree[321] = 276, pos[321] = 321
degree[320] = 276, pos[320] = 320
degree[319] = 276, pos[319] = 319
degree[318] = 276, pos[318] = 318
degree[317] = 276, pos[317] = 317
degree[316] = 276, pos[316] = 316
degree[315] = 276, pos[315] = 315
degree[314] = 276, pos[314] = 314
degree[313] = 276, pos[313] = 313
degree[312] = 276, pos[312] = 312
degree[311] = 276, pos[311] = 311
degree[310] = 276, pos[310] = 310
degree[309] = 276, pos[309] = 309
degree[308] = 276, pos[308] = 308
degree[307] = 276, pos[307] = 307
degree[306] = 276, pos[306] = 306
degree[305] = 276, pos[305] = 305
degree[304] = 276, pos[304] = 304
degree[303] = 276, pos[303] = 303
degree[302] = 276, pos[302] = 302
degree[301] = 276, pos[301] = 301
degree[300] = 276, pos[300] = 300
degree[299] = 253, pos[299] = 299
degree[298] = 253, pos[298] = 298
degree[297] = 253, pos[297] = 297
degree[296] = 253, pos[296] = 296
degree[295] = 253, pos[295] = 295
degree[294] = 253, pos[294] = 294
degree[293] = 253, pos[293] = 293
degree[292] = 253, pos[292] = 292
degree[291] = 253, pos[291] = 291
degree[290] = 253, pos[290] = 290
degree[289] = 253, pos[289] = 289
degree[288] = 253, pos[288] = 288
degree[287] = 253, pos[287] = 287
degree[286] = 253, pos[286] = 286
degree[285] = 253, pos[285] = 285
degree[284] = 253, pos[284] = 284
degree[283] = 253, pos[283] = 283
degree[282] = 253, pos[282] = 282
degree[281] = 253, pos[281] = 281
degree[280] = 253, pos[280] = 280
degree[279] = 253, pos[279] = 279
degree[278] = 253, pos[278] = 278
degree[277] = 253, pos[277] = 277
degree[276] = 253, pos[276] = 276
degree[275] = 231, pos[275] = 275
degree[274] = 231, pos[274] = 274
degree[273] = 231, pos[273] = 273
degree[272] = 231, pos[272] = 272
degree[271] = 231, pos[271] = 271
degree[270] = 231, pos[270] = 270
degree[269] = 231, pos[269] = 269
degree[268] = 231, pos[268] = 268
degree[267] = 231, pos[267] = 267
degree[266] = 231, pos[266] = 266
degree[265] = 231, pos[265] = 265
degree[264] = 231, pos[264] = 264
degree[263] = 231, pos[263] = 263
degree[262] = 231, pos[262] = 262
degree[261] = 231, pos[261] = 261
degree[260] = 231, pos[260] = 260
degree[259] = 231, pos[259] = 259
degree[258] = 231, pos[258] = 258
degree[257] = 231, pos[257] = 257
degree[256] = 231, pos[256] = 256
degree[255] = 231, pos[255] = 255
degree[254] = 231, pos[254] = 254
degree[253] = 231, pos[253] = 253
degree[252] = 210, pos[252] = 252
degree[251] = 210, pos[251] = 251
degree[250] = 210, pos[250] = 250
degree[249] = 210, pos[249] = 249
degree[248] = 210, pos[248] = 248
degree[247] = 210, pos[247] = 247
degree[246] = 210, pos[246] = 246
degree[245] = 210, pos[245] = 245
degree[244] = 210, pos[244] = 244
degree[243] = 210, pos[243] = 243
degree[242] = 210, pos[242] = 242
degree[241] = 210, pos[241] = 241
degree[240] = 210, pos[240] = 240
degree[239] = 210, pos[239] = 239
degree[238] = 210, pos[238] = 238
degree[237] = 210, pos[237] = 237
degree[236] = 210, pos[236] = 236
degree[235] = 210, pos[235] = 235
degree[234] = 210, pos[234] = 234
degree[233] = 210, pos[233] = 233
degree[232] = 210, pos[232] = 232
degree[231] = 210, pos[231] = 231
degree[230] = 190, pos[230] = 230
degree[229] = 190, pos[229] = 229
degree[228] = 190, pos[228] = 228
degree[227] = 190, pos[227] = 227
degree[226] = 190, pos[226] = 226
degree[225] = 190, pos[225] = 225
degree[224] = 190, pos[224] = 224
degree[223] = 190, pos[223] = 223
degree[222] = 190, pos[222] = 222
degree[221] = 190, pos[221] = 221
degree[220] = 190, pos[220] = 220
degree[219] = 190, pos[219] = 219
degree[218] = 190, pos[218] = 218
degree[217] = 190, pos[217] = 217
degree[216] = 190, pos[216] = 216
degree[215] = 190, pos[215] = 215
degree[214] = 190, pos[214] = 214
degree[213] = 190, pos[213] = 213
degree[212] = 190, pos[212] = 212
degree[211] = 190, pos[211] = 211
degree[210] = 190, pos[210] = 210
degree[209] = 171, pos[209] = 209
degree[208] = 171, pos[208] = 208
degree[207] = 171, pos[207] = 207
degree[206] = 171, pos[206] = 206
degree[205] = 171, pos[205] = 205
degree[204] = 171, pos[204] = 204
degree[203] = 171, pos[203] = 203
degree[202] = 171, pos[202] = 202
degree[201] = 171, pos[201] = 201
degree[200] = 171, pos[200] = 200
degree[199] = 171, pos[199] = 199
degree[198] = 171, pos[198] = 198
degree[197] = 171, pos[197] = 197
degree[196] = 171, pos[196] = 196
degree[195] = 171, pos[195] = 195
degree[194] = 171, pos[194] = 194
degree[193] = 171, pos[193] = 193
degree[192] = 171, pos[192] = 192
degree[191] = 171, pos[191] = 191
degree[190] = 171, pos[190] = 190
degree[189] = 153, pos[189] = 189
degree[188] = 153, pos[188] = 188
degree[187] = 153, pos[187] = 187
degree[186] = 153, pos[186] = 186
degree[185] = 153, pos[185] = 185
degree[184] = 153, pos[184] = 184
degree[183] = 153, pos[183] = 183
degree[182] = 153, pos[182] = 182
degree[181] = 153, pos[181] = 181
degree[180] = 153, pos[180] = 180
degree[179] = 153, pos[179] = 179
degree[178] = 153, pos[178] = 178
degree[177] = 153, pos[177] = 177
degree[176] = 153, pos[176] = 176
degree[175] = 153, pos[175] = 175
degree[174] = 153, pos[174] = 174
degree[173] = 153, pos[173] = 173
degree[172] = 153, pos[172] = 172
degree[171] = 153, pos[171] = 171
degree[170] = 136, pos[170] = 170
degree[169] = 136, pos[169] = 169
degree[168] = 136, pos[168] = 168
degree[167] = 136, pos[167] = 167
degree[166] = 136, pos[166] = 166
degree[165] = 136, pos[165] = 165
degree[164] = 136, pos[164] = 164
degree[163] = 136, pos[163] = 163
degree[162] = 136, pos[162] = 162
degree[161] = 136, pos[161] = 161
degree[160] = 136, pos[160] = 160
degree[159] = 136, pos[159] = 159
degree[158] = 136, pos[158] = 158
degree[157] = 136, pos[157] = 157
degree[156] = 136, pos[156] = 156
degree[155] = 136, pos[155] = 155
degree[154] = 136, pos[154] = 154
degree[153] = 136, pos[153] = 153
degree[152] = 120, pos[152] = 152
degree[151] = 120, pos[151] = 151
degree[150] = 120, pos[150] = 150
degree[149] = 120, pos[149] = 149
degree[148] = 120, pos[148] = 148
degree[147] = 120, pos[147] = 147
degree[146] = 120, pos[146] = 146
degree[145] = 120, pos[145] = 145
degree[144] = 120, pos[144] = 144
degree[143] = 120, pos[143] = 143
degree[142] = 120, pos[142] = 142
degree[141] = 120, pos[141] = 141
degree[140] = 120, pos[140] = 140
degree[139] = 120, pos[139] = 139
degree[138] = 120, pos[138] = 138
degree[137] = 120, pos[137] = 137
degree[136] = 120, pos[136] = 136
degree[135] = 105, pos[135] = 135
degree[134] = 105, pos[134] = 134
degree[133] = 105, pos[133] = 133
degree[132] = 105, pos[132] = 132
degree[131] = 105, pos[131] = 131
degree[130] = 105, pos[130] = 130
degree[129] = 105, pos[129] = 129
degree[128] = 105, pos[128] = 128
degree[127] = 105, pos[127] = 127
degree[126] = 105, pos[126] = 126
degree[125] = 105, pos[125] = 125
degree[124] = 105, pos[124] = 124
degree[123] = 105, pos[123] = 123
degree[122] = 105, pos[122] = 122
degree[121] = 105, pos[121] = 121
degree[120] = 105, pos[120] = 120
degree[119] = 91, pos[119] = 119
degree[118] = 91, pos[118] = 118
degree[117] = 91, pos[117] = 117
degree[116] = 91, pos[116] = 116
degree[115] = 91, pos[115] = 115
degree[114] = 91, pos[114] = 114
degree[113] = 91, pos[113] = 113
degree[112] = 91, pos[112] = 112
degree[111] = 91, pos[111] = 111
degree[110] = 91, pos[110] = 110
degree[109] = 91, pos[109] = 109
degree[108] = 91, pos[108] = 108
degree[107] = 91, pos[107] = 107
degree[106] = 91, pos[106] = 106
degree[105] = 91, pos[105] = 105
degree[104] = 78, pos[104] = 104
degree[103] = 78, pos[103] = 103
degree[102] = 78, pos[102] = 102
degree[101] = 78, pos[101] = 101
degree[100] = 78, pos[100] = 100
degree[99] = 78, pos[99] = 99
degree[98] = 78, pos[98] = 98
degree[97] = 78, pos[97] = 97
degree[96] = 78, pos[96] = 96
degree[95] = 78, pos[95] = 95
degree[94] = 78, pos[94] = 94
degree[93] = 78, pos[93] = 93
degree[92] = 78, pos[92] = 92
degree[91] = 78, pos[91] = 91
degree[90] = 66, pos[90] = 90
degree[89] = 66, pos[89] = 89
degree[88] = 66, pos[88] = 88
degree[87] = 66, pos[87] = 87
degree[86] = 66, pos[86] = 86
degree[85] = 66, pos[85] = 85
degree[84] = 66, pos[84] = 84
degree[83] = 66, pos[83] = 83
degree[82] = 66, pos[82] = 82
degree[81] = 66, pos[81] = 81
degree[80] = 66, pos[80] = 80
degree[79] = 66, pos[79] = 79
degree[78] = 66, pos[78] = 78
degree[77] = 55, pos[77] = 77
degree[76] = 55, pos[76] = 76
degree[75] = 55, pos[75] = 75
degree[74] = 55, pos[74] = 74
degree[73] = 55, pos[73] = 73
degree[72] = 55, pos[72] = 72
degree[71] = 55, pos[71] = 71
degree[70] = 55, pos[70] = 70
degree[69] = 55, pos[69] = 69
degree[68] = 55, pos[68] = 68
degree[67] = 55, pos[67] = 67
degree[66] = 55, pos[66] = 66
degree[65] = 45, pos[65] = 65
degree[64] = 45, pos[64] = 64
degree[63] = 45, pos[63] = 63
degree[62] = 45, pos[62] = 62
degree[61] = 45, pos[61] = 61
degree[60] = 45, pos[60] = 60
degree[59] = 45, pos[59] = 59
degree[58] = 45, pos[58] = 58
degree[57] = 45, pos[57] = 57
degree[56] = 45, pos[56] = 56
degree[55] = 45, pos[55] = 55
degree[54] = 36, pos[54] = 54
degree[53] = 36, pos[53] = 53
degree[52] = 36, pos[52] = 52
degree[51] = 36, pos[51] = 51
degree[50] = 36, pos[50] = 50
degree[49] = 36, pos[49] = 49
degree[48] = 36, pos[48] = 48
degree[47] = 36, pos[47] = 47
degree[46] = 36, pos[46] = 46
degree[45] = 36, pos[45] = 45
degree[44] = 28, pos[44] = 44
degree[43] = 28, pos[43] = 43
degree[42] = 28, pos[42] = 42
degree[41] = 28, pos[41] = 41
degree[40] = 28, pos[40] = 40
degree[39] = 28, pos[39] = 39
degree[38] = 28, pos[38] = 38
degree[37] = 28, pos[37] = 37
degree[36] = 28, pos[36] = 36
degree[35] = 21, pos[35] = 35
degree[34] = 21, pos[34] = 34
degree[33] = 21, pos[33] = 33
degree[32] = 21, pos[32] = 32
degree[31] = 21, pos[31] = 31
degree[30] = 21, pos[30] = 30
degree[29] = 21, pos[29] = 29
degree[28] = 21, pos[28] = 28
degree[27] = 15, pos[27] = 27
degree[26] = 15, pos[26] = 26
degree[25] = 15, pos[25] = 25
degree[24] = 15, pos[24] = 24
degree[23] = 15, pos[23] = 23
degree[22] = 15, pos[22] = 22
degree[21] = 15, pos[21] = 21
degree[20] = 10, pos[20] = 20
degree[19] = 10, pos[19] = 19
degree[18] = 10, pos[18] = 18
degree[17] = 10, pos[17] = 17
degree[16] = 10, pos[16] = 16
degree[15] = 10, pos[15] = 15
degree[14] = 6, pos[14] = 14
degree[13] = 6, pos[13] = 13
degree[12] = 6, pos[12] = 12
degree[11] = 6, pos[11] = 11
degree[10] = 6, pos[10] = 10
degree[9] = 3, pos[9] = 9
degree[8] = 3, pos[8] = 8
degree[7] = 3, pos[7] = 7
degree[6] = 3, pos[6] = 6
degree[5] = 1, pos[5] = 5
degree[4] = 1, pos[4] = 4
degree[3] = 1, pos[3] = 3
degree[2] = 0, pos[2] = 2
degree[1] = 0, pos[1] = 1
degree[0] = 0, pos[0] = 0
Pos[0] = 0
Pos[1] = 1
Pos[2] = 2
Pos[3] = 3
Pos[4] = 4
Pos[5] = 5
Pos[6] = 6
Pos[7] = 7
Pos[8] = 8
Pos[9] = 9
Pos[10] = 10
Pos[11] = 11
Pos[12] = 12
Pos[13] = 13
Pos[14] = 14
Pos[15] = 15
Pos[16] = 16
Pos[17] = 17
Pos[18] = 18
Pos[19] = 19
Pos[20] = 20
Pos[21] = 21
Pos[22] = 22
Pos[23] = 23
Pos[24] = 24
Pos[25] = 25
Pos[26] = 26
Pos[27] = 27
Pos[28] = 28
Pos[29] = 29
Pos[30] = 30
Pos[31] = 31
Pos[32] = 32
Pos[33] = 33
Pos[34] = 34
Pos[35] = 35
Pos[36] = 36
Pos[37] = 37
Pos[38] = 38
Pos[39] = 39
Pos[40] = 40
Pos[41] = 41
Pos[42] = 42
Pos[43] = 43
Pos[44] = 44
Pos[45] = 45
Pos[46] = 46
Pos[47] = 47
Pos[48] = 48
Pos[49] = 49
Pos[50] = 50
Pos[51] = 51
Pos[52] = 52
Pos[53] = 53
Pos[54] = 54
Pos[55] = 55
Pos[56] = 56
Pos[57] = 57
Pos[58] = 58
Pos[59] = 59
Pos[60] = 60
Pos[61] = 61
Pos[62] = 62
Pos[63] = 63
Pos[64] = 64
Pos[65] = 65
Pos[66] = 66
Pos[67] = 67
Pos[68] = 68
Pos[69] = 69
Pos[70] = 70
Pos[71] = 71
Pos[72] = 72
Pos[73] = 73
Pos[74] = 74
Pos[75] = 75
Pos[76] = 76
Pos[77] = 77
Pos[78] = 78
Pos[79] = 79
Pos[80] = 80
Pos[81] = 81
Pos[82] = 82
Pos[83] = 83
Pos[84] = 84
Pos[85] = 85
Pos[86] = 86
Pos[87] = 87
Pos[88] = 88
Pos[89] = 89
Pos[90] = 90
Pos[91] = 91
Pos[92] = 92
Pos[93] = 93
Pos[94] = 94
Pos[95] = 95
Pos[96] = 96
Pos[97] = 97
Pos[98] = 98
Pos[99] = 99
Pos[100] = 100
Pos[101] = 101
Pos[102] = 102
Pos[103] = 103
Pos[104] = 104
Pos[105] = 105
Pos[106] = 106
Pos[107] = 107
Pos[108] = 108
Pos[109] = 109
Pos[110] = 110
Pos[111] = 111
Pos[112] = 112
Pos[113] = 113
Pos[114] = 114
Pos[115] = 115
Pos[116] = 116
Pos[117] = 117
Pos[118] = 118
Pos[119] = 119
Pos[120] = 120
Pos[121] = 121
Pos[122] = 122
Pos[123] = 123
Pos[124] = 124
Pos[125] = 125
Pos[126] = 126
Pos[127] = 127
Pos[128] = 128
Pos[129] = 129
Pos[130] = 130
Pos[131] = 131
Pos[132] = 132
Pos[133] = 133
Pos[134] = 134
Pos[135] = 135
Pos[136] = 136
Pos[137] = 137
Pos[138] = 138
Pos[139] = 139
Pos[140] = 140
Pos[141] = 141
Pos[142] = 142
Pos[143] = 143
Pos[144] = 144
Pos[145] = 145
Pos[146] = 146
Pos[147] = 147
Pos[148] = 148
Pos[149] = 149
Pos[150] = 150
Pos[151] = 151
Pos[152] = 152
Pos[153] = 153
Pos[154] = 154
Pos[155] = 155
Pos[156] = 156
Pos[157] = 157
Pos[158] = 158
Pos[159] = 159
Pos[160] = 160
Pos[161] = 161
Pos[162] = 162
Pos[163] = 163
Pos[164] = 164
Pos[165] = 165
Pos[166] = 166
Pos[167] = 167
Pos[168] = 168
Pos[169] = 169
Pos[170] = 170
Pos[171] = 171
Pos[172] = 172
Pos[173] = 173
Pos[174] = 174
Pos[175] = 175
Pos[176] = 176
Pos[177] = 177
Pos[178] = 178
Pos[179] = 179
Pos[180] = 180
Pos[181] = 181
Pos[182] = 182
Pos[183] = 183
Pos[184] = 184
Pos[185] = 185
Pos[186] = 186
Pos[187] = 187
Pos[188] = 188
Pos[189] = 189
Pos[190] = 190
Pos[191] = 191
Pos[192] = 192
Pos[193] = 193
Pos[194] = 194
Pos[195] = 195
Pos[196] = 196
Pos[197] = 197
Pos[198] = 198
Pos[199] = 199
Pos[200] = 200
Pos[201] = 201
Pos[202] = 202
Pos[203] = 203
Pos[204] = 204
Pos[205] = 205
Pos[206] = 206
Pos[207] = 207
Pos[208] = 208
Pos[209] = 209
Pos[210] = 210
Pos[211] = 211
Pos[212] = 212
Pos[213] = 213
Pos[214] = 214
Pos[215] = 215
Pos[216] = 216
Pos[217] = 217
Pos[218] = 218
Pos[219] = 219
Pos[220] = 220
Pos[221] = 221
Pos[222] = 222
Pos[223] = 223
Pos[224] = 224
Pos[225] = 225
Pos[226] = 226
Pos[227] = 227
Pos[228] = 228
Pos[229] = 229
Pos[230] = 230
Pos[231] = 231
Pos[232] = 232
Pos[233] = 233
Pos[234] = 234
Pos[235] = 235
Pos[236] = 236
Pos[237] = 237
Pos[238] = 238
Pos[239] = 239
Pos[240] = 240
Pos[241] = 241
Pos[242] = 242
Pos[243] = 243
Pos[244] = 244
Pos[245] = 245
Pos[246] = 246
Pos[247] = 247
Pos[248] = 248
Pos[249] = 249
Pos[250] = 250
Pos[251] = 251
Pos[252] = 252
Pos[253] = 253
Pos[254] = 254
Pos[255] = 255
Pos[256] = 256
Pos[257] = 257
Pos[258] = 258
Pos[259] = 259
Pos[260] = 260
Pos[261] = 261
Pos[262] = 262
Pos[263] = 263
Pos[264] = 264
Pos[265] = 265
Pos[266] = 266
Pos[267] = 267
Pos[268] = 268
Pos[269] = 269
Pos[270] = 270
Pos[271] = 271
Pos[272] = 272
Pos[273] = 273
Pos[274] = 274
Pos[275] = 275
Pos[276] = 276
Pos[277] = 277
Pos[278] = 278
Pos[279] = 279
Pos[280] = 280
Pos[281] = 281
Pos[282] = 282
Pos[283] = 283
Pos[284] = 284
Pos[285] = 285
Pos[286] = 286
Pos[287] = 287
Pos[288] = 288
Pos[289] = 289
Pos[290] = 290
Pos[291] = 291
Pos[292] = 292
Pos[293] = 293
Pos[294] = 294
Pos[295] = 295
Pos[296] = 296
Pos[297] = 297
Pos[298] = 298
Pos[299] = 299
Pos[300] = 300
Pos[301] = 301
Pos[302] = 302
Pos[303] = 303
Pos[304] = 304
Pos[305] = 305
Pos[306] = 306
Pos[307] = 307
Pos[308] = 308
Pos[309] = 309
Pos[310] = 310
Pos[311] = 311
Pos[312] = 312
Pos[313] = 313
Pos[314] = 314
Pos[315] = 315
Pos[316] = 316
Pos[317] = 317
Pos[318] = 318
Pos[319] = 319
Pos[320] = 320
Pos[321] = 321
Pos[322] = 322
Pos[323] = 323
Pos[324] = 324
Pos[325] = 325
Pos[326] = 326
Pos[327] = 327
Pos[328] = 328
Pos[329] = 329
Pos[330] = 330
Pos[331] = 331
Pos[332] = 332
Pos[333] = 333
Pos[334] = 334
Pos[335] = 335
Pos[336] = 336
Pos[337] = 337
Pos[338] = 338
Pos[339] = 339
Pos[340] = 340
Pos[341] = 341
Pos[342] = 342
Pos[343] = 343
Pos[344] = 344
Pos[345] = 345
Pos[346] = 346
Pos[347] = 347
Pos[348] = 348
Pos[349] = 349
Pos[350] = 350
Pos[351] = 351
Pos[352] = 352
Pos[353] = 353
Pos[354] = 354
Pos[355] = 355
Pos[356] = 356
Pos[357] = 357
Pos[358] = 358
Pos[359] = 359
Pos[360] = 360
Pos[361] = 361
Pos[362] = 362
Pos[363] = 363
Pos[364] = 364
Pos[365] = 365
Pos[366] = 366
Pos[367] = 367
Pos[368] = 368
Pos[369] = 369
Pos[370] = 370
Pos[371] = 371
Pos[372] = 372
Pos[373] = 373
Pos[374] = 374
Pos[375] = 375
Pos[376] = 376
Pos[377] = 377
Pos[378] = 378
Pos[379] = 379
Pos[380] = 380
Pos[381] = 381
Pos[382] = 382
Pos[383] = 383
Pos[384] = 384
Pos[385] = 385
Pos[386] = 386
Pos[387] = 387
Pos[388] = 388
Pos[389] = 389
Pos[390] = 390
Pos[391] = 391
Pos[392] = 392
Pos[393] = 393
Pos[394] = 394
Pos[395] = 395
Pos[396] = 396
Pos[397] = 397
Pos[398] = 398
Pos[399] = 399
Pos[400] = 400
Pos[401] = 401
Pos[402] = 402
Pos[403] = 403
Pos[404] = 404
Pos[405] = 405
Pos[406] = 406
Pos[407] = 407
Pos[408] = 408
Pos[409] = 409
Pos[410] = 410
Pos[411] = 411
Pos[412] = 412
Pos[413] = 413
Pos[414] = 414
Pos[415] = 415
Pos[416] = 416
Pos[417] = 417
Pos[418] = 418
Pos[419] = 419
Pos[420] = 420
Pos[421] = 421
Pos[422] = 422
Pos[423] = 423
Pos[424] = 424
Pos[425] = 425
Pos[426] = 426
Pos[427] = 427
Pos[428] = 428
Pos[429] = 429
Pos[430] = 430
Pos[431] = 431
Pos[432] = 432
Pos[433] = 433
Pos[434] = 434
Pos[435] = 435
Pos[436] = 436
Pos[437] = 437
Pos[438] = 438
Pos[439] = 439
Pos[440] = 440
Pos[441] = 441
Pos[442] = 442
Pos[443] = 443
Pos[444] = 444
Pos[445] = 445
Pos[446] = 446
Pos[447] = 447
Pos[448] = 448
Pos[449] = 449
Pos[450] = 450
Pos[451] = 451
Pos[452] = 452
Pos[453] = 453
Pos[454] = 454
Pos[455] = 455
Pos[456] = 456
Pos[457] = 457
Pos[458] = 458
Pos[459] = 459
Pos[460] = 460
Pos[461] = 461
Pos[462] = 462
Pos[463] = 463
Pos[464] = 464
Pos[465] = 465
Pos[466] = 466
Pos[467] = 467
Pos[468] = 468
Pos[469] = 469
Pos[470] = 470
Pos[471] = 471
Pos[472] = 472
Pos[473] = 473
Pos[474] = 474
Pos[475] = 475
Pos[476] = 476
Pos[477] = 477
Pos[478] = 478
Pos[479] = 479
Pos[480] = 480
Pos[481] = 481
Pos[482] = 482
Pos[483] = 483
Pos[484] = 484
Pos[485] = 485
Pos[486] = 486
Pos[487] = 487
Pos[488] = 488
Pos[489] = 489
Pos[490] = 490
Pos[491] = 491
Pos[492] = 492
Pos[493] = 493
Pos[494] = 494
Pos[495] = 495
Enbr = 107880
start search
improving solution size 1
improving solution size 2
improving solution size 3
improving solution size 4
improving solution size 5
improving solution size 6
improving solution size 7
improving solution size 8
improving solution size 9
improving solution size 10
improving solution size 11
improving solution size 12
improving solution size 13
improving solution size 14
improving solution size 15
improving solution size 16
improving solution size 17
improving solution size 18
improving solution size 19
improving solution size 20
improving solution size 21
TIMEOUT
best clique: 496 495 406 405 325 324 253 252 190 189 136 135 91 90 55 54 28 27 10 9 1 
record          =          21
subp            =  7884788912
time            =  3600.00043
