timeout 3600 s
Graph with 171 vertices and 9435 edges density 0.649123
t = 18870, Enbr = 9435
degree[170] = 124, pos[170] = 148
degree[169] = 124, pos[169] = 118
degree[168] = 124, pos[168] = 102
degree[167] = 124, pos[167] = 86
degree[166] = 124, pos[166] = 48
degree[165] = 121, pos[165] = 82
degree[164] = 121, pos[164] = 74
degree[163] = 121, pos[163] = 73
degree[162] = 121, pos[162] = 71
degree[161] = 117, pos[161] = 136
degree[160] = 117, pos[160] = 78
degree[159] = 117, pos[159] = 36
degree[158] = 114, pos[158] = 134
degree[157] = 114, pos[157] = 72
degree[156] = 114, pos[156] = 34
degree[155] = 111, pos[155] = 29
degree[154] = 111, pos[154] = 23
degree[153] = 111, pos[153] = 15
degree[152] = 111, pos[152] = 7
degree[151] = 109, pos[151] = 19
degree[150] = 108, pos[150] = 14
degree[149] = 108, pos[149] = 12
degree[148] = 106, pos[148] = 27
degree[147] = 106, pos[147] = 5
degree[146] = 104, pos[146] = 13
degree[145] = 103, pos[145] = 4
degree[144] = 103, pos[144] = 3
degree[143] = 103, pos[143] = 1
degree[142] = 103, pos[142] = 0
degree[141] = 99, pos[141] = 2
degree[140] = 92, pos[140] = 166
degree[139] = 92, pos[139] = 160
degree[138] = 92, pos[138] = 152
degree[137] = 92, pos[137] = 143
degree[136] = 91, pos[136] = 32
degree[135] = 91, pos[135] = 30
degree[134] = 90, pos[134] = 26
degree[133] = 90, pos[133] = 24
degree[132] = 89, pos[132] = 66
degree[131] = 89, pos[131] = 60
degree[130] = 88, pos[130] = 18
degree[129] = 88, pos[129] = 16
degree[128] = 87, pos[128] = 52
degree[127] = 87, pos[127] = 43
degree[126] = 87, pos[126] = 10
degree[125] = 87, pos[125] = 8
degree[124] = 83, pos[124] = 156
degree[123] = 83, pos[123] = 56
degree[122] = 83, pos[122] = 22
degree[121] = 83, pos[121] = 20
degree[120] = 78, pos[120] = 130
degree[119] = 78, pos[119] = 122
degree[118] = 77, pos[118] = 98
degree[117] = 77, pos[117] = 90
degree[116] = 76, pos[116] = 151
degree[115] = 76, pos[115] = 149
degree[114] = 75, pos[114] = 51
degree[113] = 75, pos[113] = 49
degree[112] = 74, pos[112] = 33
degree[111] = 74, pos[111] = 28
degree[110] = 73, pos[110] = 11
degree[109] = 73, pos[109] = 6
degree[108] = 72, pos[108] = 139
degree[107] = 72, pos[107] = 137
degree[106] = 71, pos[106] = 39
degree[105] = 71, pos[105] = 37
degree[104] = 65, pos[104] = 126
degree[103] = 65, pos[103] = 114
degree[102] = 65, pos[102] = 106
degree[101] = 65, pos[101] = 94
degree[100] = 62, pos[100] = 169
degree[99] = 62, pos[99] = 167
degree[98] = 61, pos[98] = 163
degree[97] = 61, pos[97] = 161
degree[96] = 61, pos[96] = 110
degree[95] = 60, pos[95] = 155
degree[94] = 60, pos[94] = 153
degree[93] = 60, pos[93] = 31
degree[92] = 58, pos[92] = 159
degree[91] = 58, pos[91] = 157
degree[90] = 58, pos[90] = 25
degree[89] = 58, pos[89] = 17
degree[88] = 58, pos[88] = 9
degree[87] = 57, pos[87] = 146
degree[86] = 57, pos[86] = 144
degree[85] = 56, pos[85] = 21
degree[84] = 52, pos[84] = 69
degree[83] = 52, pos[83] = 67
degree[82] = 51, pos[82] = 63
degree[81] = 51, pos[81] = 61
degree[80] = 50, pos[80] = 59
degree[79] = 50, pos[79] = 57
degree[78] = 49, pos[78] = 55
degree[77] = 49, pos[77] = 53
degree[76] = 48, pos[76] = 46
degree[75] = 48, pos[75] = 44
degree[74] = 40, pos[74] = 170
degree[73] = 40, pos[73] = 165
degree[72] = 40, pos[72] = 164
degree[71] = 40, pos[71] = 121
degree[70] = 40, pos[70] = 119
degree[69] = 39, pos[69] = 140
degree[68] = 39, pos[68] = 135
degree[67] = 37, pos[67] = 133
degree[66] = 37, pos[66] = 131
degree[65] = 36, pos[65] = 125
degree[64] = 36, pos[64] = 123
degree[63] = 36, pos[63] = 64
degree[62] = 34, pos[62] = 150
degree[61] = 33, pos[61] = 120
degree[60] = 33, pos[60] = 85
degree[59] = 33, pos[59] = 83
degree[58] = 33, pos[58] = 70
degree[57] = 33, pos[57] = 40
degree[56] = 30, pos[56] = 77
degree[55] = 30, pos[55] = 75
degree[54] = 30, pos[54] = 65
degree[53] = 30, pos[53] = 35
degree[52] = 27, pos[52] = 168
degree[51] = 27, pos[51] = 138
degree[50] = 27, pos[50] = 129
degree[49] = 27, pos[49] = 127
degree[48] = 26, pos[48] = 81
degree[47] = 26, pos[47] = 79
degree[46] = 26, pos[46] = 68
degree[45] = 26, pos[45] = 38
degree[44] = 25, pos[44] = 132
degree[43] = 25, pos[43] = 124
degree[42] = 23, pos[42] = 128
degree[41] = 23, pos[41] = 84
degree[40] = 23, pos[40] = 80
degree[39] = 23, pos[39] = 76
degree[38] = 14, pos[38] = 162
degree[37] = 14, pos[37] = 158
degree[36] = 14, pos[36] = 154
degree[35] = 13, pos[35] = 147
degree[34] = 13, pos[34] = 145
degree[33] = 13, pos[33] = 142
degree[32] = 13, pos[32] = 141
degree[31] = 12, pos[31] = 117
degree[30] = 12, pos[30] = 115
degree[29] = 11, pos[29] = 113
degree[28] = 11, pos[28] = 111
degree[27] = 10, pos[27] = 109
degree[26] = 10, pos[26] = 107
degree[25] = 9, pos[25] = 105
degree[24] = 9, pos[24] = 103
degree[23] = 7, pos[23] = 101
degree[22] = 7, pos[22] = 99
degree[21] = 6, pos[21] = 97
degree[20] = 6, pos[20] = 95
degree[19] = 5, pos[19] = 116
degree[18] = 5, pos[18] = 112
degree[17] = 5, pos[17] = 100
degree[16] = 5, pos[16] = 96
degree[15] = 5, pos[15] = 62
degree[14] = 5, pos[14] = 58
degree[13] = 5, pos[13] = 47
degree[12] = 5, pos[12] = 45
degree[11] = 1, pos[11] = 93
degree[10] = 1, pos[10] = 91
degree[9] = 0, pos[9] = 108
degree[8] = 0, pos[8] = 104
degree[7] = 0, pos[7] = 92
degree[6] = 0, pos[6] = 89
degree[5] = 0, pos[5] = 88
degree[4] = 0, pos[4] = 87
degree[3] = 0, pos[3] = 54
degree[2] = 0, pos[2] = 50
degree[1] = 0, pos[1] = 42
degree[0] = 0, pos[0] = 41
Pos[0] = 41
Pos[1] = 42
Pos[2] = 50
Pos[3] = 54
Pos[4] = 87
Pos[5] = 88
Pos[6] = 89
Pos[7] = 92
Pos[8] = 104
Pos[9] = 108
Pos[10] = 91
Pos[11] = 93
Pos[12] = 45
Pos[13] = 47
Pos[14] = 58
Pos[15] = 62
Pos[16] = 96
Pos[17] = 100
Pos[18] = 112
Pos[19] = 116
Pos[20] = 95
Pos[21] = 97
Pos[22] = 99
Pos[23] = 101
Pos[24] = 103
Pos[25] = 105
Pos[26] = 107
Pos[27] = 109
Pos[28] = 111
Pos[29] = 113
Pos[30] = 115
Pos[31] = 117
Pos[32] = 141
Pos[33] = 142
Pos[34] = 145
Pos[35] = 147
Pos[36] = 154
Pos[37] = 158
Pos[38] = 162
Pos[39] = 76
Pos[40] = 80
Pos[41] = 84
Pos[42] = 128
Pos[43] = 124
Pos[44] = 132
Pos[45] = 38
Pos[46] = 68
Pos[47] = 79
Pos[48] = 81
Pos[49] = 127
Pos[50] = 129
Pos[51] = 138
Pos[52] = 168
Pos[53] = 35
Pos[54] = 65
Pos[55] = 75
Pos[56] = 77
Pos[57] = 40
Pos[58] = 70
Pos[59] = 83
Pos[60] = 85
Pos[61] = 120
Pos[62] = 150
Pos[63] = 64
Pos[64] = 123
Pos[65] = 125
Pos[66] = 131
Pos[67] = 133
Pos[68] = 135
Pos[69] = 140
Pos[70] = 119
Pos[71] = 121
Pos[72] = 164
Pos[73] = 165
Pos[74] = 170
Pos[75] = 44
Pos[76] = 46
Pos[77] = 53
Pos[78] = 55
Pos[79] = 57
Pos[80] = 59
Pos[81] = 61
Pos[82] = 63
Pos[83] = 67
Pos[84] = 69
Pos[85] = 21
Pos[86] = 144
Pos[87] = 146
Pos[88] = 9
Pos[89] = 17
Pos[90] = 25
Pos[91] = 157
Pos[92] = 159
Pos[93] = 31
Pos[94] = 153
Pos[95] = 155
Pos[96] = 110
Pos[97] = 161
Pos[98] = 163
Pos[99] = 167
Pos[100] = 169
Pos[101] = 94
Pos[102] = 106
Pos[103] = 114
Pos[104] = 126
Pos[105] = 37
Pos[106] = 39
Pos[107] = 137
Pos[108] = 139
Pos[109] = 6
Pos[110] = 11
Pos[111] = 28
Pos[112] = 33
Pos[113] = 49
Pos[114] = 51
Pos[115] = 149
Pos[116] = 151
Pos[117] = 90
Pos[118] = 98
Pos[119] = 122
Pos[120] = 130
Pos[121] = 20
Pos[122] = 22
Pos[123] = 56
Pos[124] = 156
Pos[125] = 8
Pos[126] = 10
Pos[127] = 43
Pos[128] = 52
Pos[129] = 16
Pos[130] = 18
Pos[131] = 60
Pos[132] = 66
Pos[133] = 24
Pos[134] = 26
Pos[135] = 30
Pos[136] = 32
Pos[137] = 143
Pos[138] = 152
Pos[139] = 160
Pos[140] = 166
Pos[141] = 2
Pos[142] = 0
Pos[143] = 1
Pos[144] = 3
Pos[145] = 4
Pos[146] = 13
Pos[147] = 5
Pos[148] = 27
Pos[149] = 12
Pos[150] = 14
Pos[151] = 19
Pos[152] = 7
Pos[153] = 15
Pos[154] = 23
Pos[155] = 29
Pos[156] = 34
Pos[157] = 72
Pos[158] = 134
Pos[159] = 36
Pos[160] = 78
Pos[161] = 136
Pos[162] = 71
Pos[163] = 73
Pos[164] = 74
Pos[165] = 82
Pos[166] = 48
Pos[167] = 86
Pos[168] = 102
Pos[169] = 118
Pos[170] = 148
Enbr = 9435
start search
improving solution size 1
improving solution size 2
improving solution size 3
improving solution size 4
improving solution size 5
improving solution size 6
improving solution size 7
improving solution size 8
improving solution size 9
improving solution size 10
improving solution size 11
improving solution size 12
improving solution size 13
improving solution size 14
improving solution size 15
best clique: 149 103 83 75 135 35 20 14 4 2 57 81 159 117 55 
record          =          15
subp            =   492930251
time            =   393.21736
