timeout 3600 s
Graph with 1000 vertices and 122253 edges density 0.244751
t = 244506, Enbr = 122253
degree[999] = 408, pos[999] = 460
degree[998] = 402, pos[998] = 800
degree[997] = 393, pos[997] = 652
degree[996] = 392, pos[996] = 622
degree[995] = 387, pos[995] = 776
degree[994] = 386, pos[994] = 170
degree[993] = 384, pos[993] = 32
degree[992] = 380, pos[992] = 537
degree[991] = 379, pos[991] = 28
degree[990] = 374, pos[990] = 818
degree[989] = 374, pos[989] = 225
degree[988] = 368, pos[988] = 154
degree[987] = 367, pos[987] = 496
degree[986] = 365, pos[986] = 762
degree[985] = 365, pos[985] = 103
degree[984] = 364, pos[984] = 91
degree[983] = 363, pos[983] = 635
degree[982] = 362, pos[982] = 991
degree[981] = 362, pos[981] = 899
degree[980] = 359, pos[980] = 861
degree[979] = 359, pos[979] = 561
degree[978] = 359, pos[978] = 37
degree[977] = 358, pos[977] = 329
degree[976] = 357, pos[976] = 252
degree[975] = 355, pos[975] = 377
degree[974] = 353, pos[974] = 661
degree[973] = 352, pos[973] = 488
degree[972] = 352, pos[972] = 86
degree[971] = 351, pos[971] = 121
degree[970] = 350, pos[970] = 992
degree[969] = 350, pos[969] = 531
degree[968] = 349, pos[968] = 491
degree[967] = 349, pos[967] = 7
degree[966] = 348, pos[966] = 132
degree[965] = 346, pos[965] = 994
degree[964] = 346, pos[964] = 823
degree[963] = 345, pos[963] = 463
degree[962] = 344, pos[962] = 799
degree[961] = 344, pos[961] = 536
degree[960] = 343, pos[960] = 905
degree[959] = 343, pos[959] = 172
degree[958] = 342, pos[958] = 296
degree[957] = 342, pos[957] = 84
degree[956] = 341, pos[956] = 177
degree[955] = 339, pos[955] = 932
degree[954] = 338, pos[954] = 966
degree[953] = 338, pos[953] = 193
degree[952] = 338, pos[952] = 79
degree[951] = 335, pos[951] = 838
degree[950] = 335, pos[950] = 775
degree[949] = 335, pos[949] = 282
degree[948] = 334, pos[948] = 178
degree[947] = 333, pos[947] = 163
degree[946] = 332, pos[946] = 811
degree[945] = 332, pos[945] = 607
degree[944] = 331, pos[944] = 415
degree[943] = 329, pos[943] = 875
degree[942] = 327, pos[942] = 753
degree[941] = 327, pos[941] = 185
degree[940] = 327, pos[940] = 161
degree[939] = 325, pos[939] = 863
degree[938] = 325, pos[938] = 291
degree[937] = 324, pos[937] = 83
degree[936] = 323, pos[936] = 639
degree[935] = 322, pos[935] = 668
degree[934] = 322, pos[934] = 524
degree[933] = 321, pos[933] = 141
degree[932] = 320, pos[932] = 960
degree[931] = 320, pos[931] = 439
degree[930] = 319, pos[930] = 797
degree[929] = 318, pos[929] = 968
degree[928] = 318, pos[928] = 926
degree[927] = 318, pos[927] = 26
degree[926] = 317, pos[926] = 333
degree[925] = 316, pos[925] = 334
degree[924] = 316, pos[924] = 64
degree[923] = 315, pos[923] = 241
degree[922] = 314, pos[922] = 376
degree[921] = 313, pos[921] = 867
degree[920] = 313, pos[920] = 562
degree[919] = 313, pos[919] = 207
degree[918] = 311, pos[918] = 629
degree[917] = 310, pos[917] = 987
degree[916] = 309, pos[916] = 796
degree[915] = 308, pos[915] = 963
degree[914] = 308, pos[914] = 297
degree[913] = 307, pos[913] = 414
degree[912] = 307, pos[912] = 191
degree[911] = 306, pos[911] = 638
degree[910] = 305, pos[910] = 198
degree[909] = 304, pos[909] = 662
degree[908] = 303, pos[908] = 527
degree[907] = 303, pos[907] = 503
degree[906] = 303, pos[906] = 286
degree[905] = 301, pos[905] = 928
degree[904] = 300, pos[904] = 866
degree[903] = 300, pos[903] = 443
degree[902] = 300, pos[902] = 359
degree[901] = 300, pos[901] = 321
degree[900] = 299, pos[900] = 494
degree[899] = 298, pos[899] = 687
degree[898] = 297, pos[898] = 640
degree[897] = 297, pos[897] = 565
degree[896] = 296, pos[896] = 784
degree[895] = 295, pos[895] = 781
degree[894] = 295, pos[894] = 74
degree[893] = 294, pos[893] = 368
degree[892] = 293, pos[892] = 369
degree[891] = 292, pos[891] = 451
degree[890] = 292, pos[890] = 162
degree[889] = 291, pos[889] = 235
degree[888] = 291, pos[888] = 19
degree[887] = 289, pos[887] = 961
degree[886] = 289, pos[886] = 125
degree[885] = 288, pos[885] = 715
degree[884] = 287, pos[884] = 871
degree[883] = 287, pos[883] = 342
degree[882] = 286, pos[882] = 670
degree[881] = 286, pos[881] = 248
degree[880] = 286, pos[880] = 203
degree[879] = 285, pos[879] = 921
degree[878] = 284, pos[878] = 896
degree[877] = 283, pos[877] = 302
degree[876] = 282, pos[876] = 996
degree[875] = 281, pos[875] = 850
degree[874] = 281, pos[874] = 554
degree[873] = 280, pos[873] = 759
degree[872] = 280, pos[872] = 636
degree[871] = 279, pos[871] = 410
degree[870] = 279, pos[870] = 393
degree[869] = 279, pos[869] = 226
degree[868] = 278, pos[868] = 394
degree[867] = 277, pos[867] = 666
degree[866] = 277, pos[866] = 564
degree[865] = 276, pos[865] = 548
degree[864] = 276, pos[864] = 195
degree[863] = 275, pos[863] = 584
degree[862] = 274, pos[862] = 350
degree[861] = 273, pos[861] = 913
degree[860] = 272, pos[860] = 704
degree[859] = 272, pos[859] = 325
degree[858] = 272, pos[858] = 96
degree[857] = 270, pos[857] = 598
degree[856] = 270, pos[856] = 568
degree[855] = 269, pos[855] = 847
degree[854] = 268, pos[854] = 427
degree[853] = 267, pos[853] = 910
degree[852] = 267, pos[852] = 547
degree[851] = 267, pos[851] = 405
degree[850] = 265, pos[850] = 411
degree[849] = 265, pos[849] = 331
degree[848] = 265, pos[848] = 100
degree[847] = 264, pos[847] = 160
degree[846] = 262, pos[846] = 855
degree[845] = 262, pos[845] = 730
degree[844] = 262, pos[844] = 171
degree[843] = 261, pos[843] = 201
degree[842] = 260, pos[842] = 760
degree[841] = 260, pos[841] = 729
degree[840] = 259, pos[840] = 835
degree[839] = 258, pos[839] = 97
degree[838] = 257, pos[838] = 902
degree[837] = 257, pos[837] = 878
degree[836] = 256, pos[836] = 891
degree[835] = 255, pos[835] = 442
degree[834] = 255, pos[834] = 284
degree[833] = 254, pos[833] = 139
degree[832] = 254, pos[832] = 136
degree[831] = 253, pos[831] = 943
degree[830] = 253, pos[830] = 153
degree[829] = 252, pos[829] = 280
degree[828] = 252, pos[828] = 270
degree[827] = 250, pos[827] = 962
degree[826] = 250, pos[826] = 534
degree[825] = 249, pos[825] = 570
degree[824] = 249, pos[824] = 265
degree[823] = 248, pos[823] = 824
degree[822] = 248, pos[822] = 810
degree[821] = 246, pos[821] = 911
degree[820] = 246, pos[820] = 709
degree[819] = 245, pos[819] = 856
degree[818] = 245, pos[818] = 755
degree[817] = 244, pos[817] = 805
degree[816] = 244, pos[816] = 718
degree[815] = 243, pos[815] = 836
degree[814] = 243, pos[814] = 671
degree[813] = 242, pos[813] = 754
degree[812] = 242, pos[812] = 205
degree[811] = 242, pos[811] = 8
degree[810] = 241, pos[810] = 370
degree[809] = 240, pos[809] = 783
degree[808] = 239, pos[808] = 400
degree[807] = 239, pos[807] = 256
degree[806] = 238, pos[806] = 970
degree[805] = 238, pos[805] = 956
degree[804] = 237, pos[804] = 733
degree[803] = 237, pos[803] = 388
degree[802] = 236, pos[802] = 786
degree[801] = 235, pos[801] = 691
degree[800] = 235, pos[800] = 517
degree[799] = 234, pos[799] = 575
degree[798] = 234, pos[798] = 151
degree[797] = 233, pos[797] = 259
degree[796] = 233, pos[796] = 90
degree[795] = 233, pos[795] = 47
degree[794] = 231, pos[794] = 934
degree[793] = 231, pos[793] = 829
degree[792] = 231, pos[792] = 102
degree[791] = 230, pos[791] = 999
degree[790] = 229, pos[790] = 841
degree[789] = 228, pos[789] = 969
degree[788] = 228, pos[788] = 637
degree[787] = 228, pos[787] = 408
degree[786] = 228, pos[786] = 262
degree[785] = 227, pos[785] = 533
degree[784] = 227, pos[784] = 17
degree[783] = 225, pos[783] = 76
degree[782] = 224, pos[782] = 619
degree[781] = 223, pos[781] = 743
degree[780] = 223, pos[780] = 271
degree[779] = 222, pos[779] = 814
degree[778] = 222, pos[778] = 601
degree[777] = 221, pos[777] = 723
degree[776] = 221, pos[776] = 597
degree[775] = 221, pos[775] = 558
degree[774] = 221, pos[774] = 526
degree[773] = 221, pos[773] = 194
degree[772] = 220, pos[772] = 115
degree[771] = 219, pos[771] = 351
degree[770] = 218, pos[770] = 756
degree[769] = 218, pos[769] = 452
degree[768] = 218, pos[768] = 229
degree[767] = 218, pos[767] = 192
degree[766] = 217, pos[766] = 557
degree[765] = 217, pos[765] = 502
degree[764] = 216, pos[764] = 649
degree[763] = 215, pos[763] = 975
degree[762] = 215, pos[762] = 532
degree[761] = 214, pos[761] = 893
degree[760] = 214, pos[760] = 599
degree[759] = 212, pos[759] = 618
degree[758] = 212, pos[758] = 313
degree[757] = 211, pos[757] = 242
degree[756] = 211, pos[756] = 128
degree[755] = 209, pos[755] = 801
degree[754] = 209, pos[754] = 737
degree[753] = 209, pos[753] = 658
degree[752] = 209, pos[752] = 140
degree[751] = 208, pos[751] = 274
degree[750] = 207, pos[750] = 328
degree[749] = 207, pos[749] = 119
degree[748] = 205, pos[748] = 283
degree[747] = 205, pos[747] = 253
degree[746] = 205, pos[746] = 238
degree[745] = 204, pos[745] = 997
degree[744] = 204, pos[744] = 632
degree[743] = 203, pos[743] = 261
degree[742] = 202, pos[742] = 938
degree[741] = 201, pos[741] = 907
degree[740] = 201, pos[740] = 710
degree[739] = 200, pos[739] = 738
degree[738] = 200, pos[738] = 614
degree[737] = 200, pos[737] = 10
degree[736] = 199, pos[736] = 616
degree[735] = 199, pos[735] = 298
degree[734] = 198, pos[734] = 782
degree[733] = 198, pos[733] = 567
degree[732] = 196, pos[732] = 954
degree[731] = 196, pos[731] = 401
degree[730] = 195, pos[730] = 482
degree[729] = 194, pos[729] = 576
degree[728] = 194, pos[728] = 276
degree[727] = 194, pos[727] = 156
degree[726] = 193, pos[726] = 777
degree[725] = 193, pos[725] = 310
degree[724] = 192, pos[724] = 512
degree[723] = 192, pos[723] = 437
degree[722] = 191, pos[722] = 959
degree[721] = 191, pos[721] = 897
degree[720] = 191, pos[720] = 308
degree[719] = 190, pos[719] = 669
degree[718] = 190, pos[718] = 318
degree[717] = 190, pos[717] = 81
degree[716] = 188, pos[716] = 794
degree[715] = 188, pos[715] = 688
degree[714] = 187, pos[714] = 788
degree[713] = 187, pos[713] = 725
degree[712] = 187, pos[712] = 663
degree[711] = 187, pos[711] = 582
degree[710] = 187, pos[710] = 112
degree[709] = 186, pos[709] = 445
degree[708] = 185, pos[708] = 779
degree[707] = 185, pos[707] = 319
degree[706] = 184, pos[706] = 990
degree[705] = 184, pos[705] = 920
degree[704] = 184, pos[704] = 507
degree[703] = 183, pos[703] = 603
degree[702] = 183, pos[702] = 457
degree[701] = 183, pos[701] = 62
degree[700] = 182, pos[700] = 1
degree[699] = 181, pos[699] = 892
degree[698] = 180, pos[698] = 745
degree[697] = 180, pos[697] = 348
degree[696] = 179, pos[696] = 620
degree[695] = 179, pos[695] = 189
degree[694] = 178, pos[694] = 450
degree[693] = 178, pos[693] = 421
degree[692] = 178, pos[692] = 42
degree[691] = 177, pos[691] = 438
degree[690] = 177, pos[690] = 138
degree[689] = 176, pos[689] = 708
degree[688] = 175, pos[688] = 877
degree[687] = 175, pos[687] = 840
degree[686] = 175, pos[686] = 809
degree[685] = 174, pos[685] = 24
degree[684] = 173, pos[684] = 903
degree[683] = 173, pos[683] = 569
degree[682] = 173, pos[682] = 423
degree[681] = 172, pos[681] = 849
degree[680] = 171, pos[680] = 137
degree[679] = 170, pos[679] = 694
degree[678] = 169, pos[678] = 834
degree[677] = 169, pos[677] = 338
degree[676] = 169, pos[676] = 288
degree[675] = 169, pos[675] = 279
degree[674] = 168, pos[674] = 498
degree[673] = 168, pos[673] = 289
degree[672] = 167, pos[672] = 982
degree[671] = 167, pos[671] = 335
degree[670] = 166, pos[670] = 258
degree[669] = 166, pos[669] = 104
degree[668] = 165, pos[668] = 940
degree[667] = 165, pos[667] = 881
degree[666] = 164, pos[666] = 549
degree[665] = 164, pos[665] = 149
degree[664] = 163, pos[664] = 716
degree[663] = 163, pos[663] = 239
degree[662] = 162, pos[662] = 479
degree[661] = 162, pos[661] = 129
degree[660] = 161, pos[660] = 750
degree[659] = 160, pos[659] = 894
degree[658] = 160, pos[658] = 577
degree[657] = 160, pos[657] = 287
degree[656] = 160, pos[656] = 217
degree[655] = 159, pos[655] = 623
degree[654] = 158, pos[654] = 949
degree[653] = 158, pos[653] = 263
degree[652] = 158, pos[652] = 88
degree[651] = 157, pos[651] = 51
degree[650] = 155, pos[650] = 986
degree[649] = 155, pos[649] = 227
degree[648] = 155, pos[648] = 122
degree[647] = 154, pos[647] = 918
degree[646] = 154, pos[646] = 748
degree[645] = 154, pos[645] = 744
degree[644] = 153, pos[644] = 50
degree[643] = 152, pos[643] = 919
degree[642] = 152, pos[642] = 888
degree[641] = 152, pos[641] = 820
degree[640] = 151, pos[640] = 523
degree[639] = 151, pos[639] = 80
degree[638] = 151, pos[638] = 46
degree[637] = 150, pos[637] = 311
degree[636] = 149, pos[636] = 908
degree[635] = 149, pos[635] = 846
degree[634] = 149, pos[634] = 686
degree[633] = 149, pos[633] = 644
degree[632] = 148, pos[632] = 822
degree[631] = 148, pos[631] = 791
degree[630] = 148, pos[630] = 66
degree[629] = 147, pos[629] = 643
degree[628] = 146, pos[628] = 363
degree[627] = 146, pos[627] = 22
degree[626] = 145, pos[626] = 362
degree[625] = 145, pos[625] = 148
degree[624] = 144, pos[624] = 939
degree[623] = 143, pos[623] = 808
degree[622] = 142, pos[622] = 965
degree[621] = 142, pos[621] = 698
degree[620] = 142, pos[620] = 579
degree[619] = 142, pos[619] = 542
degree[618] = 141, pos[618] = 971
degree[617] = 141, pos[617] = 295
degree[616] = 140, pos[616] = 187
degree[615] = 139, pos[615] = 409
degree[614] = 139, pos[614] = 180
degree[613] = 139, pos[613] = 23
degree[612] = 137, pos[612] = 941
degree[611] = 137, pos[611] = 812
degree[610] = 137, pos[610] = 470
degree[609] = 137, pos[609] = 34
degree[608] = 136, pos[608] = 273
degree[607] = 135, pos[607] = 948
degree[606] = 135, pos[606] = 612
degree[605] = 134, pos[605] = 924
degree[604] = 134, pos[604] = 448
degree[603] = 134, pos[603] = 143
degree[602] = 133, pos[602] = 472
degree[601] = 133, pos[601] = 113
degree[600] = 132, pos[600] = 901
degree[599] = 132, pos[599] = 581
degree[598] = 132, pos[598] = 98
degree[597] = 131, pos[597] = 853
degree[596] = 131, pos[596] = 456
degree[595] = 130, pos[595] = 70
degree[594] = 129, pos[594] = 827
degree[593] = 129, pos[593] = 813
degree[592] = 129, pos[592] = 385
degree[591] = 129, pos[591] = 208
degree[590] = 128, pos[590] = 412
degree[589] = 127, pos[589] = 695
degree[588] = 127, pos[588] = 467
degree[587] = 126, pos[587] = 983
degree[586] = 126, pos[586] = 752
degree[585] = 126, pos[585] = 323
degree[584] = 126, pos[584] = 199
degree[583] = 125, pos[583] = 416
degree[582] = 125, pos[582] = 249
degree[581] = 124, pos[581] = 373
degree[580] = 123, pos[580] = 585
degree[579] = 123, pos[579] = 504
degree[578] = 123, pos[578] = 379
degree[577] = 123, pos[577] = 240
degree[576] = 122, pos[576] = 58
degree[575] = 122, pos[575] = 14
degree[574] = 121, pos[574] = 906
degree[573] = 121, pos[573] = 446
degree[572] = 120, pos[572] = 895
degree[571] = 120, pos[571] = 727
degree[570] = 119, pos[570] = 578
degree[569] = 119, pos[569] = 85
degree[568] = 118, pos[568] = 676
degree[567] = 117, pos[567] = 793
degree[566] = 117, pos[566] = 631
degree[565] = 117, pos[565] = 89
degree[564] = 116, pos[564] = 528
degree[563] = 116, pos[563] = 301
degree[562] = 115, pos[562] = 785
degree[561] = 115, pos[561] = 114
degree[560] = 114, pos[560] = 250
degree[559] = 113, pos[559] = 610
degree[558] = 113, pos[558] = 566
degree[557] = 113, pos[557] = 529
degree[556] = 113, pos[556] = 266
degree[555] = 113, pos[555] = 152
degree[554] = 113, pos[554] = 131
degree[553] = 111, pos[553] = 922
degree[552] = 111, pos[552] = 832
degree[551] = 111, pos[551] = 798
degree[550] = 111, pos[550] = 600
degree[549] = 111, pos[549] = 130
degree[548] = 110, pos[548] = 889
degree[547] = 110, pos[547] = 142
degree[546] = 109, pos[546] = 953
degree[545] = 109, pos[545] = 511
degree[544] = 108, pos[544] = 541
degree[543] = 108, pos[543] = 535
degree[542] = 108, pos[542] = 27
degree[541] = 107, pos[541] = 173
degree[540] = 107, pos[540] = 11
degree[539] = 106, pos[539] = 492
degree[538] = 105, pos[538] = 957
degree[537] = 105, pos[537] = 876
degree[536] = 105, pos[536] = 61
degree[535] = 104, pos[535] = 684
degree[534] = 103, pos[534] = 685
degree[533] = 103, pos[533] = 681
degree[532] = 103, pos[532] = 365
degree[531] = 103, pos[531] = 322
degree[530] = 103, pos[530] = 111
degree[529] = 103, pos[529] = 71
degree[528] = 103, pos[528] = 16
degree[527] = 102, pos[527] = 611
degree[526] = 101, pos[526] = 682
degree[525] = 101, pos[525] = 518
degree[524] = 101, pos[524] = 464
degree[523] = 101, pos[523] = 67
degree[522] = 100, pos[522] = 441
degree[521] = 100, pos[521] = 176
degree[520] = 99, pos[520] = 787
degree[519] = 99, pos[519] = 719
degree[518] = 98, pos[518] = 641
degree[517] = 98, pos[517] = 144
degree[516] = 97, pos[516] = 862
degree[515] = 97, pos[515] = 465
degree[514] = 97, pos[514] = 346
degree[513] = 97, pos[513] = 305
degree[512] = 96, pos[512] = 830
degree[511] = 96, pos[511] = 720
degree[510] = 96, pos[510] = 701
degree[509] = 96, pos[509] = 387
degree[508] = 96, pos[508] = 278
degree[507] = 95, pos[507] = 977
degree[506] = 95, pos[506] = 821
degree[505] = 94, pos[505] = 945
degree[504] = 93, pos[504] = 707
degree[503] = 93, pos[503] = 147
degree[502] = 92, pos[502] = 615
degree[501] = 91, pos[501] = 848
degree[500] = 91, pos[500] = 815
degree[499] = 91, pos[499] = 746
degree[498] = 91, pos[498] = 544
degree[497] = 91, pos[497] = 424
degree[496] = 90, pos[496] = 714
degree[495] = 89, pos[495] = 540
degree[494] = 89, pos[494] = 33
degree[493] = 89, pos[493] = 4
degree[492] = 88, pos[492] = 648
degree[491] = 87, pos[491] = 790
degree[490] = 87, pos[490] = 444
degree[489] = 87, pos[489] = 146
degree[488] = 86, pos[488] = 817
degree[487] = 85, pos[487] = 993
degree[486] = 85, pos[486] = 869
degree[485] = 85, pos[485] = 858
degree[484] = 85, pos[484] = 336
degree[483] = 83, pos[483] = 944
degree[482] = 83, pos[482] = 873
degree[481] = 83, pos[481] = 740
degree[480] = 83, pos[480] = 45
degree[479] = 82, pos[479] = 677
degree[478] = 82, pos[478] = 471
degree[477] = 81, pos[477] = 802
degree[476] = 81, pos[476] = 771
degree[475] = 81, pos[475] = 705
degree[474] = 81, pos[474] = 215
degree[473] = 80, pos[473] = 605
degree[472] = 80, pos[472] = 514
degree[471] = 80, pos[471] = 105
degree[470] = 79, pos[470] = 773
degree[469] = 79, pos[469] = 521
degree[468] = 79, pos[468] = 196
degree[467] = 79, pos[467] = 134
degree[466] = 79, pos[466] = 77
degree[465] = 78, pos[465] = 898
degree[464] = 78, pos[464] = 627
degree[463] = 78, pos[463] = 574
degree[462] = 77, pos[462] = 422
degree[461] = 76, pos[461] = 792
degree[460] = 76, pos[460] = 749
degree[459] = 76, pos[459] = 246
degree[458] = 76, pos[458] = 232
degree[457] = 75, pos[457] = 317
degree[456] = 75, pos[456] = 107
degree[455] = 74, pos[455] = 741
degree[454] = 74, pos[454] = 87
degree[453] = 73, pos[453] = 35
degree[452] = 72, pos[452] = 647
degree[451] = 72, pos[451] = 60
degree[450] = 72, pos[450] = 36
degree[449] = 71, pos[449] = 976
degree[448] = 71, pos[448] = 493
degree[447] = 71, pos[447] = 306
degree[446] = 71, pos[446] = 202
degree[445] = 70, pos[445] = 951
degree[444] = 70, pos[444] = 473
degree[443] = 70, pos[443] = 2
degree[442] = 69, pos[442] = 942
degree[441] = 69, pos[441] = 734
degree[440] = 69, pos[440] = 374
degree[439] = 69, pos[439] = 332
degree[438] = 68, pos[438] = 927
degree[437] = 68, pos[437] = 573
degree[436] = 67, pos[436] = 484
degree[435] = 67, pos[435] = 314
degree[434] = 67, pos[434] = 117
degree[433] = 66, pos[433] = 826
degree[432] = 66, pos[432] = 678
degree[431] = 66, pos[431] = 392
degree[430] = 66, pos[430] = 56
degree[429] = 65, pos[429] = 839
degree[428] = 65, pos[428] = 367
degree[427] = 65, pos[427] = 294
degree[426] = 64, pos[426] = 673
degree[425] = 64, pos[425] = 633
degree[424] = 64, pos[424] = 466
degree[423] = 64, pos[423] = 247
degree[422] = 64, pos[422] = 165
degree[421] = 63, pos[421] = 947
degree[420] = 63, pos[420] = 883
degree[419] = 63, pos[419] = 179
degree[418] = 62, pos[418] = 127
degree[417] = 61, pos[417] = 972
degree[416] = 61, pos[416] = 952
degree[415] = 61, pos[415] = 454
degree[414] = 61, pos[414] = 345
degree[413] = 61, pos[413] = 275
degree[412] = 61, pos[412] = 159
degree[411] = 61, pos[411] = 73
degree[410] = 60, pos[410] = 857
degree[409] = 60, pos[409] = 343
degree[408] = 60, pos[408] = 341
degree[407] = 59, pos[407] = 571
degree[406] = 59, pos[406] = 489
degree[405] = 59, pos[405] = 18
degree[404] = 58, pos[404] = 974
degree[403] = 58, pos[403] = 186
degree[402] = 57, pos[402] = 981
degree[401] = 57, pos[401] = 909
degree[400] = 57, pos[400] = 860
degree[399] = 57, pos[399] = 509
degree[398] = 57, pos[398] = 174
degree[397] = 56, pos[397] = 828
degree[396] = 56, pos[396] = 758
degree[395] = 56, pos[395] = 500
degree[394] = 55, pos[394] = 825
degree[393] = 55, pos[393] = 556
degree[392] = 55, pos[392] = 212
degree[391] = 55, pos[391] = 59
degree[390] = 54, pos[390] = 872
degree[389] = 54, pos[389] = 772
degree[388] = 54, pos[388] = 52
degree[387] = 53, pos[387] = 803
degree[386] = 53, pos[386] = 706
degree[385] = 53, pos[385] = 594
degree[384] = 53, pos[384] = 455
degree[383] = 52, pos[383] = 486
degree[382] = 52, pos[382] = 175
degree[381] = 51, pos[381] = 930
degree[380] = 51, pos[380] = 816
degree[379] = 51, pos[379] = 237
degree[378] = 50, pos[378] = 985
degree[377] = 50, pos[377] = 655
degree[376] = 50, pos[376] = 583
degree[375] = 50, pos[375] = 510
degree[374] = 50, pos[374] = 428
degree[373] = 49, pos[373] = 929
degree[372] = 49, pos[372] = 915
degree[371] = 49, pos[371] = 780
degree[370] = 49, pos[370] = 433
degree[369] = 49, pos[369] = 68
degree[368] = 49, pos[368] = 53
degree[367] = 48, pos[367] = 642
degree[366] = 48, pos[366] = 604
degree[365] = 48, pos[365] = 292
degree[364] = 48, pos[364] = 124
degree[363] = 46, pos[363] = 958
degree[362] = 46, pos[362] = 842
degree[361] = 46, pos[361] = 690
degree[360] = 46, pos[360] = 680
degree[359] = 45, pos[359] = 831
degree[358] = 45, pos[358] = 674
degree[357] = 45, pos[357] = 501
degree[356] = 45, pos[356] = 453
degree[355] = 45, pos[355] = 419
degree[354] = 44, pos[354] = 795
degree[353] = 44, pos[353] = 372
degree[352] = 44, pos[352] = 221
degree[351] = 44, pos[351] = 20
degree[350] = 43, pos[350] = 870
degree[349] = 43, pos[349] = 508
degree[348] = 43, pos[348] = 43
degree[347] = 43, pos[347] = 0
degree[346] = 42, pos[346] = 546
degree[345] = 41, pos[345] = 923
degree[344] = 41, pos[344] = 606
degree[343] = 41, pos[343] = 591
degree[342] = 41, pos[342] = 478
degree[341] = 41, pos[341] = 220
degree[340] = 40, pos[340] = 683
degree[339] = 40, pos[339] = 553
degree[338] = 40, pos[338] = 396
degree[337] = 39, pos[337] = 937
degree[336] = 39, pos[336] = 766
degree[335] = 39, pos[335] = 699
degree[334] = 39, pos[334] = 580
degree[333] = 39, pos[333] = 135
degree[332] = 38, pos[332] = 890
degree[331] = 38, pos[331] = 765
degree[330] = 38, pos[330] = 724
degree[329] = 38, pos[329] = 645
degree[328] = 38, pos[328] = 590
degree[327] = 38, pos[327] = 304
degree[326] = 38, pos[326] = 65
degree[325] = 37, pos[325] = 692
degree[324] = 37, pos[324] = 625
degree[323] = 37, pos[323] = 290
degree[322] = 37, pos[322] = 158
degree[321] = 36, pos[321] = 925
degree[320] = 36, pos[320] = 592
degree[319] = 36, pos[319] = 462
degree[318] = 36, pos[318] = 251
degree[317] = 36, pos[317] = 31
degree[316] = 35, pos[316] = 806
degree[315] = 35, pos[315] = 736
degree[314] = 35, pos[314] = 587
degree[313] = 35, pos[313] = 395
degree[312] = 35, pos[312] = 82
degree[311] = 34, pos[311] = 747
degree[310] = 34, pos[310] = 214
degree[309] = 33, pos[309] = 933
degree[308] = 33, pos[308] = 634
degree[307] = 33, pos[307] = 254
degree[306] = 32, pos[306] = 689
degree[305] = 32, pos[305] = 487
degree[304] = 32, pos[304] = 480
degree[303] = 32, pos[303] = 475
degree[302] = 31, pos[302] = 998
degree[301] = 31, pos[301] = 880
degree[300] = 31, pos[300] = 447
degree[299] = 30, pos[299] = 844
degree[298] = 30, pos[298] = 696
degree[297] = 30, pos[297] = 624
degree[296] = 30, pos[296] = 586
degree[295] = 30, pos[295] = 340
degree[294] = 30, pos[294] = 75
degree[293] = 30, pos[293] = 40
degree[292] = 30, pos[292] = 6
degree[291] = 29, pos[291] = 778
degree[290] = 29, pos[290] = 209
degree[289] = 29, pos[289] = 126
degree[288] = 29, pos[288] = 44
degree[287] = 28, pos[287] = 712
degree[286] = 28, pos[286] = 664
degree[285] = 28, pos[285] = 608
degree[284] = 28, pos[284] = 485
degree[283] = 28, pos[283] = 93
degree[282] = 27, pos[282] = 703
degree[281] = 27, pos[281] = 589
degree[280] = 27, pos[280] = 474
degree[279] = 27, pos[279] = 404
degree[278] = 27, pos[278] = 277
degree[277] = 27, pos[277] = 257
degree[276] = 26, pos[276] = 520
degree[275] = 26, pos[275] = 519
degree[274] = 26, pos[274] = 402
degree[273] = 26, pos[273] = 326
degree[272] = 26, pos[272] = 15
degree[271] = 25, pos[271] = 964
degree[270] = 25, pos[270] = 761
degree[269] = 25, pos[269] = 390
degree[268] = 25, pos[268] = 382
degree[267] = 25, pos[267] = 339
degree[266] = 25, pos[266] = 269
degree[265] = 25, pos[265] = 110
degree[264] = 24, pos[264] = 767
degree[263] = 24, pos[263] = 697
degree[262] = 24, pos[262] = 285
degree[261] = 23, pos[261] = 770
degree[260] = 23, pos[260] = 440
degree[259] = 23, pos[259] = 337
degree[258] = 23, pos[258] = 213
degree[257] = 22, pos[257] = 868
degree[256] = 22, pos[256] = 617
degree[255] = 22, pos[255] = 515
degree[254] = 22, pos[254] = 123
degree[253] = 21, pos[253] = 887
degree[252] = 21, pos[252] = 722
degree[251] = 21, pos[251] = 672
degree[250] = 21, pos[250] = 659
degree[249] = 21, pos[249] = 435
degree[248] = 21, pos[248] = 418
degree[247] = 21, pos[247] = 206
degree[246] = 21, pos[246] = 13
degree[245] = 20, pos[245] = 732
degree[244] = 20, pos[244] = 525
degree[243] = 20, pos[243] = 406
degree[242] = 19, pos[242] = 978
degree[241] = 19, pos[241] = 843
degree[240] = 19, pos[240] = 742
degree[239] = 19, pos[239] = 656
degree[238] = 19, pos[238] = 166
degree[237] = 19, pos[237] = 3
degree[236] = 18, pos[236] = 917
degree[235] = 18, pos[235] = 774
degree[234] = 18, pos[234] = 593
degree[233] = 18, pos[233] = 538
degree[232] = 18, pos[232] = 434
degree[231] = 18, pos[231] = 378
degree[230] = 18, pos[230] = 364
degree[229] = 18, pos[229] = 357
degree[228] = 17, pos[228] = 768
degree[227] = 17, pos[227] = 490
degree[226] = 17, pos[226] = 181
degree[225] = 16, pos[225] = 979
degree[224] = 16, pos[224] = 735
degree[223] = 16, pos[223] = 726
degree[222] = 16, pos[222] = 572
degree[221] = 16, pos[221] = 267
degree[220] = 16, pos[220] = 245
degree[219] = 16, pos[219] = 233
degree[218] = 16, pos[218] = 183
degree[217] = 16, pos[217] = 133
degree[216] = 16, pos[216] = 38
degree[215] = 15, pos[215] = 665
degree[214] = 15, pos[214] = 431
degree[213] = 15, pos[213] = 407
degree[212] = 15, pos[212] = 403
degree[211] = 15, pos[211] = 222
degree[210] = 15, pos[210] = 210
degree[209] = 15, pos[209] = 150
degree[208] = 15, pos[208] = 29
degree[207] = 14, pos[207] = 884
degree[206] = 14, pos[206] = 651
degree[205] = 14, pos[205] = 630
degree[204] = 14, pos[204] = 560
degree[203] = 14, pos[203] = 360
degree[202] = 14, pos[202] = 354
degree[201] = 13, pos[201] = 989
degree[200] = 13, pos[200] = 721
degree[199] = 13, pos[199] = 609
degree[198] = 13, pos[198] = 426
degree[197] = 13, pos[197] = 218
degree[196] = 13, pos[196] = 48
degree[195] = 13, pos[195] = 21
degree[194] = 12, pos[194] = 900
degree[193] = 12, pos[193] = 650
degree[192] = 12, pos[192] = 499
degree[191] = 12, pos[191] = 436
degree[190] = 12, pos[190] = 389
degree[189] = 12, pos[189] = 204
degree[188] = 11, pos[188] = 693
degree[187] = 11, pos[187] = 522
degree[186] = 11, pos[186] = 516
degree[185] = 11, pos[185] = 461
degree[184] = 11, pos[184] = 429
degree[183] = 11, pos[183] = 366
degree[182] = 11, pos[182] = 361
degree[181] = 11, pos[181] = 356
degree[180] = 11, pos[180] = 94
degree[179] = 11, pos[179] = 63
degree[178] = 10, pos[178] = 967
degree[177] = 10, pos[177] = 904
degree[176] = 10, pos[176] = 807
degree[175] = 10, pos[175] = 804
degree[174] = 10, pos[174] = 653
degree[173] = 10, pos[173] = 425
degree[172] = 10, pos[172] = 375
degree[171] = 10, pos[171] = 72
degree[170] = 10, pos[170] = 25
degree[169] = 9, pos[169] = 731
degree[168] = 9, pos[168] = 711
degree[167] = 9, pos[167] = 657
degree[166] = 9, pos[166] = 595
degree[165] = 9, pos[165] = 386
degree[164] = 9, pos[164] = 384
degree[163] = 9, pos[163] = 281
degree[162] = 9, pos[162] = 223
degree[161] = 9, pos[161] = 118
degree[160] = 8, pos[160] = 679
degree[159] = 8, pos[159] = 613
degree[158] = 8, pos[158] = 530
degree[157] = 8, pos[157] = 330
degree[156] = 8, pos[156] = 303
degree[155] = 8, pos[155] = 216
degree[154] = 8, pos[154] = 157
degree[153] = 8, pos[153] = 55
degree[152] = 7, pos[152] = 980
degree[151] = 7, pos[151] = 865
degree[150] = 7, pos[150] = 713
degree[149] = 7, pos[149] = 545
degree[148] = 7, pos[148] = 449
degree[147] = 7, pos[147] = 371
degree[146] = 7, pos[146] = 224
degree[145] = 7, pos[145] = 211
degree[144] = 7, pos[144] = 101
degree[143] = 6, pos[143] = 789
degree[142] = 6, pos[142] = 717
degree[141] = 6, pos[141] = 654
degree[140] = 6, pos[140] = 563
degree[139] = 6, pos[139] = 506
degree[138] = 6, pos[138] = 324
degree[137] = 6, pos[137] = 272
degree[136] = 6, pos[136] = 255
degree[135] = 6, pos[135] = 155
degree[134] = 6, pos[134] = 54
degree[133] = 5, pos[133] = 995
degree[132] = 5, pos[132] = 936
degree[131] = 5, pos[131] = 851
degree[130] = 5, pos[130] = 700
degree[129] = 5, pos[129] = 539
degree[128] = 5, pos[128] = 468
degree[127] = 5, pos[127] = 420
degree[126] = 5, pos[126] = 381
degree[125] = 5, pos[125] = 349
degree[124] = 5, pos[124] = 230
degree[123] = 4, pos[123] = 885
degree[122] = 4, pos[122] = 879
degree[121] = 4, pos[121] = 833
degree[120] = 4, pos[120] = 819
degree[119] = 4, pos[119] = 391
degree[118] = 4, pos[118] = 355
degree[117] = 4, pos[117] = 260
degree[116] = 4, pos[116] = 182
degree[115] = 4, pos[115] = 116
degree[114] = 4, pos[114] = 99
degree[113] = 3, pos[113] = 950
degree[112] = 3, pos[112] = 912
degree[111] = 3, pos[111] = 852
degree[110] = 3, pos[110] = 702
degree[109] = 3, pos[109] = 660
degree[108] = 3, pos[108] = 628
degree[107] = 3, pos[107] = 602
degree[106] = 3, pos[106] = 551
degree[105] = 3, pos[105] = 347
degree[104] = 3, pos[104] = 268
degree[103] = 3, pos[103] = 200
degree[102] = 3, pos[102] = 168
degree[101] = 3, pos[101] = 9
degree[100] = 2, pos[100] = 935
degree[99] = 2, pos[99] = 916
degree[98] = 2, pos[98] = 859
degree[97] = 2, pos[97] = 769
degree[96] = 2, pos[96] = 751
degree[95] = 2, pos[95] = 596
degree[94] = 2, pos[94] = 588
degree[93] = 2, pos[93] = 550
degree[92] = 2, pos[92] = 543
degree[91] = 2, pos[91] = 505
degree[90] = 2, pos[90] = 469
degree[89] = 2, pos[89] = 399
degree[88] = 2, pos[88] = 358
degree[87] = 2, pos[87] = 327
degree[86] = 2, pos[86] = 312
degree[85] = 2, pos[85] = 244
degree[84] = 2, pos[84] = 243
degree[83] = 2, pos[83] = 120
degree[82] = 2, pos[82] = 49
degree[81] = 1, pos[81] = 988
degree[80] = 1, pos[80] = 984
degree[79] = 1, pos[79] = 946
degree[78] = 1, pos[78] = 882
degree[77] = 1, pos[77] = 845
degree[76] = 1, pos[76] = 757
degree[75] = 1, pos[75] = 555
degree[74] = 1, pos[74] = 483
degree[73] = 1, pos[73] = 477
degree[72] = 1, pos[72] = 476
degree[71] = 1, pos[71] = 458
degree[70] = 1, pos[70] = 432
degree[69] = 1, pos[69] = 309
degree[68] = 1, pos[68] = 307
degree[67] = 1, pos[67] = 300
degree[66] = 1, pos[66] = 197
degree[65] = 1, pos[65] = 95
degree[64] = 0, pos[64] = 973
degree[63] = 0, pos[63] = 955
degree[62] = 0, pos[62] = 931
degree[61] = 0, pos[61] = 914
degree[60] = 0, pos[60] = 886
degree[59] = 0, pos[59] = 874
degree[58] = 0, pos[58] = 864
degree[57] = 0, pos[57] = 854
degree[56] = 0, pos[56] = 837
degree[55] = 0, pos[55] = 764
degree[54] = 0, pos[54] = 763
degree[53] = 0, pos[53] = 739
degree[52] = 0, pos[52] = 728
degree[51] = 0, pos[51] = 675
degree[50] = 0, pos[50] = 667
degree[49] = 0, pos[49] = 646
degree[48] = 0, pos[48] = 626
degree[47] = 0, pos[47] = 621
degree[46] = 0, pos[46] = 559
degree[45] = 0, pos[45] = 552
degree[44] = 0, pos[44] = 513
degree[43] = 0, pos[43] = 497
degree[42] = 0, pos[42] = 495
degree[41] = 0, pos[41] = 481
degree[40] = 0, pos[40] = 459
degree[39] = 0, pos[39] = 430
degree[38] = 0, pos[38] = 417
degree[37] = 0, pos[37] = 413
degree[36] = 0, pos[36] = 398
degree[35] = 0, pos[35] = 397
degree[34] = 0, pos[34] = 383
degree[33] = 0, pos[33] = 380
degree[32] = 0, pos[32] = 353
degree[31] = 0, pos[31] = 352
degree[30] = 0, pos[30] = 344
degree[29] = 0, pos[29] = 320
degree[28] = 0, pos[28] = 316
degree[27] = 0, pos[27] = 315
degree[26] = 0, pos[26] = 299
degree[25] = 0, pos[25] = 293
degree[24] = 0, pos[24] = 264
degree[23] = 0, pos[23] = 236
degree[22] = 0, pos[22] = 234
degree[21] = 0, pos[21] = 231
degree[20] = 0, pos[20] = 228
degree[19] = 0, pos[19] = 219
degree[18] = 0, pos[18] = 190
degree[17] = 0, pos[17] = 188
degree[16] = 0, pos[16] = 184
degree[15] = 0, pos[15] = 169
degree[14] = 0, pos[14] = 167
degree[13] = 0, pos[13] = 164
degree[12] = 0, pos[12] = 145
degree[11] = 0, pos[11] = 109
degree[10] = 0, pos[10] = 108
degree[9] = 0, pos[9] = 106
degree[8] = 0, pos[8] = 92
degree[7] = 0, pos[7] = 78
degree[6] = 0, pos[6] = 69
degree[5] = 0, pos[5] = 57
degree[4] = 0, pos[4] = 41
degree[3] = 0, pos[3] = 39
degree[2] = 0, pos[2] = 30
degree[1] = 0, pos[1] = 12
degree[0] = 0, pos[0] = 5
Pos[0] = 5
Pos[1] = 12
Pos[2] = 30
Pos[3] = 39
Pos[4] = 41
Pos[5] = 57
Pos[6] = 69
Pos[7] = 78
Pos[8] = 92
Pos[9] = 106
Pos[10] = 108
Pos[11] = 109
Pos[12] = 145
Pos[13] = 164
Pos[14] = 167
Pos[15] = 169
Pos[16] = 184
Pos[17] = 188
Pos[18] = 190
Pos[19] = 219
Pos[20] = 228
Pos[21] = 231
Pos[22] = 234
Pos[23] = 236
Pos[24] = 264
Pos[25] = 293
Pos[26] = 299
Pos[27] = 315
Pos[28] = 316
Pos[29] = 320
Pos[30] = 344
Pos[31] = 352
Pos[32] = 353
Pos[33] = 380
Pos[34] = 383
Pos[35] = 397
Pos[36] = 398
Pos[37] = 413
Pos[38] = 417
Pos[39] = 430
Pos[40] = 459
Pos[41] = 481
Pos[42] = 495
Pos[43] = 497
Pos[44] = 513
Pos[45] = 552
Pos[46] = 559
Pos[47] = 621
Pos[48] = 626
Pos[49] = 646
Pos[50] = 667
Pos[51] = 675
Pos[52] = 728
Pos[53] = 739
Pos[54] = 763
Pos[55] = 764
Pos[56] = 837
Pos[57] = 854
Pos[58] = 864
Pos[59] = 874
Pos[60] = 886
Pos[61] = 914
Pos[62] = 931
Pos[63] = 955
Pos[64] = 973
Pos[65] = 95
Pos[66] = 197
Pos[67] = 300
Pos[68] = 307
Pos[69] = 309
Pos[70] = 432
Pos[71] = 458
Pos[72] = 476
Pos[73] = 477
Pos[74] = 483
Pos[75] = 555
Pos[76] = 757
Pos[77] = 845
Pos[78] = 882
Pos[79] = 946
Pos[80] = 984
Pos[81] = 988
Pos[82] = 49
Pos[83] = 120
Pos[84] = 243
Pos[85] = 244
Pos[86] = 312
Pos[87] = 327
Pos[88] = 358
Pos[89] = 399
Pos[90] = 469
Pos[91] = 505
Pos[92] = 543
Pos[93] = 550
Pos[94] = 588
Pos[95] = 596
Pos[96] = 751
Pos[97] = 769
Pos[98] = 859
Pos[99] = 916
Pos[100] = 935
Pos[101] = 9
Pos[102] = 168
Pos[103] = 200
Pos[104] = 268
Pos[105] = 347
Pos[106] = 551
Pos[107] = 602
Pos[108] = 628
Pos[109] = 660
Pos[110] = 702
Pos[111] = 852
Pos[112] = 912
Pos[113] = 950
Pos[114] = 99
Pos[115] = 116
Pos[116] = 182
Pos[117] = 260
Pos[118] = 355
Pos[119] = 391
Pos[120] = 819
Pos[121] = 833
Pos[122] = 879
Pos[123] = 885
Pos[124] = 230
Pos[125] = 349
Pos[126] = 381
Pos[127] = 420
Pos[128] = 468
Pos[129] = 539
Pos[130] = 700
Pos[131] = 851
Pos[132] = 936
Pos[133] = 995
Pos[134] = 54
Pos[135] = 155
Pos[136] = 255
Pos[137] = 272
Pos[138] = 324
Pos[139] = 506
Pos[140] = 563
Pos[141] = 654
Pos[142] = 717
Pos[143] = 789
Pos[144] = 101
Pos[145] = 211
Pos[146] = 224
Pos[147] = 371
Pos[148] = 449
Pos[149] = 545
Pos[150] = 713
Pos[151] = 865
Pos[152] = 980
Pos[153] = 55
Pos[154] = 157
Pos[155] = 216
Pos[156] = 303
Pos[157] = 330
Pos[158] = 530
Pos[159] = 613
Pos[160] = 679
Pos[161] = 118
Pos[162] = 223
Pos[163] = 281
Pos[164] = 384
Pos[165] = 386
Pos[166] = 595
Pos[167] = 657
Pos[168] = 711
Pos[169] = 731
Pos[170] = 25
Pos[171] = 72
Pos[172] = 375
Pos[173] = 425
Pos[174] = 653
Pos[175] = 804
Pos[176] = 807
Pos[177] = 904
Pos[178] = 967
Pos[179] = 63
Pos[180] = 94
Pos[181] = 356
Pos[182] = 361
Pos[183] = 366
Pos[184] = 429
Pos[185] = 461
Pos[186] = 516
Pos[187] = 522
Pos[188] = 693
Pos[189] = 204
Pos[190] = 389
Pos[191] = 436
Pos[192] = 499
Pos[193] = 650
Pos[194] = 900
Pos[195] = 21
Pos[196] = 48
Pos[197] = 218
Pos[198] = 426
Pos[199] = 609
Pos[200] = 721
Pos[201] = 989
Pos[202] = 354
Pos[203] = 360
Pos[204] = 560
Pos[205] = 630
Pos[206] = 651
Pos[207] = 884
Pos[208] = 29
Pos[209] = 150
Pos[210] = 210
Pos[211] = 222
Pos[212] = 403
Pos[213] = 407
Pos[214] = 431
Pos[215] = 665
Pos[216] = 38
Pos[217] = 133
Pos[218] = 183
Pos[219] = 233
Pos[220] = 245
Pos[221] = 267
Pos[222] = 572
Pos[223] = 726
Pos[224] = 735
Pos[225] = 979
Pos[226] = 181
Pos[227] = 490
Pos[228] = 768
Pos[229] = 357
Pos[230] = 364
Pos[231] = 378
Pos[232] = 434
Pos[233] = 538
Pos[234] = 593
Pos[235] = 774
Pos[236] = 917
Pos[237] = 3
Pos[238] = 166
Pos[239] = 656
Pos[240] = 742
Pos[241] = 843
Pos[242] = 978
Pos[243] = 406
Pos[244] = 525
Pos[245] = 732
Pos[246] = 13
Pos[247] = 206
Pos[248] = 418
Pos[249] = 435
Pos[250] = 659
Pos[251] = 672
Pos[252] = 722
Pos[253] = 887
Pos[254] = 123
Pos[255] = 515
Pos[256] = 617
Pos[257] = 868
Pos[258] = 213
Pos[259] = 337
Pos[260] = 440
Pos[261] = 770
Pos[262] = 285
Pos[263] = 697
Pos[264] = 767
Pos[265] = 110
Pos[266] = 269
Pos[267] = 339
Pos[268] = 382
Pos[269] = 390
Pos[270] = 761
Pos[271] = 964
Pos[272] = 15
Pos[273] = 326
Pos[274] = 402
Pos[275] = 519
Pos[276] = 520
Pos[277] = 257
Pos[278] = 277
Pos[279] = 404
Pos[280] = 474
Pos[281] = 589
Pos[282] = 703
Pos[283] = 93
Pos[284] = 485
Pos[285] = 608
Pos[286] = 664
Pos[287] = 712
Pos[288] = 44
Pos[289] = 126
Pos[290] = 209
Pos[291] = 778
Pos[292] = 6
Pos[293] = 40
Pos[294] = 75
Pos[295] = 340
Pos[296] = 586
Pos[297] = 624
Pos[298] = 696
Pos[299] = 844
Pos[300] = 447
Pos[301] = 880
Pos[302] = 998
Pos[303] = 475
Pos[304] = 480
Pos[305] = 487
Pos[306] = 689
Pos[307] = 254
Pos[308] = 634
Pos[309] = 933
Pos[310] = 214
Pos[311] = 747
Pos[312] = 82
Pos[313] = 395
Pos[314] = 587
Pos[315] = 736
Pos[316] = 806
Pos[317] = 31
Pos[318] = 251
Pos[319] = 462
Pos[320] = 592
Pos[321] = 925
Pos[322] = 158
Pos[323] = 290
Pos[324] = 625
Pos[325] = 692
Pos[326] = 65
Pos[327] = 304
Pos[328] = 590
Pos[329] = 645
Pos[330] = 724
Pos[331] = 765
Pos[332] = 890
Pos[333] = 135
Pos[334] = 580
Pos[335] = 699
Pos[336] = 766
Pos[337] = 937
Pos[338] = 396
Pos[339] = 553
Pos[340] = 683
Pos[341] = 220
Pos[342] = 478
Pos[343] = 591
Pos[344] = 606
Pos[345] = 923
Pos[346] = 546
Pos[347] = 0
Pos[348] = 43
Pos[349] = 508
Pos[350] = 870
Pos[351] = 20
Pos[352] = 221
Pos[353] = 372
Pos[354] = 795
Pos[355] = 419
Pos[356] = 453
Pos[357] = 501
Pos[358] = 674
Pos[359] = 831
Pos[360] = 680
Pos[361] = 690
Pos[362] = 842
Pos[363] = 958
Pos[364] = 124
Pos[365] = 292
Pos[366] = 604
Pos[367] = 642
Pos[368] = 53
Pos[369] = 68
Pos[370] = 433
Pos[371] = 780
Pos[372] = 915
Pos[373] = 929
Pos[374] = 428
Pos[375] = 510
Pos[376] = 583
Pos[377] = 655
Pos[378] = 985
Pos[379] = 237
Pos[380] = 816
Pos[381] = 930
Pos[382] = 175
Pos[383] = 486
Pos[384] = 455
Pos[385] = 594
Pos[386] = 706
Pos[387] = 803
Pos[388] = 52
Pos[389] = 772
Pos[390] = 872
Pos[391] = 59
Pos[392] = 212
Pos[393] = 556
Pos[394] = 825
Pos[395] = 500
Pos[396] = 758
Pos[397] = 828
Pos[398] = 174
Pos[399] = 509
Pos[400] = 860
Pos[401] = 909
Pos[402] = 981
Pos[403] = 186
Pos[404] = 974
Pos[405] = 18
Pos[406] = 489
Pos[407] = 571
Pos[408] = 341
Pos[409] = 343
Pos[410] = 857
Pos[411] = 73
Pos[412] = 159
Pos[413] = 275
Pos[414] = 345
Pos[415] = 454
Pos[416] = 952
Pos[417] = 972
Pos[418] = 127
Pos[419] = 179
Pos[420] = 883
Pos[421] = 947
Pos[422] = 165
Pos[423] = 247
Pos[424] = 466
Pos[425] = 633
Pos[426] = 673
Pos[427] = 294
Pos[428] = 367
Pos[429] = 839
Pos[430] = 56
Pos[431] = 392
Pos[432] = 678
Pos[433] = 826
Pos[434] = 117
Pos[435] = 314
Pos[436] = 484
Pos[437] = 573
Pos[438] = 927
Pos[439] = 332
Pos[440] = 374
Pos[441] = 734
Pos[442] = 942
Pos[443] = 2
Pos[444] = 473
Pos[445] = 951
Pos[446] = 202
Pos[447] = 306
Pos[448] = 493
Pos[449] = 976
Pos[450] = 36
Pos[451] = 60
Pos[452] = 647
Pos[453] = 35
Pos[454] = 87
Pos[455] = 741
Pos[456] = 107
Pos[457] = 317
Pos[458] = 232
Pos[459] = 246
Pos[460] = 749
Pos[461] = 792
Pos[462] = 422
Pos[463] = 574
Pos[464] = 627
Pos[465] = 898
Pos[466] = 77
Pos[467] = 134
Pos[468] = 196
Pos[469] = 521
Pos[470] = 773
Pos[471] = 105
Pos[472] = 514
Pos[473] = 605
Pos[474] = 215
Pos[475] = 705
Pos[476] = 771
Pos[477] = 802
Pos[478] = 471
Pos[479] = 677
Pos[480] = 45
Pos[481] = 740
Pos[482] = 873
Pos[483] = 944
Pos[484] = 336
Pos[485] = 858
Pos[486] = 869
Pos[487] = 993
Pos[488] = 817
Pos[489] = 146
Pos[490] = 444
Pos[491] = 790
Pos[492] = 648
Pos[493] = 4
Pos[494] = 33
Pos[495] = 540
Pos[496] = 714
Pos[497] = 424
Pos[498] = 544
Pos[499] = 746
Pos[500] = 815
Pos[501] = 848
Pos[502] = 615
Pos[503] = 147
Pos[504] = 707
Pos[505] = 945
Pos[506] = 821
Pos[507] = 977
Pos[508] = 278
Pos[509] = 387
Pos[510] = 701
Pos[511] = 720
Pos[512] = 830
Pos[513] = 305
Pos[514] = 346
Pos[515] = 465
Pos[516] = 862
Pos[517] = 144
Pos[518] = 641
Pos[519] = 719
Pos[520] = 787
Pos[521] = 176
Pos[522] = 441
Pos[523] = 67
Pos[524] = 464
Pos[525] = 518
Pos[526] = 682
Pos[527] = 611
Pos[528] = 16
Pos[529] = 71
Pos[530] = 111
Pos[531] = 322
Pos[532] = 365
Pos[533] = 681
Pos[534] = 685
Pos[535] = 684
Pos[536] = 61
Pos[537] = 876
Pos[538] = 957
Pos[539] = 492
Pos[540] = 11
Pos[541] = 173
Pos[542] = 27
Pos[543] = 535
Pos[544] = 541
Pos[545] = 511
Pos[546] = 953
Pos[547] = 142
Pos[548] = 889
Pos[549] = 130
Pos[550] = 600
Pos[551] = 798
Pos[552] = 832
Pos[553] = 922
Pos[554] = 131
Pos[555] = 152
Pos[556] = 266
Pos[557] = 529
Pos[558] = 566
Pos[559] = 610
Pos[560] = 250
Pos[561] = 114
Pos[562] = 785
Pos[563] = 301
Pos[564] = 528
Pos[565] = 89
Pos[566] = 631
Pos[567] = 793
Pos[568] = 676
Pos[569] = 85
Pos[570] = 578
Pos[571] = 727
Pos[572] = 895
Pos[573] = 446
Pos[574] = 906
Pos[575] = 14
Pos[576] = 58
Pos[577] = 240
Pos[578] = 379
Pos[579] = 504
Pos[580] = 585
Pos[581] = 373
Pos[582] = 249
Pos[583] = 416
Pos[584] = 199
Pos[585] = 323
Pos[586] = 752
Pos[587] = 983
Pos[588] = 467
Pos[589] = 695
Pos[590] = 412
Pos[591] = 208
Pos[592] = 385
Pos[593] = 813
Pos[594] = 827
Pos[595] = 70
Pos[596] = 456
Pos[597] = 853
Pos[598] = 98
Pos[599] = 581
Pos[600] = 901
Pos[601] = 113
Pos[602] = 472
Pos[603] = 143
Pos[604] = 448
Pos[605] = 924
Pos[606] = 612
Pos[607] = 948
Pos[608] = 273
Pos[609] = 34
Pos[610] = 470
Pos[611] = 812
Pos[612] = 941
Pos[613] = 23
Pos[614] = 180
Pos[615] = 409
Pos[616] = 187
Pos[617] = 295
Pos[618] = 971
Pos[619] = 542
Pos[620] = 579
Pos[621] = 698
Pos[622] = 965
Pos[623] = 808
Pos[624] = 939
Pos[625] = 148
Pos[626] = 362
Pos[627] = 22
Pos[628] = 363
Pos[629] = 643
Pos[630] = 66
Pos[631] = 791
Pos[632] = 822
Pos[633] = 644
Pos[634] = 686
Pos[635] = 846
Pos[636] = 908
Pos[637] = 311
Pos[638] = 46
Pos[639] = 80
Pos[640] = 523
Pos[641] = 820
Pos[642] = 888
Pos[643] = 919
Pos[644] = 50
Pos[645] = 744
Pos[646] = 748
Pos[647] = 918
Pos[648] = 122
Pos[649] = 227
Pos[650] = 986
Pos[651] = 51
Pos[652] = 88
Pos[653] = 263
Pos[654] = 949
Pos[655] = 623
Pos[656] = 217
Pos[657] = 287
Pos[658] = 577
Pos[659] = 894
Pos[660] = 750
Pos[661] = 129
Pos[662] = 479
Pos[663] = 239
Pos[664] = 716
Pos[665] = 149
Pos[666] = 549
Pos[667] = 881
Pos[668] = 940
Pos[669] = 104
Pos[670] = 258
Pos[671] = 335
Pos[672] = 982
Pos[673] = 289
Pos[674] = 498
Pos[675] = 279
Pos[676] = 288
Pos[677] = 338
Pos[678] = 834
Pos[679] = 694
Pos[680] = 137
Pos[681] = 849
Pos[682] = 423
Pos[683] = 569
Pos[684] = 903
Pos[685] = 24
Pos[686] = 809
Pos[687] = 840
Pos[688] = 877
Pos[689] = 708
Pos[690] = 138
Pos[691] = 438
Pos[692] = 42
Pos[693] = 421
Pos[694] = 450
Pos[695] = 189
Pos[696] = 620
Pos[697] = 348
Pos[698] = 745
Pos[699] = 892
Pos[700] = 1
Pos[701] = 62
Pos[702] = 457
Pos[703] = 603
Pos[704] = 507
Pos[705] = 920
Pos[706] = 990
Pos[707] = 319
Pos[708] = 779
Pos[709] = 445
Pos[710] = 112
Pos[711] = 582
Pos[712] = 663
Pos[713] = 725
Pos[714] = 788
Pos[715] = 688
Pos[716] = 794
Pos[717] = 81
Pos[718] = 318
Pos[719] = 669
Pos[720] = 308
Pos[721] = 897
Pos[722] = 959
Pos[723] = 437
Pos[724] = 512
Pos[725] = 310
Pos[726] = 777
Pos[727] = 156
Pos[728] = 276
Pos[729] = 576
Pos[730] = 482
Pos[731] = 401
Pos[732] = 954
Pos[733] = 567
Pos[734] = 782
Pos[735] = 298
Pos[736] = 616
Pos[737] = 10
Pos[738] = 614
Pos[739] = 738
Pos[740] = 710
Pos[741] = 907
Pos[742] = 938
Pos[743] = 261
Pos[744] = 632
Pos[745] = 997
Pos[746] = 238
Pos[747] = 253
Pos[748] = 283
Pos[749] = 119
Pos[750] = 328
Pos[751] = 274
Pos[752] = 140
Pos[753] = 658
Pos[754] = 737
Pos[755] = 801
Pos[756] = 128
Pos[757] = 242
Pos[758] = 313
Pos[759] = 618
Pos[760] = 599
Pos[761] = 893
Pos[762] = 532
Pos[763] = 975
Pos[764] = 649
Pos[765] = 502
Pos[766] = 557
Pos[767] = 192
Pos[768] = 229
Pos[769] = 452
Pos[770] = 756
Pos[771] = 351
Pos[772] = 115
Pos[773] = 194
Pos[774] = 526
Pos[775] = 558
Pos[776] = 597
Pos[777] = 723
Pos[778] = 601
Pos[779] = 814
Pos[780] = 271
Pos[781] = 743
Pos[782] = 619
Pos[783] = 76
Pos[784] = 17
Pos[785] = 533
Pos[786] = 262
Pos[787] = 408
Pos[788] = 637
Pos[789] = 969
Pos[790] = 841
Pos[791] = 999
Pos[792] = 102
Pos[793] = 829
Pos[794] = 934
Pos[795] = 47
Pos[796] = 90
Pos[797] = 259
Pos[798] = 151
Pos[799] = 575
Pos[800] = 517
Pos[801] = 691
Pos[802] = 786
Pos[803] = 388
Pos[804] = 733
Pos[805] = 956
Pos[806] = 970
Pos[807] = 256
Pos[808] = 400
Pos[809] = 783
Pos[810] = 370
Pos[811] = 8
Pos[812] = 205
Pos[813] = 754
Pos[814] = 671
Pos[815] = 836
Pos[816] = 718
Pos[817] = 805
Pos[818] = 755
Pos[819] = 856
Pos[820] = 709
Pos[821] = 911
Pos[822] = 810
Pos[823] = 824
Pos[824] = 265
Pos[825] = 570
Pos[826] = 534
Pos[827] = 962
Pos[828] = 270
Pos[829] = 280
Pos[830] = 153
Pos[831] = 943
Pos[832] = 136
Pos[833] = 139
Pos[834] = 284
Pos[835] = 442
Pos[836] = 891
Pos[837] = 878
Pos[838] = 902
Pos[839] = 97
Pos[840] = 835
Pos[841] = 729
Pos[842] = 760
Pos[843] = 201
Pos[844] = 171
Pos[845] = 730
Pos[846] = 855
Pos[847] = 160
Pos[848] = 100
Pos[849] = 331
Pos[850] = 411
Pos[851] = 405
Pos[852] = 547
Pos[853] = 910
Pos[854] = 427
Pos[855] = 847
Pos[856] = 568
Pos[857] = 598
Pos[858] = 96
Pos[859] = 325
Pos[860] = 704
Pos[861] = 913
Pos[862] = 350
Pos[863] = 584
Pos[864] = 195
Pos[865] = 548
Pos[866] = 564
Pos[867] = 666
Pos[868] = 394
Pos[869] = 226
Pos[870] = 393
Pos[871] = 410
Pos[872] = 636
Pos[873] = 759
Pos[874] = 554
Pos[875] = 850
Pos[876] = 996
Pos[877] = 302
Pos[878] = 896
Pos[879] = 921
Pos[880] = 203
Pos[881] = 248
Pos[882] = 670
Pos[883] = 342
Pos[884] = 871
Pos[885] = 715
Pos[886] = 125
Pos[887] = 961
Pos[888] = 19
Pos[889] = 235
Pos[890] = 162
Pos[891] = 451
Pos[892] = 369
Pos[893] = 368
Pos[894] = 74
Pos[895] = 781
Pos[896] = 784
Pos[897] = 565
Pos[898] = 640
Pos[899] = 687
Pos[900] = 494
Pos[901] = 321
Pos[902] = 359
Pos[903] = 443
Pos[904] = 866
Pos[905] = 928
Pos[906] = 286
Pos[907] = 503
Pos[908] = 527
Pos[909] = 662
Pos[910] = 198
Pos[911] = 638
Pos[912] = 191
Pos[913] = 414
Pos[914] = 297
Pos[915] = 963
Pos[916] = 796
Pos[917] = 987
Pos[918] = 629
Pos[919] = 207
Pos[920] = 562
Pos[921] = 867
Pos[922] = 376
Pos[923] = 241
Pos[924] = 64
Pos[925] = 334
Pos[926] = 333
Pos[927] = 26
Pos[928] = 926
Pos[929] = 968
Pos[930] = 797
Pos[931] = 439
Pos[932] = 960
Pos[933] = 141
Pos[934] = 524
Pos[935] = 668
Pos[936] = 639
Pos[937] = 83
Pos[938] = 291
Pos[939] = 863
Pos[940] = 161
Pos[941] = 185
Pos[942] = 753
Pos[943] = 875
Pos[944] = 415
Pos[945] = 607
Pos[946] = 811
Pos[947] = 163
Pos[948] = 178
Pos[949] = 282
Pos[950] = 775
Pos[951] = 838
Pos[952] = 79
Pos[953] = 193
Pos[954] = 966
Pos[955] = 932
Pos[956] = 177
Pos[957] = 84
Pos[958] = 296
Pos[959] = 172
Pos[960] = 905
Pos[961] = 536
Pos[962] = 799
Pos[963] = 463
Pos[964] = 823
Pos[965] = 994
Pos[966] = 132
Pos[967] = 7
Pos[968] = 491
Pos[969] = 531
Pos[970] = 992
Pos[971] = 121
Pos[972] = 86
Pos[973] = 488
Pos[974] = 661
Pos[975] = 377
Pos[976] = 252
Pos[977] = 329
Pos[978] = 37
Pos[979] = 561
Pos[980] = 861
Pos[981] = 899
Pos[982] = 991
Pos[983] = 635
Pos[984] = 91
Pos[985] = 103
Pos[986] = 762
Pos[987] = 496
Pos[988] = 154
Pos[989] = 225
Pos[990] = 818
Pos[991] = 28
Pos[992] = 537
Pos[993] = 32
Pos[994] = 170
Pos[995] = 776
Pos[996] = 622
Pos[997] = 652
Pos[998] = 800
Pos[999] = 460
Enbr = 122253
start search
improving solution size 1
improving solution size 2
improving solution size 3
improving solution size 4
improving solution size 5
improving solution size 6
improving solution size 7
improving solution size 8
improving solution size 9
improving solution size 10
improving solution size 11
improving solution size 12
improving solution size 13
best clique: 801 763 967 839 640 504 204 535 533 783 921 624 312 
record          =          13
subp            =   365594455
time            =   685.30435
