timeout 3600 s
Graph with 700 vertices and 183010 edges density 0.748048
t = 366020, Enbr = 183010
degree[699] = 627, pos[699] = 291
degree[698] = 621, pos[698] = 75
degree[697] = 617, pos[697] = 677
degree[696] = 615, pos[696] = 114
degree[695] = 613, pos[695] = 586
degree[694] = 611, pos[694] = 316
degree[693] = 609, pos[693] = 211
degree[692] = 608, pos[692] = 86
degree[691] = 606, pos[691] = 392
degree[690] = 605, pos[690] = 322
degree[689] = 605, pos[689] = 253
degree[688] = 603, pos[688] = 121
degree[687] = 601, pos[687] = 575
degree[686] = 600, pos[686] = 521
degree[685] = 599, pos[685] = 494
degree[684] = 599, pos[684] = 259
degree[683] = 597, pos[683] = 372
degree[682] = 596, pos[682] = 349
degree[681] = 594, pos[681] = 534
degree[680] = 591, pos[680] = 524
degree[679] = 589, pos[679] = 417
degree[678] = 588, pos[678] = 117
degree[677] = 586, pos[677] = 458
degree[676] = 585, pos[676] = 367
degree[675] = 584, pos[675] = 350
degree[674] = 583, pos[674] = 347
degree[673] = 582, pos[673] = 344
degree[672] = 581, pos[672] = 305
degree[671] = 580, pos[671] = 192
degree[670] = 579, pos[670] = 49
degree[669] = 577, pos[669] = 324
degree[668] = 576, pos[668] = 239
degree[667] = 575, pos[667] = 222
degree[666] = 574, pos[666] = 118
degree[665] = 573, pos[665] = 47
degree[664] = 572, pos[664] = 7
degree[663] = 570, pos[663] = 648
degree[662] = 569, pos[662] = 593
degree[661] = 568, pos[661] = 561
degree[660] = 567, pos[660] = 548
degree[659] = 566, pos[659] = 510
degree[658] = 565, pos[658] = 362
degree[657] = 564, pos[657] = 18
degree[656] = 562, pos[656] = 660
degree[655] = 561, pos[655] = 436
degree[654] = 560, pos[654] = 396
degree[653] = 559, pos[653] = 360
degree[652] = 558, pos[652] = 105
degree[651] = 557, pos[651] = 16
degree[650] = 555, pos[650] = 464
degree[649] = 553, pos[649] = 578
degree[648] = 552, pos[648] = 294
degree[647] = 551, pos[647] = 224
degree[646] = 551, pos[646] = 127
degree[645] = 549, pos[645] = 144
degree[644] = 548, pos[644] = 251
degree[643] = 546, pos[643] = 289
degree[642] = 545, pos[642] = 237
degree[641] = 544, pos[641] = 148
degree[640] = 543, pos[640] = 401
degree[639] = 542, pos[639] = 29
degree[638] = 540, pos[638] = 252
degree[637] = 538, pos[637] = 622
degree[636] = 537, pos[636] = 611
degree[635] = 536, pos[635] = 607
degree[634] = 535, pos[634] = 583
degree[633] = 535, pos[633] = 25
degree[632] = 533, pos[632] = 558
degree[631] = 532, pos[631] = 481
degree[630] = 532, pos[630] = 296
degree[629] = 530, pos[629] = 406
degree[628] = 529, pos[628] = 325
degree[627] = 527, pos[627] = 681
degree[626] = 527, pos[626] = 386
degree[625] = 525, pos[625] = 618
degree[624] = 524, pos[624] = 53
degree[623] = 523, pos[623] = 14
degree[622] = 521, pos[622] = 592
degree[621] = 520, pos[621] = 495
degree[620] = 519, pos[620] = 490
degree[619] = 518, pos[619] = 126
degree[618] = 516, pos[618] = 589
degree[617] = 516, pos[617] = 72
degree[616] = 514, pos[616] = 391
degree[615] = 513, pos[615] = 267
degree[614] = 512, pos[614] = 13
degree[613] = 510, pos[613] = 675
degree[612] = 510, pos[612] = 151
degree[611] = 508, pos[611] = 260
degree[610] = 507, pos[610] = 160
degree[609] = 506, pos[609] = 128
degree[608] = 505, pos[608] = 15
degree[607] = 503, pos[607] = 666
degree[606] = 502, pos[606] = 587
degree[605] = 501, pos[605] = 559
degree[604] = 500, pos[604] = 378
degree[603] = 499, pos[603] = 68
degree[602] = 497, pos[602] = 536
degree[601] = 495, pos[601] = 512
degree[600] = 494, pos[600] = 333
degree[599] = 493, pos[599] = 307
degree[598] = 492, pos[598] = 140
degree[597] = 491, pos[597] = 104
degree[596] = 490, pos[596] = 78
degree[595] = 488, pos[595] = 600
degree[594] = 487, pos[594] = 356
degree[593] = 486, pos[593] = 163
degree[592] = 485, pos[592] = 141
degree[591] = 483, pos[591] = 672
degree[590] = 482, pos[590] = 483
degree[589] = 481, pos[589] = 327
degree[588] = 481, pos[588] = 284
degree[587] = 479, pos[587] = 247
degree[586] = 478, pos[586] = 242
degree[585] = 478, pos[585] = 218
degree[584] = 476, pos[584] = 100
degree[583] = 475, pos[583] = 59
degree[582] = 473, pos[582] = 238
degree[581] = 472, pos[581] = 638
degree[580] = 472, pos[580] = 132
degree[579] = 470, pos[579] = 162
degree[578] = 468, pos[578] = 685
degree[577] = 467, pos[577] = 375
degree[576] = 466, pos[576] = 467
degree[575] = 465, pos[575] = 465
degree[574] = 464, pos[574] = 106
degree[573] = 462, pos[573] = 527
degree[572] = 462, pos[572] = 188
degree[571] = 461, pos[571] = 147
degree[570] = 460, pos[570] = 453
degree[569] = 459, pos[569] = 492
degree[568] = 457, pos[568] = 511
degree[567] = 456, pos[567] = 381
degree[566] = 455, pos[566] = 85
degree[565] = 454, pos[565] = 189
degree[564] = 454, pos[564] = 8
degree[563] = 452, pos[563] = 614
degree[562] = 451, pos[562] = 545
degree[561] = 449, pos[561] = 652
degree[560] = 448, pos[560] = 582
degree[559] = 448, pos[559] = 111
degree[558] = 446, pos[558] = 599
degree[557] = 445, pos[557] = 572
degree[556] = 444, pos[556] = 323
degree[555] = 443, pos[555] = 275
degree[554] = 442, pos[554] = 180
degree[553] = 441, pos[553] = 278
degree[552] = 439, pos[552] = 580
degree[551] = 438, pos[551] = 477
degree[550] = 437, pos[550] = 456
degree[549] = 437, pos[549] = 255
degree[548] = 434, pos[548] = 409
degree[547] = 433, pos[547] = 303
degree[546] = 433, pos[546] = 281
degree[545] = 431, pos[545] = 129
degree[544] = 429, pos[544] = 421
degree[543] = 429, pos[543] = 56
degree[542] = 428, pos[542] = 11
degree[541] = 426, pos[541] = 698
degree[540] = 425, pos[540] = 657
degree[539] = 424, pos[539] = 185
degree[538] = 423, pos[538] = 95
degree[537] = 422, pos[537] = 669
degree[536] = 421, pos[536] = 577
degree[535] = 420, pos[535] = 336
degree[534] = 418, pos[534] = 650
degree[533] = 418, pos[533] = 434
degree[532] = 417, pos[532] = 116
degree[531] = 415, pos[531] = 560
degree[530] = 415, pos[530] = 496
degree[529] = 413, pos[529] = 682
degree[528] = 413, pos[528] = 10
degree[527] = 411, pos[527] = 488
degree[526] = 410, pos[526] = 19
degree[525] = 408, pos[525] = 379
degree[524] = 407, pos[524] = 485
degree[523] = 406, pos[523] = 212
degree[522] = 404, pos[522] = 455
degree[521] = 403, pos[521] = 353
degree[520] = 403, pos[520] = 73
degree[519] = 401, pos[519] = 637
degree[518] = 401, pos[518] = 311
degree[517] = 399, pos[517] = 339
degree[516] = 398, pos[516] = 115
degree[515] = 397, pos[515] = 69
degree[514] = 396, pos[514] = 35
degree[513] = 395, pos[513] = 82
degree[512] = 395, pos[512] = 3
degree[511] = 393, pos[511] = 520
degree[510] = 392, pos[510] = 514
degree[509] = 391, pos[509] = 376
degree[508] = 390, pos[508] = 270
degree[507] = 389, pos[507] = 484
degree[506] = 388, pos[506] = 131
degree[505] = 386, pos[505] = 628
degree[504] = 386, pos[504] = 122
degree[503] = 385, pos[503] = 50
degree[502] = 384, pos[502] = 30
degree[501] = 383, pos[501] = 98
degree[500] = 382, pos[500] = 460
degree[499] = 381, pos[499] = 447
degree[498] = 380, pos[498] = 258
degree[497] = 378, pos[497] = 407
degree[496] = 378, pos[496] = 155
degree[495] = 377, pos[495] = 209
degree[494] = 376, pos[494] = 244
degree[493] = 376, pos[493] = 196
degree[492] = 374, pos[492] = 343
degree[491] = 372, pos[491] = 635
degree[490] = 371, pos[490] = 498
degree[489] = 370, pos[489] = 390
degree[488] = 369, pos[488] = 523
degree[487] = 369, pos[487] = 51
degree[486] = 367, pos[486] = 504
degree[485] = 367, pos[485] = 412
degree[484] = 366, pos[484] = 76
degree[483] = 364, pos[483] = 200
degree[482] = 363, pos[482] = 617
degree[481] = 362, pos[481] = 478
degree[480] = 361, pos[480] = 357
degree[479] = 360, pos[479] = 169
degree[478] = 358, pos[478] = 516
degree[477] = 358, pos[477] = 298
degree[476] = 357, pos[476] = 331
degree[475] = 356, pos[475] = 346
degree[474] = 355, pos[474] = 684
degree[473] = 354, pos[473] = 227
degree[472] = 353, pos[472] = 236
degree[471] = 353, pos[471] = 109
degree[470] = 351, pos[470] = 158
degree[469] = 350, pos[469] = 150
degree[468] = 349, pos[468] = 551
degree[467] = 349, pos[467] = 429
degree[466] = 348, pos[466] = 135
degree[465] = 347, pos[465] = 134
degree[464] = 346, pos[464] = 631
degree[463] = 345, pos[463] = 433
degree[462] = 344, pos[462] = 125
degree[461] = 343, pos[461] = 36
degree[460] = 342, pos[460] = 55
degree[459] = 341, pos[459] = 573
degree[458] = 340, pos[458] = 9
degree[457] = 338, pos[457] = 688
degree[456] = 338, pos[456] = 191
degree[455] = 337, pos[455] = 479
degree[454] = 337, pos[454] = 306
degree[453] = 335, pos[453] = 626
degree[452] = 334, pos[452] = 361
degree[451] = 333, pos[451] = 371
degree[450] = 332, pos[450] = 553
degree[449] = 331, pos[449] = 449
degree[448] = 331, pos[448] = 313
degree[447] = 330, pos[447] = 248
degree[446] = 328, pos[446] = 670
degree[445] = 327, pos[445] = 691
degree[444] = 326, pos[444] = 619
degree[443] = 326, pos[443] = 604
degree[442] = 325, pos[442] = 384
degree[441] = 324, pos[441] = 64
degree[440] = 323, pos[440] = 590
degree[439] = 322, pos[439] = 697
degree[438] = 322, pos[438] = 416
degree[437] = 321, pos[437] = 295
degree[436] = 321, pos[436] = 187
degree[435] = 319, pos[435] = 370
degree[434] = 318, pos[434] = 454
degree[433] = 318, pos[433] = 207
degree[432] = 317, pos[432] = 206
degree[431] = 316, pos[431] = 531
degree[430] = 315, pos[430] = 627
degree[429] = 313, pos[429] = 568
degree[428] = 312, pos[428] = 620
degree[427] = 311, pos[427] = 505
degree[426] = 310, pos[426] = 326
degree[425] = 309, pos[425] = 446
degree[424] = 308, pos[424] = 91
degree[423] = 307, pos[423] = 4
degree[422] = 306, pos[422] = 694
degree[421] = 305, pos[421] = 598
degree[420] = 304, pos[420] = 581
degree[419] = 304, pos[419] = 240
degree[418] = 303, pos[418] = 103
degree[417] = 301, pos[417] = 408
degree[416] = 300, pos[416] = 603
degree[415] = 300, pos[415] = 335
degree[414] = 299, pos[414] = 383
degree[413] = 298, pos[413] = 397
degree[412] = 297, pos[412] = 261
degree[411] = 295, pos[411] = 432
degree[410] = 294, pos[410] = 363
degree[409] = 294, pos[409] = 301
degree[408] = 293, pos[408] = 265
degree[407] = 292, pos[407] = 426
degree[406] = 291, pos[406] = 146
degree[405] = 290, pos[405] = 515
degree[404] = 290, pos[404] = 96
degree[403] = 288, pos[403] = 689
degree[402] = 288, pos[402] = 430
degree[401] = 286, pos[401] = 630
degree[400] = 286, pos[400] = 491
degree[399] = 285, pos[399] = 202
degree[398] = 283, pos[398] = 687
degree[397] = 282, pos[397] = 653
degree[396] = 281, pos[396] = 605
degree[395] = 280, pos[395] = 570
degree[394] = 280, pos[394] = 0
degree[393] = 279, pos[393] = 321
degree[392] = 278, pos[392] = 37
degree[391] = 277, pos[391] = 651
degree[390] = 277, pos[390] = 221
degree[389] = 275, pos[389] = 435
degree[388] = 274, pos[388] = 489
degree[387] = 273, pos[387] = 506
degree[386] = 272, pos[386] = 419
degree[385] = 272, pos[385] = 341
degree[384] = 271, pos[384] = 84
degree[383] = 269, pos[383] = 659
degree[382] = 268, pos[382] = 569
degree[381] = 268, pos[381] = 476
degree[380] = 268, pos[380] = 233
degree[379] = 267, pos[379] = 182
degree[378] = 265, pos[378] = 633
degree[377] = 264, pos[377] = 537
degree[376] = 263, pos[376] = 550
degree[375] = 262, pos[375] = 597
degree[374] = 262, pos[374] = 2
degree[373] = 260, pos[373] = 674
degree[372] = 260, pos[372] = 273
degree[371] = 260, pos[371] = 149
degree[370] = 258, pos[370] = 574
degree[369] = 257, pos[369] = 345
degree[368] = 257, pos[368] = 246
degree[367] = 255, pos[367] = 624
degree[366] = 254, pos[366] = 437
degree[365] = 254, pos[365] = 201
degree[364] = 253, pos[364] = 274
degree[363] = 252, pos[363] = 695
degree[362] = 251, pos[362] = 480
degree[361] = 250, pos[361] = 533
degree[360] = 250, pos[360] = 428
degree[359] = 249, pos[359] = 102
degree[358] = 248, pos[358] = 173
degree[357] = 246, pos[357] = 557
degree[356] = 246, pos[356] = 166
degree[355] = 245, pos[355] = 257
degree[354] = 244, pos[354] = 355
degree[353] = 244, pos[353] = 228
degree[352] = 243, pos[352] = 27
degree[351] = 241, pos[351] = 564
degree[350] = 240, pos[350] = 470
degree[349] = 240, pos[349] = 276
degree[348] = 238, pos[348] = 374
degree[347] = 238, pos[347] = 110
degree[346] = 237, pos[346] = 280
degree[345] = 236, pos[345] = 168
degree[344] = 235, pos[344] = 81
degree[343] = 234, pos[343] = 621
degree[342] = 233, pos[342] = 693
degree[341] = 233, pos[341] = 152
degree[340] = 231, pos[340] = 609
degree[339] = 231, pos[339] = 411
degree[338] = 230, pos[338] = 65
degree[337] = 229, pos[337] = 503
degree[336] = 228, pos[336] = 422
degree[335] = 227, pos[335] = 623
degree[334] = 227, pos[334] = 283
degree[333] = 227, pos[333] = 48
degree[332] = 226, pos[332] = 249
degree[331] = 224, pos[331] = 459
degree[330] = 223, pos[330] = 588
degree[329] = 223, pos[329] = 292
degree[328] = 221, pos[328] = 487
degree[327] = 220, pos[327] = 473
degree[326] = 220, pos[326] = 394
degree[325] = 219, pos[325] = 606
degree[324] = 219, pos[324] = 213
degree[323] = 217, pos[323] = 452
degree[322] = 217, pos[322] = 38
degree[321] = 215, pos[321] = 387
degree[320] = 215, pos[320] = 23
degree[319] = 214, pos[319] = 243
degree[318] = 213, pos[318] = 174
degree[317] = 213, pos[317] = 108
degree[316] = 211, pos[316] = 486
degree[315] = 211, pos[315] = 340
degree[314] = 210, pos[314] = 439
degree[313] = 210, pos[313] = 332
degree[312] = 209, pos[312] = 519
degree[311] = 208, pos[311] = 661
degree[310] = 207, pos[310] = 194
degree[309] = 207, pos[309] = 93
degree[308] = 205, pos[308] = 358
degree[307] = 205, pos[307] = 300
degree[306] = 203, pos[306] = 256
degree[305] = 202, pos[305] = 642
degree[304] = 201, pos[304] = 451
degree[303] = 201, pos[303] = 130
degree[302] = 201, pos[302] = 24
degree[301] = 199, pos[301] = 440
degree[300] = 198, pos[300] = 60
degree[299] = 197, pos[299] = 543
degree[298] = 197, pos[298] = 352
degree[297] = 194, pos[297] = 649
degree[296] = 193, pos[296] = 594
degree[295] = 193, pos[295] = 365
degree[294] = 192, pos[294] = 369
degree[293] = 192, pos[293] = 217
degree[292] = 192, pos[292] = 57
degree[291] = 191, pos[291] = 176
degree[290] = 189, pos[290] = 393
degree[289] = 188, pos[289] = 338
degree[288] = 187, pos[288] = 264
degree[287] = 186, pos[287] = 214
degree[286] = 186, pos[286] = 170
degree[285] = 184, pos[285] = 299
degree[284] = 183, pos[284] = 441
degree[283] = 183, pos[283] = 225
degree[282] = 182, pos[282] = 318
degree[281] = 181, pos[281] = 431
degree[280] = 181, pos[280] = 77
degree[279] = 180, pos[279] = 285
degree[278] = 179, pos[278] = 438
degree[277] = 178, pos[277] = 410
degree[276] = 178, pos[276] = 317
degree[275] = 177, pos[275] = 165
degree[274] = 175, pos[274] = 443
degree[273] = 174, pos[273] = 423
degree[272] = 174, pos[272] = 334
degree[271] = 173, pos[271] = 107
degree[270] = 172, pos[270] = 26
degree[269] = 172, pos[269] = 22
degree[268] = 170, pos[268] = 342
degree[267] = 169, pos[267] = 655
degree[266] = 169, pos[266] = 190
degree[265] = 169, pos[265] = 99
degree[264] = 167, pos[264] = 282
degree[263] = 166, pos[263] = 526
degree[262] = 166, pos[262] = 153
degree[261] = 165, pos[261] = 139
degree[260] = 163, pos[260] = 683
degree[259] = 163, pos[259] = 567
degree[258] = 162, pos[258] = 647
degree[257] = 161, pos[257] = 517
degree[256] = 160, pos[256] = 279
degree[255] = 160, pos[255] = 198
degree[254] = 158, pos[254] = 692
degree[253] = 158, pos[253] = 665
degree[252] = 157, pos[252] = 74
degree[251] = 156, pos[251] = 591
degree[250] = 155, pos[250] = 538
degree[249] = 155, pos[249] = 368
degree[248] = 154, pos[248] = 286
degree[247] = 154, pos[247] = 179
degree[246] = 153, pos[246] = 63
degree[245] = 152, pos[245] = 508
degree[244] = 152, pos[244] = 216
degree[243] = 151, pos[243] = 500
degree[242] = 151, pos[242] = 234
degree[241] = 149, pos[241] = 310
degree[240] = 148, pos[240] = 461
degree[239] = 148, pos[239] = 175
degree[238] = 146, pos[238] = 686
degree[237] = 146, pos[237] = 576
degree[236] = 146, pos[236] = 499
degree[235] = 146, pos[235] = 172
degree[234] = 144, pos[234] = 226
degree[233] = 144, pos[233] = 167
degree[232] = 142, pos[232] = 579
degree[231] = 142, pos[231] = 474
degree[230] = 141, pos[230] = 671
degree[229] = 140, pos[229] = 646
degree[228] = 140, pos[228] = 320
degree[227] = 139, pos[227] = 469
degree[226] = 138, pos[226] = 556
degree[225] = 138, pos[225] = 215
degree[224] = 137, pos[224] = 90
degree[223] = 136, pos[223] = 540
degree[222] = 135, pos[222] = 366
degree[221] = 135, pos[221] = 210
degree[220] = 135, pos[220] = 54
degree[219] = 133, pos[219] = 634
degree[218] = 133, pos[218] = 119
degree[217] = 133, pos[217] = 92
degree[216] = 131, pos[216] = 482
degree[215] = 131, pos[215] = 193
degree[214] = 130, pos[214] = 195
degree[213] = 129, pos[213] = 663
degree[212] = 129, pos[212] = 33
degree[211] = 128, pos[211] = 405
degree[210] = 128, pos[210] = 171
degree[209] = 127, pos[209] = 297
degree[208] = 126, pos[208] = 235
degree[207] = 125, pos[207] = 389
degree[206] = 125, pos[206] = 220
degree[205] = 125, pos[205] = 184
degree[204] = 123, pos[204] = 639
degree[203] = 123, pos[203] = 80
degree[202] = 123, pos[202] = 62
degree[201] = 121, pos[201] = 502
degree[200] = 121, pos[200] = 351
degree[199] = 120, pos[199] = 532
degree[198] = 118, pos[198] = 539
degree[197] = 117, pos[197] = 549
degree[196] = 117, pos[196] = 415
degree[195] = 116, pos[195] = 450
degree[194] = 116, pos[194] = 268
degree[193] = 115, pos[193] = 522
degree[192] = 115, pos[192] = 183
degree[191] = 114, pos[191] = 463
degree[190] = 113, pos[190] = 667
degree[189] = 112, pos[189] = 565
degree[188] = 112, pos[188] = 70
degree[187] = 111, pos[187] = 354
degree[186] = 111, pos[186] = 312
degree[185] = 110, pos[185] = 208
degree[184] = 109, pos[184] = 293
degree[183] = 109, pos[183] = 39
degree[182] = 108, pos[182] = 690
degree[181] = 107, pos[181] = 662
degree[180] = 106, pos[180] = 302
degree[179] = 105, pos[179] = 186
degree[178] = 104, pos[178] = 328
degree[177] = 104, pos[177] = 262
degree[176] = 104, pos[176] = 89
degree[175] = 104, pos[175] = 61
degree[174] = 102, pos[174] = 468
degree[173] = 101, pos[173] = 625
degree[172] = 101, pos[172] = 544
degree[171] = 101, pos[171] = 28
degree[170] = 100, pos[170] = 20
degree[169] = 99, pos[169] = 231
degree[168] = 98, pos[168] = 699
degree[167] = 98, pos[167] = 610
degree[166] = 97, pos[166] = 509
degree[165] = 96, pos[165] = 457
degree[164] = 95, pos[164] = 636
degree[163] = 95, pos[163] = 232
degree[162] = 94, pos[162] = 364
degree[161] = 94, pos[161] = 87
degree[160] = 93, pos[160] = 615
degree[159] = 92, pos[159] = 595
degree[158] = 91, pos[158] = 266
degree[157] = 90, pos[157] = 596
degree[156] = 90, pos[156] = 427
degree[155] = 89, pos[155] = 501
degree[154] = 88, pos[154] = 554
degree[153] = 88, pos[153] = 67
degree[152] = 87, pos[152] = 395
degree[151] = 87, pos[151] = 229
degree[150] = 86, pos[150] = 71
degree[149] = 85, pos[149] = 138
degree[148] = 84, pos[148] = 507
degree[147] = 84, pos[147] = 241
degree[146] = 82, pos[146] = 373
degree[145] = 81, pos[145] = 679
degree[144] = 81, pos[144] = 254
degree[143] = 80, pos[143] = 204
degree[142] = 79, pos[142] = 58
degree[141] = 78, pos[141] = 629
degree[140] = 77, pos[140] = 552
degree[139] = 77, pos[139] = 418
degree[138] = 76, pos[138] = 472
degree[137] = 76, pos[137] = 413
degree[136] = 76, pos[136] = 203
degree[135] = 76, pos[135] = 157
degree[134] = 75, pos[134] = 83
degree[133] = 74, pos[133] = 448
degree[132] = 74, pos[132] = 287
degree[131] = 73, pos[131] = 309
degree[130] = 72, pos[130] = 17
degree[129] = 71, pos[129] = 541
degree[128] = 71, pos[128] = 330
degree[127] = 70, pos[127] = 219
degree[126] = 69, pos[126] = 518
degree[125] = 69, pos[125] = 314
degree[124] = 68, pos[124] = 641
degree[123] = 68, pos[123] = 290
degree[122] = 67, pos[122] = 562
degree[121] = 66, pos[121] = 424
degree[120] = 66, pos[120] = 40
degree[119] = 65, pos[119] = 668
degree[118] = 65, pos[118] = 271
degree[117] = 64, pos[117] = 542
degree[116] = 63, pos[116] = 563
degree[115] = 63, pos[115] = 161
degree[114] = 61, pos[114] = 230
degree[113] = 61, pos[113] = 223
degree[112] = 60, pos[112] = 645
degree[111] = 59, pos[111] = 414
degree[110] = 59, pos[110] = 199
degree[109] = 59, pos[109] = 43
degree[108] = 58, pos[108] = 123
degree[107] = 57, pos[107] = 497
degree[106] = 56, pos[106] = 680
degree[105] = 56, pos[105] = 101
degree[104] = 55, pos[104] = 377
degree[103] = 55, pos[103] = 41
degree[102] = 54, pos[102] = 197
degree[101] = 53, pos[101] = 385
degree[100] = 52, pos[100] = 616
degree[99] = 52, pos[99] = 277
degree[98] = 51, pos[98] = 612
degree[97] = 51, pos[97] = 420
degree[96] = 51, pos[96] = 145
degree[95] = 50, pos[95] = 34
degree[94] = 49, pos[94] = 535
degree[93] = 49, pos[93] = 250
degree[92] = 48, pos[92] = 133
degree[91] = 47, pos[91] = 329
degree[90] = 47, pos[90] = 245
degree[89] = 46, pos[89] = 643
degree[88] = 45, pos[88] = 555
degree[87] = 45, pos[87] = 263
degree[86] = 44, pos[86] = 673
degree[85] = 44, pos[85] = 124
degree[84] = 43, pos[84] = 571
degree[83] = 43, pos[83] = 31
degree[82] = 42, pos[82] = 585
degree[81] = 42, pos[81] = 79
degree[80] = 40, pos[80] = 654
degree[79] = 40, pos[79] = 547
degree[78] = 39, pos[78] = 640
degree[77] = 39, pos[77] = 442
degree[76] = 38, pos[76] = 513
degree[75] = 37, pos[75] = 566
degree[74] = 37, pos[74] = 475
degree[73] = 37, pos[73] = 159
degree[72] = 36, pos[72] = 382
degree[71] = 34, pos[71] = 696
degree[70] = 34, pos[70] = 528
degree[69] = 34, pos[69] = 272
degree[68] = 34, pos[68] = 181
degree[67] = 32, pos[67] = 676
degree[66] = 32, pos[66] = 315
degree[65] = 32, pos[65] = 21
degree[64] = 31, pos[64] = 156
degree[63] = 30, pos[63] = 400
degree[62] = 30, pos[62] = 142
degree[61] = 29, pos[61] = 120
degree[60] = 29, pos[60] = 94
degree[59] = 28, pos[59] = 88
degree[58] = 27, pos[58] = 608
degree[57] = 27, pos[57] = 546
degree[56] = 27, pos[56] = 42
degree[55] = 26, pos[55] = 613
degree[54] = 25, pos[54] = 425
degree[53] = 24, pos[53] = 644
degree[52] = 24, pos[52] = 52
degree[51] = 23, pos[51] = 402
degree[50] = 23, pos[50] = 205
degree[49] = 23, pos[49] = 44
degree[48] = 22, pos[48] = 288
degree[47] = 21, pos[47] = 399
degree[46] = 21, pos[46] = 97
degree[45] = 20, pos[45] = 658
degree[44] = 20, pos[44] = 154
degree[43] = 19, pos[43] = 404
degree[42] = 18, pos[42] = 493
degree[41] = 17, pos[41] = 678
degree[40] = 17, pos[40] = 466
degree[39] = 17, pos[39] = 6
degree[38] = 16, pos[38] = 530
degree[37] = 16, pos[37] = 462
degree[36] = 15, pos[36] = 664
degree[35] = 14, pos[35] = 601
degree[34] = 14, pos[34] = 137
degree[33] = 13, pos[33] = 445
degree[32] = 13, pos[32] = 177
degree[31] = 12, pos[31] = 656
degree[30] = 12, pos[30] = 308
degree[29] = 11, pos[29] = 529
degree[28] = 11, pos[28] = 45
degree[27] = 11, pos[27] = 5
degree[26] = 10, pos[26] = 12
degree[25] = 9, pos[25] = 359
degree[24] = 9, pos[24] = 32
degree[23] = 8, pos[23] = 584
degree[22] = 8, pos[22] = 269
degree[21] = 7, pos[21] = 602
degree[20] = 7, pos[20] = 348
degree[19] = 7, pos[19] = 112
degree[18] = 6, pos[18] = 403
degree[17] = 5, pos[17] = 525
degree[16] = 5, pos[16] = 304
degree[15] = 4, pos[15] = 444
degree[14] = 4, pos[14] = 136
degree[13] = 4, pos[13] = 1
degree[12] = 3, pos[12] = 471
degree[11] = 2, pos[11] = 398
degree[10] = 2, pos[10] = 337
degree[9] = 2, pos[9] = 164
degree[8] = 1, pos[8] = 388
degree[7] = 1, pos[7] = 380
degree[6] = 1, pos[6] = 143
degree[5] = 0, pos[5] = 632
degree[4] = 0, pos[4] = 319
degree[3] = 0, pos[3] = 178
degree[2] = 0, pos[2] = 113
degree[1] = 0, pos[1] = 66
degree[0] = 0, pos[0] = 46
Pos[0] = 46
Pos[1] = 66
Pos[2] = 113
Pos[3] = 178
Pos[4] = 319
Pos[5] = 632
Pos[6] = 143
Pos[7] = 380
Pos[8] = 388
Pos[9] = 164
Pos[10] = 337
Pos[11] = 398
Pos[12] = 471
Pos[13] = 1
Pos[14] = 136
Pos[15] = 444
Pos[16] = 304
Pos[17] = 525
Pos[18] = 403
Pos[19] = 112
Pos[20] = 348
Pos[21] = 602
Pos[22] = 269
Pos[23] = 584
Pos[24] = 32
Pos[25] = 359
Pos[26] = 12
Pos[27] = 5
Pos[28] = 45
Pos[29] = 529
Pos[30] = 308
Pos[31] = 656
Pos[32] = 177
Pos[33] = 445
Pos[34] = 137
Pos[35] = 601
Pos[36] = 664
Pos[37] = 462
Pos[38] = 530
Pos[39] = 6
Pos[40] = 466
Pos[41] = 678
Pos[42] = 493
Pos[43] = 404
Pos[44] = 154
Pos[45] = 658
Pos[46] = 97
Pos[47] = 399
Pos[48] = 288
Pos[49] = 44
Pos[50] = 205
Pos[51] = 402
Pos[52] = 52
Pos[53] = 644
Pos[54] = 425
Pos[55] = 613
Pos[56] = 42
Pos[57] = 546
Pos[58] = 608
Pos[59] = 88
Pos[60] = 94
Pos[61] = 120
Pos[62] = 142
Pos[63] = 400
Pos[64] = 156
Pos[65] = 21
Pos[66] = 315
Pos[67] = 676
Pos[68] = 181
Pos[69] = 272
Pos[70] = 528
Pos[71] = 696
Pos[72] = 382
Pos[73] = 159
Pos[74] = 475
Pos[75] = 566
Pos[76] = 513
Pos[77] = 442
Pos[78] = 640
Pos[79] = 547
Pos[80] = 654
Pos[81] = 79
Pos[82] = 585
Pos[83] = 31
Pos[84] = 571
Pos[85] = 124
Pos[86] = 673
Pos[87] = 263
Pos[88] = 555
Pos[89] = 643
Pos[90] = 245
Pos[91] = 329
Pos[92] = 133
Pos[93] = 250
Pos[94] = 535
Pos[95] = 34
Pos[96] = 145
Pos[97] = 420
Pos[98] = 612
Pos[99] = 277
Pos[100] = 616
Pos[101] = 385
Pos[102] = 197
Pos[103] = 41
Pos[104] = 377
Pos[105] = 101
Pos[106] = 680
Pos[107] = 497
Pos[108] = 123
Pos[109] = 43
Pos[110] = 199
Pos[111] = 414
Pos[112] = 645
Pos[113] = 223
Pos[114] = 230
Pos[115] = 161
Pos[116] = 563
Pos[117] = 542
Pos[118] = 271
Pos[119] = 668
Pos[120] = 40
Pos[121] = 424
Pos[122] = 562
Pos[123] = 290
Pos[124] = 641
Pos[125] = 314
Pos[126] = 518
Pos[127] = 219
Pos[128] = 330
Pos[129] = 541
Pos[130] = 17
Pos[131] = 309
Pos[132] = 287
Pos[133] = 448
Pos[134] = 83
Pos[135] = 157
Pos[136] = 203
Pos[137] = 413
Pos[138] = 472
Pos[139] = 418
Pos[140] = 552
Pos[141] = 629
Pos[142] = 58
Pos[143] = 204
Pos[144] = 254
Pos[145] = 679
Pos[146] = 373
Pos[147] = 241
Pos[148] = 507
Pos[149] = 138
Pos[150] = 71
Pos[151] = 229
Pos[152] = 395
Pos[153] = 67
Pos[154] = 554
Pos[155] = 501
Pos[156] = 427
Pos[157] = 596
Pos[158] = 266
Pos[159] = 595
Pos[160] = 615
Pos[161] = 87
Pos[162] = 364
Pos[163] = 232
Pos[164] = 636
Pos[165] = 457
Pos[166] = 509
Pos[167] = 610
Pos[168] = 699
Pos[169] = 231
Pos[170] = 20
Pos[171] = 28
Pos[172] = 544
Pos[173] = 625
Pos[174] = 468
Pos[175] = 61
Pos[176] = 89
Pos[177] = 262
Pos[178] = 328
Pos[179] = 186
Pos[180] = 302
Pos[181] = 662
Pos[182] = 690
Pos[183] = 39
Pos[184] = 293
Pos[185] = 208
Pos[186] = 312
Pos[187] = 354
Pos[188] = 70
Pos[189] = 565
Pos[190] = 667
Pos[191] = 463
Pos[192] = 183
Pos[193] = 522
Pos[194] = 268
Pos[195] = 450
Pos[196] = 415
Pos[197] = 549
Pos[198] = 539
Pos[199] = 532
Pos[200] = 351
Pos[201] = 502
Pos[202] = 62
Pos[203] = 80
Pos[204] = 639
Pos[205] = 184
Pos[206] = 220
Pos[207] = 389
Pos[208] = 235
Pos[209] = 297
Pos[210] = 171
Pos[211] = 405
Pos[212] = 33
Pos[213] = 663
Pos[214] = 195
Pos[215] = 193
Pos[216] = 482
Pos[217] = 92
Pos[218] = 119
Pos[219] = 634
Pos[220] = 54
Pos[221] = 210
Pos[222] = 366
Pos[223] = 540
Pos[224] = 90
Pos[225] = 215
Pos[226] = 556
Pos[227] = 469
Pos[228] = 320
Pos[229] = 646
Pos[230] = 671
Pos[231] = 474
Pos[232] = 579
Pos[233] = 167
Pos[234] = 226
Pos[235] = 172
Pos[236] = 499
Pos[237] = 576
Pos[238] = 686
Pos[239] = 175
Pos[240] = 461
Pos[241] = 310
Pos[242] = 234
Pos[243] = 500
Pos[244] = 216
Pos[245] = 508
Pos[246] = 63
Pos[247] = 179
Pos[248] = 286
Pos[249] = 368
Pos[250] = 538
Pos[251] = 591
Pos[252] = 74
Pos[253] = 665
Pos[254] = 692
Pos[255] = 198
Pos[256] = 279
Pos[257] = 517
Pos[258] = 647
Pos[259] = 567
Pos[260] = 683
Pos[261] = 139
Pos[262] = 153
Pos[263] = 526
Pos[264] = 282
Pos[265] = 99
Pos[266] = 190
Pos[267] = 655
Pos[268] = 342
Pos[269] = 22
Pos[270] = 26
Pos[271] = 107
Pos[272] = 334
Pos[273] = 423
Pos[274] = 443
Pos[275] = 165
Pos[276] = 317
Pos[277] = 410
Pos[278] = 438
Pos[279] = 285
Pos[280] = 77
Pos[281] = 431
Pos[282] = 318
Pos[283] = 225
Pos[284] = 441
Pos[285] = 299
Pos[286] = 170
Pos[287] = 214
Pos[288] = 264
Pos[289] = 338
Pos[290] = 393
Pos[291] = 176
Pos[292] = 57
Pos[293] = 217
Pos[294] = 369
Pos[295] = 365
Pos[296] = 594
Pos[297] = 649
Pos[298] = 352
Pos[299] = 543
Pos[300] = 60
Pos[301] = 440
Pos[302] = 24
Pos[303] = 130
Pos[304] = 451
Pos[305] = 642
Pos[306] = 256
Pos[307] = 300
Pos[308] = 358
Pos[309] = 93
Pos[310] = 194
Pos[311] = 661
Pos[312] = 519
Pos[313] = 332
Pos[314] = 439
Pos[315] = 340
Pos[316] = 486
Pos[317] = 108
Pos[318] = 174
Pos[319] = 243
Pos[320] = 23
Pos[321] = 387
Pos[322] = 38
Pos[323] = 452
Pos[324] = 213
Pos[325] = 606
Pos[326] = 394
Pos[327] = 473
Pos[328] = 487
Pos[329] = 292
Pos[330] = 588
Pos[331] = 459
Pos[332] = 249
Pos[333] = 48
Pos[334] = 283
Pos[335] = 623
Pos[336] = 422
Pos[337] = 503
Pos[338] = 65
Pos[339] = 411
Pos[340] = 609
Pos[341] = 152
Pos[342] = 693
Pos[343] = 621
Pos[344] = 81
Pos[345] = 168
Pos[346] = 280
Pos[347] = 110
Pos[348] = 374
Pos[349] = 276
Pos[350] = 470
Pos[351] = 564
Pos[352] = 27
Pos[353] = 228
Pos[354] = 355
Pos[355] = 257
Pos[356] = 166
Pos[357] = 557
Pos[358] = 173
Pos[359] = 102
Pos[360] = 428
Pos[361] = 533
Pos[362] = 480
Pos[363] = 695
Pos[364] = 274
Pos[365] = 201
Pos[366] = 437
Pos[367] = 624
Pos[368] = 246
Pos[369] = 345
Pos[370] = 574
Pos[371] = 149
Pos[372] = 273
Pos[373] = 674
Pos[374] = 2
Pos[375] = 597
Pos[376] = 550
Pos[377] = 537
Pos[378] = 633
Pos[379] = 182
Pos[380] = 233
Pos[381] = 476
Pos[382] = 569
Pos[383] = 659
Pos[384] = 84
Pos[385] = 341
Pos[386] = 419
Pos[387] = 506
Pos[388] = 489
Pos[389] = 435
Pos[390] = 221
Pos[391] = 651
Pos[392] = 37
Pos[393] = 321
Pos[394] = 0
Pos[395] = 570
Pos[396] = 605
Pos[397] = 653
Pos[398] = 687
Pos[399] = 202
Pos[400] = 491
Pos[401] = 630
Pos[402] = 430
Pos[403] = 689
Pos[404] = 96
Pos[405] = 515
Pos[406] = 146
Pos[407] = 426
Pos[408] = 265
Pos[409] = 301
Pos[410] = 363
Pos[411] = 432
Pos[412] = 261
Pos[413] = 397
Pos[414] = 383
Pos[415] = 335
Pos[416] = 603
Pos[417] = 408
Pos[418] = 103
Pos[419] = 240
Pos[420] = 581
Pos[421] = 598
Pos[422] = 694
Pos[423] = 4
Pos[424] = 91
Pos[425] = 446
Pos[426] = 326
Pos[427] = 505
Pos[428] = 620
Pos[429] = 568
Pos[430] = 627
Pos[431] = 531
Pos[432] = 206
Pos[433] = 207
Pos[434] = 454
Pos[435] = 370
Pos[436] = 187
Pos[437] = 295
Pos[438] = 416
Pos[439] = 697
Pos[440] = 590
Pos[441] = 64
Pos[442] = 384
Pos[443] = 604
Pos[444] = 619
Pos[445] = 691
Pos[446] = 670
Pos[447] = 248
Pos[448] = 313
Pos[449] = 449
Pos[450] = 553
Pos[451] = 371
Pos[452] = 361
Pos[453] = 626
Pos[454] = 306
Pos[455] = 479
Pos[456] = 191
Pos[457] = 688
Pos[458] = 9
Pos[459] = 573
Pos[460] = 55
Pos[461] = 36
Pos[462] = 125
Pos[463] = 433
Pos[464] = 631
Pos[465] = 134
Pos[466] = 135
Pos[467] = 429
Pos[468] = 551
Pos[469] = 150
Pos[470] = 158
Pos[471] = 109
Pos[472] = 236
Pos[473] = 227
Pos[474] = 684
Pos[475] = 346
Pos[476] = 331
Pos[477] = 298
Pos[478] = 516
Pos[479] = 169
Pos[480] = 357
Pos[481] = 478
Pos[482] = 617
Pos[483] = 200
Pos[484] = 76
Pos[485] = 412
Pos[486] = 504
Pos[487] = 51
Pos[488] = 523
Pos[489] = 390
Pos[490] = 498
Pos[491] = 635
Pos[492] = 343
Pos[493] = 196
Pos[494] = 244
Pos[495] = 209
Pos[496] = 155
Pos[497] = 407
Pos[498] = 258
Pos[499] = 447
Pos[500] = 460
Pos[501] = 98
Pos[502] = 30
Pos[503] = 50
Pos[504] = 122
Pos[505] = 628
Pos[506] = 131
Pos[507] = 484
Pos[508] = 270
Pos[509] = 376
Pos[510] = 514
Pos[511] = 520
Pos[512] = 3
Pos[513] = 82
Pos[514] = 35
Pos[515] = 69
Pos[516] = 115
Pos[517] = 339
Pos[518] = 311
Pos[519] = 637
Pos[520] = 73
Pos[521] = 353
Pos[522] = 455
Pos[523] = 212
Pos[524] = 485
Pos[525] = 379
Pos[526] = 19
Pos[527] = 488
Pos[528] = 10
Pos[529] = 682
Pos[530] = 496
Pos[531] = 560
Pos[532] = 116
Pos[533] = 434
Pos[534] = 650
Pos[535] = 336
Pos[536] = 577
Pos[537] = 669
Pos[538] = 95
Pos[539] = 185
Pos[540] = 657
Pos[541] = 698
Pos[542] = 11
Pos[543] = 56
Pos[544] = 421
Pos[545] = 129
Pos[546] = 281
Pos[547] = 303
Pos[548] = 409
Pos[549] = 255
Pos[550] = 456
Pos[551] = 477
Pos[552] = 580
Pos[553] = 278
Pos[554] = 180
Pos[555] = 275
Pos[556] = 323
Pos[557] = 572
Pos[558] = 599
Pos[559] = 111
Pos[560] = 582
Pos[561] = 652
Pos[562] = 545
Pos[563] = 614
Pos[564] = 8
Pos[565] = 189
Pos[566] = 85
Pos[567] = 381
Pos[568] = 511
Pos[569] = 492
Pos[570] = 453
Pos[571] = 147
Pos[572] = 188
Pos[573] = 527
Pos[574] = 106
Pos[575] = 465
Pos[576] = 467
Pos[577] = 375
Pos[578] = 685
Pos[579] = 162
Pos[580] = 132
Pos[581] = 638
Pos[582] = 238
Pos[583] = 59
Pos[584] = 100
Pos[585] = 218
Pos[586] = 242
Pos[587] = 247
Pos[588] = 284
Pos[589] = 327
Pos[590] = 483
Pos[591] = 672
Pos[592] = 141
Pos[593] = 163
Pos[594] = 356
Pos[595] = 600
Pos[596] = 78
Pos[597] = 104
Pos[598] = 140
Pos[599] = 307
Pos[600] = 333
Pos[601] = 512
Pos[602] = 536
Pos[603] = 68
Pos[604] = 378
Pos[605] = 559
Pos[606] = 587
Pos[607] = 666
Pos[608] = 15
Pos[609] = 128
Pos[610] = 160
Pos[611] = 260
Pos[612] = 151
Pos[613] = 675
Pos[614] = 13
Pos[615] = 267
Pos[616] = 391
Pos[617] = 72
Pos[618] = 589
Pos[619] = 126
Pos[620] = 490
Pos[621] = 495
Pos[622] = 592
Pos[623] = 14
Pos[624] = 53
Pos[625] = 618
Pos[626] = 386
Pos[627] = 681
Pos[628] = 325
Pos[629] = 406
Pos[630] = 296
Pos[631] = 481
Pos[632] = 558
Pos[633] = 25
Pos[634] = 583
Pos[635] = 607
Pos[636] = 611
Pos[637] = 622
Pos[638] = 252
Pos[639] = 29
Pos[640] = 401
Pos[641] = 148
Pos[642] = 237
Pos[643] = 289
Pos[644] = 251
Pos[645] = 144
Pos[646] = 127
Pos[647] = 224
Pos[648] = 294
Pos[649] = 578
Pos[650] = 464
Pos[651] = 16
Pos[652] = 105
Pos[653] = 360
Pos[654] = 396
Pos[655] = 436
Pos[656] = 660
Pos[657] = 18
Pos[658] = 362
Pos[659] = 510
Pos[660] = 548
Pos[661] = 561
Pos[662] = 593
Pos[663] = 648
Pos[664] = 7
Pos[665] = 47
Pos[666] = 118
Pos[667] = 222
Pos[668] = 239
Pos[669] = 324
Pos[670] = 49
Pos[671] = 192
Pos[672] = 305
Pos[673] = 344
Pos[674] = 347
Pos[675] = 350
Pos[676] = 367
Pos[677] = 458
Pos[678] = 117
Pos[679] = 417
Pos[680] = 524
Pos[681] = 534
Pos[682] = 349
Pos[683] = 372
Pos[684] = 259
Pos[685] = 494
Pos[686] = 521
Pos[687] = 575
Pos[688] = 121
Pos[689] = 253
Pos[690] = 322
Pos[691] = 392
Pos[692] = 86
Pos[693] = 211
Pos[694] = 316
Pos[695] = 586
Pos[696] = 114
Pos[697] = 677
Pos[698] = 75
Pos[699] = 291
Enbr = 183010
start search
improving solution size 1
improving solution size 2
improving solution size 3
improving solution size 4
improving solution size 5
improving solution size 6
improving solution size 7
improving solution size 8
improving solution size 9
improving solution size 10
improving solution size 11
improving solution size 12
improving solution size 13
improving solution size 14
improving solution size 15
improving solution size 16
improving solution size 17
improving solution size 18
improving solution size 19
improving solution size 20
improving solution size 21
improving solution size 22
improving solution size 23
improving solution size 24
improving solution size 25
improving solution size 26
improving solution size 27
improving solution size 28
improving solution size 29
improving solution size 30
improving solution size 31
improving solution size 32
improving solution size 33
improving solution size 34
improving solution size 35
improving solution size 36
improving solution size 37
improving solution size 38
improving solution size 39
improving solution size 40
improving solution size 41
improving solution size 42
improving solution size 43
improving solution size 44
improving solution size 45
improving solution size 46
improving solution size 47
improving solution size 48
improving solution size 49
improving solution size 50
improving solution size 51
improving solution size 52
improving solution size 53
improving solution size 54
improving solution size 55
improving solution size 56
improving solution size 57
improving solution size 58
improving solution size 59
improving solution size 60
improving solution size 61
improving solution size 62
improving solution size 63
improving solution size 64
improving solution size 65
improving solution size 66
improving solution size 67
improving solution size 68
improving solution size 69
TIMEOUT
best clique: 292 76 678 115 587 317 212 87 393 323 122 576 522 495 373 350 535 525 418 118 459 368 351 348 345 306 193 50 325 223 119 48 8 649 562 511 361 145 290 149 30 612 608 584 297 387 54 106 127 392 129 379 69 142 285 243 468 9 276 581 282 638 132 31 156 152 636 660 423 
record          =          69
subp            =  2221711492
time            =  3600.00019
