timeout 3600 s
Graph with 1000 vertices and 371746 edges density 0.744236
t = 743492, Enbr = 371746
degree[999] = 895, pos[999] = 377
degree[998] = 887, pos[998] = 762
degree[997] = 880, pos[997] = 282
degree[996] = 877, pos[996] = 797
degree[995] = 876, pos[995] = 463
degree[994] = 873, pos[994] = 225
degree[993] = 871, pos[993] = 800
degree[992] = 870, pos[992] = 415
degree[991] = 868, pos[991] = 776
degree[990] = 867, pos[990] = 622
degree[989] = 866, pos[989] = 28
degree[988] = 863, pos[988] = 635
degree[987] = 862, pos[987] = 84
degree[986] = 861, pos[986] = 37
degree[985] = 859, pos[985] = 818
degree[984] = 857, pos[984] = 661
degree[983] = 856, pos[983] = 638
degree[982] = 854, pos[982] = 987
degree[981] = 853, pos[981] = 899
degree[980] = 852, pos[980] = 861
degree[979] = 851, pos[979] = 607
degree[978] = 849, pos[978] = 992
degree[977] = 848, pos[977] = 460
degree[976] = 847, pos[976] = 64
degree[975] = 845, pos[975] = 491
degree[974] = 843, pos[974] = 829
degree[973] = 843, pos[973] = 537
degree[972] = 840, pos[972] = 799
degree[971] = 839, pos[971] = 193
degree[970] = 838, pos[970] = 121
degree[969] = 837, pos[969] = 496
degree[968] = 835, pos[968] = 932
degree[967] = 833, pos[967] = 652
degree[966] = 831, pos[966] = 996
degree[965] = 830, pos[965] = 823
degree[964] = 829, pos[964] = 753
degree[963] = 828, pos[963] = 562
degree[962] = 827, pos[962] = 488
degree[961] = 825, pos[961] = 662
degree[960] = 824, pos[960] = 286
degree[959] = 823, pos[959] = 91
degree[958] = 821, pos[958] = 561
degree[957] = 820, pos[957] = 369
degree[956] = 818, pos[956] = 524
degree[955] = 817, pos[955] = 536
degree[954] = 816, pos[954] = 494
degree[953] = 815, pos[953] = 329
degree[952] = 813, pos[952] = 960
degree[951] = 812, pos[951] = 178
degree[950] = 810, pos[950] = 875
degree[949] = 809, pos[949] = 141
degree[948] = 807, pos[948] = 991
degree[947] = 806, pos[947] = 781
degree[946] = 806, pos[946] = 531
degree[945] = 804, pos[945] = 203
degree[944] = 803, pos[944] = 191
degree[943] = 802, pos[943] = 32
degree[942] = 801, pos[942] = 241
degree[941] = 799, pos[941] = 966
degree[940] = 798, pos[940] = 687
degree[939] = 797, pos[939] = 548
degree[938] = 796, pos[938] = 439
degree[937] = 795, pos[937] = 226
degree[936] = 793, pos[936] = 863
degree[935] = 792, pos[935] = 503
degree[934] = 791, pos[934] = 86
degree[933] = 789, pos[933] = 670
degree[932] = 788, pos[932] = 451
degree[931] = 787, pos[931] = 103
degree[930] = 785, pos[930] = 321
degree[929] = 784, pos[929] = 248
degree[928] = 783, pos[928] = 83
degree[927] = 782, pos[927] = 74
degree[926] = 780, pos[926] = 640
degree[925] = 779, pos[925] = 333
degree[924] = 778, pos[924] = 162
degree[923] = 777, pos[923] = 161
degree[922] = 775, pos[922] = 994
degree[921] = 775, pos[921] = 207
degree[920] = 773, pos[920] = 668
degree[919] = 772, pos[919] = 527
degree[918] = 771, pos[918] = 443
degree[917] = 770, pos[917] = 296
degree[916] = 769, pos[916] = 170
degree[915] = 768, pos[915] = 177
degree[914] = 767, pos[914] = 7
degree[913] = 765, pos[913] = 956
degree[912] = 764, pos[912] = 926
degree[911] = 764, pos[911] = 411
degree[910] = 762, pos[910] = 811
degree[909] = 761, pos[909] = 342
degree[908] = 760, pos[908] = 172
degree[907] = 758, pos[907] = 154
degree[906] = 756, pos[906] = 961
degree[905] = 755, pos[905] = 810
degree[904] = 754, pos[904] = 968
degree[903] = 753, pos[903] = 629
degree[902] = 752, pos[902] = 856
degree[901] = 751, pos[901] = 704
degree[900] = 750, pos[900] = 185
degree[899] = 749, pos[899] = 350
degree[898] = 747, pos[898] = 841
degree[897] = 747, pos[897] = 376
degree[896] = 745, pos[896] = 284
degree[895] = 744, pos[895] = 139
degree[894] = 743, pos[894] = 19
degree[893] = 741, pos[893] = 850
degree[892] = 740, pos[892] = 775
degree[891] = 739, pos[891] = 623
degree[890] = 738, pos[890] = 334
degree[889] = 737, pos[889] = 639
degree[888] = 736, pos[888] = 26
degree[887] = 734, pos[887] = 715
degree[886] = 733, pos[886] = 79
degree[885] = 731, pos[885] = 325
degree[884] = 730, pos[884] = 796
degree[883] = 729, pos[883] = 313
degree[882] = 727, pos[882] = 252
degree[881] = 726, pos[881] = 132
degree[880] = 724, pos[880] = 896
degree[879] = 723, pos[879] = 567
degree[878] = 722, pos[878] = 414
degree[877] = 721, pos[877] = 410
degree[876] = 720, pos[876] = 855
degree[875] = 719, pos[875] = 408
degree[874] = 718, pos[874] = 405
degree[873] = 717, pos[873] = 140
degree[872] = 716, pos[872] = 963
degree[871] = 715, pos[871] = 283
degree[870] = 714, pos[870] = 835
degree[869] = 713, pos[869] = 160
degree[868] = 711, pos[868] = 754
degree[867] = 711, pos[867] = 584
degree[866] = 710, pos[866] = 867
degree[865] = 708, pos[865] = 649
degree[864] = 708, pos[864] = 427
degree[863] = 706, pos[863] = 636
degree[862] = 705, pos[862] = 599
degree[861] = 704, pos[861] = 393
degree[860] = 703, pos[860] = 195
degree[859] = 702, pos[859] = 97
degree[858] = 700, pos[858] = 598
degree[857] = 699, pos[857] = 388
degree[856] = 698, pos[856] = 970
degree[855] = 697, pos[855] = 777
degree[854] = 696, pos[854] = 999
degree[853] = 696, pos[853] = 614
degree[852] = 694, pos[852] = 759
degree[851] = 693, pos[851] = 194
degree[850] = 692, pos[850] = 838
degree[849] = 690, pos[849] = 938
degree[848] = 690, pos[848] = 666
degree[847] = 688, pos[847] = 784
degree[846] = 687, pos[846] = 783
degree[845] = 686, pos[845] = 637
degree[844] = 685, pos[844] = 270
degree[843] = 684, pos[843] = 235
degree[842] = 682, pos[842] = 847
degree[841] = 681, pos[841] = 782
degree[840] = 680, pos[840] = 526
degree[839] = 680, pos[839] = 136
degree[838] = 678, pos[838] = 891
degree[837] = 677, pos[837] = 570
degree[836] = 676, pos[836] = 760
degree[835] = 675, pos[835] = 755
degree[834] = 674, pos[834] = 558
degree[833] = 674, pos[833] = 331
degree[832] = 672, pos[832] = 198
degree[831] = 671, pos[831] = 47
degree[830] = 669, pos[830] = 568
degree[829] = 668, pos[829] = 534
degree[828] = 667, pos[828] = 359
degree[827] = 665, pos[827] = 729
degree[826] = 665, pos[826] = 265
degree[825] = 663, pos[825] = 934
degree[824] = 662, pos[824] = 368
degree[823] = 661, pos[823] = 280
degree[822] = 660, pos[822] = 877
degree[821] = 659, pos[821] = 969
degree[820] = 658, pos[820] = 153
degree[819] = 657, pos[819] = 442
degree[818] = 656, pos[818] = 905
degree[817] = 655, pos[817] = 297
degree[816] = 654, pos[816] = 962
degree[815] = 653, pos[815] = 125
degree[814] = 651, pos[814] = 928
degree[813] = 650, pos[813] = 801
degree[812] = 649, pos[812] = 834
degree[811] = 648, pos[811] = 733
degree[810] = 647, pos[810] = 394
degree[809] = 646, pos[809] = 824
degree[808] = 646, pos[808] = 100
degree[807] = 643, pos[807] = 913
degree[806] = 642, pos[806] = 718
degree[805] = 641, pos[805] = 517
degree[804] = 640, pos[804] = 547
degree[803] = 639, pos[803] = 261
degree[802] = 638, pos[802] = 163
degree[801] = 637, pos[801] = 242
degree[800] = 636, pos[800] = 8
degree[799] = 635, pos[799] = 894
degree[798] = 634, pos[798] = 201
degree[797] = 633, pos[797] = 575
degree[796] = 631, pos[796] = 400
degree[795] = 631, pos[795] = 262
degree[794] = 629, pos[794] = 253
degree[793] = 628, pos[793] = 921
degree[792] = 628, pos[792] = 17
degree[791] = 627, pos[791] = 302
degree[790] = 626, pos[790] = 112
degree[789] = 624, pos[789] = 532
degree[788] = 623, pos[788] = 189
degree[787] = 623, pos[787] = 10
degree[786] = 621, pos[786] = 533
degree[785] = 620, pos[785] = 401
degree[784] = 619, pos[784] = 129
degree[783] = 618, pos[783] = 96
degree[782] = 617, pos[782] = 565
degree[781] = 616, pos[781] = 786
degree[780] = 615, pos[780] = 171
degree[779] = 614, pos[779] = 90
degree[778] = 612, pos[778] = 959
degree[777] = 612, pos[777] = 871
degree[776] = 611, pos[776] = 911
degree[775] = 610, pos[775] = 902
degree[774] = 609, pos[774] = 457
degree[773] = 608, pos[773] = 363
degree[772] = 607, pos[772] = 940
degree[771] = 606, pos[771] = 256
degree[770] = 604, pos[770] = 502
degree[769] = 604, pos[769] = 115
degree[768] = 602, pos[768] = 893
degree[767] = 600, pos[767] = 997
degree[766] = 600, pos[766] = 788
degree[765] = 599, pos[765] = 691
degree[764] = 599, pos[764] = 554
degree[763] = 597, pos[763] = 564
degree[762] = 596, pos[762] = 479
degree[761] = 595, pos[761] = 671
degree[760] = 594, pos[760] = 920
degree[759] = 594, pos[759] = 523
degree[758] = 591, pos[758] = 943
degree[757] = 591, pos[757] = 669
degree[756] = 590, pos[756] = 452
degree[755] = 589, pos[755] = 291
degree[754] = 588, pos[754] = 205
degree[753] = 586, pos[753] = 836
degree[752] = 585, pos[752] = 805
degree[751] = 585, pos[751] = 156
degree[750] = 584, pos[750] = 632
degree[749] = 582, pos[749] = 975
degree[748] = 582, pos[748] = 794
degree[747] = 581, pos[747] = 619
degree[746] = 579, pos[746] = 618
degree[745] = 578, pos[745] = 907
degree[744] = 577, pos[744] = 601
degree[743] = 576, pos[743] = 569
degree[742] = 576, pos[742] = 259
degree[741] = 574, pos[741] = 498
degree[740] = 573, pos[740] = 370
degree[739] = 572, pos[739] = 76
degree[738] = 570, pos[738] = 276
degree[737] = 570, pos[737] = 238
degree[736] = 568, pos[736] = 119
degree[735] = 567, pos[735] = 34
degree[734] = 566, pos[734] = 421
degree[733] = 564, pos[733] = 910
degree[732] = 564, pos[732] = 663
degree[731] = 562, pos[731] = 878
degree[730] = 562, pos[730] = 507
degree[729] = 561, pos[729] = 708
degree[728] = 560, pos[728] = 504
degree[727] = 559, pos[727] = 866
degree[726] = 557, pos[726] = 954
degree[725] = 557, pos[725] = 597
degree[724] = 556, pos[724] = 14
degree[723] = 555, pos[723] = 737
degree[722] = 554, pos[722] = 756
degree[721] = 553, pos[721] = 437
degree[720] = 552, pos[720] = 710
degree[719] = 551, pos[719] = 308
degree[718] = 549, pos[718] = 903
degree[717] = 548, pos[717] = 716
degree[716] = 547, pos[716] = 743
degree[715] = 547, pos[715] = 102
degree[714] = 545, pos[714] = 814
degree[713] = 544, pos[713] = 579
degree[712] = 544, pos[712] = 23
degree[711] = 542, pos[711] = 227
degree[710] = 542, pos[710] = 62
degree[709] = 540, pos[709] = 557
degree[708] = 539, pos[708] = 709
degree[707] = 538, pos[707] = 348
degree[706] = 537, pos[706] = 50
degree[705] = 536, pos[705] = 813
degree[704] = 535, pos[704] = 750
degree[703] = 534, pos[703] = 187
degree[702] = 532, pos[702] = 812
degree[701] = 531, pos[701] = 688
degree[700] = 530, pos[700] = 676
degree[699] = 529, pos[699] = 644
degree[698] = 529, pos[698] = 351
degree[697] = 528, pos[697] = 138
degree[696] = 527, pos[696] = 113
degree[695] = 526, pos[695] = 271
degree[694] = 525, pos[694] = 798
degree[693] = 524, pos[693] = 779
degree[692] = 524, pos[692] = 298
degree[691] = 522, pos[691] = 279
degree[690] = 522, pos[690] = 229
degree[689] = 521, pos[689] = 192
degree[688] = 519, pos[688] = 263
degree[687] = 519, pos[687] = 42
degree[686] = 518, pos[686] = 111
degree[685] = 516, pos[685] = 684
degree[684] = 515, pos[684] = 446
degree[683] = 514, pos[683] = 149
degree[682] = 514, pos[682] = 70
degree[681] = 512, pos[681] = 66
degree[680] = 510, pos[680] = 808
degree[679] = 509, pos[679] = 752
degree[678] = 508, pos[678] = 577
degree[677] = 508, pos[677] = 549
degree[676] = 507, pos[676] = 328
degree[675] = 506, pos[675] = 274
degree[674] = 504, pos[674] = 176
degree[673] = 503, pos[673] = 901
degree[672] = 503, pos[672] = 249
degree[671] = 501, pos[671] = 748
degree[670] = 500, pos[670] = 746
degree[669] = 499, pos[669] = 730
degree[668] = 498, pos[668] = 658
degree[667] = 498, pos[667] = 287
degree[666] = 497, pos[666] = 148
degree[665] = 496, pos[665] = 422
degree[664] = 494, pos[664] = 990
degree[663] = 493, pos[663] = 888
degree[662] = 492, pos[662] = 822
degree[661] = 491, pos[661] = 448
degree[660] = 491, pos[660] = 85
degree[659] = 490, pos[659] = 152
degree[658] = 489, pos[658] = 335
degree[657] = 488, pos[657] = 846
degree[656] = 487, pos[656] = 128
degree[655] = 486, pos[655] = 820
degree[654] = 485, pos[654] = 785
degree[653] = 484, pos[653] = 239
degree[652] = 483, pos[652] = 456
degree[651] = 483, pos[651] = 423
degree[650] = 483, pos[650] = 151
degree[649] = 480, pos[649] = 576
degree[648] = 479, pos[648] = 445
degree[647] = 478, pos[647] = 512
degree[646] = 477, pos[646] = 895
degree[645] = 476, pos[645] = 454
degree[644] = 475, pos[644] = 948
degree[643] = 474, pos[643] = 949
degree[642] = 473, pos[642] = 906
degree[641] = 472, pos[641] = 849
degree[640] = 472, pos[640] = 319
degree[639] = 470, pos[639] = 986
degree[638] = 469, pos[638] = 787
degree[637] = 469, pos[637] = 208
degree[636] = 468, pos[636] = 438
degree[635] = 467, pos[635] = 385
degree[634] = 466, pos[634] = 578
degree[633] = 466, pos[633] = 81
degree[632] = 463, pos[632] = 802
degree[631] = 463, pos[631] = 566
degree[630] = 462, pos[630] = 273
degree[629] = 460, pos[629] = 982
degree[628] = 459, pos[628] = 616
degree[627] = 458, pos[627] = 450
degree[626] = 457, pos[626] = 725
degree[625] = 457, pos[625] = 338
degree[624] = 456, pos[624] = 258
degree[623] = 454, pos[623] = 892
degree[622] = 454, pos[622] = 723
degree[621] = 452, pos[621] = 827
degree[620] = 451, pos[620] = 771
degree[619] = 451, pos[619] = 612
degree[618] = 450, pos[618] = 603
degree[617] = 449, pos[617] = 582
degree[616] = 448, pos[616] = 173
degree[615] = 447, pos[615] = 694
degree[614] = 446, pos[614] = 541
degree[613] = 446, pos[613] = 24
degree[612] = 445, pos[612] = 581
degree[611] = 444, pos[611] = 738
degree[610] = 443, pos[610] = 199
degree[609] = 442, pos[609] = 323
degree[608] = 441, pos[608] = 681
degree[607] = 440, pos[607] = 685
degree[606] = 439, pos[606] = 611
degree[605] = 438, pos[605] = 373
degree[604] = 436, pos[604] = 881
degree[603] = 436, pos[603] = 288
degree[602] = 435, pos[602] = 686
degree[601] = 434, pos[601] = 840
degree[600] = 432, pos[600] = 869
degree[599] = 432, pos[599] = 143
degree[598] = 431, pos[598] = 301
degree[597] = 430, pos[597] = 745
degree[596] = 430, pos[596] = 51
degree[595] = 428, pos[595] = 643
degree[594] = 426, pos[594] = 695
degree[593] = 426, pos[593] = 89
degree[592] = 424, pos[592] = 698
degree[591] = 424, pos[591] = 11
degree[590] = 423, pos[590] = 180
degree[589] = 422, pos[589] = 1
degree[588] = 420, pos[588] = 470
degree[587] = 420, pos[587] = 77
degree[586] = 417, pos[586] = 853
degree[585] = 416, pos[585] = 924
degree[584] = 416, pos[584] = 464
degree[583] = 415, pos[583] = 583
degree[582] = 414, pos[582] = 706
degree[581] = 414, pos[581] = 585
degree[580] = 413, pos[580] = 122
degree[579] = 412, pos[579] = 610
degree[578] = 411, pos[578] = 472
degree[577] = 410, pos[577] = 311
degree[576] = 409, pos[576] = 416
degree[575] = 409, pos[575] = 295
degree[574] = 407, pos[574] = 983
degree[573] = 406, pos[573] = 889
degree[572] = 405, pos[572] = 593
degree[571] = 405, pos[571] = 318
degree[570] = 403, pos[570] = 540
degree[569] = 403, pos[569] = 467
degree[568] = 402, pos[568] = 908
degree[567] = 401, pos[567] = 412
degree[566] = 400, pos[566] = 289
degree[565] = 399, pos[565] = 117
degree[564] = 398, pos[564] = 71
degree[563] = 397, pos[563] = 521
degree[562] = 396, pos[562] = 542
degree[561] = 395, pos[561] = 278
degree[560] = 395, pos[560] = 22
degree[559] = 393, pos[559] = 848
degree[558] = 393, pos[558] = 832
degree[557] = 391, pos[557] = 809
degree[556] = 391, pos[556] = 104
degree[555] = 390, pos[555] = 957
degree[554] = 389, pos[554] = 88
degree[553] = 388, pos[553] = 314
degree[552] = 387, pos[552] = 142
degree[551] = 387, pos[551] = 36
degree[550] = 385, pos[550] = 714
degree[549] = 384, pos[549] = 631
degree[548] = 383, pos[548] = 600
degree[547] = 382, pos[547] = 965
degree[546] = 382, pos[546] = 58
degree[545] = 381, pos[545] = 444
degree[544] = 380, pos[544] = 471
degree[543] = 379, pos[543] = 682
degree[542] = 378, pos[542] = 741
degree[541] = 378, pos[541] = 232
degree[540] = 376, pos[540] = 953
degree[539] = 376, pos[539] = 80
degree[538] = 375, pos[538] = 740
degree[537] = 374, pos[537] = 46
degree[536] = 373, pos[536] = 744
degree[535] = 372, pos[535] = 971
degree[534] = 372, pos[534] = 482
degree[533] = 371, pos[533] = 147
degree[532] = 369, pos[532] = 873
degree[531] = 369, pos[531] = 409
degree[530] = 368, pos[530] = 336
degree[529] = 366, pos[529] = 817
degree[528] = 366, pos[528] = 131
degree[527] = 365, pos[527] = 939
degree[526] = 364, pos[526] = 395
degree[525] = 363, pos[525] = 343
degree[524] = 362, pos[524] = 387
degree[523] = 361, pos[523] = 942
degree[522] = 360, pos[522] = 727
degree[521] = 359, pos[521] = 705
degree[520] = 358, pos[520] = 790
degree[519] = 358, pos[519] = 362
degree[518] = 356, pos[518] = 574
degree[517] = 355, pos[517] = 322
degree[516] = 355, pos[516] = 16
degree[515] = 353, pos[515] = 922
degree[514] = 353, pos[514] = 87
degree[513] = 352, pos[513] = 707
degree[512] = 351, pos[512] = 246
degree[511] = 350, pos[511] = 606
degree[510] = 350, pos[510] = 379
degree[509] = 349, pos[509] = 374
degree[508] = 348, pos[508] = 862
degree[507] = 347, pos[507] = 306
degree[506] = 345, pos[506] = 826
degree[505] = 344, pos[505] = 749
degree[504] = 344, pos[504] = 424
degree[503] = 344, pos[503] = 98
degree[502] = 343, pos[502] = 114
degree[501] = 342, pos[501] = 604
degree[500] = 340, pos[500] = 529
degree[499] = 340, pos[499] = 59
degree[498] = 338, pos[498] = 396
degree[497] = 338, pos[497] = 137
degree[496] = 337, pos[496] = 27
degree[495] = 336, pos[495] = 367
degree[494] = 335, pos[494] = 734
degree[493] = 334, pos[493] = 915
degree[492] = 334, pos[492] = 792
degree[491] = 333, pos[491] = 317
degree[490] = 331, pos[490] = 642
degree[489] = 330, pos[489] = 620
degree[488] = 330, pos[488] = 45
degree[487] = 329, pos[487] = 890
degree[486] = 327, pos[486] = 773
degree[485] = 327, pos[485] = 641
degree[484] = 327, pos[484] = 346
degree[483] = 326, pos[483] = 292
degree[482] = 325, pos[482] = 465
degree[481] = 324, pos[481] = 134
degree[480] = 324, pos[480] = 130
degree[479] = 322, pos[479] = 165
degree[478] = 321, pos[478] = 514
degree[477] = 320, pos[477] = 266
degree[476] = 319, pos[476] = 511
degree[475] = 319, pos[475] = 240
degree[474] = 318, pos[474] = 830
degree[473] = 318, pos[473] = 61
degree[472] = 316, pos[472] = 981
degree[471] = 315, pos[471] = 677
degree[470] = 314, pos[470] = 952
degree[469] = 314, pos[469] = 124
degree[468] = 313, pos[468] = 825
degree[467] = 312, pos[467] = 839
degree[466] = 312, pos[466] = 484
degree[465] = 311, pos[465] = 500
degree[464] = 311, pos[464] = 67
degree[463] = 309, pos[463] = 392
degree[462] = 307, pos[462] = 806
degree[461] = 307, pos[461] = 144
degree[460] = 306, pos[460] = 647
degree[459] = 306, pos[459] = 332
degree[458] = 304, pos[458] = 305
degree[457] = 303, pos[457] = 857
degree[456] = 303, pos[456] = 791
degree[455] = 302, pos[455] = 765
degree[454] = 302, pos[454] = 310
degree[453] = 300, pos[453] = 556
degree[452] = 298, pos[452] = 918
degree[451] = 298, pos[451] = 761
degree[450] = 297, pos[450] = 535
degree[449] = 297, pos[449] = 250
degree[448] = 295, pos[448] = 590
degree[447] = 295, pos[447] = 431
degree[446] = 295, pos[446] = 35
degree[445] = 293, pos[445] = 518
degree[444] = 293, pos[444] = 18
degree[443] = 292, pos[443] = 215
degree[442] = 291, pos[442] = 947
degree[441] = 291, pos[441] = 441
degree[440] = 290, pos[440] = 365
degree[439] = 288, pos[439] = 766
degree[438] = 288, pos[438] = 105
degree[437] = 287, pos[437] = 212
degree[436] = 286, pos[436] = 944
degree[435] = 285, pos[435] = 993
degree[434] = 285, pos[434] = 492
degree[433] = 284, pos[433] = 919
degree[432] = 283, pos[432] = 772
degree[431] = 283, pos[431] = 683
degree[430] = 282, pos[430] = 573
degree[429] = 282, pos[429] = 93
degree[428] = 280, pos[428] = 648
degree[427] = 280, pos[427] = 290
degree[426] = 279, pos[426] = 509
degree[425] = 278, pos[425] = 196
degree[424] = 278, pos[424] = 43
degree[423] = 277, pos[423] = 158
degree[422] = 276, pos[422] = 133
degree[421] = 275, pos[421] = 186
degree[420] = 273, pos[420] = 876
degree[419] = 272, pos[419] = 544
degree[418] = 271, pos[418] = 701
degree[417] = 271, pos[417] = 220
degree[416] = 269, pos[416] = 858
degree[415] = 268, pos[415] = 941
degree[414] = 268, pos[414] = 678
degree[413] = 267, pos[413] = 294
degree[412] = 266, pos[412] = 803
degree[411] = 266, pos[411] = 285
degree[410] = 264, pos[410] = 758
degree[409] = 264, pos[409] = 202
degree[408] = 263, pos[408] = 519
degree[407] = 262, pos[407] = 217
degree[406] = 261, pos[406] = 977
degree[405] = 261, pos[405] = 767
degree[404] = 261, pos[404] = 615
degree[403] = 259, pos[403] = 627
degree[402] = 258, pos[402] = 486
degree[401] = 258, pos[401] = 2
degree[400] = 257, pos[400] = 60
degree[399] = 256, pos[399] = 634
degree[398] = 256, pos[398] = 419
degree[397] = 255, pos[397] = 175
degree[396] = 254, pos[396] = 434
degree[395] = 253, pos[395] = 528
degree[394] = 252, pos[394] = 945
degree[393] = 251, pos[393] = 736
degree[392] = 251, pos[392] = 384
degree[391] = 249, pos[391] = 951
degree[390] = 249, pos[390] = 127
degree[389] = 248, pos[389] = 958
degree[388] = 248, pos[388] = 720
degree[387] = 248, pos[387] = 473
degree[386] = 245, pos[386] = 976
degree[385] = 245, pos[385] = 828
degree[384] = 244, pos[384] = 880
degree[383] = 243, pos[383] = 887
degree[382] = 243, pos[382] = 478
degree[381] = 242, pos[381] = 719
degree[380] = 241, pos[380] = 580
degree[379] = 241, pos[379] = 224
degree[378] = 239, pos[378] = 898
degree[377] = 239, pos[377] = 605
degree[376] = 238, pos[376] = 625
degree[375] = 237, pos[375] = 872
degree[374] = 237, pos[374] = 159
degree[373] = 236, pos[373] = 726
degree[372] = 235, pos[372] = 52
degree[371] = 234, pos[371] = 937
degree[370] = 233, pos[370] = 933
degree[369] = 232, pos[369] = 897
degree[368] = 232, pos[368] = 4
degree[367] = 230, pos[367] = 466
degree[366] = 229, pos[366] = 572
degree[365] = 229, pos[365] = 455
degree[364] = 228, pos[364] = 404
degree[363] = 227, pos[363] = 925
degree[362] = 226, pos[362] = 815
degree[361] = 226, pos[361] = 390
degree[360] = 225, pos[360] = 672
degree[359] = 225, pos[359] = 179
degree[358] = 224, pos[358] = 930
degree[357] = 222, pos[357] = 721
degree[356] = 222, pos[356] = 591
degree[355] = 221, pos[355] = 304
degree[354] = 219, pos[354] = 985
degree[353] = 219, pos[353] = 21
degree[352] = 218, pos[352] = 831
degree[351] = 218, pos[351] = 732
degree[350] = 217, pos[350] = 571
degree[349] = 216, pos[349] = 516
degree[348] = 215, pos[348] = 587
degree[347] = 214, pos[347] = 586
degree[346] = 214, pos[346] = 247
degree[345] = 213, pos[345] = 525
degree[344] = 213, pos[344] = 3
degree[343] = 212, pos[343] = 251
degree[342] = 211, pos[342] = 237
degree[341] = 210, pos[341] = 435
degree[340] = 209, pos[340] = 659
degree[339] = 209, pos[339] = 594
degree[338] = 208, pos[338] = 497
degree[337] = 207, pos[337] = 553
degree[336] = 206, pos[336] = 979
degree[335] = 206, pos[335] = 254
degree[334] = 205, pos[334] = 330
degree[333] = 204, pos[333] = 501
degree[332] = 204, pos[332] = 82
degree[331] = 204, pos[331] = 29
degree[330] = 202, pos[330] = 489
degree[329] = 201, pos[329] = 692
degree[328] = 200, pos[328] = 361
degree[327] = 200, pos[327] = 353
degree[326] = 199, pos[326] = 974
degree[325] = 198, pos[325] = 860
degree[324] = 198, pos[324] = 426
degree[323] = 197, pos[323] = 447
degree[322] = 196, pos[322] = 844
degree[321] = 196, pos[321] = 617
degree[320] = 196, pos[320] = 65
degree[319] = 195, pos[319] = 0
degree[318] = 194, pos[318] = 673
degree[317] = 194, pos[317] = 267
degree[316] = 194, pos[316] = 214
degree[315] = 192, pos[315] = 433
degree[314] = 191, pos[314] = 453
degree[313] = 190, pos[313] = 927
degree[312] = 190, pos[312] = 674
degree[311] = 190, pos[311] = 462
degree[310] = 188, pos[310] = 747
degree[309] = 188, pos[309] = 223
degree[308] = 187, pos[308] = 150
degree[307] = 186, pos[307] = 870
degree[306] = 186, pos[306] = 157
degree[305] = 185, pos[305] = 406
degree[304] = 184, pos[304] = 843
degree[303] = 184, pos[303] = 166
degree[302] = 183, pos[302] = 425
degree[301] = 182, pos[301] = 15
degree[300] = 182, pos[300] = 9
degree[299] = 181, pos[299] = 795
degree[298] = 180, pos[298] = 664
degree[297] = 180, pos[297] = 538
degree[296] = 180, pos[296] = 345
degree[295] = 178, pos[295] = 816
degree[294] = 178, pos[294] = 275
degree[293] = 176, pos[293] = 973
degree[292] = 176, pos[292] = 624
degree[291] = 175, pos[291] = 804
degree[290] = 175, pos[290] = 382
degree[289] = 174, pos[289] = 778
degree[288] = 173, pos[288] = 389
degree[287] = 173, pos[287] = 381
degree[286] = 172, pos[286] = 272
degree[285] = 171, pos[285] = 946
degree[284] = 171, pos[284] = 135
degree[283] = 170, pos[283] = 53
degree[282] = 169, pos[282] = 499
degree[281] = 168, pos[281] = 592
degree[280] = 167, pos[280] = 508
degree[279] = 166, pos[279] = 407
degree[278] = 166, pos[278] = 233
degree[277] = 165, pos[277] = 552
degree[276] = 164, pos[276] = 530
degree[275] = 164, pos[275] = 44
degree[274] = 163, pos[274] = 679
degree[273] = 162, pos[273] = 546
degree[272] = 161, pos[272] = 633
degree[271] = 161, pos[271] = 418
degree[270] = 160, pos[270] = 689
degree[269] = 159, pos[269] = 474
degree[268] = 159, pos[268] = 277
degree[267] = 159, pos[267] = 213
degree[266] = 158, pos[266] = 107
degree[265] = 157, pos[265] = 73
degree[264] = 155, pos[264] = 929
degree[263] = 155, pos[263] = 883
degree[262] = 154, pos[262] = 204
degree[261] = 152, pos[261] = 851
degree[260] = 152, pos[260] = 703
degree[259] = 152, pos[259] = 257
degree[258] = 151, pos[258] = 116
degree[257] = 150, pos[257] = 520
degree[256] = 150, pos[256] = 386
degree[255] = 149, pos[255] = 650
degree[254] = 149, pos[254] = 146
degree[253] = 148, pos[253] = 770
degree[252] = 147, pos[252] = 222
degree[251] = 146, pos[251] = 739
degree[250] = 145, pos[250] = 998
degree[249] = 145, pos[249] = 39
degree[248] = 144, pos[248] = 303
degree[247] = 143, pos[247] = 339
degree[246] = 143, pos[246] = 6
degree[245] = 142, pos[245] = 510
degree[244] = 142, pos[244] = 174
degree[243] = 142, pos[243] = 63
degree[242] = 140, pos[242] = 909
degree[241] = 139, pos[241] = 821
degree[240] = 139, pos[240] = 742
degree[239] = 138, pos[239] = 371
degree[238] = 138, pos[238] = 341
degree[237] = 137, pos[237] = 515
degree[236] = 136, pos[236] = 722
degree[235] = 136, pos[235] = 696
degree[234] = 136, pos[234] = 366
degree[233] = 135, pos[233] = 645
degree[232] = 135, pos[232] = 264
degree[231] = 133, pos[231] = 854
degree[230] = 133, pos[230] = 126
degree[229] = 133, pos[229] = 68
degree[228] = 131, pos[228] = 589
degree[227] = 130, pos[227] = 923
degree[226] = 130, pos[226] = 123
degree[225] = 129, pos[225] = 559
degree[224] = 129, pos[224] = 468
degree[223] = 128, pos[223] = 879
degree[222] = 127, pos[222] = 657
degree[221] = 127, pos[221] = 344
degree[220] = 127, pos[220] = 106
degree[219] = 126, pos[219] = 865
degree[218] = 126, pos[218] = 793
degree[217] = 124, pos[217] = 349
degree[216] = 123, pos[216] = 551
degree[215] = 123, pos[215] = 281
degree[214] = 121, pos[214] = 972
degree[213] = 121, pos[213] = 550
degree[212] = 120, pos[212] = 299
degree[211] = 120, pos[211] = 245
degree[210] = 120, pos[210] = 40
degree[209] = 120, pos[209] = 38
degree[208] = 119, pos[208] = 712
degree[207] = 117, pos[207] = 774
degree[206] = 117, pos[206] = 493
degree[205] = 117, pos[205] = 209
degree[204] = 116, pos[204] = 402
degree[203] = 115, pos[203] = 49
degree[202] = 114, pos[202] = 608
degree[201] = 114, pos[201] = 57
degree[200] = 113, pos[200] = 55
degree[199] = 112, pos[199] = 763
degree[198] = 111, pos[198] = 768
degree[197] = 111, pos[197] = 420
degree[196] = 110, pos[196] = 628
degree[195] = 110, pos[195] = 522
degree[194] = 110, pos[194] = 75
degree[193] = 109, pos[193] = 487
degree[192] = 109, pos[192] = 485
degree[191] = 108, pos[191] = 372
degree[190] = 107, pos[190] = 852
degree[189] = 106, pos[189] = 357
degree[188] = 106, pos[188] = 309
degree[187] = 105, pos[187] = 789
degree[186] = 104, pos[186] = 884
degree[185] = 103, pos[185] = 697
degree[184] = 103, pos[184] = 375
degree[183] = 102, pos[183] = 72
degree[182] = 101, pos[182] = 842
degree[181] = 101, pos[181] = 475
degree[180] = 100, pos[180] = 56
degree[179] = 99, pos[179] = 900
degree[178] = 99, pos[178] = 656
degree[177] = 98, pos[177] = 428
degree[176] = 97, pos[176] = 845
degree[175] = 96, pos[175] = 545
degree[174] = 96, pos[174] = 461
degree[173] = 95, pos[173] = 459
degree[172] = 95, pos[172] = 340
degree[171] = 94, pos[171] = 182
degree[170] = 93, pos[170] = 269
degree[169] = 92, pos[169] = 364
degree[168] = 92, pos[168] = 218
degree[167] = 91, pos[167] = 931
degree[166] = 90, pos[166] = 751
degree[165] = 90, pos[165] = 717
degree[164] = 89, pos[164] = 724
degree[163] = 89, pos[163] = 700
degree[162] = 88, pos[162] = 916
degree[161] = 87, pos[161] = 978
degree[160] = 87, pos[160] = 312
degree[159] = 87, pos[159] = 181
degree[158] = 86, pos[158] = 621
degree[157] = 85, pos[157] = 613
degree[156] = 85, pos[156] = 216
degree[155] = 84, pos[155] = 680
degree[154] = 84, pos[154] = 210
degree[153] = 82, pos[153] = 807
degree[152] = 82, pos[152] = 731
degree[151] = 82, pos[151] = 655
degree[150] = 81, pos[150] = 609
degree[149] = 81, pos[149] = 324
degree[148] = 81, pos[148] = 211
degree[147] = 79, pos[147] = 560
degree[146] = 79, pos[146] = 539
degree[145] = 79, pos[145] = 356
degree[144] = 79, pos[144] = 183
degree[143] = 77, pos[143] = 398
degree[142] = 77, pos[142] = 355
degree[141] = 76, pos[141] = 483
degree[140] = 76, pos[140] = 316
degree[139] = 74, pos[139] = 675
degree[138] = 74, pos[138] = 543
degree[137] = 74, pos[137] = 168
degree[136] = 73, pos[136] = 588
degree[135] = 72, pos[135] = 236
degree[134] = 71, pos[134] = 596
degree[133] = 71, pos[133] = 48
degree[132] = 70, pos[132] = 819
degree[131] = 69, pos[131] = 780
degree[130] = 69, pos[130] = 110
degree[129] = 68, pos[129] = 200
degree[128] = 68, pos[128] = 101
degree[127] = 67, pos[127] = 230
degree[126] = 67, pos[126] = 20
degree[125] = 65, pos[125] = 859
degree[124] = 65, pos[124] = 626
degree[123] = 65, pos[123] = 380
degree[122] = 64, pos[122] = 837
degree[121] = 64, pos[121] = 403
degree[120] = 63, pos[120] = 469
degree[119] = 62, pos[119] = 989
degree[118] = 62, pos[118] = 228
degree[117] = 62, pos[117] = 33
degree[116] = 61, pos[116] = 206
degree[115] = 60, pos[115] = 109
degree[114] = 59, pos[114] = 480
degree[113] = 59, pos[113] = 155
degree[112] = 58, pos[112] = 690
degree[111] = 57, pos[111] = 885
degree[110] = 57, pos[110] = 120
degree[109] = 57, pos[109] = 108
degree[108] = 55, pos[108] = 964
degree[107] = 55, pos[107] = 665
degree[106] = 54, pos[106] = 967
degree[105] = 54, pos[105] = 94
degree[104] = 54, pos[104] = 13
degree[103] = 52, pos[103] = 917
degree[102] = 52, pos[102] = 563
degree[101] = 51, pos[101] = 555
degree[100] = 50, pos[100] = 904
degree[99] = 50, pos[99] = 506
degree[98] = 50, pos[98] = 326
degree[97] = 50, pos[97] = 169
degree[96] = 49, pos[96] = 354
degree[95] = 48, pos[95] = 699
degree[94] = 47, pos[94] = 914
degree[93] = 47, pos[93] = 481
degree[92] = 46, pos[92] = 764
degree[91] = 46, pos[91] = 145
degree[90] = 45, pos[90] = 654
degree[89] = 45, pos[89] = 12
degree[88] = 44, pos[88] = 430
degree[87] = 43, pos[87] = 653
degree[86] = 43, pos[86] = 95
degree[85] = 42, pos[85] = 886
degree[84] = 42, pos[84] = 397
degree[83] = 41, pos[83] = 864
degree[82] = 41, pos[82] = 505
degree[81] = 41, pos[81] = 347
degree[80] = 40, pos[80] = 184
degree[79] = 39, pos[79] = 912
degree[78] = 39, pos[78] = 399
degree[77] = 38, pos[77] = 360
degree[76] = 37, pos[76] = 950
degree[75] = 37, pos[75] = 440
degree[74] = 36, pos[74] = 268
degree[73] = 36, pos[73] = 231
degree[72] = 35, pos[72] = 735
degree[71] = 35, pos[71] = 358
degree[70] = 34, pos[70] = 955
degree[69] = 34, pos[69] = 458
degree[68] = 33, pos[68] = 118
degree[67] = 32, pos[67] = 693
degree[66] = 32, pos[66] = 31
degree[65] = 31, pos[65] = 477
degree[64] = 29, pos[64] = 882
degree[63] = 29, pos[63] = 651
degree[62] = 28, pos[62] = 476
degree[61] = 27, pos[61] = 995
degree[60] = 27, pos[60] = 436
degree[59] = 27, pos[59] = 188
degree[58] = 26, pos[58] = 769
degree[57] = 26, pos[57] = 78
degree[56] = 25, pos[56] = 667
degree[55] = 25, pos[55] = 383
degree[54] = 24, pos[54] = 984
degree[53] = 24, pos[53] = 243
degree[52] = 23, pos[52] = 391
degree[51] = 23, pos[51] = 378
degree[50] = 22, pos[50] = 595
degree[49] = 21, pos[49] = 757
degree[48] = 21, pos[48] = 164
degree[47] = 21, pos[47] = 25
degree[46] = 20, pos[46] = 5
degree[45] = 19, pos[45] = 630
degree[44] = 19, pos[44] = 221
degree[43] = 19, pos[43] = 92
degree[42] = 18, pos[42] = 495
degree[41] = 17, pos[41] = 602
degree[40] = 17, pos[40] = 432
degree[39] = 16, pos[39] = 874
degree[38] = 16, pos[38] = 513
degree[37] = 15, pos[37] = 30
degree[36] = 14, pos[36] = 490
degree[35] = 14, pos[35] = 315
degree[34] = 14, pos[34] = 244
degree[33] = 12, pos[33] = 988
degree[32] = 12, pos[32] = 234
degree[31] = 11, pos[31] = 868
degree[30] = 11, pos[30] = 167
degree[29] = 10, pos[29] = 980
degree[28] = 10, pos[28] = 713
degree[27] = 9, pos[27] = 413
degree[26] = 9, pos[26] = 300
degree[25] = 9, pos[25] = 197
degree[24] = 9, pos[24] = 54
degree[23] = 9, pos[23] = 41
degree[22] = 7, pos[22] = 936
degree[21] = 7, pos[21] = 711
degree[20] = 6, pos[20] = 833
degree[19] = 6, pos[19] = 728
degree[18] = 6, pos[18] = 417
degree[17] = 6, pos[17] = 190
degree[16] = 4, pos[16] = 255
degree[15] = 4, pos[15] = 69
degree[14] = 3, pos[14] = 646
degree[13] = 2, pos[13] = 660
degree[12] = 2, pos[12] = 352
degree[11] = 2, pos[11] = 260
degree[10] = 1, pos[10] = 449
degree[9] = 1, pos[9] = 219
degree[8] = 0, pos[8] = 935
degree[7] = 0, pos[7] = 702
degree[6] = 0, pos[6] = 429
degree[5] = 0, pos[5] = 337
degree[4] = 0, pos[4] = 327
degree[3] = 0, pos[3] = 320
degree[2] = 0, pos[2] = 307
degree[1] = 0, pos[1] = 293
degree[0] = 0, pos[0] = 99
Pos[0] = 99
Pos[1] = 293
Pos[2] = 307
Pos[3] = 320
Pos[4] = 327
Pos[5] = 337
Pos[6] = 429
Pos[7] = 702
Pos[8] = 935
Pos[9] = 219
Pos[10] = 449
Pos[11] = 260
Pos[12] = 352
Pos[13] = 660
Pos[14] = 646
Pos[15] = 69
Pos[16] = 255
Pos[17] = 190
Pos[18] = 417
Pos[19] = 728
Pos[20] = 833
Pos[21] = 711
Pos[22] = 936
Pos[23] = 41
Pos[24] = 54
Pos[25] = 197
Pos[26] = 300
Pos[27] = 413
Pos[28] = 713
Pos[29] = 980
Pos[30] = 167
Pos[31] = 868
Pos[32] = 234
Pos[33] = 988
Pos[34] = 244
Pos[35] = 315
Pos[36] = 490
Pos[37] = 30
Pos[38] = 513
Pos[39] = 874
Pos[40] = 432
Pos[41] = 602
Pos[42] = 495
Pos[43] = 92
Pos[44] = 221
Pos[45] = 630
Pos[46] = 5
Pos[47] = 25
Pos[48] = 164
Pos[49] = 757
Pos[50] = 595
Pos[51] = 378
Pos[52] = 391
Pos[53] = 243
Pos[54] = 984
Pos[55] = 383
Pos[56] = 667
Pos[57] = 78
Pos[58] = 769
Pos[59] = 188
Pos[60] = 436
Pos[61] = 995
Pos[62] = 476
Pos[63] = 651
Pos[64] = 882
Pos[65] = 477
Pos[66] = 31
Pos[67] = 693
Pos[68] = 118
Pos[69] = 458
Pos[70] = 955
Pos[71] = 358
Pos[72] = 735
Pos[73] = 231
Pos[74] = 268
Pos[75] = 440
Pos[76] = 950
Pos[77] = 360
Pos[78] = 399
Pos[79] = 912
Pos[80] = 184
Pos[81] = 347
Pos[82] = 505
Pos[83] = 864
Pos[84] = 397
Pos[85] = 886
Pos[86] = 95
Pos[87] = 653
Pos[88] = 430
Pos[89] = 12
Pos[90] = 654
Pos[91] = 145
Pos[92] = 764
Pos[93] = 481
Pos[94] = 914
Pos[95] = 699
Pos[96] = 354
Pos[97] = 169
Pos[98] = 326
Pos[99] = 506
Pos[100] = 904
Pos[101] = 555
Pos[102] = 563
Pos[103] = 917
Pos[104] = 13
Pos[105] = 94
Pos[106] = 967
Pos[107] = 665
Pos[108] = 964
Pos[109] = 108
Pos[110] = 120
Pos[111] = 885
Pos[112] = 690
Pos[113] = 155
Pos[114] = 480
Pos[115] = 109
Pos[116] = 206
Pos[117] = 33
Pos[118] = 228
Pos[119] = 989
Pos[120] = 469
Pos[121] = 403
Pos[122] = 837
Pos[123] = 380
Pos[124] = 626
Pos[125] = 859
Pos[126] = 20
Pos[127] = 230
Pos[128] = 101
Pos[129] = 200
Pos[130] = 110
Pos[131] = 780
Pos[132] = 819
Pos[133] = 48
Pos[134] = 596
Pos[135] = 236
Pos[136] = 588
Pos[137] = 168
Pos[138] = 543
Pos[139] = 675
Pos[140] = 316
Pos[141] = 483
Pos[142] = 355
Pos[143] = 398
Pos[144] = 183
Pos[145] = 356
Pos[146] = 539
Pos[147] = 560
Pos[148] = 211
Pos[149] = 324
Pos[150] = 609
Pos[151] = 655
Pos[152] = 731
Pos[153] = 807
Pos[154] = 210
Pos[155] = 680
Pos[156] = 216
Pos[157] = 613
Pos[158] = 621
Pos[159] = 181
Pos[160] = 312
Pos[161] = 978
Pos[162] = 916
Pos[163] = 700
Pos[164] = 724
Pos[165] = 717
Pos[166] = 751
Pos[167] = 931
Pos[168] = 218
Pos[169] = 364
Pos[170] = 269
Pos[171] = 182
Pos[172] = 340
Pos[173] = 459
Pos[174] = 461
Pos[175] = 545
Pos[176] = 845
Pos[177] = 428
Pos[178] = 656
Pos[179] = 900
Pos[180] = 56
Pos[181] = 475
Pos[182] = 842
Pos[183] = 72
Pos[184] = 375
Pos[185] = 697
Pos[186] = 884
Pos[187] = 789
Pos[188] = 309
Pos[189] = 357
Pos[190] = 852
Pos[191] = 372
Pos[192] = 485
Pos[193] = 487
Pos[194] = 75
Pos[195] = 522
Pos[196] = 628
Pos[197] = 420
Pos[198] = 768
Pos[199] = 763
Pos[200] = 55
Pos[201] = 57
Pos[202] = 608
Pos[203] = 49
Pos[204] = 402
Pos[205] = 209
Pos[206] = 493
Pos[207] = 774
Pos[208] = 712
Pos[209] = 38
Pos[210] = 40
Pos[211] = 245
Pos[212] = 299
Pos[213] = 550
Pos[214] = 972
Pos[215] = 281
Pos[216] = 551
Pos[217] = 349
Pos[218] = 793
Pos[219] = 865
Pos[220] = 106
Pos[221] = 344
Pos[222] = 657
Pos[223] = 879
Pos[224] = 468
Pos[225] = 559
Pos[226] = 123
Pos[227] = 923
Pos[228] = 589
Pos[229] = 68
Pos[230] = 126
Pos[231] = 854
Pos[232] = 264
Pos[233] = 645
Pos[234] = 366
Pos[235] = 696
Pos[236] = 722
Pos[237] = 515
Pos[238] = 341
Pos[239] = 371
Pos[240] = 742
Pos[241] = 821
Pos[242] = 909
Pos[243] = 63
Pos[244] = 174
Pos[245] = 510
Pos[246] = 6
Pos[247] = 339
Pos[248] = 303
Pos[249] = 39
Pos[250] = 998
Pos[251] = 739
Pos[252] = 222
Pos[253] = 770
Pos[254] = 146
Pos[255] = 650
Pos[256] = 386
Pos[257] = 520
Pos[258] = 116
Pos[259] = 257
Pos[260] = 703
Pos[261] = 851
Pos[262] = 204
Pos[263] = 883
Pos[264] = 929
Pos[265] = 73
Pos[266] = 107
Pos[267] = 213
Pos[268] = 277
Pos[269] = 474
Pos[270] = 689
Pos[271] = 418
Pos[272] = 633
Pos[273] = 546
Pos[274] = 679
Pos[275] = 44
Pos[276] = 530
Pos[277] = 552
Pos[278] = 233
Pos[279] = 407
Pos[280] = 508
Pos[281] = 592
Pos[282] = 499
Pos[283] = 53
Pos[284] = 135
Pos[285] = 946
Pos[286] = 272
Pos[287] = 381
Pos[288] = 389
Pos[289] = 778
Pos[290] = 382
Pos[291] = 804
Pos[292] = 624
Pos[293] = 973
Pos[294] = 275
Pos[295] = 816
Pos[296] = 345
Pos[297] = 538
Pos[298] = 664
Pos[299] = 795
Pos[300] = 9
Pos[301] = 15
Pos[302] = 425
Pos[303] = 166
Pos[304] = 843
Pos[305] = 406
Pos[306] = 157
Pos[307] = 870
Pos[308] = 150
Pos[309] = 223
Pos[310] = 747
Pos[311] = 462
Pos[312] = 674
Pos[313] = 927
Pos[314] = 453
Pos[315] = 433
Pos[316] = 214
Pos[317] = 267
Pos[318] = 673
Pos[319] = 0
Pos[320] = 65
Pos[321] = 617
Pos[322] = 844
Pos[323] = 447
Pos[324] = 426
Pos[325] = 860
Pos[326] = 974
Pos[327] = 353
Pos[328] = 361
Pos[329] = 692
Pos[330] = 489
Pos[331] = 29
Pos[332] = 82
Pos[333] = 501
Pos[334] = 330
Pos[335] = 254
Pos[336] = 979
Pos[337] = 553
Pos[338] = 497
Pos[339] = 594
Pos[340] = 659
Pos[341] = 435
Pos[342] = 237
Pos[343] = 251
Pos[344] = 3
Pos[345] = 525
Pos[346] = 247
Pos[347] = 586
Pos[348] = 587
Pos[349] = 516
Pos[350] = 571
Pos[351] = 732
Pos[352] = 831
Pos[353] = 21
Pos[354] = 985
Pos[355] = 304
Pos[356] = 591
Pos[357] = 721
Pos[358] = 930
Pos[359] = 179
Pos[360] = 672
Pos[361] = 390
Pos[362] = 815
Pos[363] = 925
Pos[364] = 404
Pos[365] = 455
Pos[366] = 572
Pos[367] = 466
Pos[368] = 4
Pos[369] = 897
Pos[370] = 933
Pos[371] = 937
Pos[372] = 52
Pos[373] = 726
Pos[374] = 159
Pos[375] = 872
Pos[376] = 625
Pos[377] = 605
Pos[378] = 898
Pos[379] = 224
Pos[380] = 580
Pos[381] = 719
Pos[382] = 478
Pos[383] = 887
Pos[384] = 880
Pos[385] = 828
Pos[386] = 976
Pos[387] = 473
Pos[388] = 720
Pos[389] = 958
Pos[390] = 127
Pos[391] = 951
Pos[392] = 384
Pos[393] = 736
Pos[394] = 945
Pos[395] = 528
Pos[396] = 434
Pos[397] = 175
Pos[398] = 419
Pos[399] = 634
Pos[400] = 60
Pos[401] = 2
Pos[402] = 486
Pos[403] = 627
Pos[404] = 615
Pos[405] = 767
Pos[406] = 977
Pos[407] = 217
Pos[408] = 519
Pos[409] = 202
Pos[410] = 758
Pos[411] = 285
Pos[412] = 803
Pos[413] = 294
Pos[414] = 678
Pos[415] = 941
Pos[416] = 858
Pos[417] = 220
Pos[418] = 701
Pos[419] = 544
Pos[420] = 876
Pos[421] = 186
Pos[422] = 133
Pos[423] = 158
Pos[424] = 43
Pos[425] = 196
Pos[426] = 509
Pos[427] = 290
Pos[428] = 648
Pos[429] = 93
Pos[430] = 573
Pos[431] = 683
Pos[432] = 772
Pos[433] = 919
Pos[434] = 492
Pos[435] = 993
Pos[436] = 944
Pos[437] = 212
Pos[438] = 105
Pos[439] = 766
Pos[440] = 365
Pos[441] = 441
Pos[442] = 947
Pos[443] = 215
Pos[444] = 18
Pos[445] = 518
Pos[446] = 35
Pos[447] = 431
Pos[448] = 590
Pos[449] = 250
Pos[450] = 535
Pos[451] = 761
Pos[452] = 918
Pos[453] = 556
Pos[454] = 310
Pos[455] = 765
Pos[456] = 791
Pos[457] = 857
Pos[458] = 305
Pos[459] = 332
Pos[460] = 647
Pos[461] = 144
Pos[462] = 806
Pos[463] = 392
Pos[464] = 67
Pos[465] = 500
Pos[466] = 484
Pos[467] = 839
Pos[468] = 825
Pos[469] = 124
Pos[470] = 952
Pos[471] = 677
Pos[472] = 981
Pos[473] = 61
Pos[474] = 830
Pos[475] = 240
Pos[476] = 511
Pos[477] = 266
Pos[478] = 514
Pos[479] = 165
Pos[480] = 130
Pos[481] = 134
Pos[482] = 465
Pos[483] = 292
Pos[484] = 346
Pos[485] = 641
Pos[486] = 773
Pos[487] = 890
Pos[488] = 45
Pos[489] = 620
Pos[490] = 642
Pos[491] = 317
Pos[492] = 792
Pos[493] = 915
Pos[494] = 734
Pos[495] = 367
Pos[496] = 27
Pos[497] = 137
Pos[498] = 396
Pos[499] = 59
Pos[500] = 529
Pos[501] = 604
Pos[502] = 114
Pos[503] = 98
Pos[504] = 424
Pos[505] = 749
Pos[506] = 826
Pos[507] = 306
Pos[508] = 862
Pos[509] = 374
Pos[510] = 379
Pos[511] = 606
Pos[512] = 246
Pos[513] = 707
Pos[514] = 87
Pos[515] = 922
Pos[516] = 16
Pos[517] = 322
Pos[518] = 574
Pos[519] = 362
Pos[520] = 790
Pos[521] = 705
Pos[522] = 727
Pos[523] = 942
Pos[524] = 387
Pos[525] = 343
Pos[526] = 395
Pos[527] = 939
Pos[528] = 131
Pos[529] = 817
Pos[530] = 336
Pos[531] = 409
Pos[532] = 873
Pos[533] = 147
Pos[534] = 482
Pos[535] = 971
Pos[536] = 744
Pos[537] = 46
Pos[538] = 740
Pos[539] = 80
Pos[540] = 953
Pos[541] = 232
Pos[542] = 741
Pos[543] = 682
Pos[544] = 471
Pos[545] = 444
Pos[546] = 58
Pos[547] = 965
Pos[548] = 600
Pos[549] = 631
Pos[550] = 714
Pos[551] = 36
Pos[552] = 142
Pos[553] = 314
Pos[554] = 88
Pos[555] = 957
Pos[556] = 104
Pos[557] = 809
Pos[558] = 832
Pos[559] = 848
Pos[560] = 22
Pos[561] = 278
Pos[562] = 542
Pos[563] = 521
Pos[564] = 71
Pos[565] = 117
Pos[566] = 289
Pos[567] = 412
Pos[568] = 908
Pos[569] = 467
Pos[570] = 540
Pos[571] = 318
Pos[572] = 593
Pos[573] = 889
Pos[574] = 983
Pos[575] = 295
Pos[576] = 416
Pos[577] = 311
Pos[578] = 472
Pos[579] = 610
Pos[580] = 122
Pos[581] = 585
Pos[582] = 706
Pos[583] = 583
Pos[584] = 464
Pos[585] = 924
Pos[586] = 853
Pos[587] = 77
Pos[588] = 470
Pos[589] = 1
Pos[590] = 180
Pos[591] = 11
Pos[592] = 698
Pos[593] = 89
Pos[594] = 695
Pos[595] = 643
Pos[596] = 51
Pos[597] = 745
Pos[598] = 301
Pos[599] = 143
Pos[600] = 869
Pos[601] = 840
Pos[602] = 686
Pos[603] = 288
Pos[604] = 881
Pos[605] = 373
Pos[606] = 611
Pos[607] = 685
Pos[608] = 681
Pos[609] = 323
Pos[610] = 199
Pos[611] = 738
Pos[612] = 581
Pos[613] = 24
Pos[614] = 541
Pos[615] = 694
Pos[616] = 173
Pos[617] = 582
Pos[618] = 603
Pos[619] = 612
Pos[620] = 771
Pos[621] = 827
Pos[622] = 723
Pos[623] = 892
Pos[624] = 258
Pos[625] = 338
Pos[626] = 725
Pos[627] = 450
Pos[628] = 616
Pos[629] = 982
Pos[630] = 273
Pos[631] = 566
Pos[632] = 802
Pos[633] = 81
Pos[634] = 578
Pos[635] = 385
Pos[636] = 438
Pos[637] = 208
Pos[638] = 787
Pos[639] = 986
Pos[640] = 319
Pos[641] = 849
Pos[642] = 906
Pos[643] = 949
Pos[644] = 948
Pos[645] = 454
Pos[646] = 895
Pos[647] = 512
Pos[648] = 445
Pos[649] = 576
Pos[650] = 151
Pos[651] = 423
Pos[652] = 456
Pos[653] = 239
Pos[654] = 785
Pos[655] = 820
Pos[656] = 128
Pos[657] = 846
Pos[658] = 335
Pos[659] = 152
Pos[660] = 85
Pos[661] = 448
Pos[662] = 822
Pos[663] = 888
Pos[664] = 990
Pos[665] = 422
Pos[666] = 148
Pos[667] = 287
Pos[668] = 658
Pos[669] = 730
Pos[670] = 746
Pos[671] = 748
Pos[672] = 249
Pos[673] = 901
Pos[674] = 176
Pos[675] = 274
Pos[676] = 328
Pos[677] = 549
Pos[678] = 577
Pos[679] = 752
Pos[680] = 808
Pos[681] = 66
Pos[682] = 70
Pos[683] = 149
Pos[684] = 446
Pos[685] = 684
Pos[686] = 111
Pos[687] = 42
Pos[688] = 263
Pos[689] = 192
Pos[690] = 229
Pos[691] = 279
Pos[692] = 298
Pos[693] = 779
Pos[694] = 798
Pos[695] = 271
Pos[696] = 113
Pos[697] = 138
Pos[698] = 351
Pos[699] = 644
Pos[700] = 676
Pos[701] = 688
Pos[702] = 812
Pos[703] = 187
Pos[704] = 750
Pos[705] = 813
Pos[706] = 50
Pos[707] = 348
Pos[708] = 709
Pos[709] = 557
Pos[710] = 62
Pos[711] = 227
Pos[712] = 23
Pos[713] = 579
Pos[714] = 814
Pos[715] = 102
Pos[716] = 743
Pos[717] = 716
Pos[718] = 903
Pos[719] = 308
Pos[720] = 710
Pos[721] = 437
Pos[722] = 756
Pos[723] = 737
Pos[724] = 14
Pos[725] = 597
Pos[726] = 954
Pos[727] = 866
Pos[728] = 504
Pos[729] = 708
Pos[730] = 507
Pos[731] = 878
Pos[732] = 663
Pos[733] = 910
Pos[734] = 421
Pos[735] = 34
Pos[736] = 119
Pos[737] = 238
Pos[738] = 276
Pos[739] = 76
Pos[740] = 370
Pos[741] = 498
Pos[742] = 259
Pos[743] = 569
Pos[744] = 601
Pos[745] = 907
Pos[746] = 618
Pos[747] = 619
Pos[748] = 794
Pos[749] = 975
Pos[750] = 632
Pos[751] = 156
Pos[752] = 805
Pos[753] = 836
Pos[754] = 205
Pos[755] = 291
Pos[756] = 452
Pos[757] = 669
Pos[758] = 943
Pos[759] = 523
Pos[760] = 920
Pos[761] = 671
Pos[762] = 479
Pos[763] = 564
Pos[764] = 554
Pos[765] = 691
Pos[766] = 788
Pos[767] = 997
Pos[768] = 893
Pos[769] = 115
Pos[770] = 502
Pos[771] = 256
Pos[772] = 940
Pos[773] = 363
Pos[774] = 457
Pos[775] = 902
Pos[776] = 911
Pos[777] = 871
Pos[778] = 959
Pos[779] = 90
Pos[780] = 171
Pos[781] = 786
Pos[782] = 565
Pos[783] = 96
Pos[784] = 129
Pos[785] = 401
Pos[786] = 533
Pos[787] = 10
Pos[788] = 189
Pos[789] = 532
Pos[790] = 112
Pos[791] = 302
Pos[792] = 17
Pos[793] = 921
Pos[794] = 253
Pos[795] = 262
Pos[796] = 400
Pos[797] = 575
Pos[798] = 201
Pos[799] = 894
Pos[800] = 8
Pos[801] = 242
Pos[802] = 163
Pos[803] = 261
Pos[804] = 547
Pos[805] = 517
Pos[806] = 718
Pos[807] = 913
Pos[808] = 100
Pos[809] = 824
Pos[810] = 394
Pos[811] = 733
Pos[812] = 834
Pos[813] = 801
Pos[814] = 928
Pos[815] = 125
Pos[816] = 962
Pos[817] = 297
Pos[818] = 905
Pos[819] = 442
Pos[820] = 153
Pos[821] = 969
Pos[822] = 877
Pos[823] = 280
Pos[824] = 368
Pos[825] = 934
Pos[826] = 265
Pos[827] = 729
Pos[828] = 359
Pos[829] = 534
Pos[830] = 568
Pos[831] = 47
Pos[832] = 198
Pos[833] = 331
Pos[834] = 558
Pos[835] = 755
Pos[836] = 760
Pos[837] = 570
Pos[838] = 891
Pos[839] = 136
Pos[840] = 526
Pos[841] = 782
Pos[842] = 847
Pos[843] = 235
Pos[844] = 270
Pos[845] = 637
Pos[846] = 783
Pos[847] = 784
Pos[848] = 666
Pos[849] = 938
Pos[850] = 838
Pos[851] = 194
Pos[852] = 759
Pos[853] = 614
Pos[854] = 999
Pos[855] = 777
Pos[856] = 970
Pos[857] = 388
Pos[858] = 598
Pos[859] = 97
Pos[860] = 195
Pos[861] = 393
Pos[862] = 599
Pos[863] = 636
Pos[864] = 427
Pos[865] = 649
Pos[866] = 867
Pos[867] = 584
Pos[868] = 754
Pos[869] = 160
Pos[870] = 835
Pos[871] = 283
Pos[872] = 963
Pos[873] = 140
Pos[874] = 405
Pos[875] = 408
Pos[876] = 855
Pos[877] = 410
Pos[878] = 414
Pos[879] = 567
Pos[880] = 896
Pos[881] = 132
Pos[882] = 252
Pos[883] = 313
Pos[884] = 796
Pos[885] = 325
Pos[886] = 79
Pos[887] = 715
Pos[888] = 26
Pos[889] = 639
Pos[890] = 334
Pos[891] = 623
Pos[892] = 775
Pos[893] = 850
Pos[894] = 19
Pos[895] = 139
Pos[896] = 284
Pos[897] = 376
Pos[898] = 841
Pos[899] = 350
Pos[900] = 185
Pos[901] = 704
Pos[902] = 856
Pos[903] = 629
Pos[904] = 968
Pos[905] = 810
Pos[906] = 961
Pos[907] = 154
Pos[908] = 172
Pos[909] = 342
Pos[910] = 811
Pos[911] = 411
Pos[912] = 926
Pos[913] = 956
Pos[914] = 7
Pos[915] = 177
Pos[916] = 170
Pos[917] = 296
Pos[918] = 443
Pos[919] = 527
Pos[920] = 668
Pos[921] = 207
Pos[922] = 994
Pos[923] = 161
Pos[924] = 162
Pos[925] = 333
Pos[926] = 640
Pos[927] = 74
Pos[928] = 83
Pos[929] = 248
Pos[930] = 321
Pos[931] = 103
Pos[932] = 451
Pos[933] = 670
Pos[934] = 86
Pos[935] = 503
Pos[936] = 863
Pos[937] = 226
Pos[938] = 439
Pos[939] = 548
Pos[940] = 687
Pos[941] = 966
Pos[942] = 241
Pos[943] = 32
Pos[944] = 191
Pos[945] = 203
Pos[946] = 531
Pos[947] = 781
Pos[948] = 991
Pos[949] = 141
Pos[950] = 875
Pos[951] = 178
Pos[952] = 960
Pos[953] = 329
Pos[954] = 494
Pos[955] = 536
Pos[956] = 524
Pos[957] = 369
Pos[958] = 561
Pos[959] = 91
Pos[960] = 286
Pos[961] = 662
Pos[962] = 488
Pos[963] = 562
Pos[964] = 753
Pos[965] = 823
Pos[966] = 996
Pos[967] = 652
Pos[968] = 932
Pos[969] = 496
Pos[970] = 121
Pos[971] = 193
Pos[972] = 799
Pos[973] = 537
Pos[974] = 829
Pos[975] = 491
Pos[976] = 64
Pos[977] = 460
Pos[978] = 992
Pos[979] = 607
Pos[980] = 861
Pos[981] = 899
Pos[982] = 987
Pos[983] = 638
Pos[984] = 661
Pos[985] = 818
Pos[986] = 37
Pos[987] = 84
Pos[988] = 635
Pos[989] = 28
Pos[990] = 622
Pos[991] = 776
Pos[992] = 415
Pos[993] = 800
Pos[994] = 225
Pos[995] = 463
Pos[996] = 797
Pos[997] = 282
Pos[998] = 762
Pos[999] = 377
Enbr = 371746
start search
improving solution size 1
improving solution size 2
improving solution size 3
improving solution size 4
improving solution size 5
improving solution size 6
improving solution size 7
improving solution size 8
improving solution size 9
improving solution size 10
improving solution size 11
improving solution size 12
improving solution size 13
improving solution size 14
improving solution size 15
improving solution size 16
improving solution size 17
improving solution size 18
improving solution size 19
improving solution size 20
improving solution size 21
improving solution size 22
improving solution size 23
improving solution size 24
improving solution size 25
improving solution size 26
improving solution size 27
improving solution size 28
improving solution size 29
improving solution size 30
improving solution size 31
improving solution size 32
improving solution size 33
improving solution size 34
improving solution size 35
improving solution size 36
improving solution size 37
improving solution size 38
improving solution size 39
improving solution size 40
improving solution size 41
improving solution size 42
improving solution size 43
improving solution size 44
improving solution size 45
improving solution size 46
improving solution size 47
improving solution size 48
improving solution size 49
improving solution size 50
improving solution size 51
improving solution size 52
improving solution size 53
improving solution size 54
improving solution size 55
improving solution size 56
improving solution size 57
improving solution size 58
improving solution size 59
improving solution size 60
improving solution size 61
improving solution size 62
improving solution size 63
improving solution size 64
improving solution size 65
improving solution size 66
improving solution size 67
improving solution size 68
improving solution size 69
improving solution size 70
improving solution size 71
improving solution size 72
improving solution size 73
improving solution size 74
improving solution size 75
improving solution size 76
improving solution size 77
TIMEOUT
best clique: 378 763 283 798 464 226 801 416 777 623 29 636 85 38 819 662 639 988 900 862 608 993 461 65 492 830 538 800 194 122 497 653 997 824 754 489 663 562 370 537 495 330 961 142 992 782 204 192 967 549 227 504 671 641 162 297 178 8 969 705 851 640 716 253 897 411 394 98 971 284 784 783 559 719 776 922 621 
record          =          77
subp            =  1895850957
time            =  3600.00030
