timeout 3600 s
Graph with 700 vertices and 121728 edges density 0.497560
t = 243456, Enbr = 121728
degree[699] = 539, pos[699] = 114
degree[698] = 531, pos[698] = 677
degree[697] = 530, pos[697] = 575
degree[696] = 525, pos[696] = 607
degree[695] = 524, pos[695] = 586
degree[694] = 523, pos[694] = 578
degree[693] = 522, pos[693] = 75
degree[692] = 520, pos[692] = 253
degree[691] = 518, pos[691] = 211
degree[690] = 516, pos[690] = 105
degree[689] = 514, pos[689] = 436
degree[688] = 512, pos[688] = 561
degree[687] = 511, pos[687] = 417
degree[686] = 510, pos[686] = 322
degree[685] = 509, pos[685] = 291
degree[684] = 507, pos[684] = 494
degree[683] = 506, pos[683] = 367
degree[682] = 505, pos[682] = 316
degree[681] = 502, pos[681] = 259
degree[680] = 500, pos[680] = 386
degree[679] = 499, pos[679] = 372
degree[678] = 496, pos[678] = 349
degree[677] = 495, pos[677] = 622
degree[676] = 494, pos[676] = 324
degree[675] = 493, pos[675] = 251
degree[674] = 491, pos[674] = 224
degree[673] = 490, pos[673] = 121
degree[672] = 488, pos[672] = 406
degree[671] = 486, pos[671] = 524
degree[670] = 484, pos[670] = 611
degree[669] = 483, pos[669] = 521
degree[668] = 483, pos[668] = 29
degree[667] = 481, pos[667] = 86
degree[666] = 480, pos[666] = 49
degree[665] = 477, pos[665] = 350
degree[664] = 475, pos[664] = 534
degree[663] = 474, pos[663] = 458
degree[662] = 473, pos[662] = 294
degree[661] = 471, pos[661] = 510
degree[660] = 470, pos[660] = 344
degree[659] = 469, pos[659] = 267
degree[658] = 468, pos[658] = 144
degree[657] = 467, pos[657] = 347
degree[656] = 466, pos[656] = 78
degree[655] = 464, pos[655] = 392
degree[654] = 463, pos[654] = 305
degree[653] = 461, pos[653] = 512
degree[652] = 460, pos[652] = 325
degree[651] = 459, pos[651] = 222
degree[650] = 457, pos[650] = 47
degree[649] = 456, pos[649] = 18
degree[648] = 454, pos[648] = 593
degree[647] = 453, pos[647] = 252
degree[646] = 452, pos[646] = 148
degree[645] = 449, pos[645] = 618
degree[644] = 448, pos[644] = 464
degree[643] = 447, pos[643] = 151
degree[642] = 446, pos[642] = 118
degree[641] = 444, pos[641] = 648
degree[640] = 443, pos[640] = 362
degree[639] = 443, pos[639] = 126
degree[638] = 440, pos[638] = 296
degree[637] = 438, pos[637] = 289
degree[636] = 436, pos[636] = 396
degree[635] = 435, pos[635] = 260
degree[634] = 434, pos[634] = 53
degree[633] = 432, pos[633] = 600
degree[632] = 430, pos[632] = 548
degree[631] = 430, pos[631] = 238
degree[630] = 427, pos[630] = 127
degree[629] = 426, pos[629] = 117
degree[628] = 425, pos[628] = 401
degree[627] = 424, pos[627] = 13
degree[626] = 422, pos[626] = 490
degree[625] = 421, pos[625] = 188
degree[624] = 420, pos[624] = 160
degree[623] = 418, pos[623] = 558
degree[622] = 417, pos[622] = 378
degree[621] = 416, pos[621] = 189
degree[620] = 415, pos[620] = 7
degree[619] = 414, pos[619] = 660
degree[618] = 413, pos[618] = 391
degree[617] = 412, pos[617] = 14
degree[616] = 410, pos[616] = 666
degree[615] = 409, pos[615] = 467
degree[614] = 408, pos[614] = 356
degree[613] = 408, pos[613] = 192
degree[612] = 406, pos[612] = 255
degree[611] = 403, pos[611] = 536
degree[610] = 402, pos[610] = 360
degree[609] = 400, pos[609] = 675
degree[608] = 399, pos[608] = 327
degree[607] = 399, pos[607] = 25
degree[606] = 397, pos[606] = 323
degree[605] = 395, pos[605] = 128
degree[604] = 392, pos[604] = 477
degree[603] = 391, pos[603] = 16
degree[602] = 389, pos[602] = 652
degree[601] = 388, pos[601] = 583
degree[600] = 387, pos[600] = 237
degree[599] = 386, pos[599] = 218
degree[598] = 383, pos[598] = 681
degree[597] = 383, pos[597] = 483
degree[596] = 381, pos[596] = 495
degree[595] = 380, pos[595] = 104
degree[594] = 379, pos[594] = 72
degree[593] = 378, pos[593] = 456
degree[592] = 376, pos[592] = 657
degree[591] = 376, pos[591] = 11
degree[590] = 375, pos[590] = 492
degree[589] = 373, pos[589] = 592
degree[588] = 372, pos[588] = 239
degree[587] = 372, pos[587] = 68
degree[586] = 370, pos[586] = 481
degree[585] = 369, pos[585] = 141
degree[584] = 368, pos[584] = 116
degree[583] = 366, pos[583] = 589
degree[582] = 366, pos[582] = 247
degree[581] = 364, pos[581] = 511
degree[580] = 363, pos[580] = 15
degree[579] = 362, pos[579] = 100
degree[578] = 361, pos[578] = 527
degree[577] = 359, pos[577] = 638
degree[576] = 358, pos[576] = 8
degree[575] = 356, pos[575] = 375
degree[574] = 354, pos[574] = 587
degree[573] = 353, pos[573] = 147
degree[572] = 351, pos[572] = 650
degree[571] = 350, pos[571] = 453
degree[570] = 349, pos[570] = 140
degree[569] = 348, pos[569] = 582
degree[568] = 346, pos[568] = 580
degree[567] = 346, pos[567] = 559
degree[566] = 345, pos[566] = 381
degree[565] = 343, pos[565] = 353
degree[564] = 342, pos[564] = 281
degree[563] = 342, pos[563] = 132
degree[562] = 341, pos[562] = 30
degree[561] = 339, pos[561] = 275
degree[560] = 337, pos[560] = 409
degree[559] = 336, pos[559] = 163
degree[558] = 335, pos[558] = 635
degree[557] = 333, pos[557] = 614
degree[556] = 332, pos[556] = 284
degree[555] = 330, pos[555] = 599
degree[554] = 328, pos[554] = 685
degree[553] = 327, pos[553] = 672
degree[552] = 327, pos[552] = 59
degree[551] = 324, pos[551] = 333
degree[550] = 322, pos[550] = 669
degree[549] = 321, pos[549] = 628
degree[548] = 319, pos[548] = 390
degree[547] = 317, pos[547] = 434
degree[546] = 316, pos[546] = 384
degree[545] = 315, pos[545] = 162
degree[544] = 315, pos[544] = 115
degree[543] = 313, pos[543] = 682
degree[542] = 311, pos[542] = 307
degree[541] = 310, pos[541] = 303
degree[540] = 309, pos[540] = 545
degree[539] = 308, pos[539] = 465
degree[538] = 308, pos[538] = 455
degree[537] = 307, pos[537] = 242
degree[536] = 306, pos[536] = 191
degree[535] = 305, pos[535] = 150
degree[534] = 303, pos[534] = 200
degree[533] = 303, pos[533] = 155
degree[532] = 301, pos[532] = 106
degree[531] = 300, pos[531] = 98
degree[530] = 300, pos[530] = 35
degree[529] = 298, pos[529] = 10
degree[528] = 296, pos[528] = 278
degree[527] = 295, pos[527] = 180
degree[526] = 293, pos[526] = 572
degree[525] = 292, pos[525] = 496
degree[524] = 291, pos[524] = 421
degree[523] = 291, pos[523] = 196
degree[522] = 290, pos[522] = 56
degree[521] = 288, pos[521] = 617
degree[520] = 287, pos[520] = 460
degree[519] = 285, pos[519] = 357
degree[518] = 285, pos[518] = 3
degree[517] = 284, pos[517] = 227
degree[516] = 283, pos[516] = 516
degree[515] = 281, pos[515] = 209
degree[514] = 279, pos[514] = 560
degree[513] = 279, pos[513] = 76
degree[512] = 277, pos[512] = 371
degree[511] = 276, pos[511] = 653
degree[510] = 276, pos[510] = 270
degree[509] = 274, pos[509] = 520
degree[508] = 274, pos[508] = 131
degree[507] = 272, pos[507] = 85
degree[506] = 271, pos[506] = 212
degree[505] = 270, pos[505] = 485
degree[504] = 269, pos[504] = 73
degree[503] = 267, pos[503] = 698
degree[502] = 266, pos[502] = 498
degree[501] = 265, pos[501] = 331
degree[500] = 264, pos[500] = 122
degree[499] = 263, pos[499] = 244
degree[498] = 262, pos[498] = 504
degree[497] = 260, pos[497] = 659
degree[496] = 260, pos[496] = 376
degree[495] = 259, pos[495] = 129
degree[494] = 258, pos[494] = 336
degree[493] = 257, pos[493] = 185
degree[492] = 255, pos[492] = 95
degree[491] = 254, pos[491] = 69
degree[490] = 252, pos[490] = 637
degree[489] = 252, pos[489] = 488
degree[488] = 251, pos[488] = 311
degree[487] = 250, pos[487] = 435
degree[486] = 248, pos[486] = 619
degree[485] = 248, pos[485] = 207
degree[484] = 247, pos[484] = 370
degree[483] = 245, pos[483] = 577
degree[482] = 244, pos[482] = 276
degree[481] = 243, pos[481] = 339
degree[480] = 242, pos[480] = 604
degree[479] = 242, pos[479] = 514
degree[478] = 240, pos[478] = 568
degree[477] = 240, pos[477] = 158
degree[476] = 239, pos[476] = 125
degree[475] = 237, pos[475] = 429
degree[474] = 236, pos[474] = 111
degree[473] = 236, pos[473] = 9
degree[472] = 234, pos[472] = 626
degree[471] = 234, pos[471] = 484
degree[470] = 233, pos[470] = 551
degree[469] = 232, pos[469] = 248
degree[468] = 231, pos[468] = 295
degree[467] = 230, pos[467] = 146
degree[466] = 229, pos[466] = 103
degree[465] = 228, pos[465] = 91
degree[464] = 227, pos[464] = 201
degree[463] = 226, pos[463] = 379
degree[462] = 224, pos[462] = 670
degree[461] = 224, pos[461] = 454
degree[460] = 224, pos[460] = 447
degree[459] = 222, pos[459] = 412
degree[458] = 222, pos[458] = 240
degree[457] = 220, pos[457] = 343
degree[456] = 220, pos[456] = 246
degree[455] = 218, pos[455] = 479
degree[454] = 218, pos[454] = 298
degree[453] = 218, pos[453] = 169
degree[452] = 216, pos[452] = 407
degree[451] = 215, pos[451] = 631
degree[450] = 215, pos[450] = 233
degree[449] = 214, pos[449] = 627
degree[448] = 213, pos[448] = 335
degree[447] = 211, pos[447] = 478
degree[446] = 210, pos[446] = 449
degree[445] = 210, pos[445] = 82
degree[444] = 209, pos[444] = 573
degree[443] = 209, pos[443] = 361
degree[442] = 208, pos[442] = 190
degree[441] = 205, pos[441] = 694
degree[440] = 204, pos[440] = 620
degree[439] = 203, pos[439] = 419
degree[438] = 203, pos[438] = 109
degree[437] = 203, pos[437] = 36
degree[436] = 201, pos[436] = 55
degree[435] = 200, pos[435] = 261
degree[434] = 200, pos[434] = 202
degree[433] = 199, pos[433] = 590
degree[432] = 199, pos[432] = 50
degree[431] = 197, pos[431] = 102
degree[430] = 196, pos[430] = 64
degree[429] = 195, pos[429] = 431
degree[428] = 195, pos[428] = 19
degree[427] = 194, pos[427] = 476
degree[426] = 193, pos[426] = 437
degree[425] = 192, pos[425] = 433
degree[424] = 192, pos[424] = 306
degree[423] = 191, pos[423] = 135
degree[422] = 190, pos[422] = 523
degree[421] = 190, pos[421] = 4
degree[420] = 188, pos[420] = 432
degree[419] = 188, pos[419] = 187
degree[418] = 187, pos[418] = 397
degree[417] = 186, pos[417] = 446
degree[416] = 185, pos[416] = 27
degree[415] = 184, pos[415] = 689
degree[414] = 183, pos[414] = 152
degree[413] = 182, pos[413] = 258
degree[412] = 181, pos[412] = 491
degree[411] = 181, pos[411] = 24
degree[410] = 180, pos[410] = 441
degree[409] = 179, pos[409] = 387
degree[408] = 178, pos[408] = 684
degree[407] = 177, pos[407] = 416
degree[406] = 177, pos[406] = 194
degree[405] = 175, pos[405] = 236
degree[404] = 173, pos[404] = 280
degree[403] = 172, pos[403] = 557
degree[402] = 172, pos[402] = 285
degree[401] = 171, pos[401] = 326
degree[400] = 171, pos[400] = 110
degree[399] = 170, pos[399] = 321
degree[398] = 169, pos[398] = 176
degree[397] = 168, pos[397] = 440
degree[396] = 167, pos[396] = 553
degree[395] = 166, pos[395] = 697
degree[394] = 166, pos[394] = 422
degree[393] = 165, pos[393] = 603
degree[392] = 165, pos[392] = 570
degree[391] = 164, pos[391] = 346
degree[390] = 163, pos[390] = 531
degree[389] = 163, pos[389] = 428
degree[388] = 161, pos[388] = 621
degree[387] = 161, pos[387] = 23
degree[386] = 159, pos[386] = 581
degree[385] = 159, pos[385] = 505
degree[384] = 158, pos[384] = 345
degree[383] = 157, pos[383] = 37
degree[382] = 156, pos[382] = 598
degree[381] = 156, pos[381] = 515
degree[380] = 155, pos[380] = 265
degree[379] = 154, pos[379] = 206
degree[378] = 153, pos[378] = 661
degree[377] = 153, pos[377] = 96
degree[376] = 152, pos[376] = 605
degree[375] = 151, pos[375] = 623
degree[374] = 149, pos[374] = 651
degree[373] = 149, pos[373] = 630
degree[372] = 148, pos[372] = 363
degree[371] = 147, pos[371] = 134
degree[370] = 146, pos[370] = 411
degree[369] = 146, pos[369] = 383
degree[368] = 146, pos[368] = 273
degree[367] = 144, pos[367] = 2
degree[366] = 143, pos[366] = 556
degree[365] = 142, pos[365] = 674
degree[364] = 141, pos[364] = 633
degree[363] = 141, pos[363] = 487
degree[362] = 141, pos[362] = 182
degree[361] = 140, pos[361] = 393
degree[360] = 139, pos[360] = 506
degree[359] = 139, pos[359] = 168
degree[358] = 138, pos[358] = 149
degree[357] = 137, pos[357] = 332
degree[356] = 136, pos[356] = 691
degree[355] = 136, pos[355] = 486
degree[354] = 135, pos[354] = 693
degree[353] = 135, pos[353] = 51
degree[352] = 134, pos[352] = 537
degree[351] = 133, pos[351] = 369
degree[350] = 133, pos[350] = 57
degree[349] = 131, pos[349] = 574
degree[348] = 131, pos[348] = 519
degree[347] = 131, pos[347] = 274
degree[346] = 130, pos[346] = 408
degree[345] = 129, pos[345] = 374
degree[344] = 128, pos[344] = 256
degree[343] = 127, pos[343] = 688
degree[342] = 126, pos[342] = 687
degree[341] = 126, pos[341] = 439
degree[340] = 126, pos[340] = 213
degree[339] = 125, pos[339] = 340
degree[338] = 124, pos[338] = 606
degree[337] = 124, pos[337] = 480
degree[336] = 123, pos[336] = 609
degree[335] = 123, pos[335] = 166
degree[334] = 122, pos[334] = 550
degree[333] = 122, pos[333] = 257
degree[332] = 121, pos[332] = 313
degree[331] = 120, pos[331] = 588
degree[330] = 120, pos[330] = 341
degree[329] = 119, pos[329] = 430
degree[328] = 119, pos[328] = 38
degree[327] = 117, pos[327] = 107
degree[326] = 116, pos[326] = 84
degree[325] = 115, pos[325] = 624
degree[324] = 115, pos[324] = 597
degree[323] = 115, pos[323] = 221
degree[322] = 114, pos[322] = 60
degree[321] = 113, pos[321] = 301
degree[320] = 112, pos[320] = 686
degree[319] = 112, pos[319] = 459
degree[318] = 112, pos[318] = 292
degree[317] = 111, pos[317] = 81
degree[316] = 109, pos[316] = 228
degree[315] = 108, pos[315] = 564
degree[314] = 108, pos[314] = 473
degree[313] = 108, pos[313] = 283
degree[312] = 108, pos[312] = 153
degree[311] = 107, pos[311] = 173
degree[310] = 105, pos[310] = 300
degree[309] = 104, pos[309] = 179
degree[308] = 103, pos[308] = 172
degree[307] = 102, pos[307] = 170
degree[306] = 101, pos[306] = 489
degree[305] = 100, pos[305] = 426
degree[304] = 99, pos[304] = 665
degree[303] = 98, pos[303] = 533
degree[302] = 98, pos[302] = 503
degree[301] = 98, pos[301] = 0
degree[300] = 96, pos[300] = 468
degree[299] = 96, pos[299] = 217
degree[298] = 94, pos[298] = 355
degree[297] = 93, pos[297] = 569
degree[296] = 93, pos[296] = 526
degree[295] = 92, pos[295] = 461
degree[294] = 92, pos[294] = 268
degree[293] = 92, pos[293] = 65
degree[292] = 91, pos[292] = 33
degree[291] = 90, pos[291] = 225
degree[290] = 90, pos[290] = 174
degree[289] = 89, pos[289] = 405
degree[288] = 89, pos[288] = 108
degree[287] = 88, pos[287] = 243
degree[286] = 87, pos[286] = 500
degree[285] = 87, pos[285] = 229
degree[284] = 86, pos[284] = 540
degree[283] = 85, pos[283] = 63
degree[282] = 83, pos[282] = 695
degree[281] = 82, pos[281] = 543
degree[280] = 82, pos[280] = 394
degree[279] = 82, pos[279] = 352
degree[278] = 81, pos[278] = 249
degree[277] = 80, pos[277] = 649
degree[276] = 80, pos[276] = 567
degree[275] = 78, pos[275] = 470
degree[274] = 78, pos[274] = 415
degree[273] = 78, pos[273] = 317
degree[272] = 76, pos[272] = 655
degree[271] = 76, pos[271] = 351
degree[270] = 76, pos[270] = 99
degree[269] = 75, pos[269] = 642
degree[268] = 75, pos[268] = 463
degree[267] = 75, pos[267] = 130
degree[266] = 74, pos[266] = 193
degree[265] = 74, pos[265] = 31
degree[264] = 73, pos[264] = 671
degree[263] = 73, pos[263] = 293
degree[262] = 71, pos[262] = 39
degree[261] = 70, pos[261] = 646
degree[260] = 70, pos[260] = 451
degree[259] = 70, pos[259] = 413
degree[258] = 69, pos[258] = 183
degree[257] = 69, pos[257] = 171
degree[256] = 67, pos[256] = 438
degree[255] = 67, pos[255] = 22
degree[254] = 66, pos[254] = 499
degree[253] = 66, pos[253] = 342
degree[252] = 65, pos[252] = 286
degree[251] = 65, pos[251] = 184
degree[250] = 64, pos[250] = 508
degree[249] = 64, pos[249] = 20
degree[248] = 63, pos[248] = 395
degree[247] = 63, pos[247] = 220
degree[246] = 63, pos[246] = 26
degree[245] = 62, pos[245] = 77
degree[244] = 61, pos[244] = 532
degree[243] = 61, pos[243] = 320
degree[242] = 60, pos[242] = 662
degree[241] = 60, pos[241] = 420
degree[240] = 59, pos[240] = 591
degree[239] = 59, pos[239] = 410
degree[238] = 59, pos[238] = 302
degree[237] = 58, pos[237] = 214
degree[236] = 58, pos[236] = 93
degree[235] = 57, pos[235] = 565
degree[234] = 57, pos[234] = 368
degree[233] = 57, pos[233] = 74
degree[232] = 55, pos[232] = 544
degree[231] = 54, pos[231] = 562
degree[230] = 53, pos[230] = 365
degree[229] = 53, pos[229] = 309
degree[228] = 53, pos[228] = 282
degree[227] = 53, pos[227] = 234
degree[226] = 52, pos[226] = 639
degree[225] = 51, pos[225] = 576
degree[224] = 51, pos[224] = 538
degree[223] = 51, pos[223] = 165
degree[222] = 50, pos[222] = 579
degree[221] = 50, pos[221] = 450
degree[220] = 50, pos[220] = 48
degree[219] = 49, pos[219] = 58
degree[218] = 48, pos[218] = 334
degree[217] = 47, pos[217] = 469
degree[216] = 46, pos[216] = 690
degree[215] = 46, pos[215] = 266
degree[214] = 45, pos[214] = 594
degree[213] = 45, pos[213] = 70
degree[212] = 44, pos[212] = 667
degree[211] = 44, pos[211] = 427
degree[210] = 44, pos[210] = 272
degree[209] = 44, pos[209] = 264
degree[208] = 44, pos[208] = 175
degree[207] = 43, pos[207] = 423
degree[206] = 43, pos[206] = 139
degree[205] = 42, pos[205] = 358
degree[204] = 42, pos[204] = 338
degree[203] = 42, pos[203] = 17
degree[202] = 41, pos[202] = 287
degree[201] = 41, pos[201] = 87
degree[200] = 41, pos[200] = 80
degree[199] = 40, pos[199] = 226
degree[198] = 39, pos[198] = 474
degree[197] = 39, pos[197] = 123
degree[196] = 38, pos[196] = 680
degree[195] = 38, pos[195] = 424
degree[194] = 37, pos[194] = 364
degree[193] = 37, pos[193] = 297
degree[192] = 36, pos[192] = 692
degree[191] = 36, pos[191] = 389
degree[190] = 36, pos[190] = 299
degree[189] = 35, pos[189] = 502
degree[188] = 35, pos[188] = 6
degree[187] = 34, pos[187] = 517
degree[186] = 34, pos[186] = 318
degree[185] = 33, pos[185] = 645
degree[184] = 33, pos[184] = 595
degree[183] = 33, pos[183] = 539
degree[182] = 33, pos[182] = 452
degree[181] = 33, pos[181] = 290
degree[180] = 33, pos[180] = 92
degree[179] = 32, pos[179] = 625
degree[178] = 31, pos[178] = 676
degree[177] = 31, pos[177] = 640
degree[176] = 30, pos[176] = 223
degree[175] = 30, pos[175] = 216
degree[174] = 30, pos[174] = 157
degree[173] = 29, pos[173] = 83
degree[172] = 28, pos[172] = 541
degree[171] = 28, pos[171] = 501
degree[170] = 27, pos[170] = 443
degree[169] = 27, pos[169] = 199
degree[168] = 26, pos[168] = 399
degree[167] = 26, pos[167] = 279
degree[166] = 26, pos[166] = 154
degree[165] = 26, pos[165] = 97
degree[164] = 25, pos[164] = 643
degree[163] = 24, pos[163] = 683
degree[162] = 24, pos[162] = 509
degree[161] = 24, pos[161] = 312
degree[160] = 24, pos[160] = 254
degree[159] = 23, pos[159] = 679
degree[158] = 23, pos[158] = 398
degree[157] = 22, pos[157] = 615
degree[156] = 22, pos[156] = 101
degree[155] = 21, pos[155] = 310
degree[154] = 21, pos[154] = 112
degree[153] = 21, pos[153] = 62
degree[152] = 20, pos[152] = 664
degree[151] = 20, pos[151] = 448
degree[150] = 20, pos[150] = 385
degree[149] = 19, pos[149] = 571
degree[148] = 19, pos[148] = 507
degree[147] = 19, pos[147] = 269
degree[146] = 19, pos[146] = 186
degree[145] = 19, pos[145] = 41
degree[144] = 18, pos[144] = 668
degree[143] = 18, pos[143] = 610
degree[142] = 18, pos[142] = 596
degree[141] = 18, pos[141] = 328
degree[140] = 17, pos[140] = 647
degree[139] = 17, pos[139] = 632
degree[138] = 17, pos[138] = 178
degree[137] = 17, pos[137] = 89
degree[136] = 17, pos[136] = 67
degree[135] = 17, pos[135] = 43
degree[134] = 16, pos[134] = 525
degree[133] = 15, pos[133] = 663
degree[132] = 15, pos[132] = 555
degree[131] = 15, pos[131] = 277
degree[130] = 15, pos[130] = 232
degree[129] = 14, pos[129] = 366
degree[128] = 14, pos[128] = 354
degree[127] = 14, pos[127] = 235
degree[126] = 14, pos[126] = 210
degree[125] = 14, pos[125] = 208
degree[124] = 14, pos[124] = 164
degree[123] = 13, pos[123] = 699
degree[122] = 13, pos[122] = 549
degree[121] = 13, pos[121] = 231
degree[120] = 13, pos[120] = 198
degree[119] = 13, pos[119] = 156
degree[118] = 13, pos[118] = 42
degree[117] = 12, pos[117] = 636
degree[116] = 12, pos[116] = 215
degree[115] = 12, pos[115] = 204
degree[114] = 12, pos[114] = 167
degree[113] = 11, pos[113] = 644
degree[112] = 11, pos[112] = 271
degree[111] = 11, pos[111] = 40
degree[110] = 11, pos[110] = 34
degree[109] = 10, pos[109] = 262
degree[108] = 10, pos[108] = 137
degree[107] = 10, pos[107] = 124
degree[106] = 10, pos[106] = 113
degree[105] = 10, pos[105] = 61
degree[104] = 10, pos[104] = 54
degree[103] = 9, pos[103] = 177
degree[102] = 9, pos[102] = 66
degree[101] = 9, pos[101] = 44
degree[100] = 8, pos[100] = 696
degree[99] = 8, pos[99] = 608
degree[98] = 8, pos[98] = 445
degree[97] = 8, pos[97] = 330
degree[96] = 8, pos[96] = 329
degree[95] = 8, pos[95] = 203
degree[94] = 8, pos[94] = 45
degree[93] = 8, pos[93] = 5
degree[92] = 7, pos[92] = 552
degree[91] = 6, pos[91] = 584
degree[90] = 6, pos[90] = 522
degree[89] = 6, pos[89] = 497
degree[88] = 6, pos[88] = 161
degree[87] = 5, pos[87] = 554
degree[86] = 5, pos[86] = 245
degree[85] = 5, pos[85] = 205
degree[84] = 5, pos[84] = 138
degree[83] = 4, pos[83] = 658
degree[82] = 4, pos[82] = 613
degree[81] = 4, pos[81] = 457
degree[80] = 4, pos[80] = 377
degree[79] = 4, pos[79] = 319
degree[78] = 4, pos[78] = 314
degree[77] = 4, pos[77] = 28
degree[76] = 4, pos[76] = 1
degree[75] = 3, pos[75] = 542
degree[74] = 3, pos[74] = 530
degree[73] = 3, pos[73] = 529
degree[72] = 3, pos[72] = 513
degree[71] = 3, pos[71] = 444
degree[70] = 3, pos[70] = 402
degree[69] = 3, pos[69] = 359
degree[68] = 3, pos[68] = 250
degree[67] = 3, pos[67] = 90
degree[66] = 2, pos[66] = 673
degree[65] = 2, pos[65] = 641
degree[64] = 2, pos[64] = 585
degree[63] = 2, pos[63] = 475
degree[62] = 2, pos[62] = 472
degree[61] = 2, pos[61] = 442
degree[60] = 2, pos[60] = 388
degree[59] = 2, pos[59] = 263
degree[58] = 2, pos[58] = 142
degree[57] = 2, pos[57] = 79
degree[56] = 2, pos[56] = 71
degree[55] = 1, pos[55] = 656
degree[54] = 1, pos[54] = 612
degree[53] = 1, pos[53] = 602
degree[52] = 1, pos[52] = 566
degree[51] = 1, pos[51] = 482
degree[50] = 1, pos[50] = 466
degree[49] = 1, pos[49] = 425
degree[48] = 1, pos[48] = 404
degree[47] = 1, pos[47] = 230
degree[46] = 1, pos[46] = 195
degree[45] = 0, pos[45] = 678
degree[44] = 0, pos[44] = 654
degree[43] = 0, pos[43] = 634
degree[42] = 0, pos[42] = 629
degree[41] = 0, pos[41] = 616
degree[40] = 0, pos[40] = 601
degree[39] = 0, pos[39] = 563
degree[38] = 0, pos[38] = 547
degree[37] = 0, pos[37] = 546
degree[36] = 0, pos[36] = 535
degree[35] = 0, pos[35] = 528
degree[34] = 0, pos[34] = 518
degree[33] = 0, pos[33] = 493
degree[32] = 0, pos[32] = 471
degree[31] = 0, pos[31] = 462
degree[30] = 0, pos[30] = 418
degree[29] = 0, pos[29] = 414
degree[28] = 0, pos[28] = 403
degree[27] = 0, pos[27] = 400
degree[26] = 0, pos[26] = 382
degree[25] = 0, pos[25] = 380
degree[24] = 0, pos[24] = 373
degree[23] = 0, pos[23] = 348
degree[22] = 0, pos[22] = 337
degree[21] = 0, pos[21] = 315
degree[20] = 0, pos[20] = 308
degree[19] = 0, pos[19] = 304
degree[18] = 0, pos[18] = 288
degree[17] = 0, pos[17] = 241
degree[16] = 0, pos[16] = 219
degree[15] = 0, pos[15] = 197
degree[14] = 0, pos[14] = 181
degree[13] = 0, pos[13] = 159
degree[12] = 0, pos[12] = 145
degree[11] = 0, pos[11] = 143
degree[10] = 0, pos[10] = 136
degree[9] = 0, pos[9] = 133
degree[8] = 0, pos[8] = 120
degree[7] = 0, pos[7] = 119
degree[6] = 0, pos[6] = 94
degree[5] = 0, pos[5] = 88
degree[4] = 0, pos[4] = 52
degree[3] = 0, pos[3] = 46
degree[2] = 0, pos[2] = 32
degree[1] = 0, pos[1] = 21
degree[0] = 0, pos[0] = 12
Pos[0] = 12
Pos[1] = 21
Pos[2] = 32
Pos[3] = 46
Pos[4] = 52
Pos[5] = 88
Pos[6] = 94
Pos[7] = 119
Pos[8] = 120
Pos[9] = 133
Pos[10] = 136
Pos[11] = 143
Pos[12] = 145
Pos[13] = 159
Pos[14] = 181
Pos[15] = 197
Pos[16] = 219
Pos[17] = 241
Pos[18] = 288
Pos[19] = 304
Pos[20] = 308
Pos[21] = 315
Pos[22] = 337
Pos[23] = 348
Pos[24] = 373
Pos[25] = 380
Pos[26] = 382
Pos[27] = 400
Pos[28] = 403
Pos[29] = 414
Pos[30] = 418
Pos[31] = 462
Pos[32] = 471
Pos[33] = 493
Pos[34] = 518
Pos[35] = 528
Pos[36] = 535
Pos[37] = 546
Pos[38] = 547
Pos[39] = 563
Pos[40] = 601
Pos[41] = 616
Pos[42] = 629
Pos[43] = 634
Pos[44] = 654
Pos[45] = 678
Pos[46] = 195
Pos[47] = 230
Pos[48] = 404
Pos[49] = 425
Pos[50] = 466
Pos[51] = 482
Pos[52] = 566
Pos[53] = 602
Pos[54] = 612
Pos[55] = 656
Pos[56] = 71
Pos[57] = 79
Pos[58] = 142
Pos[59] = 263
Pos[60] = 388
Pos[61] = 442
Pos[62] = 472
Pos[63] = 475
Pos[64] = 585
Pos[65] = 641
Pos[66] = 673
Pos[67] = 90
Pos[68] = 250
Pos[69] = 359
Pos[70] = 402
Pos[71] = 444
Pos[72] = 513
Pos[73] = 529
Pos[74] = 530
Pos[75] = 542
Pos[76] = 1
Pos[77] = 28
Pos[78] = 314
Pos[79] = 319
Pos[80] = 377
Pos[81] = 457
Pos[82] = 613
Pos[83] = 658
Pos[84] = 138
Pos[85] = 205
Pos[86] = 245
Pos[87] = 554
Pos[88] = 161
Pos[89] = 497
Pos[90] = 522
Pos[91] = 584
Pos[92] = 552
Pos[93] = 5
Pos[94] = 45
Pos[95] = 203
Pos[96] = 329
Pos[97] = 330
Pos[98] = 445
Pos[99] = 608
Pos[100] = 696
Pos[101] = 44
Pos[102] = 66
Pos[103] = 177
Pos[104] = 54
Pos[105] = 61
Pos[106] = 113
Pos[107] = 124
Pos[108] = 137
Pos[109] = 262
Pos[110] = 34
Pos[111] = 40
Pos[112] = 271
Pos[113] = 644
Pos[114] = 167
Pos[115] = 204
Pos[116] = 215
Pos[117] = 636
Pos[118] = 42
Pos[119] = 156
Pos[120] = 198
Pos[121] = 231
Pos[122] = 549
Pos[123] = 699
Pos[124] = 164
Pos[125] = 208
Pos[126] = 210
Pos[127] = 235
Pos[128] = 354
Pos[129] = 366
Pos[130] = 232
Pos[131] = 277
Pos[132] = 555
Pos[133] = 663
Pos[134] = 525
Pos[135] = 43
Pos[136] = 67
Pos[137] = 89
Pos[138] = 178
Pos[139] = 632
Pos[140] = 647
Pos[141] = 328
Pos[142] = 596
Pos[143] = 610
Pos[144] = 668
Pos[145] = 41
Pos[146] = 186
Pos[147] = 269
Pos[148] = 507
Pos[149] = 571
Pos[150] = 385
Pos[151] = 448
Pos[152] = 664
Pos[153] = 62
Pos[154] = 112
Pos[155] = 310
Pos[156] = 101
Pos[157] = 615
Pos[158] = 398
Pos[159] = 679
Pos[160] = 254
Pos[161] = 312
Pos[162] = 509
Pos[163] = 683
Pos[164] = 643
Pos[165] = 97
Pos[166] = 154
Pos[167] = 279
Pos[168] = 399
Pos[169] = 199
Pos[170] = 443
Pos[171] = 501
Pos[172] = 541
Pos[173] = 83
Pos[174] = 157
Pos[175] = 216
Pos[176] = 223
Pos[177] = 640
Pos[178] = 676
Pos[179] = 625
Pos[180] = 92
Pos[181] = 290
Pos[182] = 452
Pos[183] = 539
Pos[184] = 595
Pos[185] = 645
Pos[186] = 318
Pos[187] = 517
Pos[188] = 6
Pos[189] = 502
Pos[190] = 299
Pos[191] = 389
Pos[192] = 692
Pos[193] = 297
Pos[194] = 364
Pos[195] = 424
Pos[196] = 680
Pos[197] = 123
Pos[198] = 474
Pos[199] = 226
Pos[200] = 80
Pos[201] = 87
Pos[202] = 287
Pos[203] = 17
Pos[204] = 338
Pos[205] = 358
Pos[206] = 139
Pos[207] = 423
Pos[208] = 175
Pos[209] = 264
Pos[210] = 272
Pos[211] = 427
Pos[212] = 667
Pos[213] = 70
Pos[214] = 594
Pos[215] = 266
Pos[216] = 690
Pos[217] = 469
Pos[218] = 334
Pos[219] = 58
Pos[220] = 48
Pos[221] = 450
Pos[222] = 579
Pos[223] = 165
Pos[224] = 538
Pos[225] = 576
Pos[226] = 639
Pos[227] = 234
Pos[228] = 282
Pos[229] = 309
Pos[230] = 365
Pos[231] = 562
Pos[232] = 544
Pos[233] = 74
Pos[234] = 368
Pos[235] = 565
Pos[236] = 93
Pos[237] = 214
Pos[238] = 302
Pos[239] = 410
Pos[240] = 591
Pos[241] = 420
Pos[242] = 662
Pos[243] = 320
Pos[244] = 532
Pos[245] = 77
Pos[246] = 26
Pos[247] = 220
Pos[248] = 395
Pos[249] = 20
Pos[250] = 508
Pos[251] = 184
Pos[252] = 286
Pos[253] = 342
Pos[254] = 499
Pos[255] = 22
Pos[256] = 438
Pos[257] = 171
Pos[258] = 183
Pos[259] = 413
Pos[260] = 451
Pos[261] = 646
Pos[262] = 39
Pos[263] = 293
Pos[264] = 671
Pos[265] = 31
Pos[266] = 193
Pos[267] = 130
Pos[268] = 463
Pos[269] = 642
Pos[270] = 99
Pos[271] = 351
Pos[272] = 655
Pos[273] = 317
Pos[274] = 415
Pos[275] = 470
Pos[276] = 567
Pos[277] = 649
Pos[278] = 249
Pos[279] = 352
Pos[280] = 394
Pos[281] = 543
Pos[282] = 695
Pos[283] = 63
Pos[284] = 540
Pos[285] = 229
Pos[286] = 500
Pos[287] = 243
Pos[288] = 108
Pos[289] = 405
Pos[290] = 174
Pos[291] = 225
Pos[292] = 33
Pos[293] = 65
Pos[294] = 268
Pos[295] = 461
Pos[296] = 526
Pos[297] = 569
Pos[298] = 355
Pos[299] = 217
Pos[300] = 468
Pos[301] = 0
Pos[302] = 503
Pos[303] = 533
Pos[304] = 665
Pos[305] = 426
Pos[306] = 489
Pos[307] = 170
Pos[308] = 172
Pos[309] = 179
Pos[310] = 300
Pos[311] = 173
Pos[312] = 153
Pos[313] = 283
Pos[314] = 473
Pos[315] = 564
Pos[316] = 228
Pos[317] = 81
Pos[318] = 292
Pos[319] = 459
Pos[320] = 686
Pos[321] = 301
Pos[322] = 60
Pos[323] = 221
Pos[324] = 597
Pos[325] = 624
Pos[326] = 84
Pos[327] = 107
Pos[328] = 38
Pos[329] = 430
Pos[330] = 341
Pos[331] = 588
Pos[332] = 313
Pos[333] = 257
Pos[334] = 550
Pos[335] = 166
Pos[336] = 609
Pos[337] = 480
Pos[338] = 606
Pos[339] = 340
Pos[340] = 213
Pos[341] = 439
Pos[342] = 687
Pos[343] = 688
Pos[344] = 256
Pos[345] = 374
Pos[346] = 408
Pos[347] = 274
Pos[348] = 519
Pos[349] = 574
Pos[350] = 57
Pos[351] = 369
Pos[352] = 537
Pos[353] = 51
Pos[354] = 693
Pos[355] = 486
Pos[356] = 691
Pos[357] = 332
Pos[358] = 149
Pos[359] = 168
Pos[360] = 506
Pos[361] = 393
Pos[362] = 182
Pos[363] = 487
Pos[364] = 633
Pos[365] = 674
Pos[366] = 556
Pos[367] = 2
Pos[368] = 273
Pos[369] = 383
Pos[370] = 411
Pos[371] = 134
Pos[372] = 363
Pos[373] = 630
Pos[374] = 651
Pos[375] = 623
Pos[376] = 605
Pos[377] = 96
Pos[378] = 661
Pos[379] = 206
Pos[380] = 265
Pos[381] = 515
Pos[382] = 598
Pos[383] = 37
Pos[384] = 345
Pos[385] = 505
Pos[386] = 581
Pos[387] = 23
Pos[388] = 621
Pos[389] = 428
Pos[390] = 531
Pos[391] = 346
Pos[392] = 570
Pos[393] = 603
Pos[394] = 422
Pos[395] = 697
Pos[396] = 553
Pos[397] = 440
Pos[398] = 176
Pos[399] = 321
Pos[400] = 110
Pos[401] = 326
Pos[402] = 285
Pos[403] = 557
Pos[404] = 280
Pos[405] = 236
Pos[406] = 194
Pos[407] = 416
Pos[408] = 684
Pos[409] = 387
Pos[410] = 441
Pos[411] = 24
Pos[412] = 491
Pos[413] = 258
Pos[414] = 152
Pos[415] = 689
Pos[416] = 27
Pos[417] = 446
Pos[418] = 397
Pos[419] = 187
Pos[420] = 432
Pos[421] = 4
Pos[422] = 523
Pos[423] = 135
Pos[424] = 306
Pos[425] = 433
Pos[426] = 437
Pos[427] = 476
Pos[428] = 19
Pos[429] = 431
Pos[430] = 64
Pos[431] = 102
Pos[432] = 50
Pos[433] = 590
Pos[434] = 202
Pos[435] = 261
Pos[436] = 55
Pos[437] = 36
Pos[438] = 109
Pos[439] = 419
Pos[440] = 620
Pos[441] = 694
Pos[442] = 190
Pos[443] = 361
Pos[444] = 573
Pos[445] = 82
Pos[446] = 449
Pos[447] = 478
Pos[448] = 335
Pos[449] = 627
Pos[450] = 233
Pos[451] = 631
Pos[452] = 407
Pos[453] = 169
Pos[454] = 298
Pos[455] = 479
Pos[456] = 246
Pos[457] = 343
Pos[458] = 240
Pos[459] = 412
Pos[460] = 447
Pos[461] = 454
Pos[462] = 670
Pos[463] = 379
Pos[464] = 201
Pos[465] = 91
Pos[466] = 103
Pos[467] = 146
Pos[468] = 295
Pos[469] = 248
Pos[470] = 551
Pos[471] = 484
Pos[472] = 626
Pos[473] = 9
Pos[474] = 111
Pos[475] = 429
Pos[476] = 125
Pos[477] = 158
Pos[478] = 568
Pos[479] = 514
Pos[480] = 604
Pos[481] = 339
Pos[482] = 276
Pos[483] = 577
Pos[484] = 370
Pos[485] = 207
Pos[486] = 619
Pos[487] = 435
Pos[488] = 311
Pos[489] = 488
Pos[490] = 637
Pos[491] = 69
Pos[492] = 95
Pos[493] = 185
Pos[494] = 336
Pos[495] = 129
Pos[496] = 376
Pos[497] = 659
Pos[498] = 504
Pos[499] = 244
Pos[500] = 122
Pos[501] = 331
Pos[502] = 498
Pos[503] = 698
Pos[504] = 73
Pos[505] = 485
Pos[506] = 212
Pos[507] = 85
Pos[508] = 131
Pos[509] = 520
Pos[510] = 270
Pos[511] = 653
Pos[512] = 371
Pos[513] = 76
Pos[514] = 560
Pos[515] = 209
Pos[516] = 516
Pos[517] = 227
Pos[518] = 3
Pos[519] = 357
Pos[520] = 460
Pos[521] = 617
Pos[522] = 56
Pos[523] = 196
Pos[524] = 421
Pos[525] = 496
Pos[526] = 572
Pos[527] = 180
Pos[528] = 278
Pos[529] = 10
Pos[530] = 35
Pos[531] = 98
Pos[532] = 106
Pos[533] = 155
Pos[534] = 200
Pos[535] = 150
Pos[536] = 191
Pos[537] = 242
Pos[538] = 455
Pos[539] = 465
Pos[540] = 545
Pos[541] = 303
Pos[542] = 307
Pos[543] = 682
Pos[544] = 115
Pos[545] = 162
Pos[546] = 384
Pos[547] = 434
Pos[548] = 390
Pos[549] = 628
Pos[550] = 669
Pos[551] = 333
Pos[552] = 59
Pos[553] = 672
Pos[554] = 685
Pos[555] = 599
Pos[556] = 284
Pos[557] = 614
Pos[558] = 635
Pos[559] = 163
Pos[560] = 409
Pos[561] = 275
Pos[562] = 30
Pos[563] = 132
Pos[564] = 281
Pos[565] = 353
Pos[566] = 381
Pos[567] = 559
Pos[568] = 580
Pos[569] = 582
Pos[570] = 140
Pos[571] = 453
Pos[572] = 650
Pos[573] = 147
Pos[574] = 587
Pos[575] = 375
Pos[576] = 8
Pos[577] = 638
Pos[578] = 527
Pos[579] = 100
Pos[580] = 15
Pos[581] = 511
Pos[582] = 247
Pos[583] = 589
Pos[584] = 116
Pos[585] = 141
Pos[586] = 481
Pos[587] = 68
Pos[588] = 239
Pos[589] = 592
Pos[590] = 492
Pos[591] = 11
Pos[592] = 657
Pos[593] = 456
Pos[594] = 72
Pos[595] = 104
Pos[596] = 495
Pos[597] = 483
Pos[598] = 681
Pos[599] = 218
Pos[600] = 237
Pos[601] = 583
Pos[602] = 652
Pos[603] = 16
Pos[604] = 477
Pos[605] = 128
Pos[606] = 323
Pos[607] = 25
Pos[608] = 327
Pos[609] = 675
Pos[610] = 360
Pos[611] = 536
Pos[612] = 255
Pos[613] = 192
Pos[614] = 356
Pos[615] = 467
Pos[616] = 666
Pos[617] = 14
Pos[618] = 391
Pos[619] = 660
Pos[620] = 7
Pos[621] = 189
Pos[622] = 378
Pos[623] = 558
Pos[624] = 160
Pos[625] = 188
Pos[626] = 490
Pos[627] = 13
Pos[628] = 401
Pos[629] = 117
Pos[630] = 127
Pos[631] = 238
Pos[632] = 548
Pos[633] = 600
Pos[634] = 53
Pos[635] = 260
Pos[636] = 396
Pos[637] = 289
Pos[638] = 296
Pos[639] = 126
Pos[640] = 362
Pos[641] = 648
Pos[642] = 118
Pos[643] = 151
Pos[644] = 464
Pos[645] = 618
Pos[646] = 148
Pos[647] = 252
Pos[648] = 593
Pos[649] = 18
Pos[650] = 47
Pos[651] = 222
Pos[652] = 325
Pos[653] = 512
Pos[654] = 305
Pos[655] = 392
Pos[656] = 78
Pos[657] = 347
Pos[658] = 144
Pos[659] = 267
Pos[660] = 344
Pos[661] = 510
Pos[662] = 294
Pos[663] = 458
Pos[664] = 534
Pos[665] = 350
Pos[666] = 49
Pos[667] = 86
Pos[668] = 29
Pos[669] = 521
Pos[670] = 611
Pos[671] = 524
Pos[672] = 406
Pos[673] = 121
Pos[674] = 224
Pos[675] = 251
Pos[676] = 324
Pos[677] = 622
Pos[678] = 349
Pos[679] = 372
Pos[680] = 386
Pos[681] = 259
Pos[682] = 316
Pos[683] = 367
Pos[684] = 494
Pos[685] = 291
Pos[686] = 322
Pos[687] = 417
Pos[688] = 561
Pos[689] = 436
Pos[690] = 105
Pos[691] = 211
Pos[692] = 253
Pos[693] = 75
Pos[694] = 578
Pos[695] = 586
Pos[696] = 607
Pos[697] = 575
Pos[698] = 677
Pos[699] = 114
Enbr = 121728
start search
improving solution size 1
improving solution size 2
improving solution size 3
improving solution size 4
improving solution size 5
improving solution size 6
improving solution size 7
improving solution size 8
improving solution size 9
improving solution size 10
improving solution size 11
improving solution size 12
improving solution size 13
improving solution size 14
improving solution size 15
improving solution size 16
improving solution size 17
improving solution size 18
improving solution size 19
improving solution size 20
improving solution size 21
improving solution size 22
improving solution size 23
improving solution size 24
improving solution size 25
improving solution size 26
improving solution size 27
improving solution size 28
improving solution size 29
improving solution size 30
improving solution size 31
improving solution size 32
improving solution size 33
improving solution size 34
improving solution size 35
improving solution size 36
improving solution size 37
improving solution size 38
improving solution size 39
improving solution size 40
improving solution size 41
improving solution size 42
improving solution size 43
improving solution size 44
improving solution size 45
improving solution size 46
improving solution size 47
improving solution size 48
improving solution size 49
improving solution size 50
TIMEOUT
best clique: 115 678 576 608 587 579 76 254 212 106 437 562 418 292 495 317 260 325 252 122 407 612 30 351 459 295 513 345 326 594 149 397 261 54 601 118 152 559 667 17 584 457 379 117 16 653 148 354 31 619 
record          =          50
subp            =  2651923274
time            =  3600.00060
