timeout 3600 s
Graph with 1500 vertices and 847244 edges density 0.753608
t = 1694488, Enbr = 847244
degree[1499] = 1330, pos[1499] = 621
degree[1498] = 1329, pos[1498] = 351
degree[1497] = 1326, pos[1497] = 737
degree[1496] = 1322, pos[1496] = 818
degree[1495] = 1320, pos[1495] = 433
degree[1494] = 1318, pos[1494] = 414
degree[1493] = 1316, pos[1493] = 768
degree[1492] = 1311, pos[1492] = 1120
degree[1491] = 1309, pos[1491] = 1482
degree[1490] = 1308, pos[1490] = 1170
degree[1489] = 1307, pos[1489] = 1001
degree[1488] = 1306, pos[1488] = 276
degree[1487] = 1305, pos[1487] = 260
degree[1486] = 1303, pos[1486] = 1234
degree[1485] = 1302, pos[1485] = 989
degree[1484] = 1301, pos[1484] = 688
degree[1483] = 1300, pos[1483] = 213
degree[1482] = 1298, pos[1482] = 449
degree[1481] = 1297, pos[1481] = 427
degree[1480] = 1295, pos[1480] = 543
degree[1479] = 1294, pos[1479] = 357
degree[1478] = 1293, pos[1478] = 72
degree[1477] = 1292, pos[1477] = 25
degree[1476] = 1290, pos[1476] = 1172
degree[1475] = 1289, pos[1475] = 962
degree[1474] = 1287, pos[1474] = 1246
degree[1473] = 1286, pos[1473] = 1166
degree[1472] = 1285, pos[1472] = 825
degree[1471] = 1284, pos[1471] = 528
degree[1470] = 1283, pos[1470] = 443
degree[1469] = 1282, pos[1469] = 245
degree[1468] = 1281, pos[1468] = 185
degree[1467] = 1279, pos[1467] = 906
degree[1466] = 1278, pos[1466] = 539
degree[1465] = 1277, pos[1465] = 520
degree[1464] = 1276, pos[1464] = 513
degree[1463] = 1275, pos[1463] = 273
degree[1462] = 1274, pos[1462] = 0
degree[1461] = 1272, pos[1461] = 1272
degree[1460] = 1271, pos[1460] = 939
degree[1459] = 1270, pos[1459] = 563
degree[1458] = 1269, pos[1458] = 391
degree[1457] = 1267, pos[1457] = 1484
degree[1456] = 1266, pos[1456] = 919
degree[1455] = 1265, pos[1455] = 862
degree[1454] = 1264, pos[1454] = 371
degree[1453] = 1262, pos[1453] = 1243
degree[1452] = 1261, pos[1452] = 877
degree[1451] = 1260, pos[1451] = 474
degree[1450] = 1258, pos[1450] = 1071
degree[1449] = 1257, pos[1449] = 561
degree[1448] = 1256, pos[1448] = 111
degree[1447] = 1255, pos[1447] = 67
degree[1446] = 1253, pos[1446] = 1264
degree[1445] = 1252, pos[1445] = 916
degree[1444] = 1251, pos[1444] = 71
degree[1443] = 1249, pos[1443] = 1463
degree[1442] = 1248, pos[1442] = 1151
degree[1441] = 1247, pos[1441] = 1034
degree[1440] = 1245, pos[1440] = 748
degree[1439] = 1244, pos[1439] = 471
degree[1438] = 1243, pos[1438] = 439
degree[1437] = 1241, pos[1437] = 1475
degree[1436] = 1240, pos[1436] = 669
degree[1435] = 1239, pos[1435] = 311
degree[1434] = 1238, pos[1434] = 275
degree[1433] = 1237, pos[1433] = 172
degree[1432] = 1236, pos[1432] = 1260
degree[1431] = 1234, pos[1431] = 1288
degree[1430] = 1233, pos[1430] = 1033
degree[1429] = 1232, pos[1429] = 973
degree[1428] = 1231, pos[1428] = 852
degree[1427] = 1230, pos[1427] = 507
degree[1426] = 1228, pos[1426] = 1418
degree[1425] = 1227, pos[1425] = 1332
degree[1424] = 1226, pos[1424] = 1266
degree[1423] = 1225, pos[1423] = 1026
degree[1422] = 1224, pos[1422] = 959
degree[1421] = 1223, pos[1421] = 496
degree[1420] = 1221, pos[1420] = 905
degree[1419] = 1218, pos[1419] = 1017
degree[1418] = 1217, pos[1418] = 614
degree[1417] = 1216, pos[1417] = 388
degree[1416] = 1214, pos[1416] = 1477
degree[1415] = 1213, pos[1415] = 1404
degree[1414] = 1212, pos[1414] = 1045
degree[1413] = 1211, pos[1413] = 977
degree[1412] = 1211, pos[1412] = 722
degree[1411] = 1209, pos[1411] = 1320
degree[1410] = 1208, pos[1410] = 925
degree[1409] = 1207, pos[1409] = 899
degree[1408] = 1206, pos[1408] = 888
degree[1407] = 1205, pos[1407] = 711
degree[1406] = 1204, pos[1406] = 130
degree[1405] = 1202, pos[1405] = 1119
degree[1404] = 1201, pos[1404] = 432
degree[1403] = 1200, pos[1403] = 349
degree[1402] = 1199, pos[1402] = 1020
degree[1401] = 1198, pos[1401] = 1038
degree[1400] = 1197, pos[1400] = 985
degree[1399] = 1196, pos[1399] = 232
degree[1398] = 1195, pos[1398] = 75
degree[1397] = 1194, pos[1397] = 44
degree[1396] = 1192, pos[1396] = 1322
degree[1395] = 1191, pos[1395] = 255
degree[1394] = 1190, pos[1394] = 10
degree[1393] = 1188, pos[1393] = 1402
degree[1392] = 1188, pos[1392] = 1175
degree[1391] = 1186, pos[1391] = 1384
degree[1390] = 1185, pos[1390] = 1156
degree[1389] = 1184, pos[1389] = 1006
degree[1388] = 1183, pos[1388] = 1004
degree[1387] = 1182, pos[1387] = 876
degree[1386] = 1181, pos[1386] = 841
degree[1385] = 1180, pos[1385] = 102
degree[1384] = 1178, pos[1384] = 1028
degree[1383] = 1177, pos[1383] = 89
degree[1382] = 1175, pos[1382] = 155
degree[1381] = 1174, pos[1381] = 1415
degree[1380] = 1172, pos[1380] = 1492
degree[1379] = 1171, pos[1379] = 1046
degree[1378] = 1171, pos[1378] = 982
degree[1377] = 1170, pos[1377] = 422
degree[1376] = 1168, pos[1376] = 484
degree[1375] = 1167, pos[1375] = 164
degree[1374] = 1166, pos[1374] = 132
degree[1373] = 1165, pos[1373] = 92
degree[1372] = 1163, pos[1372] = 1448
degree[1371] = 1162, pos[1371] = 1412
degree[1370] = 1161, pos[1370] = 1068
degree[1369] = 1160, pos[1369] = 419
degree[1368] = 1160, pos[1368] = 345
degree[1367] = 1157, pos[1367] = 1432
degree[1366] = 1156, pos[1366] = 901
degree[1365] = 1155, pos[1365] = 837
degree[1364] = 1154, pos[1364] = 548
degree[1363] = 1152, pos[1363] = 1341
degree[1362] = 1151, pos[1362] = 1108
degree[1361] = 1150, pos[1361] = 1019
degree[1360] = 1149, pos[1360] = 844
degree[1359] = 1148, pos[1359] = 536
degree[1358] = 1147, pos[1358] = 296
degree[1357] = 1145, pos[1357] = 1190
degree[1356] = 1145, pos[1356] = 133
degree[1355] = 1143, pos[1355] = 239
degree[1354] = 1142, pos[1354] = 1342
degree[1353] = 1141, pos[1353] = 114
degree[1352] = 1139, pos[1352] = 1410
degree[1351] = 1139, pos[1351] = 576
degree[1350] = 1137, pos[1350] = 1162
degree[1349] = 1136, pos[1349] = 657
degree[1348] = 1135, pos[1348] = 428
degree[1347] = 1133, pos[1347] = 1343
degree[1346] = 1132, pos[1346] = 1005
degree[1345] = 1132, pos[1345] = 646
degree[1344] = 1131, pos[1344] = 395
degree[1343] = 1130, pos[1343] = 267
degree[1342] = 1128, pos[1342] = 656
degree[1341] = 1127, pos[1341] = 289
degree[1340] = 1125, pos[1340] = 1467
degree[1339] = 1124, pos[1339] = 263
degree[1338] = 1123, pos[1338] = 165
degree[1337] = 1122, pos[1337] = 159
degree[1336] = 1120, pos[1336] = 1470
degree[1335] = 1119, pos[1335] = 1414
degree[1334] = 1118, pos[1334] = 1144
degree[1333] = 1117, pos[1333] = 136
degree[1332] = 1115, pos[1332] = 1352
degree[1331] = 1114, pos[1331] = 764
degree[1330] = 1113, pos[1330] = 892
degree[1329] = 1112, pos[1329] = 1134
degree[1328] = 1111, pos[1328] = 509
degree[1327] = 1110, pos[1327] = 489
degree[1326] = 1109, pos[1326] = 396
degree[1325] = 1108, pos[1325] = 823
degree[1324] = 1107, pos[1324] = 113
degree[1323] = 1106, pos[1323] = 1248
degree[1322] = 1104, pos[1322] = 690
degree[1321] = 1103, pos[1321] = 1109
degree[1320] = 1102, pos[1320] = 1104
degree[1319] = 1101, pos[1319] = 402
degree[1318] = 1101, pos[1318] = 124
degree[1317] = 1099, pos[1317] = 529
degree[1316] = 1098, pos[1316] = 651
degree[1315] = 1098, pos[1315] = 42
degree[1314] = 1095, pos[1314] = 1066
degree[1313] = 1093, pos[1313] = 817
degree[1312] = 1091, pos[1312] = 1459
degree[1311] = 1090, pos[1311] = 754
degree[1310] = 1089, pos[1310] = 682
degree[1309] = 1089, pos[1309] = 316
degree[1308] = 1088, pos[1308] = 1036
degree[1307] = 1087, pos[1307] = 781
degree[1306] = 1085, pos[1306] = 921
degree[1305] = 1085, pos[1305] = 138
degree[1304] = 1083, pos[1304] = 1208
degree[1303] = 1082, pos[1303] = 1177
degree[1302] = 1082, pos[1302] = 214
degree[1301] = 1081, pos[1301] = 745
degree[1300] = 1078, pos[1300] = 1148
degree[1299] = 1078, pos[1299] = 178
degree[1298] = 1076, pos[1298] = 1100
degree[1297] = 1075, pos[1297] = 889
degree[1296] = 1074, pos[1296] = 802
degree[1295] = 1073, pos[1295] = 731
degree[1294] = 1072, pos[1294] = 670
degree[1293] = 1071, pos[1293] = 558
degree[1292] = 1070, pos[1292] = 551
degree[1291] = 1069, pos[1291] = 216
degree[1290] = 1067, pos[1290] = 1458
degree[1289] = 1066, pos[1289] = 1398
degree[1288] = 1065, pos[1288] = 958
degree[1287] = 1063, pos[1287] = 1329
degree[1286] = 1062, pos[1286] = 1061
degree[1285] = 1062, pos[1285] = 560
degree[1284] = 1060, pos[1284] = 1048
degree[1283] = 1060, pos[1283] = 927
degree[1282] = 1058, pos[1282] = 437
degree[1281] = 1056, pos[1281] = 1393
degree[1280] = 1055, pos[1280] = 955
degree[1279] = 1055, pos[1279] = 699
degree[1278] = 1055, pos[1278] = 220
degree[1277] = 1052, pos[1277] = 801
degree[1276] = 1052, pos[1276] = 36
degree[1275] = 1050, pos[1275] = 619
degree[1274] = 1048, pos[1274] = 1160
degree[1273] = 1048, pos[1273] = 148
degree[1272] = 1046, pos[1272] = 1030
degree[1271] = 1044, pos[1271] = 1456
degree[1270] = 1044, pos[1270] = 174
degree[1269] = 1043, pos[1269] = 766
degree[1268] = 1041, pos[1268] = 1296
degree[1267] = 1040, pos[1267] = 1089
degree[1266] = 1039, pos[1266] = 810
degree[1265] = 1038, pos[1265] = 647
degree[1264] = 1037, pos[1264] = 1133
degree[1263] = 1036, pos[1263] = 598
degree[1262] = 1035, pos[1262] = 438
degree[1261] = 1034, pos[1261] = 1056
degree[1260] = 1033, pos[1260] = 947
degree[1259] = 1032, pos[1259] = 30
degree[1258] = 1031, pos[1258] = 1389
degree[1257] = 1030, pos[1257] = 308
degree[1256] = 1028, pos[1256] = 967
degree[1255] = 1027, pos[1255] = 930
degree[1254] = 1026, pos[1254] = 908
degree[1253] = 1026, pos[1253] = 385
degree[1252] = 1024, pos[1252] = 355
degree[1251] = 1023, pos[1251] = 261
degree[1250] = 1022, pos[1250] = 1223
degree[1249] = 1021, pos[1249] = 55
degree[1248] = 1019, pos[1248] = 1199
degree[1247] = 1018, pos[1247] = 1086
degree[1246] = 1017, pos[1246] = 897
degree[1245] = 1016, pos[1245] = 586
degree[1244] = 1015, pos[1244] = 401
degree[1243] = 1014, pos[1243] = 227
degree[1242] = 1013, pos[1242] = 83
degree[1241] = 1011, pos[1241] = 1302
degree[1240] = 1011, pos[1240] = 752
degree[1239] = 1010, pos[1239] = 346
degree[1238] = 1008, pos[1238] = 803
degree[1237] = 1007, pos[1237] = 758
degree[1236] = 1006, pos[1236] = 704
degree[1235] = 1006, pos[1235] = 516
degree[1234] = 1005, pos[1234] = 617
degree[1233] = 1004, pos[1233] = 350
degree[1232] = 1003, pos[1232] = 1388
degree[1231] = 1002, pos[1231] = 1350
degree[1230] = 999, pos[1230] = 1461
degree[1229] = 998, pos[1229] = 1318
degree[1228] = 997, pos[1228] = 761
degree[1227] = 997, pos[1227] = 233
degree[1226] = 995, pos[1226] = 1055
degree[1225] = 994, pos[1225] = 365
degree[1224] = 992, pos[1224] = 1375
degree[1223] = 991, pos[1223] = 1171
degree[1222] = 991, pos[1222] = 153
degree[1221] = 989, pos[1221] = 1010
degree[1220] = 988, pos[1220] = 554
degree[1219] = 987, pos[1219] = 1291
degree[1218] = 986, pos[1218] = 99
degree[1217] = 984, pos[1217] = 724
degree[1216] = 983, pos[1216] = 390
degree[1215] = 981, pos[1215] = 589
degree[1214] = 980, pos[1214] = 1158
degree[1213] = 980, pos[1213] = 134
degree[1212] = 978, pos[1212] = 1430
degree[1211] = 977, pos[1211] = 887
degree[1210] = 976, pos[1210] = 625
degree[1209] = 975, pos[1209] = 1088
degree[1208] = 974, pos[1208] = 231
degree[1207] = 972, pos[1207] = 1493
degree[1206] = 972, pos[1206] = 313
degree[1205] = 970, pos[1205] = 964
degree[1204] = 969, pos[1204] = 944
degree[1203] = 968, pos[1203] = 786
degree[1202] = 967, pos[1202] = 331
degree[1201] = 966, pos[1201] = 340
degree[1200] = 965, pos[1200] = 1483
degree[1199] = 964, pos[1199] = 974
degree[1198] = 963, pos[1198] = 590
degree[1197] = 962, pos[1197] = 330
degree[1196] = 961, pos[1196] = 1069
degree[1195] = 961, pos[1195] = 587
degree[1194] = 959, pos[1194] = 612
degree[1193] = 958, pos[1193] = 173
degree[1192] = 957, pos[1192] = 684
degree[1191] = 955, pos[1191] = 1435
degree[1190] = 954, pos[1190] = 1499
degree[1189] = 953, pos[1189] = 1487
degree[1188] = 952, pos[1188] = 1472
degree[1187] = 952, pos[1187] = 824
degree[1186] = 951, pos[1186] = 683
degree[1185] = 950, pos[1185] = 632
degree[1184] = 948, pos[1184] = 605
degree[1183] = 948, pos[1183] = 4
degree[1182] = 946, pos[1182] = 472
degree[1181] = 945, pos[1181] = 1315
degree[1180] = 944, pos[1180] = 681
degree[1179] = 943, pos[1179] = 950
degree[1178] = 942, pos[1178] = 369
degree[1177] = 940, pos[1177] = 1376
degree[1176] = 939, pos[1176] = 1286
degree[1175] = 938, pos[1175] = 736
degree[1174] = 938, pos[1174] = 519
degree[1173] = 937, pos[1173] = 287
degree[1172] = 936, pos[1172] = 292
degree[1171] = 935, pos[1171] = 244
degree[1170] = 933, pos[1170] = 1476
degree[1169] = 932, pos[1169] = 81
degree[1168] = 931, pos[1168] = 697
degree[1167] = 931, pos[1167] = 29
degree[1166] = 929, pos[1166] = 934
degree[1165] = 927, pos[1165] = 1328
degree[1164] = 927, pos[1164] = 397
degree[1163] = 926, pos[1163] = 12
degree[1162] = 925, pos[1162] = 1193
degree[1161] = 924, pos[1161] = 291
degree[1160] = 923, pos[1160] = 1051
degree[1159] = 921, pos[1159] = 937
degree[1158] = 921, pos[1158] = 571
degree[1157] = 919, pos[1157] = 1371
degree[1156] = 919, pos[1156] = 434
degree[1155] = 917, pos[1155] = 1309
degree[1154] = 916, pos[1154] = 775
degree[1153] = 915, pos[1153] = 579
degree[1152] = 914, pos[1152] = 1395
degree[1151] = 912, pos[1151] = 1194
degree[1150] = 911, pos[1150] = 1008
degree[1149] = 910, pos[1149] = 836
degree[1148] = 910, pos[1148] = 5
degree[1147] = 908, pos[1147] = 462
degree[1146] = 906, pos[1146] = 1347
degree[1145] = 905, pos[1145] = 1261
degree[1144] = 904, pos[1144] = 1227
degree[1143] = 904, pos[1143] = 613
degree[1142] = 903, pos[1142] = 306
degree[1141] = 901, pos[1141] = 929
degree[1140] = 900, pos[1140] = 808
degree[1139] = 899, pos[1139] = 759
degree[1138] = 899, pos[1138] = 545
degree[1137] = 897, pos[1137] = 527
degree[1136] = 896, pos[1136] = 718
degree[1135] = 895, pos[1135] = 999
degree[1134] = 895, pos[1134] = 700
degree[1133] = 894, pos[1133] = 379
degree[1132] = 893, pos[1132] = 94
degree[1131] = 892, pos[1131] = 50
degree[1130] = 891, pos[1130] = 1338
degree[1129] = 891, pos[1129] = 773
degree[1128] = 889, pos[1128] = 774
degree[1127] = 888, pos[1127] = 672
degree[1126] = 887, pos[1126] = 1293
degree[1125] = 886, pos[1125] = 970
degree[1124] = 884, pos[1124] = 1433
degree[1123] = 883, pos[1123] = 1273
degree[1122] = 883, pos[1122] = 863
degree[1121] = 881, pos[1121] = 1204
degree[1120] = 880, pos[1120] = 835
degree[1119] = 879, pos[1119] = 270
degree[1118] = 878, pos[1118] = 60
degree[1117] = 877, pos[1117] = 38
degree[1116] = 876, pos[1116] = 565
degree[1115] = 875, pos[1115] = 575
degree[1114] = 875, pos[1114] = 237
degree[1113] = 873, pos[1113] = 885
degree[1112] = 872, pos[1112] = 518
degree[1111] = 871, pos[1111] = 241
degree[1110] = 870, pos[1110] = 965
degree[1109] = 869, pos[1109] = 312
degree[1108] = 868, pos[1108] = 448
degree[1107] = 867, pos[1107] = 303
degree[1106] = 866, pos[1106] = 167
degree[1105] = 865, pos[1105] = 1423
degree[1104] = 864, pos[1104] = 1037
degree[1103] = 863, pos[1103] = 1304
degree[1102] = 861, pos[1102] = 1145
degree[1101] = 861, pos[1101] = 858
degree[1100] = 860, pos[1100] = 224
degree[1099] = 858, pos[1099] = 1452
degree[1098] = 858, pos[1098] = 370
degree[1097] = 857, pos[1097] = 787
degree[1096] = 856, pos[1096] = 485
degree[1095] = 855, pos[1095] = 698
degree[1094] = 854, pos[1094] = 115
degree[1093] = 853, pos[1093] = 1197
degree[1092] = 853, pos[1092] = 541
degree[1091] = 852, pos[1091] = 951
degree[1090] = 850, pos[1090] = 1092
degree[1089] = 849, pos[1089] = 945
degree[1088] = 848, pos[1088] = 476
degree[1087] = 846, pos[1087] = 1138
degree[1086] = 845, pos[1086] = 1337
degree[1085] = 844, pos[1085] = 110
degree[1084] = 844, pos[1084] = 77
degree[1083] = 842, pos[1083] = 9
degree[1082] = 840, pos[1082] = 1359
degree[1081] = 840, pos[1081] = 976
degree[1080] = 838, pos[1080] = 1303
degree[1079] = 838, pos[1079] = 721
degree[1078] = 837, pos[1078] = 225
degree[1077] = 835, pos[1077] = 1466
degree[1076] = 834, pos[1076] = 1289
degree[1075] = 833, pos[1075] = 1169
degree[1074] = 833, pos[1074] = 755
degree[1073] = 831, pos[1073] = 1064
degree[1072] = 831, pos[1072] = 972
degree[1071] = 829, pos[1071] = 1408
degree[1070] = 828, pos[1070] = 1385
degree[1069] = 827, pos[1069] = 326
degree[1068] = 825, pos[1068] = 732
degree[1067] = 825, pos[1067] = 511
degree[1066] = 823, pos[1066] = 1165
degree[1065] = 822, pos[1065] = 1474
degree[1064] = 822, pos[1064] = 949
degree[1063] = 821, pos[1063] = 592
degree[1062] = 820, pos[1062] = 1340
degree[1061] = 820, pos[1061] = 141
degree[1060] = 819, pos[1060] = 341
degree[1059] = 817, pos[1059] = 709
degree[1058] = 816, pos[1058] = 1014
degree[1057] = 815, pos[1057] = 928
degree[1056] = 814, pos[1056] = 597
degree[1055] = 813, pos[1055] = 1007
degree[1054] = 812, pos[1054] = 1000
degree[1053] = 811, pos[1053] = 845
degree[1052] = 810, pos[1052] = 477
degree[1051] = 809, pos[1051] = 104
degree[1050] = 808, pos[1050] = 1335
degree[1049] = 807, pos[1049] = 1
degree[1048] = 806, pos[1048] = 250
degree[1047] = 804, pos[1047] = 1063
degree[1046] = 803, pos[1046] = 770
degree[1045] = 802, pos[1045] = 680
degree[1044] = 801, pos[1044] = 584
degree[1043] = 800, pos[1043] = 222
degree[1042] = 799, pos[1042] = 258
degree[1041] = 797, pos[1041] = 1298
degree[1040] = 796, pos[1040] = 1052
degree[1039] = 796, pos[1039] = 525
degree[1038] = 793, pos[1038] = 1413
degree[1037] = 792, pos[1037] = 1149
degree[1036] = 791, pos[1036] = 1115
degree[1035] = 791, pos[1035] = 850
degree[1034] = 790, pos[1034] = 415
degree[1033] = 789, pos[1033] = 1041
degree[1032] = 788, pos[1032] = 486
degree[1031] = 787, pos[1031] = 705
degree[1030] = 786, pos[1030] = 294
degree[1029] = 785, pos[1029] = 1306
degree[1028] = 784, pos[1028] = 855
degree[1027] = 783, pos[1027] = 574
degree[1026] = 782, pos[1026] = 1106
degree[1025] = 781, pos[1025] = 1013
degree[1024] = 780, pos[1024] = 336
degree[1023] = 779, pos[1023] = 1437
degree[1022] = 778, pos[1022] = 935
degree[1021] = 777, pos[1021] = 1479
degree[1020] = 777, pos[1020] = 961
degree[1019] = 776, pos[1019] = 747
degree[1018] = 774, pos[1018] = 915
degree[1017] = 773, pos[1017] = 839
degree[1016] = 772, pos[1016] = 741
degree[1015] = 771, pos[1015] = 714
degree[1014] = 770, pos[1014] = 1292
degree[1013] = 769, pos[1013] = 483
degree[1012] = 768, pos[1012] = 1407
degree[1011] = 767, pos[1011] = 500
degree[1010] = 766, pos[1010] = 480
degree[1009] = 766, pos[1009] = 284
degree[1008] = 764, pos[1008] = 1155
degree[1007] = 763, pos[1007] = 692
degree[1006] = 763, pos[1006] = 240
degree[1005] = 761, pos[1005] = 1067
degree[1004] = 761, pos[1004] = 37
degree[1003] = 760, pos[1003] = 144
degree[1002] = 758, pos[1002] = 822
degree[1001] = 758, pos[1001] = 498
degree[1000] = 757, pos[1000] = 121
degree[999] = 756, pos[999] = 583
degree[998] = 754, pos[998] = 411
degree[997] = 754, pos[997] = 382
degree[996] = 752, pos[996] = 288
degree[995] = 751, pos[995] = 85
degree[994] = 750, pos[994] = 1113
degree[993] = 749, pos[993] = 1132
degree[992] = 748, pos[992] = 896
degree[991] = 748, pos[991] = 49
degree[990] = 746, pos[990] = 992
degree[989] = 744, pos[989] = 1123
degree[988] = 743, pos[988] = 1277
degree[987] = 743, pos[987] = 870
degree[986] = 742, pos[986] = 719
degree[985] = 741, pos[985] = 524
degree[984] = 740, pos[984] = 86
degree[983] = 738, pos[983] = 1271
degree[982] = 738, pos[982] = 208
degree[981] = 736, pos[981] = 980
degree[980] = 735, pos[980] = 1143
degree[979] = 735, pos[979] = 41
degree[978] = 733, pos[978] = 938
degree[977] = 733, pos[977] = 903
degree[976] = 732, pos[976] = 720
degree[975] = 731, pos[975] = 1039
degree[974] = 730, pos[974] = 640
degree[973] = 729, pos[973] = 874
degree[972] = 729, pos[972] = 254
degree[971] = 727, pos[971] = 631
degree[970] = 727, pos[970] = 481
degree[969] = 726, pos[969] = 339
degree[968] = 726, pos[968] = 257
degree[967] = 724, pos[967] = 1465
degree[966] = 724, pos[966] = 445
degree[965] = 723, pos[965] = 7
degree[964] = 721, pos[964] = 1390
degree[963] = 720, pos[963] = 1300
degree[962] = 719, pos[962] = 674
degree[961] = 718, pos[961] = 446
degree[960] = 717, pos[960] = 54
degree[959] = 716, pos[959] = 210
degree[958] = 714, pos[958] = 1124
degree[957] = 714, pos[957] = 805
degree[956] = 713, pos[956] = 771
degree[955] = 713, pos[955] = 544
degree[954] = 712, pos[954] = 372
degree[953] = 712, pos[953] = 278
degree[952] = 709, pos[952] = 1346
degree[951] = 708, pos[951] = 442
degree[950] = 707, pos[950] = 108
degree[949] = 705, pos[949] = 1353
degree[948] = 704, pos[948] = 1427
degree[947] = 704, pos[947] = 740
degree[946] = 703, pos[946] = 1183
degree[945] = 702, pos[945] = 626
degree[944] = 701, pos[944] = 494
degree[943] = 699, pos[943] = 963
degree[942] = 698, pos[942] = 848
degree[941] = 698, pos[941] = 756
degree[940] = 697, pos[940] = 407
degree[939] = 696, pos[939] = 1015
degree[938] = 695, pos[938] = 860
degree[937] = 695, pos[937] = 465
degree[936] = 694, pos[936] = 247
degree[935] = 692, pos[935] = 1374
degree[934] = 692, pos[934] = 533
degree[933] = 691, pos[933] = 249
degree[932] = 689, pos[932] = 1421
degree[931] = 688, pos[931] = 1426
degree[930] = 688, pos[930] = 676
degree[929] = 686, pos[929] = 806
degree[928] = 685, pos[928] = 751
degree[927] = 684, pos[927] = 667
degree[926] = 683, pos[926] = 327
degree[925] = 682, pos[925] = 1072
degree[924] = 682, pos[924] = 952
degree[923] = 681, pos[923] = 582
degree[922] = 680, pos[922] = 1184
degree[921] = 679, pos[921] = 466
degree[920] = 677, pos[920] = 1409
degree[919] = 676, pos[919] = 882
degree[918] = 675, pos[918] = 1136
degree[917] = 674, pos[917] = 1241
degree[916] = 673, pos[916] = 1016
degree[915] = 672, pos[915] = 772
degree[914] = 671, pos[914] = 542
degree[913] = 670, pos[913] = 191
degree[912] = 669, pos[912] = 762
degree[911] = 669, pos[911] = 490
degree[910] = 667, pos[910] = 707
degree[909] = 667, pos[909] = 154
degree[908] = 665, pos[908] = 1084
degree[907] = 665, pos[907] = 400
degree[906] = 664, pos[906] = 1021
degree[905] = 663, pos[905] = 392
degree[904] = 662, pos[904] = 564
degree[903] = 661, pos[903] = 687
degree[902] = 660, pos[902] = 68
degree[901] = 659, pos[901] = 1232
degree[900] = 658, pos[900] = 1424
degree[899] = 657, pos[899] = 1167
degree[898] = 657, pos[898] = 641
degree[897] = 655, pos[897] = 201
degree[896] = 654, pos[896] = 1202
degree[895] = 653, pos[895] = 1231
degree[894] = 652, pos[894] = 891
degree[893] = 651, pos[893] = 207
degree[892] = 650, pos[892] = 778
degree[891] = 649, pos[891] = 109
degree[890] = 648, pos[890] = 620
degree[889] = 648, pos[889] = 540
degree[888] = 646, pos[888] = 1263
degree[887] = 645, pos[887] = 1137
degree[886] = 645, pos[886] = 644
degree[885] = 644, pos[885] = 918
degree[884] = 643, pos[884] = 1290
degree[883] = 642, pos[883] = 1383
degree[882] = 641, pos[882] = 1060
degree[881] = 640, pos[881] = 189
degree[880] = 639, pos[880] = 842
degree[879] = 639, pos[879] = 135
degree[878] = 637, pos[878] = 1386
degree[877] = 636, pos[877] = 677
degree[876] = 635, pos[876] = 408
degree[875] = 634, pos[875] = 175
degree[874] = 634, pos[874] = 52
degree[873] = 632, pos[873] = 1313
degree[872] = 631, pos[872] = 482
degree[871] = 630, pos[871] = 1059
degree[870] = 629, pos[870] = 819
degree[869] = 629, pos[869] = 160
degree[868] = 629, pos[868] = 90
degree[867] = 627, pos[867] = 790
degree[866] = 626, pos[866] = 1478
degree[865] = 625, pos[865] = 710
degree[864] = 625, pos[864] = 139
degree[863] = 622, pos[863] = 334
degree[862] = 621, pos[862] = 1284
degree[861] = 620, pos[861] = 1339
degree[860] = 620, pos[860] = 910
degree[859] = 618, pos[859] = 1380
degree[858] = 618, pos[858] = 1218
degree[857] = 617, pos[857] = 706
degree[856] = 617, pos[856] = 628
degree[855] = 616, pos[855] = 537
degree[854] = 614, pos[854] = 1274
degree[853] = 613, pos[853] = 1185
degree[852] = 613, pos[852] = 324
degree[851] = 612, pos[851] = 195
degree[850] = 611, pos[850] = 1364
degree[849] = 611, pos[849] = 650
degree[848] = 610, pos[848] = 779
degree[847] = 609, pos[847] = 319
degree[846] = 608, pos[846] = 79
degree[845] = 607, pos[845] = 117
degree[844] = 605, pos[844] = 1494
degree[843] = 605, pos[843] = 1157
degree[842] = 604, pos[842] = 716
degree[841] = 604, pos[841] = 342
degree[840] = 602, pos[840] = 975
degree[839] = 601, pos[839] = 655
degree[838] = 600, pos[838] = 470
degree[837] = 600, pos[837] = 128
degree[836] = 598, pos[836] = 1173
degree[835] = 598, pos[835] = 200
degree[834] = 597, pos[834] = 88
degree[833] = 596, pos[833] = 22
degree[832] = 594, pos[832] = 1495
degree[831] = 594, pos[831] = 1222
degree[830] = 593, pos[830] = 1323
degree[829] = 592, pos[829] = 735
degree[828] = 591, pos[828] = 914
degree[827] = 590, pos[827] = 1490
degree[826] = 589, pos[826] = 585
degree[825] = 589, pos[825] = 180
degree[824] = 587, pos[824] = 1154
degree[823] = 586, pos[823] = 122
degree[822] = 585, pos[822] = 1397
degree[821] = 585, pos[821] = 192
degree[820] = 583, pos[820] = 1481
degree[819] = 582, pos[819] = 789
degree[818] = 581, pos[818] = 869
degree[817] = 581, pos[817] = 62
degree[816] = 579, pos[816] = 1128
degree[815] = 578, pos[815] = 265
degree[814] = 577, pos[814] = 821
degree[813] = 576, pos[813] = 1378
degree[812] = 576, pos[812] = 804
degree[811] = 574, pos[811] = 264
degree[810] = 573, pos[810] = 1023
degree[809] = 571, pos[809] = 1382
degree[808] = 571, pos[808] = 668
degree[807] = 571, pos[807] = 420
degree[806] = 569, pos[806] = 66
degree[805] = 568, pos[805] = 129
degree[804] = 567, pos[804] = 1417
degree[803] = 566, pos[803] = 499
degree[802] = 566, pos[802] = 300
degree[801] = 564, pos[801] = 204
degree[800] = 563, pos[800] = 202
degree[799] = 561, pos[799] = 1491
degree[798] = 561, pos[798] = 776
degree[797] = 560, pos[797] = 1464
degree[796] = 560, pos[796] = 366
degree[795] = 558, pos[795] = 1031
degree[794] = 558, pos[794] = 143
degree[793] = 557, pos[793] = 664
degree[792] = 556, pos[792] = 100
degree[791] = 554, pos[791] = 1488
degree[790] = 553, pos[790] = 1142
degree[789] = 553, pos[789] = 922
degree[788] = 553, pos[788] = 562
degree[787] = 551, pos[787] = 1447
degree[786] = 551, pos[786] = 531
degree[785] = 550, pos[785] = 567
degree[784] = 549, pos[784] = 701
degree[783] = 548, pos[783] = 627
degree[782] = 547, pos[782] = 1211
degree[781] = 546, pos[781] = 1434
degree[780] = 546, pos[780] = 8
degree[779] = 545, pos[779] = 412
degree[778] = 544, pos[778] = 315
degree[777] = 543, pos[777] = 467
degree[776] = 542, pos[776] = 1195
degree[775] = 542, pos[775] = 1044
degree[774] = 540, pos[774] = 203
degree[773] = 539, pos[773] = 205
degree[772] = 538, pos[772] = 1370
degree[771] = 537, pos[771] = 1180
degree[770] = 537, pos[770] = 932
degree[769] = 535, pos[769] = 1348
degree[768] = 535, pos[768] = 1295
degree[767] = 535, pos[767] = 106
degree[766] = 534, pos[766] = 123
degree[765] = 533, pos[765] = 1140
degree[764] = 532, pos[764] = 34
degree[763] = 531, pos[763] = 19
degree[762] = 530, pos[762] = 348
degree[761] = 529, pos[761] = 1259
degree[760] = 527, pos[760] = 1429
degree[759] = 526, pos[759] = 1245
degree[758] = 526, pos[758] = 1242
degree[757] = 523, pos[757] = 1498
degree[756] = 523, pos[756] = 317
degree[755] = 522, pos[755] = 1416
degree[754] = 522, pos[754] = 767
degree[753] = 520, pos[753] = 1344
degree[752] = 519, pos[752] = 1249
degree[751] = 519, pos[751] = 1105
degree[750] = 518, pos[750] = 456
degree[749] = 517, pos[749] = 1457
degree[748] = 516, pos[748] = 1196
degree[747] = 516, pos[747] = 1125
degree[746] = 515, pos[746] = 479
degree[745] = 514, pos[745] = 163
degree[744] = 513, pos[744] = 879
degree[743] = 513, pos[743] = 46
degree[742] = 511, pos[742] = 871
degree[741] = 510, pos[741] = 546
degree[740] = 508, pos[740] = 588
degree[739] = 508, pos[739] = 183
degree[738] = 507, pos[738] = 1240
degree[737] = 505, pos[737] = 1285
degree[736] = 505, pos[736] = 941
degree[735] = 504, pos[735] = 1212
degree[734] = 504, pos[734] = 512
degree[733] = 503, pos[733] = 320
degree[732] = 503, pos[732] = 186
degree[731] = 501, pos[731] = 1230
degree[730] = 500, pos[730] = 1229
degree[729] = 500, pos[729] = 1085
degree[728] = 498, pos[728] = 1087
degree[727] = 497, pos[727] = 374
degree[726] = 496, pos[726] = 305
degree[725] = 495, pos[725] = 1153
degree[724] = 494, pos[724] = 917
degree[723] = 493, pos[723] = 103
degree[722] = 492, pos[722] = 1096
degree[721] = 491, pos[721] = 593
degree[720] = 490, pos[720] = 884
degree[719] = 490, pos[719] = 76
degree[718] = 489, pos[718] = 1103
degree[717] = 487, pos[717] = 1282
degree[716] = 487, pos[716] = 570
degree[715] = 486, pos[715] = 405
degree[714] = 484, pos[714] = 1102
degree[713] = 484, pos[713] = 1073
degree[712] = 484, pos[712] = 694
degree[711] = 482, pos[711] = 468
degree[710] = 482, pos[710] = 309
degree[709] = 481, pos[709] = 221
degree[708] = 479, pos[708] = 1101
degree[707] = 478, pos[707] = 820
degree[706] = 478, pos[706] = 11
degree[705] = 477, pos[705] = 1025
degree[704] = 477, pos[704] = 295
degree[703] = 475, pos[703] = 1256
degree[702] = 475, pos[702] = 792
degree[701] = 475, pos[701] = 643
degree[700] = 473, pos[700] = 624
degree[699] = 472, pos[699] = 594
degree[698] = 472, pos[698] = 142
degree[697] = 471, pos[697] = 269
degree[696] = 470, pos[696] = 547
degree[695] = 469, pos[695] = 1471
degree[694] = 469, pos[694] = 51
degree[693] = 467, pos[693] = 1135
degree[692] = 467, pos[692] = 431
degree[691] = 466, pos[691] = 503
degree[690] = 464, pos[690] = 1438
degree[689] = 464, pos[689] = 866
degree[688] = 463, pos[688] = 1425
degree[687] = 462, pos[687] = 126
degree[686] = 460, pos[686] = 1221
degree[685] = 460, pos[685] = 1130
degree[684] = 460, pos[684] = 638
degree[683] = 459, pos[683] = 591
degree[682] = 457, pos[682] = 1099
degree[681] = 457, pos[681] = 987
degree[680] = 456, pos[680] = 689
degree[679] = 455, pos[679] = 629
degree[678] = 454, pos[678] = 409
degree[677] = 454, pos[677] = 120
degree[676] = 453, pos[676] = 1091
degree[675] = 452, pos[675] = 223
degree[674] = 450, pos[674] = 1305
degree[673] = 450, pos[673] = 1225
degree[672] = 450, pos[672] = 615
degree[671] = 448, pos[671] = 1095
degree[670] = 447, pos[670] = 1235
degree[669] = 447, pos[669] = 515
degree[668] = 446, pos[668] = 1131
degree[667] = 445, pos[667] = 859
degree[666] = 444, pos[666] = 599
degree[665] = 443, pos[665] = 568
degree[664] = 443, pos[664] = 364
degree[663] = 442, pos[663] = 199
degree[662] = 441, pos[662] = 493
degree[661] = 439, pos[661] = 1366
degree[660] = 439, pos[660] = 1314
degree[659] = 438, pos[659] = 926
degree[658] = 438, pos[658] = 70
degree[657] = 437, pos[657] = 581
degree[656] = 436, pos[656] = 957
degree[655] = 435, pos[655] = 712
degree[654] = 434, pos[654] = 293
degree[653] = 433, pos[653] = 1453
degree[652] = 431, pos[652] = 1331
degree[651] = 431, pos[651] = 1121
degree[650] = 430, pos[650] = 1163
degree[649] = 429, pos[649] = 1186
degree[648] = 429, pos[648] = 506
degree[647] = 428, pos[647] = 642
degree[646] = 427, pos[646] = 125
degree[645] = 426, pos[645] = 1187
degree[644] = 426, pos[644] = 1076
degree[643] = 424, pos[643] = 1497
degree[642] = 424, pos[642] = 569
degree[641] = 423, pos[641] = 1351
degree[640] = 423, pos[640] = 469
degree[639] = 422, pos[639] = 145
degree[638] = 421, pos[638] = 1361
degree[637] = 421, pos[637] = 112
degree[636] = 420, pos[636] = 1217
degree[635] = 419, pos[635] = 1297
degree[634] = 418, pos[634] = 1496
degree[633] = 418, pos[633] = 1110
degree[632] = 417, pos[632] = 826
degree[631] = 416, pos[631] = 344
degree[630] = 415, pos[630] = 553
degree[629] = 414, pos[629] = 1159
degree[628] = 414, pos[628] = 32
degree[627] = 412, pos[627] = 1168
degree[626] = 411, pos[626] = 788
degree[625] = 411, pos[625] = 343
degree[624] = 410, pos[624] = 234
degree[623] = 410, pos[623] = 101
degree[622] = 409, pos[622] = 1373
degree[621] = 408, pos[621] = 3
degree[620] = 407, pos[620] = 795
degree[619] = 406, pos[619] = 760
degree[618] = 405, pos[618] = 686
degree[617] = 405, pos[617] = 478
degree[616] = 403, pos[616] = 1469
degree[615] = 403, pos[615] = 1139
degree[614] = 402, pos[614] = 552
degree[613] = 402, pos[613] = 453
degree[612] = 400, pos[612] = 39
degree[611] = 399, pos[611] = 384
degree[610] = 398, pos[610] = 1349
degree[609] = 397, pos[609] = 1107
degree[608] = 397, pos[608] = 794
degree[607] = 395, pos[607] = 1441
degree[606] = 395, pos[606] = 91
degree[605] = 394, pos[605] = 1074
degree[604] = 393, pos[604] = 1080
degree[603] = 392, pos[603] = 1188
degree[602] = 392, pos[602] = 259
degree[601] = 391, pos[601] = 1403
degree[600] = 390, pos[600] = 894
degree[599] = 390, pos[599] = 633
degree[598] = 389, pos[598] = 1473
degree[597] = 388, pos[597] = 177
degree[596] = 387, pos[596] = 713
degree[595] = 387, pos[595] = 131
degree[594] = 385, pos[594] = 834
degree[593] = 384, pos[593] = 1283
degree[592] = 383, pos[592] = 1255
degree[591] = 383, pos[591] = 376
degree[590] = 382, pos[590] = 920
degree[589] = 381, pos[589] = 73
degree[588] = 380, pos[588] = 984
degree[587] = 380, pos[587] = 703
degree[586] = 379, pos[586] = 1257
degree[585] = 378, pos[585] = 302
degree[584] = 378, pos[584] = 218
degree[583] = 377, pos[583] = 63
degree[582] = 376, pos[582] = 1011
degree[581] = 375, pos[581] = 893
degree[580] = 374, pos[580] = 1174
degree[579] = 373, pos[579] = 853
degree[578] = 373, pos[578] = 659
degree[577] = 373, pos[577] = 333
degree[576] = 372, pos[576] = 440
degree[575] = 370, pos[575] = 890
degree[574] = 369, pos[574] = 1419
degree[573] = 369, pos[573] = 1203
degree[572] = 369, pos[572] = 373
degree[571] = 368, pos[571] = 623
degree[570] = 367, pos[570] = 750
degree[569] = 366, pos[569] = 1269
degree[568] = 365, pos[568] = 1206
degree[567] = 365, pos[567] = 197
degree[566] = 364, pos[566] = 1336
degree[565] = 364, pos[565] = 459
degree[564] = 362, pos[564] = 997
degree[563] = 362, pos[563] = 246
degree[562] = 360, pos[562] = 1057
degree[561] = 360, pos[561] = 971
degree[560] = 360, pos[560] = 595
degree[559] = 359, pos[559] = 1054
degree[558] = 359, pos[558] = 266
degree[557] = 357, pos[557] = 322
degree[556] = 356, pos[556] = 277
degree[555] = 355, pos[555] = 1405
degree[554] = 355, pos[554] = 991
degree[553] = 355, pos[553] = 723
degree[552] = 353, pos[552] = 447
degree[551] = 351, pos[551] = 1442
degree[550] = 350, pos[550] = 1440
degree[549] = 350, pos[549] = 726
degree[548] = 349, pos[548] = 900
degree[547] = 348, pos[547] = 566
degree[546] = 348, pos[546] = 282
degree[545] = 347, pos[545] = 800
degree[544] = 347, pos[544] = 335
degree[543] = 345, pos[543] = 1294
degree[542] = 345, pos[542] = 995
degree[541] = 345, pos[541] = 286
degree[540] = 343, pos[540] = 757
degree[539] = 342, pos[539] = 1431
degree[538] = 342, pos[538] = 387
degree[537] = 341, pos[537] = 338
degree[536] = 341, pos[536] = 151
degree[535] = 340, pos[535] = 1200
degree[534] = 339, pos[534] = 150
degree[533] = 338, pos[533] = 878
degree[532] = 338, pos[532] = 502
degree[531] = 336, pos[531] = 1220
degree[530] = 336, pos[530] = 691
degree[529] = 334, pos[529] = 1420
degree[528] = 334, pos[528] = 1250
degree[527] = 332, pos[527] = 1455
degree[526] = 332, pos[526] = 872
degree[525] = 331, pos[525] = 1372
degree[524] = 331, pos[524] = 1022
degree[523] = 330, pos[523] = 734
degree[522] = 328, pos[522] = 1114
degree[521] = 327, pos[521] = 849
degree[520] = 327, pos[520] = 660
degree[519] = 326, pos[519] = 1192
degree[518] = 326, pos[518] = 314
degree[517] = 325, pos[517] = 607
degree[516] = 324, pos[516] = 253
degree[515] = 324, pos[515] = 16
degree[514] = 322, pos[514] = 1093
degree[513] = 321, pos[513] = 753
degree[512] = 321, pos[512] = 604
degree[511] = 320, pos[511] = 675
degree[510] = 319, pos[510] = 1422
degree[509] = 319, pos[509] = 799
degree[508] = 319, pos[508] = 268
degree[507] = 318, pos[507] = 20
degree[506] = 317, pos[506] = 196
degree[505] = 316, pos[505] = 1201
degree[504] = 316, pos[504] = 1070
degree[503] = 314, pos[503] = 846
degree[502] = 313, pos[502] = 990
degree[501] = 312, pos[501] = 1081
degree[500] = 312, pos[500] = 514
degree[499] = 311, pos[499] = 948
degree[498] = 311, pos[498] = 912
degree[497] = 310, pos[497] = 1018
degree[496] = 310, pos[496] = 26
degree[495] = 308, pos[495] = 1027
degree[494] = 307, pos[494] = 1326
degree[493] = 307, pos[493] = 622
degree[492] = 305, pos[492] = 1411
degree[491] = 305, pos[491] = 968
degree[490] = 305, pos[490] = 450
degree[489] = 305, pos[489] = 59
degree[488] = 303, pos[488] = 1078
degree[487] = 303, pos[487] = 601
degree[486] = 303, pos[486] = 337
degree[485] = 301, pos[485] = 1321
degree[484] = 301, pos[484] = 596
degree[483] = 301, pos[483] = 198
degree[482] = 299, pos[482] = 636
degree[481] = 299, pos[481] = 378
degree[480] = 298, pos[480] = 35
degree[479] = 297, pos[479] = 217
degree[478] = 295, pos[478] = 1369
degree[477] = 295, pos[477] = 1311
degree[476] = 295, pos[476] = 923
degree[475] = 294, pos[475] = 635
degree[474] = 292, pos[474] = 1009
degree[473] = 292, pos[473] = 538
degree[472] = 291, pos[472] = 953
degree[471] = 291, pos[471] = 187
degree[470] = 290, pos[470] = 909
degree[469] = 290, pos[469] = 298
degree[468] = 289, pos[468] = 793
degree[467] = 289, pos[467] = 611
degree[466] = 287, pos[466] = 725
degree[465] = 286, pos[465] = 359
degree[464] = 286, pos[464] = 283
degree[463] = 284, pos[463] = 1401
degree[462] = 284, pos[462] = 1392
degree[461] = 283, pos[461] = 229
degree[460] = 282, pos[460] = 1053
degree[459] = 281, pos[459] = 1281
degree[458] = 281, pos[458] = 637
degree[457] = 281, pos[457] = 555
degree[456] = 280, pos[456] = 146
degree[455] = 279, pos[455] = 27
degree[454] = 278, pos[454] = 609
degree[453] = 277, pos[453] = 883
degree[452] = 277, pos[452] = 535
degree[451] = 275, pos[451] = 1445
degree[450] = 275, pos[450] = 211
degree[449] = 274, pos[449] = 236
degree[448] = 274, pos[448] = 166
degree[447] = 273, pos[447] = 763
degree[446] = 272, pos[446] = 1268
degree[445] = 272, pos[445] = 137
degree[444] = 271, pos[444] = 996
degree[443] = 271, pos[443] = 864
degree[442] = 269, pos[442] = 1330
degree[441] = 269, pos[441] = 1209
degree[440] = 268, pos[440] = 1316
degree[439] = 268, pos[439] = 857
degree[438] = 267, pos[438] = 1381
degree[437] = 266, pos[437] = 279
degree[436] = 266, pos[436] = 235
degree[435] = 265, pos[435] = 1443
degree[434] = 264, pos[434] = 1047
degree[433] = 264, pos[433] = 600
degree[432] = 263, pos[432] = 463
degree[431] = 262, pos[431] = 403
degree[430] = 261, pos[430] = 1146
degree[429] = 260, pos[429] = 1012
degree[428] = 260, pos[428] = 299
degree[427] = 259, pos[427] = 666
degree[426] = 258, pos[426] = 1299
degree[425] = 258, pos[425] = 171
degree[424] = 257, pos[424] = 983
degree[423] = 257, pos[423] = 40
degree[422] = 256, pos[422] = 913
degree[421] = 255, pos[421] = 943
degree[420] = 254, pos[420] = 661
degree[419] = 254, pos[419] = 182
degree[418] = 253, pos[418] = 307
degree[417] = 251, pos[417] = 1116
degree[416] = 251, pos[416] = 988
degree[415] = 250, pos[415] = 902
degree[414] = 249, pos[414] = 1213
degree[413] = 248, pos[413] = 1280
degree[412] = 248, pos[412] = 881
degree[411] = 247, pos[411] = 603
degree[410] = 247, pos[410] = 272
degree[409] = 246, pos[409] = 281
degree[408] = 246, pos[408] = 119
degree[407] = 245, pos[407] = 505
degree[406] = 244, pos[406] = 1436
degree[405] = 244, pos[405] = 746
degree[404] = 242, pos[404] = 444
degree[403] = 241, pos[403] = 1345
degree[402] = 241, pos[402] = 435
degree[401] = 240, pos[401] = 31
degree[400] = 239, pos[400] = 1191
degree[399] = 239, pos[399] = 696
degree[398] = 238, pos[398] = 454
degree[397] = 237, pos[397] = 873
degree[396] = 236, pos[396] = 1176
degree[395] = 236, pos[395] = 843
degree[394] = 236, pos[394] = 458
degree[393] = 235, pos[393] = 969
degree[392] = 234, pos[392] = 634
degree[391] = 234, pos[391] = 170
degree[390] = 233, pos[390] = 354
degree[389] = 232, pos[389] = 809
degree[388] = 231, pos[388] = 715
degree[387] = 231, pos[387] = 149
degree[386] = 230, pos[386] = 1226
degree[385] = 229, pos[385] = 1379
degree[384] = 229, pos[384] = 865
degree[383] = 229, pos[383] = 797
degree[382] = 228, pos[382] = 116
degree[381] = 226, pos[381] = 1276
degree[380] = 226, pos[380] = 510
degree[379] = 225, pos[379] = 856
degree[378] = 224, pos[378] = 578
degree[377] = 223, pos[377] = 1396
degree[376] = 223, pos[376] = 744
degree[375] = 222, pos[375] = 729
degree[374] = 221, pos[374] = 673
degree[373] = 221, pos[373] = 297
degree[372] = 220, pos[372] = 648
degree[371] = 219, pos[371] = 194
degree[370] = 218, pos[370] = 907
degree[369] = 218, pos[369] = 663
degree[368] = 218, pos[368] = 358
degree[367] = 217, pos[367] = 451
degree[366] = 217, pos[366] = 347
degree[365] = 216, pos[365] = 530
degree[364] = 216, pos[364] = 156
degree[363] = 214, pos[363] = 1062
degree[362] = 214, pos[362] = 461
degree[361] = 213, pos[361] = 310
degree[360] = 212, pos[360] = 367
degree[359] = 212, pos[359] = 14
degree[358] = 210, pos[358] = 966
degree[357] = 210, pos[357] = 831
degree[356] = 209, pos[356] = 410
degree[355] = 208, pos[355] = 812
degree[354] = 208, pos[354] = 248
degree[353] = 207, pos[353] = 924
degree[352] = 207, pos[352] = 152
degree[351] = 206, pos[351] = 193
degree[350] = 205, pos[350] = 1050
degree[349] = 205, pos[349] = 157
degree[348] = 204, pos[348] = 488
degree[347] = 203, pos[347] = 898
degree[346] = 203, pos[346] = 375
degree[345] = 202, pos[345] = 645
degree[344] = 201, pos[344] = 238
degree[343] = 201, pos[343] = 212
degree[342] = 200, pos[342] = 1122
degree[341] = 199, pos[341] = 796
degree[340] = 198, pos[340] = 904
degree[339] = 198, pos[339] = 323
degree[338] = 198, pos[338] = 162
degree[337] = 196, pos[337] = 1362
degree[336] = 196, pos[336] = 1150
degree[335] = 196, pos[335] = 404
degree[334] = 195, pos[334] = 1112
degree[333] = 195, pos[333] = 328
degree[332] = 194, pos[332] = 228
degree[331] = 193, pos[331] = 181
degree[330] = 192, pos[330] = 389
degree[329] = 191, pos[329] = 1449
degree[328] = 191, pos[328] = 1147
degree[327] = 190, pos[327] = 1267
degree[326] = 189, pos[326] = 1244
degree[325] = 189, pos[325] = 830
degree[324] = 188, pos[324] = 658
degree[323] = 187, pos[323] = 738
degree[322] = 187, pos[322] = 517
degree[321] = 186, pos[321] = 526
degree[320] = 185, pos[320] = 1228
degree[319] = 185, pos[319] = 452
degree[318] = 184, pos[318] = 828
degree[317] = 183, pos[317] = 549
degree[316] = 182, pos[316] = 1444
degree[315] = 182, pos[315] = 1182
degree[314] = 181, pos[314] = 356
degree[313] = 181, pos[313] = 69
degree[312] = 180, pos[312] = 176
degree[311] = 180, pos[311] = 53
degree[310] = 179, pos[310] = 332
degree[309] = 178, pos[309] = 82
degree[308] = 177, pos[308] = 1334
degree[307] = 177, pos[307] = 475
degree[306] = 176, pos[306] = 639
degree[305] = 176, pos[305] = 15
degree[304] = 175, pos[304] = 1377
degree[303] = 175, pos[303] = 730
degree[302] = 175, pos[302] = 87
degree[301] = 173, pos[301] = 1141
degree[300] = 173, pos[300] = 1043
degree[299] = 172, pos[299] = 1310
degree[298] = 171, pos[298] = 785
degree[297] = 170, pos[297] = 1251
degree[296] = 170, pos[296] = 780
degree[295] = 170, pos[295] = 161
degree[294] = 169, pos[294] = 436
degree[293] = 169, pos[293] = 6
degree[292] = 168, pos[292] = 64
degree[291] = 167, pos[291] = 209
degree[290] = 166, pos[290] = 1083
degree[289] = 166, pos[289] = 880
degree[288] = 165, pos[288] = 491
degree[287] = 164, pos[287] = 1358
degree[286] = 163, pos[286] = 1216
degree[285] = 163, pos[285] = 1075
degree[284] = 162, pos[284] = 886
degree[283] = 162, pos[283] = 649
degree[282] = 160, pos[282] = 1098
degree[281] = 160, pos[281] = 242
degree[280] = 159, pos[280] = 931
degree[279] = 159, pos[279] = 417
degree[278] = 158, pos[278] = 942
degree[277] = 157, pos[277] = 1468
degree[276] = 157, pos[276] = 782
degree[275] = 156, pos[275] = 1032
degree[274] = 156, pos[274] = 425
degree[273] = 155, pos[273] = 816
degree[272] = 155, pos[272] = 457
degree[271] = 154, pos[271] = 362
degree[270] = 154, pos[270] = 61
degree[269] = 152, pos[269] = 1363
degree[268] = 152, pos[268] = 394
degree[267] = 152, pos[267] = 206
degree[266] = 151, pos[266] = 168
degree[265] = 150, pos[265] = 1307
degree[264] = 150, pos[264] = 749
degree[263] = 149, pos[263] = 602
degree[262] = 148, pos[262] = 381
degree[261] = 147, pos[261] = 1024
degree[260] = 147, pos[260] = 430
degree[259] = 146, pos[259] = 960
degree[258] = 145, pos[258] = 251
degree[257] = 144, pos[257] = 118
degree[256] = 143, pos[256] = 1152
degree[255] = 143, pos[255] = 708
degree[254] = 142, pos[254] = 1239
degree[253] = 142, pos[253] = 550
degree[252] = 141, pos[252] = 1399
degree[251] = 141, pos[251] = 487
degree[250] = 140, pos[250] = 867
degree[249] = 140, pos[249] = 13
degree[248] = 139, pos[248] = 978
degree[247] = 139, pos[247] = 243
degree[246] = 138, pos[246] = 739
degree[245] = 138, pos[245] = 606
degree[244] = 137, pos[244] = 665
degree[243] = 137, pos[243] = 127
degree[242] = 135, pos[242] = 1126
degree[241] = 135, pos[241] = 47
degree[240] = 135, pos[240] = 33
degree[239] = 134, pos[239] = 940
degree[238] = 132, pos[238] = 1365
degree[237] = 132, pos[237] = 1090
degree[236] = 131, pos[236] = 1161
degree[235] = 131, pos[235] = 252
degree[234] = 130, pos[234] = 1127
degree[233] = 129, pos[233] = 1237
degree[232] = 129, pos[232] = 868
degree[231] = 129, pos[231] = 662
degree[230] = 128, pos[230] = 743
degree[229] = 128, pos[229] = 107
degree[228] = 126, pos[228] = 769
degree[227] = 126, pos[227] = 728
degree[226] = 125, pos[226] = 895
degree[225] = 125, pos[225] = 679
degree[224] = 124, pos[224] = 521
degree[223] = 123, pos[223] = 1319
degree[222] = 123, pos[222] = 678
degree[221] = 123, pos[221] = 56
degree[220] = 122, pos[220] = 1181
degree[219] = 121, pos[219] = 832
degree[218] = 121, pos[218] = 271
degree[217] = 120, pos[217] = 1094
degree[216] = 119, pos[216] = 993
degree[215] = 118, pos[215] = 1270
degree[214] = 118, pos[214] = 1117
degree[213] = 117, pos[213] = 946
degree[212] = 117, pos[212] = 58
degree[211] = 117, pos[211] = 24
degree[210] = 115, pos[210] = 1317
degree[209] = 114, pos[209] = 1247
degree[208] = 114, pos[208] = 97
degree[207] = 113, pos[207] = 1454
degree[206] = 113, pos[206] = 1178
degree[205] = 112, pos[205] = 1357
degree[204] = 111, pos[204] = 1355
degree[203] = 111, pos[203] = 827
degree[202] = 110, pos[202] = 854
degree[201] = 109, pos[201] = 1254
degree[200] = 109, pos[200] = 783
degree[199] = 109, pos[199] = 274
degree[198] = 108, pos[198] = 1253
degree[197] = 107, pos[197] = 1462
degree[196] = 107, pos[196] = 851
degree[195] = 106, pos[195] = 1252
degree[194] = 106, pos[194] = 352
degree[193] = 105, pos[193] = 1333
degree[192] = 104, pos[192] = 1265
degree[191] = 103, pos[191] = 1446
degree[190] = 103, pos[190] = 671
degree[189] = 102, pos[189] = 727
degree[188] = 101, pos[188] = 1391
degree[187] = 101, pos[187] = 1189
degree[186] = 101, pos[186] = 43
degree[185] = 100, pos[185] = 1077
degree[184] = 99, pos[184] = 1406
degree[183] = 99, pos[183] = 464
degree[182] = 98, pos[182] = 911
degree[181] = 98, pos[181] = 429
degree[180] = 97, pos[180] = 363
degree[179] = 96, pos[179] = 695
degree[178] = 96, pos[178] = 654
degree[177] = 96, pos[177] = 495
degree[176] = 95, pos[176] = 84
degree[175] = 94, pos[175] = 1451
degree[174] = 93, pos[174] = 325
degree[173] = 92, pos[173] = 1400
degree[172] = 92, pos[172] = 1356
degree[171] = 91, pos[171] = 1324
degree[170] = 90, pos[170] = 1354
degree[169] = 90, pos[169] = 1003
degree[168] = 89, pos[168] = 1258
degree[167] = 89, pos[167] = 158
degree[166] = 88, pos[166] = 1428
degree[165] = 88, pos[165] = 413
degree[164] = 87, pos[164] = 572
degree[163] = 87, pos[163] = 226
degree[162] = 86, pos[162] = 179
degree[161] = 85, pos[161] = 1394
degree[160] = 85, pos[160] = 45
degree[159] = 84, pos[159] = 501
degree[158] = 84, pos[158] = 318
degree[157] = 83, pos[157] = 1224
degree[156] = 83, pos[156] = 994
degree[155] = 82, pos[155] = 1029
degree[154] = 82, pos[154] = 998
degree[153] = 80, pos[153] = 1238
degree[152] = 80, pos[152] = 1210
degree[151] = 79, pos[151] = 1236
degree[150] = 79, pos[150] = 1198
degree[149] = 79, pos[149] = 954
degree[148] = 79, pos[148] = 321
degree[147] = 77, pos[147] = 979
degree[146] = 77, pos[146] = 380
degree[145] = 76, pos[145] = 1097
degree[144] = 76, pos[144] = 875
degree[143] = 76, pos[143] = 798
degree[142] = 76, pos[142] = 508
degree[141] = 75, pos[141] = 784
degree[140] = 74, pos[140] = 80
degree[139] = 73, pos[139] = 93
degree[138] = 72, pos[138] = 1489
degree[137] = 72, pos[137] = 1002
degree[136] = 71, pos[136] = 504
degree[135] = 70, pos[135] = 1233
degree[134] = 70, pos[134] = 986
degree[133] = 70, pos[133] = 532
degree[132] = 69, pos[132] = 523
degree[131] = 68, pos[131] = 840
degree[130] = 67, pos[130] = 742
degree[129] = 67, pos[129] = 285
degree[128] = 66, pos[128] = 1486
degree[127] = 66, pos[127] = 1308
degree[126] = 65, pos[126] = 1205
degree[125] = 65, pos[125] = 610
degree[124] = 64, pos[124] = 1460
degree[123] = 63, pos[123] = 811
degree[122] = 63, pos[122] = 353
degree[121] = 62, pos[121] = 18
degree[120] = 61, pos[120] = 1214
degree[119] = 61, pos[119] = 534
degree[118] = 61, pos[118] = 23
degree[117] = 60, pos[117] = 813
degree[116] = 59, pos[116] = 301
degree[115] = 59, pos[115] = 65
degree[114] = 58, pos[114] = 1049
degree[113] = 57, pos[113] = 1279
degree[112] = 57, pos[112] = 78
degree[111] = 56, pos[111] = 1164
degree[110] = 55, pos[110] = 815
degree[109] = 54, pos[109] = 1079
degree[108] = 54, pos[108] = 21
degree[107] = 53, pos[107] = 618
degree[106] = 53, pos[106] = 557
degree[105] = 53, pos[105] = 290
degree[104] = 52, pos[104] = 838
degree[103] = 51, pos[103] = 1111
degree[102] = 51, pos[102] = 936
degree[101] = 51, pos[101] = 105
degree[100] = 49, pos[100] = 1118
degree[99] = 49, pos[99] = 933
degree[98] = 48, pos[98] = 616
degree[97] = 48, pos[97] = 416
degree[96] = 48, pos[96] = 215
degree[95] = 47, pos[95] = 777
degree[94] = 46, pos[94] = 95
degree[93] = 45, pos[93] = 1485
degree[92] = 45, pos[92] = 829
degree[91] = 45, pos[91] = 580
degree[90] = 44, pos[90] = 424
degree[89] = 44, pos[89] = 393
degree[88] = 43, pos[88] = 1082
degree[87] = 43, pos[87] = 807
degree[86] = 42, pos[86] = 184
degree[85] = 42, pos[85] = 48
degree[84] = 41, pos[84] = 280
degree[83] = 40, pos[83] = 1312
degree[82] = 40, pos[82] = 652
degree[81] = 38, pos[81] = 1215
degree[80] = 38, pos[80] = 2
degree[79] = 37, pos[79] = 1367
degree[78] = 37, pos[78] = 1287
degree[77] = 36, pos[77] = 685
degree[76] = 36, pos[76] = 441
degree[75] = 36, pos[75] = 418
degree[74] = 35, pos[74] = 814
degree[73] = 35, pos[73] = 653
degree[72] = 35, pos[72] = 147
degree[71] = 33, pos[71] = 1368
degree[70] = 33, pos[70] = 702
degree[69] = 32, pos[69] = 1042
degree[68] = 32, pos[68] = 96
degree[67] = 31, pos[67] = 423
degree[66] = 30, pos[66] = 861
degree[65] = 30, pos[65] = 497
degree[64] = 29, pos[64] = 556
degree[63] = 29, pos[63] = 455
degree[62] = 29, pos[62] = 399
degree[61] = 28, pos[61] = 386
degree[60] = 27, pos[60] = 1450
degree[59] = 27, pos[59] = 1275
degree[58] = 25, pos[58] = 981
degree[57] = 25, pos[57] = 847
degree[56] = 25, pos[56] = 421
degree[55] = 24, pos[55] = 1439
degree[54] = 24, pos[54] = 1129
degree[53] = 24, pos[53] = 190
degree[52] = 23, pos[52] = 57
degree[51] = 22, pos[51] = 577
degree[50] = 22, pos[50] = 426
degree[49] = 22, pos[49] = 169
degree[48] = 20, pos[48] = 1480
degree[47] = 20, pos[47] = 956
degree[46] = 19, pos[46] = 1058
degree[45] = 19, pos[45] = 492
degree[44] = 19, pos[44] = 398
degree[43] = 19, pos[43] = 140
degree[42] = 17, pos[42] = 1219
degree[41] = 17, pos[41] = 368
degree[40] = 17, pos[40] = 304
degree[39] = 16, pos[39] = 361
degree[38] = 16, pos[38] = 262
degree[37] = 15, pos[37] = 1325
degree[36] = 15, pos[36] = 733
degree[35] = 14, pos[35] = 717
degree[34] = 14, pos[34] = 219
degree[33] = 13, pos[33] = 1360
degree[32] = 12, pos[32] = 377
degree[31] = 11, pos[31] = 765
degree[30] = 11, pos[30] = 360
degree[29] = 10, pos[29] = 1040
degree[28] = 10, pos[28] = 460
degree[27] = 9, pos[27] = 1327
degree[26] = 8, pos[26] = 1387
degree[25] = 8, pos[25] = 1301
degree[24] = 8, pos[24] = 1179
degree[23] = 7, pos[23] = 693
degree[22] = 7, pos[22] = 74
degree[21] = 6, pos[21] = 1262
degree[20] = 6, pos[20] = 791
degree[19] = 6, pos[19] = 630
degree[18] = 6, pos[18] = 573
degree[17] = 5, pos[17] = 833
degree[16] = 4, pos[16] = 559
degree[15] = 4, pos[15] = 256
degree[14] = 4, pos[14] = 230
degree[13] = 3, pos[13] = 1278
degree[12] = 3, pos[12] = 406
degree[11] = 2, pos[11] = 1065
degree[10] = 2, pos[10] = 17
degree[9] = 1, pos[9] = 473
degree[8] = 1, pos[8] = 188
degree[7] = 0, pos[7] = 1207
degree[6] = 0, pos[6] = 1035
degree[5] = 0, pos[5] = 608
degree[4] = 0, pos[4] = 522
degree[3] = 0, pos[3] = 383
degree[2] = 0, pos[2] = 329
degree[1] = 0, pos[1] = 98
degree[0] = 0, pos[0] = 28
Pos[0] = 28
Pos[1] = 98
Pos[2] = 329
Pos[3] = 383
Pos[4] = 522
Pos[5] = 608
Pos[6] = 1035
Pos[7] = 1207
Pos[8] = 188
Pos[9] = 473
Pos[10] = 17
Pos[11] = 1065
Pos[12] = 406
Pos[13] = 1278
Pos[14] = 230
Pos[15] = 256
Pos[16] = 559
Pos[17] = 833
Pos[18] = 573
Pos[19] = 630
Pos[20] = 791
Pos[21] = 1262
Pos[22] = 74
Pos[23] = 693
Pos[24] = 1179
Pos[25] = 1301
Pos[26] = 1387
Pos[27] = 1327
Pos[28] = 460
Pos[29] = 1040
Pos[30] = 360
Pos[31] = 765
Pos[32] = 377
Pos[33] = 1360
Pos[34] = 219
Pos[35] = 717
Pos[36] = 733
Pos[37] = 1325
Pos[38] = 262
Pos[39] = 361
Pos[40] = 304
Pos[41] = 368
Pos[42] = 1219
Pos[43] = 140
Pos[44] = 398
Pos[45] = 492
Pos[46] = 1058
Pos[47] = 956
Pos[48] = 1480
Pos[49] = 169
Pos[50] = 426
Pos[51] = 577
Pos[52] = 57
Pos[53] = 190
Pos[54] = 1129
Pos[55] = 1439
Pos[56] = 421
Pos[57] = 847
Pos[58] = 981
Pos[59] = 1275
Pos[60] = 1450
Pos[61] = 386
Pos[62] = 399
Pos[63] = 455
Pos[64] = 556
Pos[65] = 497
Pos[66] = 861
Pos[67] = 423
Pos[68] = 96
Pos[69] = 1042
Pos[70] = 702
Pos[71] = 1368
Pos[72] = 147
Pos[73] = 653
Pos[74] = 814
Pos[75] = 418
Pos[76] = 441
Pos[77] = 685
Pos[78] = 1287
Pos[79] = 1367
Pos[80] = 2
Pos[81] = 1215
Pos[82] = 652
Pos[83] = 1312
Pos[84] = 280
Pos[85] = 48
Pos[86] = 184
Pos[87] = 807
Pos[88] = 1082
Pos[89] = 393
Pos[90] = 424
Pos[91] = 580
Pos[92] = 829
Pos[93] = 1485
Pos[94] = 95
Pos[95] = 777
Pos[96] = 215
Pos[97] = 416
Pos[98] = 616
Pos[99] = 933
Pos[100] = 1118
Pos[101] = 105
Pos[102] = 936
Pos[103] = 1111
Pos[104] = 838
Pos[105] = 290
Pos[106] = 557
Pos[107] = 618
Pos[108] = 21
Pos[109] = 1079
Pos[110] = 815
Pos[111] = 1164
Pos[112] = 78
Pos[113] = 1279
Pos[114] = 1049
Pos[115] = 65
Pos[116] = 301
Pos[117] = 813
Pos[118] = 23
Pos[119] = 534
Pos[120] = 1214
Pos[121] = 18
Pos[122] = 353
Pos[123] = 811
Pos[124] = 1460
Pos[125] = 610
Pos[126] = 1205
Pos[127] = 1308
Pos[128] = 1486
Pos[129] = 285
Pos[130] = 742
Pos[131] = 840
Pos[132] = 523
Pos[133] = 532
Pos[134] = 986
Pos[135] = 1233
Pos[136] = 504
Pos[137] = 1002
Pos[138] = 1489
Pos[139] = 93
Pos[140] = 80
Pos[141] = 784
Pos[142] = 508
Pos[143] = 798
Pos[144] = 875
Pos[145] = 1097
Pos[146] = 380
Pos[147] = 979
Pos[148] = 321
Pos[149] = 954
Pos[150] = 1198
Pos[151] = 1236
Pos[152] = 1210
Pos[153] = 1238
Pos[154] = 998
Pos[155] = 1029
Pos[156] = 994
Pos[157] = 1224
Pos[158] = 318
Pos[159] = 501
Pos[160] = 45
Pos[161] = 1394
Pos[162] = 179
Pos[163] = 226
Pos[164] = 572
Pos[165] = 413
Pos[166] = 1428
Pos[167] = 158
Pos[168] = 1258
Pos[169] = 1003
Pos[170] = 1354
Pos[171] = 1324
Pos[172] = 1356
Pos[173] = 1400
Pos[174] = 325
Pos[175] = 1451
Pos[176] = 84
Pos[177] = 495
Pos[178] = 654
Pos[179] = 695
Pos[180] = 363
Pos[181] = 429
Pos[182] = 911
Pos[183] = 464
Pos[184] = 1406
Pos[185] = 1077
Pos[186] = 43
Pos[187] = 1189
Pos[188] = 1391
Pos[189] = 727
Pos[190] = 671
Pos[191] = 1446
Pos[192] = 1265
Pos[193] = 1333
Pos[194] = 352
Pos[195] = 1252
Pos[196] = 851
Pos[197] = 1462
Pos[198] = 1253
Pos[199] = 274
Pos[200] = 783
Pos[201] = 1254
Pos[202] = 854
Pos[203] = 827
Pos[204] = 1355
Pos[205] = 1357
Pos[206] = 1178
Pos[207] = 1454
Pos[208] = 97
Pos[209] = 1247
Pos[210] = 1317
Pos[211] = 24
Pos[212] = 58
Pos[213] = 946
Pos[214] = 1117
Pos[215] = 1270
Pos[216] = 993
Pos[217] = 1094
Pos[218] = 271
Pos[219] = 832
Pos[220] = 1181
Pos[221] = 56
Pos[222] = 678
Pos[223] = 1319
Pos[224] = 521
Pos[225] = 679
Pos[226] = 895
Pos[227] = 728
Pos[228] = 769
Pos[229] = 107
Pos[230] = 743
Pos[231] = 662
Pos[232] = 868
Pos[233] = 1237
Pos[234] = 1127
Pos[235] = 252
Pos[236] = 1161
Pos[237] = 1090
Pos[238] = 1365
Pos[239] = 940
Pos[240] = 33
Pos[241] = 47
Pos[242] = 1126
Pos[243] = 127
Pos[244] = 665
Pos[245] = 606
Pos[246] = 739
Pos[247] = 243
Pos[248] = 978
Pos[249] = 13
Pos[250] = 867
Pos[251] = 487
Pos[252] = 1399
Pos[253] = 550
Pos[254] = 1239
Pos[255] = 708
Pos[256] = 1152
Pos[257] = 118
Pos[258] = 251
Pos[259] = 960
Pos[260] = 430
Pos[261] = 1024
Pos[262] = 381
Pos[263] = 602
Pos[264] = 749
Pos[265] = 1307
Pos[266] = 168
Pos[267] = 206
Pos[268] = 394
Pos[269] = 1363
Pos[270] = 61
Pos[271] = 362
Pos[272] = 457
Pos[273] = 816
Pos[274] = 425
Pos[275] = 1032
Pos[276] = 782
Pos[277] = 1468
Pos[278] = 942
Pos[279] = 417
Pos[280] = 931
Pos[281] = 242
Pos[282] = 1098
Pos[283] = 649
Pos[284] = 886
Pos[285] = 1075
Pos[286] = 1216
Pos[287] = 1358
Pos[288] = 491
Pos[289] = 880
Pos[290] = 1083
Pos[291] = 209
Pos[292] = 64
Pos[293] = 6
Pos[294] = 436
Pos[295] = 161
Pos[296] = 780
Pos[297] = 1251
Pos[298] = 785
Pos[299] = 1310
Pos[300] = 1043
Pos[301] = 1141
Pos[302] = 87
Pos[303] = 730
Pos[304] = 1377
Pos[305] = 15
Pos[306] = 639
Pos[307] = 475
Pos[308] = 1334
Pos[309] = 82
Pos[310] = 332
Pos[311] = 53
Pos[312] = 176
Pos[313] = 69
Pos[314] = 356
Pos[315] = 1182
Pos[316] = 1444
Pos[317] = 549
Pos[318] = 828
Pos[319] = 452
Pos[320] = 1228
Pos[321] = 526
Pos[322] = 517
Pos[323] = 738
Pos[324] = 658
Pos[325] = 830
Pos[326] = 1244
Pos[327] = 1267
Pos[328] = 1147
Pos[329] = 1449
Pos[330] = 389
Pos[331] = 181
Pos[332] = 228
Pos[333] = 328
Pos[334] = 1112
Pos[335] = 404
Pos[336] = 1150
Pos[337] = 1362
Pos[338] = 162
Pos[339] = 323
Pos[340] = 904
Pos[341] = 796
Pos[342] = 1122
Pos[343] = 212
Pos[344] = 238
Pos[345] = 645
Pos[346] = 375
Pos[347] = 898
Pos[348] = 488
Pos[349] = 157
Pos[350] = 1050
Pos[351] = 193
Pos[352] = 152
Pos[353] = 924
Pos[354] = 248
Pos[355] = 812
Pos[356] = 410
Pos[357] = 831
Pos[358] = 966
Pos[359] = 14
Pos[360] = 367
Pos[361] = 310
Pos[362] = 461
Pos[363] = 1062
Pos[364] = 156
Pos[365] = 530
Pos[366] = 347
Pos[367] = 451
Pos[368] = 358
Pos[369] = 663
Pos[370] = 907
Pos[371] = 194
Pos[372] = 648
Pos[373] = 297
Pos[374] = 673
Pos[375] = 729
Pos[376] = 744
Pos[377] = 1396
Pos[378] = 578
Pos[379] = 856
Pos[380] = 510
Pos[381] = 1276
Pos[382] = 116
Pos[383] = 797
Pos[384] = 865
Pos[385] = 1379
Pos[386] = 1226
Pos[387] = 149
Pos[388] = 715
Pos[389] = 809
Pos[390] = 354
Pos[391] = 170
Pos[392] = 634
Pos[393] = 969
Pos[394] = 458
Pos[395] = 843
Pos[396] = 1176
Pos[397] = 873
Pos[398] = 454
Pos[399] = 696
Pos[400] = 1191
Pos[401] = 31
Pos[402] = 435
Pos[403] = 1345
Pos[404] = 444
Pos[405] = 746
Pos[406] = 1436
Pos[407] = 505
Pos[408] = 119
Pos[409] = 281
Pos[410] = 272
Pos[411] = 603
Pos[412] = 881
Pos[413] = 1280
Pos[414] = 1213
Pos[415] = 902
Pos[416] = 988
Pos[417] = 1116
Pos[418] = 307
Pos[419] = 182
Pos[420] = 661
Pos[421] = 943
Pos[422] = 913
Pos[423] = 40
Pos[424] = 983
Pos[425] = 171
Pos[426] = 1299
Pos[427] = 666
Pos[428] = 299
Pos[429] = 1012
Pos[430] = 1146
Pos[431] = 403
Pos[432] = 463
Pos[433] = 600
Pos[434] = 1047
Pos[435] = 1443
Pos[436] = 235
Pos[437] = 279
Pos[438] = 1381
Pos[439] = 857
Pos[440] = 1316
Pos[441] = 1209
Pos[442] = 1330
Pos[443] = 864
Pos[444] = 996
Pos[445] = 137
Pos[446] = 1268
Pos[447] = 763
Pos[448] = 166
Pos[449] = 236
Pos[450] = 211
Pos[451] = 1445
Pos[452] = 535
Pos[453] = 883
Pos[454] = 609
Pos[455] = 27
Pos[456] = 146
Pos[457] = 555
Pos[458] = 637
Pos[459] = 1281
Pos[460] = 1053
Pos[461] = 229
Pos[462] = 1392
Pos[463] = 1401
Pos[464] = 283
Pos[465] = 359
Pos[466] = 725
Pos[467] = 611
Pos[468] = 793
Pos[469] = 298
Pos[470] = 909
Pos[471] = 187
Pos[472] = 953
Pos[473] = 538
Pos[474] = 1009
Pos[475] = 635
Pos[476] = 923
Pos[477] = 1311
Pos[478] = 1369
Pos[479] = 217
Pos[480] = 35
Pos[481] = 378
Pos[482] = 636
Pos[483] = 198
Pos[484] = 596
Pos[485] = 1321
Pos[486] = 337
Pos[487] = 601
Pos[488] = 1078
Pos[489] = 59
Pos[490] = 450
Pos[491] = 968
Pos[492] = 1411
Pos[493] = 622
Pos[494] = 1326
Pos[495] = 1027
Pos[496] = 26
Pos[497] = 1018
Pos[498] = 912
Pos[499] = 948
Pos[500] = 514
Pos[501] = 1081
Pos[502] = 990
Pos[503] = 846
Pos[504] = 1070
Pos[505] = 1201
Pos[506] = 196
Pos[507] = 20
Pos[508] = 268
Pos[509] = 799
Pos[510] = 1422
Pos[511] = 675
Pos[512] = 604
Pos[513] = 753
Pos[514] = 1093
Pos[515] = 16
Pos[516] = 253
Pos[517] = 607
Pos[518] = 314
Pos[519] = 1192
Pos[520] = 660
Pos[521] = 849
Pos[522] = 1114
Pos[523] = 734
Pos[524] = 1022
Pos[525] = 1372
Pos[526] = 872
Pos[527] = 1455
Pos[528] = 1250
Pos[529] = 1420
Pos[530] = 691
Pos[531] = 1220
Pos[532] = 502
Pos[533] = 878
Pos[534] = 150
Pos[535] = 1200
Pos[536] = 151
Pos[537] = 338
Pos[538] = 387
Pos[539] = 1431
Pos[540] = 757
Pos[541] = 286
Pos[542] = 995
Pos[543] = 1294
Pos[544] = 335
Pos[545] = 800
Pos[546] = 282
Pos[547] = 566
Pos[548] = 900
Pos[549] = 726
Pos[550] = 1440
Pos[551] = 1442
Pos[552] = 447
Pos[553] = 723
Pos[554] = 991
Pos[555] = 1405
Pos[556] = 277
Pos[557] = 322
Pos[558] = 266
Pos[559] = 1054
Pos[560] = 595
Pos[561] = 971
Pos[562] = 1057
Pos[563] = 246
Pos[564] = 997
Pos[565] = 459
Pos[566] = 1336
Pos[567] = 197
Pos[568] = 1206
Pos[569] = 1269
Pos[570] = 750
Pos[571] = 623
Pos[572] = 373
Pos[573] = 1203
Pos[574] = 1419
Pos[575] = 890
Pos[576] = 440
Pos[577] = 333
Pos[578] = 659
Pos[579] = 853
Pos[580] = 1174
Pos[581] = 893
Pos[582] = 1011
Pos[583] = 63
Pos[584] = 218
Pos[585] = 302
Pos[586] = 1257
Pos[587] = 703
Pos[588] = 984
Pos[589] = 73
Pos[590] = 920
Pos[591] = 376
Pos[592] = 1255
Pos[593] = 1283
Pos[594] = 834
Pos[595] = 131
Pos[596] = 713
Pos[597] = 177
Pos[598] = 1473
Pos[599] = 633
Pos[600] = 894
Pos[601] = 1403
Pos[602] = 259
Pos[603] = 1188
Pos[604] = 1080
Pos[605] = 1074
Pos[606] = 91
Pos[607] = 1441
Pos[608] = 794
Pos[609] = 1107
Pos[610] = 1349
Pos[611] = 384
Pos[612] = 39
Pos[613] = 453
Pos[614] = 552
Pos[615] = 1139
Pos[616] = 1469
Pos[617] = 478
Pos[618] = 686
Pos[619] = 760
Pos[620] = 795
Pos[621] = 3
Pos[622] = 1373
Pos[623] = 101
Pos[624] = 234
Pos[625] = 343
Pos[626] = 788
Pos[627] = 1168
Pos[628] = 32
Pos[629] = 1159
Pos[630] = 553
Pos[631] = 344
Pos[632] = 826
Pos[633] = 1110
Pos[634] = 1496
Pos[635] = 1297
Pos[636] = 1217
Pos[637] = 112
Pos[638] = 1361
Pos[639] = 145
Pos[640] = 469
Pos[641] = 1351
Pos[642] = 569
Pos[643] = 1497
Pos[644] = 1076
Pos[645] = 1187
Pos[646] = 125
Pos[647] = 642
Pos[648] = 506
Pos[649] = 1186
Pos[650] = 1163
Pos[651] = 1121
Pos[652] = 1331
Pos[653] = 1453
Pos[654] = 293
Pos[655] = 712
Pos[656] = 957
Pos[657] = 581
Pos[658] = 70
Pos[659] = 926
Pos[660] = 1314
Pos[661] = 1366
Pos[662] = 493
Pos[663] = 199
Pos[664] = 364
Pos[665] = 568
Pos[666] = 599
Pos[667] = 859
Pos[668] = 1131
Pos[669] = 515
Pos[670] = 1235
Pos[671] = 1095
Pos[672] = 615
Pos[673] = 1225
Pos[674] = 1305
Pos[675] = 223
Pos[676] = 1091
Pos[677] = 120
Pos[678] = 409
Pos[679] = 629
Pos[680] = 689
Pos[681] = 987
Pos[682] = 1099
Pos[683] = 591
Pos[684] = 638
Pos[685] = 1130
Pos[686] = 1221
Pos[687] = 126
Pos[688] = 1425
Pos[689] = 866
Pos[690] = 1438
Pos[691] = 503
Pos[692] = 431
Pos[693] = 1135
Pos[694] = 51
Pos[695] = 1471
Pos[696] = 547
Pos[697] = 269
Pos[698] = 142
Pos[699] = 594
Pos[700] = 624
Pos[701] = 643
Pos[702] = 792
Pos[703] = 1256
Pos[704] = 295
Pos[705] = 1025
Pos[706] = 11
Pos[707] = 820
Pos[708] = 1101
Pos[709] = 221
Pos[710] = 309
Pos[711] = 468
Pos[712] = 694
Pos[713] = 1073
Pos[714] = 1102
Pos[715] = 405
Pos[716] = 570
Pos[717] = 1282
Pos[718] = 1103
Pos[719] = 76
Pos[720] = 884
Pos[721] = 593
Pos[722] = 1096
Pos[723] = 103
Pos[724] = 917
Pos[725] = 1153
Pos[726] = 305
Pos[727] = 374
Pos[728] = 1087
Pos[729] = 1085
Pos[730] = 1229
Pos[731] = 1230
Pos[732] = 186
Pos[733] = 320
Pos[734] = 512
Pos[735] = 1212
Pos[736] = 941
Pos[737] = 1285
Pos[738] = 1240
Pos[739] = 183
Pos[740] = 588
Pos[741] = 546
Pos[742] = 871
Pos[743] = 46
Pos[744] = 879
Pos[745] = 163
Pos[746] = 479
Pos[747] = 1125
Pos[748] = 1196
Pos[749] = 1457
Pos[750] = 456
Pos[751] = 1105
Pos[752] = 1249
Pos[753] = 1344
Pos[754] = 767
Pos[755] = 1416
Pos[756] = 317
Pos[757] = 1498
Pos[758] = 1242
Pos[759] = 1245
Pos[760] = 1429
Pos[761] = 1259
Pos[762] = 348
Pos[763] = 19
Pos[764] = 34
Pos[765] = 1140
Pos[766] = 123
Pos[767] = 106
Pos[768] = 1295
Pos[769] = 1348
Pos[770] = 932
Pos[771] = 1180
Pos[772] = 1370
Pos[773] = 205
Pos[774] = 203
Pos[775] = 1044
Pos[776] = 1195
Pos[777] = 467
Pos[778] = 315
Pos[779] = 412
Pos[780] = 8
Pos[781] = 1434
Pos[782] = 1211
Pos[783] = 627
Pos[784] = 701
Pos[785] = 567
Pos[786] = 531
Pos[787] = 1447
Pos[788] = 562
Pos[789] = 922
Pos[790] = 1142
Pos[791] = 1488
Pos[792] = 100
Pos[793] = 664
Pos[794] = 143
Pos[795] = 1031
Pos[796] = 366
Pos[797] = 1464
Pos[798] = 776
Pos[799] = 1491
Pos[800] = 202
Pos[801] = 204
Pos[802] = 300
Pos[803] = 499
Pos[804] = 1417
Pos[805] = 129
Pos[806] = 66
Pos[807] = 420
Pos[808] = 668
Pos[809] = 1382
Pos[810] = 1023
Pos[811] = 264
Pos[812] = 804
Pos[813] = 1378
Pos[814] = 821
Pos[815] = 265
Pos[816] = 1128
Pos[817] = 62
Pos[818] = 869
Pos[819] = 789
Pos[820] = 1481
Pos[821] = 192
Pos[822] = 1397
Pos[823] = 122
Pos[824] = 1154
Pos[825] = 180
Pos[826] = 585
Pos[827] = 1490
Pos[828] = 914
Pos[829] = 735
Pos[830] = 1323
Pos[831] = 1222
Pos[832] = 1495
Pos[833] = 22
Pos[834] = 88
Pos[835] = 200
Pos[836] = 1173
Pos[837] = 128
Pos[838] = 470
Pos[839] = 655
Pos[840] = 975
Pos[841] = 342
Pos[842] = 716
Pos[843] = 1157
Pos[844] = 1494
Pos[845] = 117
Pos[846] = 79
Pos[847] = 319
Pos[848] = 779
Pos[849] = 650
Pos[850] = 1364
Pos[851] = 195
Pos[852] = 324
Pos[853] = 1185
Pos[854] = 1274
Pos[855] = 537
Pos[856] = 628
Pos[857] = 706
Pos[858] = 1218
Pos[859] = 1380
Pos[860] = 910
Pos[861] = 1339
Pos[862] = 1284
Pos[863] = 334
Pos[864] = 139
Pos[865] = 710
Pos[866] = 1478
Pos[867] = 790
Pos[868] = 90
Pos[869] = 160
Pos[870] = 819
Pos[871] = 1059
Pos[872] = 482
Pos[873] = 1313
Pos[874] = 52
Pos[875] = 175
Pos[876] = 408
Pos[877] = 677
Pos[878] = 1386
Pos[879] = 135
Pos[880] = 842
Pos[881] = 189
Pos[882] = 1060
Pos[883] = 1383
Pos[884] = 1290
Pos[885] = 918
Pos[886] = 644
Pos[887] = 1137
Pos[888] = 1263
Pos[889] = 540
Pos[890] = 620
Pos[891] = 109
Pos[892] = 778
Pos[893] = 207
Pos[894] = 891
Pos[895] = 1231
Pos[896] = 1202
Pos[897] = 201
Pos[898] = 641
Pos[899] = 1167
Pos[900] = 1424
Pos[901] = 1232
Pos[902] = 68
Pos[903] = 687
Pos[904] = 564
Pos[905] = 392
Pos[906] = 1021
Pos[907] = 400
Pos[908] = 1084
Pos[909] = 154
Pos[910] = 707
Pos[911] = 490
Pos[912] = 762
Pos[913] = 191
Pos[914] = 542
Pos[915] = 772
Pos[916] = 1016
Pos[917] = 1241
Pos[918] = 1136
Pos[919] = 882
Pos[920] = 1409
Pos[921] = 466
Pos[922] = 1184
Pos[923] = 582
Pos[924] = 952
Pos[925] = 1072
Pos[926] = 327
Pos[927] = 667
Pos[928] = 751
Pos[929] = 806
Pos[930] = 676
Pos[931] = 1426
Pos[932] = 1421
Pos[933] = 249
Pos[934] = 533
Pos[935] = 1374
Pos[936] = 247
Pos[937] = 465
Pos[938] = 860
Pos[939] = 1015
Pos[940] = 407
Pos[941] = 756
Pos[942] = 848
Pos[943] = 963
Pos[944] = 494
Pos[945] = 626
Pos[946] = 1183
Pos[947] = 740
Pos[948] = 1427
Pos[949] = 1353
Pos[950] = 108
Pos[951] = 442
Pos[952] = 1346
Pos[953] = 278
Pos[954] = 372
Pos[955] = 544
Pos[956] = 771
Pos[957] = 805
Pos[958] = 1124
Pos[959] = 210
Pos[960] = 54
Pos[961] = 446
Pos[962] = 674
Pos[963] = 1300
Pos[964] = 1390
Pos[965] = 7
Pos[966] = 445
Pos[967] = 1465
Pos[968] = 257
Pos[969] = 339
Pos[970] = 481
Pos[971] = 631
Pos[972] = 254
Pos[973] = 874
Pos[974] = 640
Pos[975] = 1039
Pos[976] = 720
Pos[977] = 903
Pos[978] = 938
Pos[979] = 41
Pos[980] = 1143
Pos[981] = 980
Pos[982] = 208
Pos[983] = 1271
Pos[984] = 86
Pos[985] = 524
Pos[986] = 719
Pos[987] = 870
Pos[988] = 1277
Pos[989] = 1123
Pos[990] = 992
Pos[991] = 49
Pos[992] = 896
Pos[993] = 1132
Pos[994] = 1113
Pos[995] = 85
Pos[996] = 288
Pos[997] = 382
Pos[998] = 411
Pos[999] = 583
Pos[1000] = 121
Pos[1001] = 498
Pos[1002] = 822
Pos[1003] = 144
Pos[1004] = 37
Pos[1005] = 1067
Pos[1006] = 240
Pos[1007] = 692
Pos[1008] = 1155
Pos[1009] = 284
Pos[1010] = 480
Pos[1011] = 500
Pos[1012] = 1407
Pos[1013] = 483
Pos[1014] = 1292
Pos[1015] = 714
Pos[1016] = 741
Pos[1017] = 839
Pos[1018] = 915
Pos[1019] = 747
Pos[1020] = 961
Pos[1021] = 1479
Pos[1022] = 935
Pos[1023] = 1437
Pos[1024] = 336
Pos[1025] = 1013
Pos[1026] = 1106
Pos[1027] = 574
Pos[1028] = 855
Pos[1029] = 1306
Pos[1030] = 294
Pos[1031] = 705
Pos[1032] = 486
Pos[1033] = 1041
Pos[1034] = 415
Pos[1035] = 850
Pos[1036] = 1115
Pos[1037] = 1149
Pos[1038] = 1413
Pos[1039] = 525
Pos[1040] = 1052
Pos[1041] = 1298
Pos[1042] = 258
Pos[1043] = 222
Pos[1044] = 584
Pos[1045] = 680
Pos[1046] = 770
Pos[1047] = 1063
Pos[1048] = 250
Pos[1049] = 1
Pos[1050] = 1335
Pos[1051] = 104
Pos[1052] = 477
Pos[1053] = 845
Pos[1054] = 1000
Pos[1055] = 1007
Pos[1056] = 597
Pos[1057] = 928
Pos[1058] = 1014
Pos[1059] = 709
Pos[1060] = 341
Pos[1061] = 141
Pos[1062] = 1340
Pos[1063] = 592
Pos[1064] = 949
Pos[1065] = 1474
Pos[1066] = 1165
Pos[1067] = 511
Pos[1068] = 732
Pos[1069] = 326
Pos[1070] = 1385
Pos[1071] = 1408
Pos[1072] = 972
Pos[1073] = 1064
Pos[1074] = 755
Pos[1075] = 1169
Pos[1076] = 1289
Pos[1077] = 1466
Pos[1078] = 225
Pos[1079] = 721
Pos[1080] = 1303
Pos[1081] = 976
Pos[1082] = 1359
Pos[1083] = 9
Pos[1084] = 77
Pos[1085] = 110
Pos[1086] = 1337
Pos[1087] = 1138
Pos[1088] = 476
Pos[1089] = 945
Pos[1090] = 1092
Pos[1091] = 951
Pos[1092] = 541
Pos[1093] = 1197
Pos[1094] = 115
Pos[1095] = 698
Pos[1096] = 485
Pos[1097] = 787
Pos[1098] = 370
Pos[1099] = 1452
Pos[1100] = 224
Pos[1101] = 858
Pos[1102] = 1145
Pos[1103] = 1304
Pos[1104] = 1037
Pos[1105] = 1423
Pos[1106] = 167
Pos[1107] = 303
Pos[1108] = 448
Pos[1109] = 312
Pos[1110] = 965
Pos[1111] = 241
Pos[1112] = 518
Pos[1113] = 885
Pos[1114] = 237
Pos[1115] = 575
Pos[1116] = 565
Pos[1117] = 38
Pos[1118] = 60
Pos[1119] = 270
Pos[1120] = 835
Pos[1121] = 1204
Pos[1122] = 863
Pos[1123] = 1273
Pos[1124] = 1433
Pos[1125] = 970
Pos[1126] = 1293
Pos[1127] = 672
Pos[1128] = 774
Pos[1129] = 773
Pos[1130] = 1338
Pos[1131] = 50
Pos[1132] = 94
Pos[1133] = 379
Pos[1134] = 700
Pos[1135] = 999
Pos[1136] = 718
Pos[1137] = 527
Pos[1138] = 545
Pos[1139] = 759
Pos[1140] = 808
Pos[1141] = 929
Pos[1142] = 306
Pos[1143] = 613
Pos[1144] = 1227
Pos[1145] = 1261
Pos[1146] = 1347
Pos[1147] = 462
Pos[1148] = 5
Pos[1149] = 836
Pos[1150] = 1008
Pos[1151] = 1194
Pos[1152] = 1395
Pos[1153] = 579
Pos[1154] = 775
Pos[1155] = 1309
Pos[1156] = 434
Pos[1157] = 1371
Pos[1158] = 571
Pos[1159] = 937
Pos[1160] = 1051
Pos[1161] = 291
Pos[1162] = 1193
Pos[1163] = 12
Pos[1164] = 397
Pos[1165] = 1328
Pos[1166] = 934
Pos[1167] = 29
Pos[1168] = 697
Pos[1169] = 81
Pos[1170] = 1476
Pos[1171] = 244
Pos[1172] = 292
Pos[1173] = 287
Pos[1174] = 519
Pos[1175] = 736
Pos[1176] = 1286
Pos[1177] = 1376
Pos[1178] = 369
Pos[1179] = 950
Pos[1180] = 681
Pos[1181] = 1315
Pos[1182] = 472
Pos[1183] = 4
Pos[1184] = 605
Pos[1185] = 632
Pos[1186] = 683
Pos[1187] = 824
Pos[1188] = 1472
Pos[1189] = 1487
Pos[1190] = 1499
Pos[1191] = 1435
Pos[1192] = 684
Pos[1193] = 173
Pos[1194] = 612
Pos[1195] = 587
Pos[1196] = 1069
Pos[1197] = 330
Pos[1198] = 590
Pos[1199] = 974
Pos[1200] = 1483
Pos[1201] = 340
Pos[1202] = 331
Pos[1203] = 786
Pos[1204] = 944
Pos[1205] = 964
Pos[1206] = 313
Pos[1207] = 1493
Pos[1208] = 231
Pos[1209] = 1088
Pos[1210] = 625
Pos[1211] = 887
Pos[1212] = 1430
Pos[1213] = 134
Pos[1214] = 1158
Pos[1215] = 589
Pos[1216] = 390
Pos[1217] = 724
Pos[1218] = 99
Pos[1219] = 1291
Pos[1220] = 554
Pos[1221] = 1010
Pos[1222] = 153
Pos[1223] = 1171
Pos[1224] = 1375
Pos[1225] = 365
Pos[1226] = 1055
Pos[1227] = 233
Pos[1228] = 761
Pos[1229] = 1318
Pos[1230] = 1461
Pos[1231] = 1350
Pos[1232] = 1388
Pos[1233] = 350
Pos[1234] = 617
Pos[1235] = 516
Pos[1236] = 704
Pos[1237] = 758
Pos[1238] = 803
Pos[1239] = 346
Pos[1240] = 752
Pos[1241] = 1302
Pos[1242] = 83
Pos[1243] = 227
Pos[1244] = 401
Pos[1245] = 586
Pos[1246] = 897
Pos[1247] = 1086
Pos[1248] = 1199
Pos[1249] = 55
Pos[1250] = 1223
Pos[1251] = 261
Pos[1252] = 355
Pos[1253] = 385
Pos[1254] = 908
Pos[1255] = 930
Pos[1256] = 967
Pos[1257] = 308
Pos[1258] = 1389
Pos[1259] = 30
Pos[1260] = 947
Pos[1261] = 1056
Pos[1262] = 438
Pos[1263] = 598
Pos[1264] = 1133
Pos[1265] = 647
Pos[1266] = 810
Pos[1267] = 1089
Pos[1268] = 1296
Pos[1269] = 766
Pos[1270] = 174
Pos[1271] = 1456
Pos[1272] = 1030
Pos[1273] = 148
Pos[1274] = 1160
Pos[1275] = 619
Pos[1276] = 36
Pos[1277] = 801
Pos[1278] = 220
Pos[1279] = 699
Pos[1280] = 955
Pos[1281] = 1393
Pos[1282] = 437
Pos[1283] = 927
Pos[1284] = 1048
Pos[1285] = 560
Pos[1286] = 1061
Pos[1287] = 1329
Pos[1288] = 958
Pos[1289] = 1398
Pos[1290] = 1458
Pos[1291] = 216
Pos[1292] = 551
Pos[1293] = 558
Pos[1294] = 670
Pos[1295] = 731
Pos[1296] = 802
Pos[1297] = 889
Pos[1298] = 1100
Pos[1299] = 178
Pos[1300] = 1148
Pos[1301] = 745
Pos[1302] = 214
Pos[1303] = 1177
Pos[1304] = 1208
Pos[1305] = 138
Pos[1306] = 921
Pos[1307] = 781
Pos[1308] = 1036
Pos[1309] = 316
Pos[1310] = 682
Pos[1311] = 754
Pos[1312] = 1459
Pos[1313] = 817
Pos[1314] = 1066
Pos[1315] = 42
Pos[1316] = 651
Pos[1317] = 529
Pos[1318] = 124
Pos[1319] = 402
Pos[1320] = 1104
Pos[1321] = 1109
Pos[1322] = 690
Pos[1323] = 1248
Pos[1324] = 113
Pos[1325] = 823
Pos[1326] = 396
Pos[1327] = 489
Pos[1328] = 509
Pos[1329] = 1134
Pos[1330] = 892
Pos[1331] = 764
Pos[1332] = 1352
Pos[1333] = 136
Pos[1334] = 1144
Pos[1335] = 1414
Pos[1336] = 1470
Pos[1337] = 159
Pos[1338] = 165
Pos[1339] = 263
Pos[1340] = 1467
Pos[1341] = 289
Pos[1342] = 656
Pos[1343] = 267
Pos[1344] = 395
Pos[1345] = 646
Pos[1346] = 1005
Pos[1347] = 1343
Pos[1348] = 428
Pos[1349] = 657
Pos[1350] = 1162
Pos[1351] = 576
Pos[1352] = 1410
Pos[1353] = 114
Pos[1354] = 1342
Pos[1355] = 239
Pos[1356] = 133
Pos[1357] = 1190
Pos[1358] = 296
Pos[1359] = 536
Pos[1360] = 844
Pos[1361] = 1019
Pos[1362] = 1108
Pos[1363] = 1341
Pos[1364] = 548
Pos[1365] = 837
Pos[1366] = 901
Pos[1367] = 1432
Pos[1368] = 345
Pos[1369] = 419
Pos[1370] = 1068
Pos[1371] = 1412
Pos[1372] = 1448
Pos[1373] = 92
Pos[1374] = 132
Pos[1375] = 164
Pos[1376] = 484
Pos[1377] = 422
Pos[1378] = 982
Pos[1379] = 1046
Pos[1380] = 1492
Pos[1381] = 1415
Pos[1382] = 155
Pos[1383] = 89
Pos[1384] = 1028
Pos[1385] = 102
Pos[1386] = 841
Pos[1387] = 876
Pos[1388] = 1004
Pos[1389] = 1006
Pos[1390] = 1156
Pos[1391] = 1384
Pos[1392] = 1175
Pos[1393] = 1402
Pos[1394] = 10
Pos[1395] = 255
Pos[1396] = 1322
Pos[1397] = 44
Pos[1398] = 75
Pos[1399] = 232
Pos[1400] = 985
Pos[1401] = 1038
Pos[1402] = 1020
Pos[1403] = 349
Pos[1404] = 432
Pos[1405] = 1119
Pos[1406] = 130
Pos[1407] = 711
Pos[1408] = 888
Pos[1409] = 899
Pos[1410] = 925
Pos[1411] = 1320
Pos[1412] = 722
Pos[1413] = 977
Pos[1414] = 1045
Pos[1415] = 1404
Pos[1416] = 1477
Pos[1417] = 388
Pos[1418] = 614
Pos[1419] = 1017
Pos[1420] = 905
Pos[1421] = 496
Pos[1422] = 959
Pos[1423] = 1026
Pos[1424] = 1266
Pos[1425] = 1332
Pos[1426] = 1418
Pos[1427] = 507
Pos[1428] = 852
Pos[1429] = 973
Pos[1430] = 1033
Pos[1431] = 1288
Pos[1432] = 1260
Pos[1433] = 172
Pos[1434] = 275
Pos[1435] = 311
Pos[1436] = 669
Pos[1437] = 1475
Pos[1438] = 439
Pos[1439] = 471
Pos[1440] = 748
Pos[1441] = 1034
Pos[1442] = 1151
Pos[1443] = 1463
Pos[1444] = 71
Pos[1445] = 916
Pos[1446] = 1264
Pos[1447] = 67
Pos[1448] = 111
Pos[1449] = 561
Pos[1450] = 1071
Pos[1451] = 474
Pos[1452] = 877
Pos[1453] = 1243
Pos[1454] = 371
Pos[1455] = 862
Pos[1456] = 919
Pos[1457] = 1484
Pos[1458] = 391
Pos[1459] = 563
Pos[1460] = 939
Pos[1461] = 1272
Pos[1462] = 0
Pos[1463] = 273
Pos[1464] = 513
Pos[1465] = 520
Pos[1466] = 539
Pos[1467] = 906
Pos[1468] = 185
Pos[1469] = 245
Pos[1470] = 443
Pos[1471] = 528
Pos[1472] = 825
Pos[1473] = 1166
Pos[1474] = 1246
Pos[1475] = 962
Pos[1476] = 1172
Pos[1477] = 25
Pos[1478] = 72
Pos[1479] = 357
Pos[1480] = 543
Pos[1481] = 427
Pos[1482] = 449
Pos[1483] = 213
Pos[1484] = 688
Pos[1485] = 989
Pos[1486] = 1234
Pos[1487] = 260
Pos[1488] = 276
Pos[1489] = 1001
Pos[1490] = 1170
Pos[1491] = 1482
Pos[1492] = 1120
Pos[1493] = 768
Pos[1494] = 414
Pos[1495] = 433
Pos[1496] = 818
Pos[1497] = 737
Pos[1498] = 351
Pos[1499] = 621
Enbr = 847244
start search
improving solution size 1
improving solution size 2
improving solution size 3
improving solution size 4
improving solution size 5
improving solution size 6
improving solution size 7
improving solution size 8
improving solution size 9
improving solution size 10
improving solution size 11
improving solution size 12
improving solution size 13
improving solution size 14
improving solution size 15
improving solution size 16
improving solution size 17
improving solution size 18
improving solution size 19
improving solution size 20
improving solution size 21
improving solution size 22
improving solution size 23
improving solution size 24
improving solution size 25
improving solution size 26
improving solution size 27
improving solution size 28
improving solution size 29
improving solution size 30
improving solution size 31
improving solution size 32
improving solution size 33
improving solution size 34
improving solution size 35
improving solution size 36
improving solution size 37
improving solution size 38
improving solution size 39
improving solution size 40
improving solution size 41
improving solution size 42
improving solution size 43
improving solution size 44
improving solution size 45
improving solution size 46
improving solution size 47
improving solution size 48
improving solution size 49
improving solution size 50
improving solution size 51
improving solution size 52
improving solution size 53
improving solution size 54
improving solution size 55
improving solution size 56
improving solution size 57
improving solution size 58
improving solution size 59
improving solution size 60
improving solution size 61
improving solution size 62
improving solution size 63
improving solution size 64
improving solution size 65
improving solution size 66
improving solution size 67
improving solution size 68
improving solution size 69
improving solution size 70
improving solution size 71
improving solution size 72
improving solution size 73
improving solution size 74
improving solution size 75
improving solution size 76
improving solution size 77
improving solution size 78
improving solution size 79
improving solution size 80
improving solution size 81
improving solution size 82
improving solution size 83
improving solution size 84
improving solution size 85
improving solution size 86
improving solution size 87
improving solution size 88
improving solution size 89
improving solution size 90
improving solution size 91
improving solution size 92
improving solution size 93
improving solution size 94
improving solution size 95
improving solution size 96
improving solution size 97
improving solution size 98
TIMEOUT
best clique: 622 352 738 819 434 415 769 1121 1483 1171 1002 277 261 1235 990 689 214 450 428 544 358 73 26 1173 963 1247 1167 529 444 246 186 907 540 521 514 274 1 1273 392 1485 920 863 372 1244 1072 562 112 68 1265 72 749 472 440 312 276 1261 1034 974 853 1267 1027 615 389 1478 1405 978 1120 433 45 11 1157 1047 165 1413 420 346 1411 1344 290 691 530 1067 782 922 139 803 1459 125 1049 438 1031 767 1191 1087 402 100 1290 1020 
record          =          98
subp            =  1330505176
time            =  3600.00178
