timeout 3600 s
Graph with 1500 vertices and 568960 edges density 0.506080
t = 1137920, Enbr = 568960
degree[1499] = 1153, pos[1499] = 357
degree[1498] = 1150, pos[1498] = 621
degree[1497] = 1144, pos[1497] = 67
degree[1496] = 1140, pos[1496] = 1170
degree[1495] = 1137, pos[1495] = 414
degree[1494] = 1133, pos[1494] = 877
degree[1493] = 1128, pos[1493] = 688
degree[1492] = 1127, pos[1492] = 130
degree[1491] = 1125, pos[1491] = 528
degree[1490] = 1124, pos[1490] = 513
degree[1489] = 1122, pos[1489] = 391
degree[1488] = 1120, pos[1488] = 276
degree[1487] = 1118, pos[1487] = 768
degree[1486] = 1117, pos[1486] = 433
degree[1485] = 1115, pos[1485] = 260
degree[1484] = 1113, pos[1484] = 818
degree[1483] = 1111, pos[1483] = 1120
degree[1482] = 1110, pos[1482] = 543
degree[1481] = 1108, pos[1481] = 172
degree[1480] = 1106, pos[1480] = 1246
degree[1479] = 1103, pos[1479] = 1071
degree[1478] = 1100, pos[1478] = 837
degree[1477] = 1099, pos[1477] = 72
degree[1476] = 1097, pos[1476] = 1166
degree[1475] = 1096, pos[1475] = 862
degree[1474] = 1095, pos[1474] = 614
degree[1473] = 1094, pos[1473] = 563
degree[1472] = 1093, pos[1472] = 71
degree[1471] = 1091, pos[1471] = 1482
degree[1470] = 1090, pos[1470] = 1463
degree[1469] = 1089, pos[1469] = 1320
degree[1468] = 1088, pos[1468] = 443
degree[1467] = 1085, pos[1467] = 1272
degree[1466] = 1083, pos[1466] = 311
degree[1465] = 1081, pos[1465] = 520
degree[1464] = 1079, pos[1464] = 25
degree[1463] = 1077, pos[1463] = 1172
degree[1462] = 1075, pos[1462] = 1264
degree[1461] = 1074, pos[1461] = 1001
degree[1460] = 1073, pos[1460] = 748
degree[1459] = 1072, pos[1459] = 737
degree[1458] = 1070, pos[1458] = 507
degree[1457] = 1067, pos[1457] = 825
degree[1456] = 1066, pos[1456] = 496
degree[1455] = 1064, pos[1455] = 973
degree[1454] = 1062, pos[1454] = 1243
degree[1453] = 1062, pos[1453] = 669
degree[1452] = 1061, pos[1452] = 185
degree[1451] = 1059, pos[1451] = 213
degree[1450] = 1056, pos[1450] = 471
degree[1449] = 1054, pos[1449] = 1475
degree[1448] = 1053, pos[1448] = 989
degree[1447] = 1052, pos[1447] = 939
degree[1446] = 1052, pos[1446] = 273
degree[1445] = 1050, pos[1445] = 439
degree[1444] = 1048, pos[1444] = 1470
degree[1443] = 1047, pos[1443] = 539
degree[1442] = 1045, pos[1442] = 888
degree[1441] = 1044, pos[1441] = 449
degree[1440] = 1043, pos[1440] = 371
degree[1439] = 1041, pos[1439] = 852
degree[1438] = 1040, pos[1438] = 711
degree[1437] = 1039, pos[1437] = 561
degree[1436] = 1038, pos[1436] = 432
degree[1435] = 1037, pos[1435] = 427
degree[1434] = 1035, pos[1434] = 1004
degree[1433] = 1034, pos[1433] = 977
degree[1432] = 1034, pos[1432] = 905
degree[1431] = 1031, pos[1431] = 1119
degree[1430] = 1030, pos[1430] = 111
degree[1429] = 1029, pos[1429] = 75
degree[1428] = 1027, pos[1428] = 1484
degree[1427] = 1026, pos[1427] = 1412
degree[1426] = 1025, pos[1426] = 1332
degree[1425] = 1024, pos[1425] = 916
degree[1424] = 1023, pos[1424] = 906
degree[1423] = 1022, pos[1423] = 132
degree[1422] = 1020, pos[1422] = 1033
degree[1421] = 1019, pos[1421] = 1045
degree[1420] = 1018, pos[1420] = 437
degree[1419] = 1017, pos[1419] = 422
degree[1418] = 1015, pos[1418] = 1266
degree[1417] = 1014, pos[1417] = 1006
degree[1416] = 1013, pos[1416] = 351
degree[1415] = 1013, pos[1415] = 232
degree[1414] = 1010, pos[1414] = 1046
degree[1413] = 1009, pos[1413] = 919
degree[1412] = 1007, pos[1412] = 1026
degree[1411] = 1006, pos[1411] = 962
degree[1410] = 1005, pos[1410] = 92
degree[1409] = 1004, pos[1409] = 10
degree[1408] = 1002, pos[1408] = 1068
degree[1407] = 1001, pos[1407] = 536
degree[1406] = 999, pos[1406] = 1384
degree[1405] = 998, pos[1405] = 44
degree[1404] = 997, pos[1404] = 0
degree[1403] = 995, pos[1403] = 1234
degree[1402] = 994, pos[1402] = 899
degree[1401] = 992, pos[1401] = 1156
degree[1400] = 992, pos[1400] = 876
degree[1399] = 990, pos[1399] = 1144
degree[1398] = 988, pos[1398] = 1432
degree[1397] = 987, pos[1397] = 823
degree[1396] = 986, pos[1396] = 263
degree[1395] = 985, pos[1395] = 42
degree[1394] = 983, pos[1394] = 576
degree[1393] = 982, pos[1393] = 402
degree[1392] = 981, pos[1392] = 395
degree[1391] = 979, pos[1391] = 289
degree[1390] = 978, pos[1390] = 155
degree[1389] = 976, pos[1389] = 1414
degree[1388] = 975, pos[1388] = 1322
degree[1387] = 974, pos[1387] = 1410
degree[1386] = 973, pos[1386] = 1448
degree[1385] = 972, pos[1385] = 690
degree[1384] = 971, pos[1384] = 245
degree[1383] = 969, pos[1383] = 1477
degree[1382] = 968, pos[1382] = 959
degree[1381] = 967, pos[1381] = 349
degree[1380] = 966, pos[1380] = 138
degree[1379] = 965, pos[1379] = 1459
degree[1378] = 963, pos[1378] = 1402
degree[1377] = 962, pos[1377] = 1175
degree[1376] = 960, pos[1376] = 1458
degree[1375] = 959, pos[1375] = 1418
degree[1374] = 958, pos[1374] = 1190
degree[1373] = 957, pos[1373] = 1038
degree[1372] = 956, pos[1372] = 985
degree[1371] = 955, pos[1371] = 925
degree[1370] = 952, pos[1370] = 1467
degree[1369] = 951, pos[1369] = 275
degree[1368] = 949, pos[1368] = 388
degree[1367] = 948, pos[1367] = 255
degree[1366] = 946, pos[1366] = 901
degree[1365] = 945, pos[1365] = 682
degree[1364] = 945, pos[1364] = 484
degree[1363] = 943, pos[1363] = 1017
degree[1362] = 943, pos[1362] = 296
degree[1361] = 940, pos[1361] = 1288
degree[1360] = 939, pos[1360] = 216
degree[1359] = 938, pos[1359] = 102
degree[1358] = 937, pos[1358] = 133
degree[1357] = 935, pos[1357] = 1020
degree[1356] = 934, pos[1356] = 1019
degree[1355] = 932, pos[1355] = 1404
degree[1354] = 931, pos[1354] = 731
degree[1353] = 930, pos[1353] = 385
degree[1352] = 929, pos[1352] = 136
degree[1351] = 927, pos[1351] = 921
degree[1350] = 926, pos[1350] = 722
degree[1349] = 925, pos[1349] = 474
degree[1348] = 923, pos[1348] = 955
degree[1347] = 922, pos[1347] = 927
degree[1346] = 919, pos[1346] = 1341
degree[1345] = 918, pos[1345] = 560
degree[1344] = 917, pos[1344] = 1028
degree[1343] = 916, pos[1343] = 489
degree[1342] = 915, pos[1342] = 419
degree[1341] = 914, pos[1341] = 164
degree[1340] = 912, pos[1340] = 1151
degree[1339] = 912, pos[1339] = 1148
degree[1338] = 910, pos[1338] = 1066
degree[1337] = 909, pos[1337] = 1048
degree[1336] = 906, pos[1336] = 1415
degree[1335] = 905, pos[1335] = 1260
degree[1334] = 904, pos[1334] = 548
degree[1333] = 903, pos[1333] = 345
degree[1332] = 902, pos[1332] = 89
degree[1331] = 900, pos[1331] = 165
degree[1330] = 899, pos[1330] = 99
degree[1329] = 897, pos[1329] = 1134
degree[1328] = 895, pos[1328] = 841
degree[1327] = 892, pos[1327] = 1329
degree[1326] = 892, pos[1326] = 1100
degree[1325] = 890, pos[1325] = 844
degree[1324] = 888, pos[1324] = 1492
degree[1323] = 887, pos[1323] = 1034
degree[1322] = 886, pos[1322] = 699
degree[1321] = 884, pos[1321] = 1388
degree[1320] = 883, pos[1320] = 1109
degree[1319] = 882, pos[1319] = 428
degree[1318] = 880, pos[1318] = 1393
degree[1317] = 880, pos[1317] = 1005
degree[1316] = 879, pos[1316] = 646
degree[1315] = 877, pos[1315] = 1108
degree[1314] = 876, pos[1314] = 892
degree[1313] = 873, pos[1313] = 1177
degree[1312] = 873, pos[1312] = 657
degree[1311] = 871, pos[1311] = 586
degree[1310] = 870, pos[1310] = 239
degree[1309] = 868, pos[1309] = 346
degree[1308] = 866, pos[1308] = 764
degree[1307] = 865, pos[1307] = 1248
degree[1306] = 864, pos[1306] = 754
degree[1305] = 863, pos[1305] = 1389
degree[1304] = 862, pos[1304] = 551
degree[1303] = 860, pos[1303] = 817
degree[1302] = 859, pos[1302] = 267
degree[1301] = 858, pos[1301] = 1086
degree[1300] = 856, pos[1300] = 1398
degree[1299] = 856, pos[1299] = 651
degree[1298] = 854, pos[1298] = 1104
degree[1297] = 852, pos[1297] = 897
degree[1296] = 851, pos[1296] = 1430
degree[1295] = 849, pos[1295] = 982
degree[1294] = 848, pos[1294] = 369
degree[1293] = 846, pos[1293] = 1352
degree[1292] = 846, pos[1292] = 781
degree[1291] = 844, pos[1291] = 1296
degree[1290] = 843, pos[1290] = 1160
degree[1289] = 842, pos[1289] = 529
degree[1288] = 841, pos[1288] = 308
degree[1287] = 840, pos[1287] = 113
degree[1286] = 838, pos[1286] = 1133
degree[1285] = 837, pos[1285] = 401
degree[1284] = 836, pos[1284] = 390
degree[1283] = 835, pos[1283] = 153
degree[1282] = 834, pos[1282] = 745
degree[1281] = 833, pos[1281] = 908
degree[1280] = 832, pos[1280] = 174
degree[1279] = 831, pos[1279] = 766
degree[1278] = 830, pos[1278] = 220
degree[1277] = 830, pos[1277] = 124
degree[1276] = 828, pos[1276] = 148
degree[1275] = 827, pos[1275] = 30
degree[1274] = 826, pos[1274] = 12
degree[1273] = 824, pos[1273] = 605
degree[1272] = 823, pos[1272] = 598
degree[1271] = 821, pos[1271] = 178
degree[1270] = 820, pos[1270] = 114
degree[1269] = 818, pos[1269] = 81
degree[1268] = 816, pos[1268] = 1343
degree[1267] = 815, pos[1267] = 1199
degree[1266] = 814, pos[1266] = 1061
degree[1265] = 813, pos[1265] = 803
degree[1264] = 813, pos[1264] = 438
degree[1263] = 812, pos[1263] = 36
degree[1262] = 810, pos[1262] = 509
degree[1261] = 808, pos[1261] = 617
degree[1260] = 808, pos[1260] = 396
degree[1259] = 806, pos[1259] = 647
degree[1258] = 804, pos[1258] = 1493
degree[1257] = 803, pos[1257] = 1162
degree[1256] = 802, pos[1256] = 967
degree[1255] = 801, pos[1255] = 683
degree[1254] = 797, pos[1254] = 1342
degree[1253] = 795, pos[1253] = 1089
degree[1252] = 794, pos[1252] = 761
degree[1251] = 793, pos[1251] = 350
degree[1250] = 791, pos[1250] = 1051
degree[1249] = 789, pos[1249] = 1456
degree[1248] = 789, pos[1248] = 752
degree[1247] = 787, pos[1247] = 958
degree[1246] = 787, pos[1246] = 889
degree[1245] = 786, pos[1245] = 261
degree[1244] = 783, pos[1244] = 1302
degree[1243] = 783, pos[1243] = 619
degree[1242] = 782, pos[1242] = 656
degree[1241] = 780, pos[1241] = 1208
degree[1240] = 780, pos[1240] = 810
degree[1239] = 779, pos[1239] = 159
degree[1238] = 777, pos[1238] = 1030
degree[1237] = 775, pos[1237] = 802
degree[1236] = 774, pos[1236] = 554
degree[1235] = 772, pos[1235] = 1008
degree[1234] = 771, pos[1234] = 758
degree[1233] = 770, pos[1233] = 724
degree[1232] = 768, pos[1232] = 1483
degree[1231] = 766, pos[1231] = 1435
degree[1230] = 765, pos[1230] = 670
degree[1229] = 764, pos[1229] = 303
degree[1228] = 762, pos[1228] = 1227
degree[1227] = 762, pos[1227] = 83
degree[1226] = 760, pos[1226] = 697
degree[1225] = 759, pos[1225] = 173
degree[1224] = 757, pos[1224] = 558
degree[1223] = 756, pos[1223] = 1395
degree[1222] = 756, pos[1222] = 947
degree[1221] = 755, pos[1221] = 355
degree[1220] = 754, pos[1220] = 227
degree[1219] = 753, pos[1219] = 1036
degree[1218] = 750, pos[1218] = 1037
degree[1217] = 750, pos[1217] = 718
degree[1216] = 749, pos[1216] = 5
degree[1215] = 747, pos[1215] = 930
degree[1214] = 746, pos[1214] = 632
degree[1213] = 745, pos[1213] = 330
degree[1212] = 744, pos[1212] = 1069
degree[1211] = 743, pos[1211] = 292
degree[1210] = 742, pos[1210] = 60
degree[1209] = 741, pos[1209] = 1375
degree[1208] = 740, pos[1208] = 579
degree[1207] = 738, pos[1207] = 316
degree[1206] = 737, pos[1206] = 1487
degree[1205] = 737, pos[1205] = 485
degree[1204] = 735, pos[1204] = 759
degree[1203] = 733, pos[1203] = 944
degree[1202] = 732, pos[1202] = 1056
degree[1201] = 729, pos[1201] = 1291
degree[1200] = 729, pos[1200] = 1010
degree[1199] = 727, pos[1199] = 974
degree[1198] = 727, pos[1198] = 704
degree[1197] = 726, pos[1197] = 55
degree[1196] = 724, pos[1196] = 313
degree[1195] = 723, pos[1195] = 824
degree[1194] = 721, pos[1194] = 801
degree[1193] = 720, pos[1193] = 775
degree[1192] = 718, pos[1192] = 1289
degree[1191] = 718, pos[1191] = 1055
degree[1190] = 717, pos[1190] = 287
degree[1189] = 715, pos[1189] = 1452
degree[1188] = 715, pos[1188] = 887
degree[1187] = 713, pos[1187] = 1145
degree[1186] = 712, pos[1186] = 214
degree[1185] = 711, pos[1185] = 1261
degree[1184] = 710, pos[1184] = 519
degree[1183] = 708, pos[1183] = 1476
degree[1182] = 707, pos[1182] = 1337
degree[1181] = 706, pos[1181] = 1088
degree[1180] = 706, pos[1180] = 613
degree[1179] = 706, pos[1179] = 244
degree[1178] = 704, pos[1178] = 858
degree[1177] = 703, pos[1177] = 786
degree[1176] = 702, pos[1176] = 1293
degree[1175] = 702, pos[1175] = 836
degree[1174] = 701, pos[1174] = 104
degree[1173] = 699, pos[1173] = 1350
degree[1172] = 697, pos[1172] = 625
degree[1171] = 696, pos[1171] = 231
degree[1170] = 695, pos[1170] = 1461
degree[1169] = 695, pos[1169] = 1223
degree[1168] = 691, pos[1168] = 1315
degree[1167] = 690, pos[1167] = 1193
degree[1166] = 689, pos[1166] = 950
degree[1165] = 689, pos[1165] = 736
degree[1164] = 688, pos[1164] = 938
degree[1163] = 688, pos[1163] = 340
degree[1162] = 686, pos[1162] = 1472
degree[1161] = 685, pos[1161] = 915
degree[1160] = 684, pos[1160] = 462
degree[1159] = 684, pos[1159] = 110
degree[1158] = 682, pos[1158] = 587
degree[1157] = 681, pos[1157] = 134
degree[1156] = 679, pos[1156] = 773
degree[1155] = 678, pos[1155] = 516
degree[1154] = 677, pos[1154] = 415
degree[1153] = 676, pos[1153] = 225
degree[1152] = 674, pos[1152] = 808
degree[1151] = 674, pos[1151] = 571
degree[1150] = 673, pos[1150] = 545
degree[1149] = 672, pos[1149] = 233
degree[1148] = 670, pos[1148] = 270
degree[1147] = 670, pos[1147] = 4
degree[1146] = 668, pos[1146] = 1318
degree[1145] = 667, pos[1145] = 1433
degree[1144] = 667, pos[1144] = 700
degree[1143] = 665, pos[1143] = 964
degree[1142] = 662, pos[1142] = 698
degree[1141] = 662, pos[1141] = 326
degree[1140] = 660, pos[1140] = 1194
degree[1139] = 659, pos[1139] = 1115
degree[1138] = 659, pos[1138] = 365
degree[1137] = 657, pos[1137] = 612
degree[1136] = 656, pos[1136] = 1499
degree[1135] = 656, pos[1135] = 288
degree[1134] = 655, pos[1134] = 240
degree[1133] = 654, pos[1133] = 50
degree[1132] = 653, pos[1132] = 774
degree[1131] = 651, pos[1131] = 970
degree[1130] = 649, pos[1130] = 1376
degree[1129] = 648, pos[1129] = 747
degree[1128] = 647, pos[1128] = 1309
degree[1127] = 646, pos[1127] = 1158
degree[1126] = 645, pos[1126] = 714
degree[1125] = 643, pos[1125] = 770
degree[1124] = 642, pos[1124] = 434
degree[1123] = 641, pos[1123] = 525
degree[1122] = 639, pos[1122] = 681
degree[1121] = 638, pos[1121] = 684
degree[1120] = 637, pos[1120] = 575
degree[1119] = 636, pos[1119] = 945
degree[1118] = 635, pos[1118] = 1171
degree[1117] = 634, pos[1117] = 291
degree[1116] = 633, pos[1116] = 1014
degree[1115] = 633, pos[1115] = 241
degree[1114] = 630, pos[1114] = 732
degree[1113] = 630, pos[1113] = 370
degree[1112] = 628, pos[1112] = 1408
degree[1111] = 627, pos[1111] = 1298
degree[1110] = 627, pos[1110] = 331
degree[1109] = 625, pos[1109] = 1273
degree[1108] = 624, pos[1108] = 863
degree[1107] = 623, pos[1107] = 1385
degree[1106] = 622, pos[1106] = 472
degree[1105] = 621, pos[1105] = 306
degree[1104] = 620, pos[1104] = 86
degree[1103] = 619, pos[1103] = 976
degree[1102] = 618, pos[1102] = 565
degree[1101] = 618, pos[1101] = 38
degree[1100] = 615, pos[1100] = 141
degree[1099] = 613, pos[1099] = 1064
degree[1098] = 613, pos[1098] = 397
degree[1097] = 611, pos[1097] = 1197
degree[1096] = 611, pos[1096] = 951
degree[1095] = 609, pos[1095] = 379
degree[1094] = 606, pos[1094] = 1423
degree[1093] = 605, pos[1093] = 1490
degree[1092] = 605, pos[1092] = 518
degree[1091] = 603, pos[1091] = 937
degree[1090] = 602, pos[1090] = 1359
degree[1089] = 601, pos[1089] = 1041
degree[1088] = 599, pos[1088] = 1303
degree[1087] = 598, pos[1087] = 1052
degree[1086] = 598, pos[1086] = 224
degree[1085] = 597, pos[1085] = 1000
degree[1084] = 595, pos[1084] = 934
degree[1083] = 594, pos[1083] = 928
degree[1082] = 593, pos[1082] = 135
degree[1081] = 592, pos[1081] = 674
degree[1080] = 591, pos[1080] = 822
degree[1079] = 591, pos[1079] = 144
degree[1078] = 590, pos[1078] = 446
degree[1077] = 589, pos[1077] = 94
degree[1076] = 587, pos[1076] = 949
degree[1075] = 587, pos[1075] = 850
degree[1074] = 586, pos[1074] = 740
degree[1073] = 586, pos[1073] = 237
degree[1072] = 585, pos[1072] = 721
degree[1071] = 584, pos[1071] = 294
degree[1070] = 583, pos[1070] = 115
degree[1069] = 581, pos[1069] = 1353
degree[1068] = 580, pos[1068] = 935
degree[1067] = 579, pos[1067] = 1338
degree[1066] = 579, pos[1066] = 312
degree[1065] = 578, pos[1065] = 29
degree[1064] = 577, pos[1064] = 9
degree[1063] = 576, pos[1063] = 41
degree[1062] = 575, pos[1062] = 835
degree[1061] = 574, pos[1061] = 965
degree[1060] = 574, pos[1060] = 597
degree[1059] = 572, pos[1059] = 672
degree[1058] = 572, pos[1058] = 258
degree[1057] = 571, pos[1057] = 590
degree[1056] = 569, pos[1056] = 382
degree[1055] = 568, pos[1055] = 1063
degree[1054] = 567, pos[1054] = 167
degree[1053] = 566, pos[1053] = 476
degree[1052] = 564, pos[1052] = 1304
degree[1051] = 564, pos[1051] = 1149
degree[1050] = 563, pos[1050] = 527
degree[1049] = 561, pos[1049] = 1474
degree[1048] = 560, pos[1048] = 1371
degree[1047] = 559, pos[1047] = 1138
degree[1046] = 559, pos[1046] = 929
degree[1045] = 556, pos[1045] = 1007
degree[1044] = 556, pos[1044] = 486
degree[1043] = 555, pos[1043] = 1347
degree[1042] = 553, pos[1042] = 589
degree[1041] = 552, pos[1041] = 477
degree[1040] = 551, pos[1040] = 77
degree[1039] = 550, pos[1039] = 1328
degree[1038] = 549, pos[1038] = 972
degree[1037] = 548, pos[1037] = 787
degree[1036] = 548, pos[1036] = 121
degree[1035] = 546, pos[1035] = 1204
degree[1034] = 544, pos[1034] = 1466
degree[1033] = 543, pos[1033] = 1390
degree[1032] = 543, pos[1032] = 1306
degree[1031] = 542, pos[1031] = 705
degree[1030] = 542, pos[1030] = 1
degree[1029] = 540, pos[1029] = 631
degree[1028] = 540, pos[1028] = 524
degree[1027] = 538, pos[1027] = 341
degree[1026] = 537, pos[1026] = 208
degree[1025] = 535, pos[1025] = 1300
degree[1024] = 535, pos[1024] = 257
degree[1023] = 534, pos[1023] = 709
degree[1022] = 532, pos[1022] = 1169
degree[1021] = 531, pos[1021] = 845
degree[1020] = 529, pos[1020] = 1165
degree[1019] = 529, pos[1019] = 755
degree[1018] = 528, pos[1018] = 1155
degree[1017] = 528, pos[1017] = 584
degree[1016] = 526, pos[1016] = 574
degree[1015] = 526, pos[1015] = 336
degree[1014] = 524, pos[1014] = 1286
degree[1013] = 524, pos[1013] = 592
degree[1012] = 522, pos[1012] = 284
degree[1011] = 521, pos[1011] = 1106
degree[1010] = 520, pos[1010] = 541
degree[1009] = 518, pos[1009] = 1232
degree[1008] = 517, pos[1008] = 1407
degree[1007] = 517, pos[1007] = 1092
degree[1006] = 516, pos[1006] = 411
degree[1005] = 514, pos[1005] = 650
degree[1004] = 513, pos[1004] = 583
degree[1003] = 512, pos[1003] = 1290
degree[1002] = 512, pos[1002] = 448
degree[1001] = 510, pos[1001] = 250
degree[1000] = 509, pos[1000] = 483
degree[999] = 507, pos[999] = 1123
degree[998] = 505, pos[998] = 805
degree[997] = 505, pos[997] = 500
degree[996] = 502, pos[996] = 1271
degree[995] = 501, pos[995] = 772
degree[994] = 501, pos[994] = 719
degree[993] = 499, pos[993] = 903
degree[992] = 498, pos[992] = 1113
degree[991] = 498, pos[991] = 481
degree[990] = 497, pos[990] = 1413
degree[989] = 497, pos[989] = 806
degree[988] = 495, pos[988] = 676
degree[987] = 494, pos[987] = 544
degree[986] = 493, pos[986] = 210
degree[985] = 492, pos[985] = 999
degree[984] = 491, pos[984] = 855
degree[983] = 490, pos[983] = 680
degree[982] = 489, pos[982] = 952
degree[981] = 488, pos[981] = 498
degree[980] = 487, pos[980] = 640
degree[979] = 487, pos[979] = 37
degree[978] = 485, pos[978] = 1157
degree[977] = 485, pos[977] = 342
degree[976] = 484, pos[976] = 85
degree[975] = 482, pos[975] = 1059
degree[974] = 482, pos[974] = 992
degree[973] = 480, pos[973] = 896
degree[972] = 480, pos[972] = 641
degree[971] = 479, pos[971] = 511
degree[970] = 478, pos[970] = 254
degree[969] = 477, pos[969] = 68
degree[968] = 476, pos[968] = 1013
degree[967] = 475, pos[967] = 961
degree[966] = 474, pos[966] = 1366
degree[965] = 473, pos[965] = 1479
degree[964] = 472, pos[964] = 1437
degree[963] = 472, pos[963] = 339
degree[962] = 471, pos[962] = 1427
degree[961] = 471, pos[961] = 885
degree[960] = 470, pos[960] = 109
degree[959] = 468, pos[959] = 870
degree[958] = 468, pos[958] = 756
degree[957] = 466, pos[957] = 1421
degree[956] = 466, pos[956] = 222
degree[955] = 465, pos[955] = 1313
degree[954] = 464, pos[954] = 1039
degree[953] = 464, pos[953] = 720
degree[952] = 463, pos[952] = 1386
degree[951] = 463, pos[951] = 692
degree[950] = 460, pos[950] = 1241
degree[949] = 460, pos[949] = 175
degree[948] = 458, pos[948] = 804
degree[947] = 456, pos[947] = 1465
degree[946] = 456, pos[946] = 1259
degree[945] = 456, pos[945] = 848
degree[944] = 454, pos[944] = 1274
degree[943] = 453, pos[943] = 706
degree[942] = 452, pos[942] = 1494
degree[941] = 451, pos[941] = 1397
degree[940] = 450, pos[940] = 1380
degree[939] = 449, pos[939] = 1340
degree[938] = 448, pos[938] = 1346
degree[937] = 448, pos[937] = 442
degree[936] = 447, pos[936] = 910
degree[935] = 446, pos[935] = 480
degree[934] = 445, pos[934] = 1167
degree[933] = 444, pos[933] = 767
degree[932] = 443, pos[932] = 122
degree[931] = 441, pos[931] = 963
degree[930] = 441, pos[930] = 779
degree[929] = 441, pos[929] = 247
degree[928] = 438, pos[928] = 1084
degree[927] = 438, pos[927] = 154
degree[926] = 437, pos[926] = 1409
degree[925] = 436, pos[925] = 1132
degree[924] = 436, pos[924] = 667
degree[923] = 434, pos[923] = 582
degree[922] = 434, pos[922] = 90
degree[921] = 431, pos[921] = 1491
degree[920] = 431, pos[920] = 762
degree[919] = 431, pos[919] = 108
degree[918] = 430, pos[918] = 79
degree[917] = 429, pos[917] = 278
degree[916] = 428, pos[916] = 839
degree[915] = 427, pos[915] = 1222
degree[914] = 426, pos[914] = 1184
degree[913] = 426, pos[913] = 842
degree[912] = 425, pos[912] = 249
degree[911] = 423, pos[911] = 1292
degree[910] = 422, pos[910] = 1335
degree[909] = 422, pos[909] = 716
degree[908] = 421, pos[908] = 626
degree[907] = 420, pos[907] = 1374
degree[906] = 419, pos[906] = 1021
degree[905] = 419, pos[905] = 408
degree[904] = 418, pos[904] = 1143
degree[903] = 418, pos[903] = 771
degree[902] = 417, pos[902] = 400
degree[901] = 417, pos[901] = 191
degree[900] = 415, pos[900] = 490
degree[899] = 414, pos[899] = 1185
degree[898] = 412, pos[898] = 1488
degree[897] = 411, pos[897] = 1277
degree[896] = 410, pos[896] = 1072
degree[895] = 410, pos[895] = 1015
degree[894] = 410, pos[894] = 265
degree[893] = 408, pos[893] = 1382
degree[892] = 408, pos[892] = 203
degree[891] = 407, pos[891] = 1105
degree[890] = 406, pos[890] = 882
degree[889] = 406, pos[889] = 201
degree[888] = 405, pos[888] = 874
degree[887] = 405, pos[887] = 860
degree[886] = 405, pos[886] = 327
degree[885] = 401, pos[885] = 1495
degree[884] = 401, pos[884] = 914
degree[883] = 401, pos[883] = 117
degree[882] = 401, pos[882] = 52
degree[881] = 399, pos[881] = 482
degree[880] = 398, pos[880] = 1016
degree[879] = 398, pos[879] = 49
degree[878] = 396, pos[878] = 1457
degree[877] = 396, pos[877] = 751
degree[876] = 395, pos[876] = 1124
degree[875] = 394, pos[875] = 324
degree[874] = 393, pos[874] = 1060
degree[873] = 393, pos[873] = 319
degree[872] = 391, pos[872] = 1447
degree[871] = 391, pos[871] = 531
degree[870] = 391, pos[870] = 100
degree[869] = 389, pos[869] = 1067
degree[868] = 389, pos[868] = 975
degree[867] = 389, pos[867] = 445
degree[866] = 387, pos[866] = 1323
degree[865] = 386, pos[865] = 1202
degree[864] = 386, pos[864] = 562
degree[863] = 384, pos[863] = 300
degree[862] = 383, pos[862] = 776
degree[861] = 383, pos[861] = 741
degree[860] = 381, pos[860] = 1031
degree[859] = 380, pos[859] = 1183
degree[858] = 380, pos[858] = 980
degree[857] = 379, pos[857] = 819
degree[856] = 379, pos[856] = 160
degree[855] = 377, pos[855] = 1263
degree[854] = 377, pos[854] = 533
degree[853] = 376, pos[853] = 466
degree[852] = 375, pos[852] = 735
degree[851] = 374, pos[851] = 1137
degree[850] = 374, pos[850] = 207
degree[849] = 372, pos[849] = 407
degree[848] = 371, pos[848] = 264
degree[847] = 371, pos[847] = 200
degree[846] = 371, pos[846] = 192
degree[845] = 368, pos[845] = 129
degree[844] = 366, pos[844] = 1464
degree[843] = 365, pos[843] = 710
degree[842] = 364, pos[842] = 1426
degree[841] = 364, pos[841] = 494
degree[840] = 363, pos[840] = 334
degree[839] = 362, pos[839] = 186
degree[838] = 361, pos[838] = 412
degree[837] = 360, pos[837] = 88
degree[836] = 360, pos[836] = 54
degree[835] = 358, pos[835] = 918
degree[834] = 357, pos[834] = 564
degree[833] = 356, pos[833] = 1370
degree[832] = 356, pos[832] = 1230
degree[831] = 355, pos[831] = 701
degree[830] = 354, pos[830] = 891
degree[829] = 352, pos[829] = 620
degree[828] = 351, pos[828] = 778
degree[827] = 351, pos[827] = 542
degree[826] = 350, pos[826] = 537
degree[825] = 349, pos[825] = 202
degree[824] = 347, pos[824] = 128
degree[823] = 346, pos[823] = 567
degree[822] = 346, pos[822] = 139
degree[821] = 346, pos[821] = 66
degree[820] = 344, pos[820] = 1295
degree[819] = 344, pos[819] = 183
degree[818] = 343, pos[818] = 707
degree[817] = 341, pos[817] = 668
degree[816] = 341, pos[816] = 103
degree[815] = 340, pos[815] = 789
degree[814] = 338, pos[814] = 1245
degree[813] = 338, pos[813] = 627
degree[812] = 337, pos[812] = 1249
degree[811] = 337, pos[811] = 687
degree[810] = 336, pos[810] = 879
degree[809] = 335, pos[809] = 189
degree[808] = 334, pos[808] = 465
degree[807] = 333, pos[807] = 1231
degree[806] = 333, pos[806] = 46
degree[805] = 330, pos[805] = 1383
degree[804] = 330, pos[804] = 1229
degree[803] = 328, pos[803] = 1195
degree[802] = 328, pos[802] = 143
degree[801] = 325, pos[801] = 1478
degree[800] = 325, pos[800] = 1196
degree[799] = 324, pos[799] = 917
degree[798] = 323, pos[798] = 1471
degree[797] = 322, pos[797] = 1154
degree[796] = 322, pos[796] = 932
degree[795] = 322, pos[795] = 392
degree[794] = 320, pos[794] = 1023
degree[793] = 320, pos[793] = 19
degree[792] = 319, pos[792] = 677
degree[791] = 318, pos[791] = 1434
degree[790] = 316, pos[790] = 1180
degree[789] = 315, pos[789] = 1110
degree[788] = 315, pos[788] = 628
degree[787] = 315, pos[787] = 372
degree[786] = 314, pos[786] = 499
degree[785] = 312, pos[785] = 1364
degree[784] = 312, pos[784] = 760
degree[783] = 310, pos[783] = 790
degree[782] = 310, pos[782] = 366
degree[781] = 308, pos[781] = 1438
degree[780] = 307, pos[780] = 1481
degree[779] = 307, pos[779] = 1417
degree[778] = 306, pos[778] = 1218
degree[777] = 306, pos[777] = 195
degree[776] = 305, pos[776] = 1284
degree[775] = 305, pos[775] = 1173
degree[774] = 304, pos[774] = 987
degree[773] = 304, pos[773] = 7
degree[772] = 303, pos[772] = 320
degree[771] = 302, pos[771] = 638
degree[770] = 300, pos[770] = 1136
degree[769] = 300, pos[769] = 468
degree[768] = 299, pos[768] = 1073
degree[767] = 299, pos[767] = 112
degree[766] = 298, pos[766] = 317
degree[765] = 296, pos[765] = 1424
degree[764] = 295, pos[764] = 869
degree[763] = 294, pos[763] = 1339
degree[762] = 294, pos[762] = 820
degree[761] = 292, pos[761] = 1128
degree[760] = 292, pos[760] = 821
degree[759] = 291, pos[759] = 343
degree[758] = 290, pos[758] = 1142
degree[757] = 290, pos[757] = 922
degree[756] = 289, pos[756] = 1256
degree[755] = 289, pos[755] = 585
degree[754] = 288, pos[754] = 180
degree[753] = 288, pos[753] = 62
degree[752] = 285, pos[752] = 1348
degree[751] = 285, pos[751] = 644
degree[750] = 285, pos[750] = 106
degree[749] = 283, pos[749] = 1344
degree[748] = 283, pos[748] = 569
degree[747] = 283, pos[747] = 34
degree[746] = 282, pos[746] = 1378
degree[745] = 282, pos[745] = 1103
degree[744] = 280, pos[744] = 1285
degree[743] = 280, pos[743] = 1140
degree[742] = 277, pos[742] = 1221
degree[741] = 276, pos[741] = 788
degree[740] = 276, pos[740] = 615
degree[739] = 276, pos[739] = 431
degree[738] = 275, pos[738] = 11
degree[737] = 274, pos[737] = 629
degree[736] = 273, pos[736] = 588
degree[735] = 273, pos[735] = 142
degree[734] = 272, pos[734] = 1441
degree[733] = 271, pos[733] = 1405
degree[732] = 271, pos[732] = 1305
degree[731] = 271, pos[731] = 1130
degree[730] = 270, pos[730] = 223
degree[729] = 269, pos[729] = 8
degree[728] = 268, pos[728] = 221
degree[727] = 267, pos[727] = 540
degree[726] = 267, pos[726] = 470
degree[725] = 265, pos[725] = 1242
degree[724] = 264, pos[724] = 941
degree[723] = 264, pos[723] = 116
degree[722] = 264, pos[722] = 76
degree[721] = 263, pos[721] = 859
degree[720] = 261, pos[720] = 1135
degree[719] = 260, pos[719] = 1416
degree[718] = 260, pos[718] = 1163
degree[717] = 259, pos[717] = 1240
degree[716] = 259, pos[716] = 1085
degree[715] = 258, pos[715] = 512
degree[714] = 257, pos[714] = 599
degree[713] = 256, pos[713] = 51
degree[712] = 255, pos[712] = 1336
degree[711] = 254, pos[711] = 1187
degree[710] = 254, pos[710] = 552
degree[709] = 253, pos[709] = 971
degree[708] = 253, pos[708] = 305
degree[707] = 252, pos[707] = 655
degree[706] = 251, pos[706] = 570
degree[705] = 251, pos[705] = 348
degree[704] = 250, pos[704] = 1087
degree[703] = 250, pos[703] = 547
degree[702] = 249, pos[702] = 1044
degree[701] = 248, pos[701] = 1153
degree[700] = 247, pos[700] = 1429
degree[699] = 247, pos[699] = 866
degree[698] = 246, pos[698] = 594
degree[697] = 245, pos[697] = 884
degree[696] = 243, pos[696] = 467
degree[695] = 242, pos[695] = 1498
degree[694] = 242, pos[694] = 478
degree[693] = 241, pos[693] = 726
degree[692] = 241, pos[692] = 506
degree[691] = 240, pos[691] = 1212
degree[690] = 240, pos[690] = 1011
degree[689] = 239, pos[689] = 581
degree[688] = 238, pos[688] = 624
degree[687] = 237, pos[687] = 1361
degree[686] = 236, pos[686] = 409
degree[685] = 235, pos[685] = 1314
degree[684] = 235, pos[684] = 712
degree[683] = 234, pos[683] = 642
degree[682] = 234, pos[682] = 22
degree[681] = 233, pos[681] = 269
degree[680] = 232, pos[680] = 1373
degree[679] = 232, pos[679] = 32
degree[678] = 231, pos[678] = 1496
degree[677] = 231, pos[677] = 163
degree[676] = 230, pos[676] = 1497
degree[675] = 229, pos[675] = 91
degree[674] = 228, pos[674] = 1257
degree[673] = 227, pos[673] = 792
degree[672] = 227, pos[672] = 420
degree[671] = 226, pos[671] = 991
degree[670] = 226, pos[670] = 546
degree[669] = 226, pos[669] = 101
degree[668] = 225, pos[668] = 493
degree[667] = 224, pos[667] = 1351
degree[666] = 224, pos[666] = 591
degree[665] = 223, pos[665] = 205
degree[664] = 222, pos[664] = 1076
degree[663] = 221, pos[663] = 1282
degree[662] = 220, pos[662] = 1146
degree[661] = 220, pos[661] = 503
degree[660] = 220, pos[660] = 387
degree[659] = 220, pos[659] = 344
degree[658] = 218, pos[658] = 689
degree[657] = 218, pos[657] = 643
degree[656] = 217, pos[656] = 1099
degree[655] = 217, pos[655] = 374
degree[654] = 216, pos[654] = 469
degree[653] = 216, pos[653] = 373
degree[652] = 215, pos[652] = 218
degree[651] = 214, pos[651] = 204
degree[650] = 213, pos[650] = 1200
degree[649] = 212, pos[649] = 1025
degree[648] = 212, pos[648] = 126
degree[647] = 211, pos[647] = 593
degree[646] = 210, pos[646] = 664
degree[645] = 209, pos[645] = 1321
degree[644] = 209, pos[644] = 282
degree[643] = 208, pos[643] = 1211
degree[642] = 207, pos[642] = 713
degree[641] = 207, pos[641] = 70
degree[640] = 205, pos[640] = 993
degree[639] = 205, pos[639] = 120
degree[638] = 204, pos[638] = 1425
degree[637] = 202, pos[637] = 1096
degree[636] = 201, pos[636] = 1331
degree[635] = 201, pos[635] = 694
degree[634] = 200, pos[634] = 199
degree[633] = 198, pos[633] = 968
degree[632] = 197, pos[632] = 1294
degree[631] = 197, pos[631] = 831
degree[630] = 197, pos[630] = 123
degree[629] = 196, pos[629] = 926
degree[628] = 195, pos[628] = 3
degree[627] = 194, pos[627] = 1453
degree[626] = 193, pos[626] = 1297
degree[625] = 193, pos[625] = 1125
degree[624] = 193, pos[624] = 880
degree[623] = 192, pos[623] = 1281
degree[622] = 192, pos[622] = 295
degree[621] = 190, pos[621] = 405
degree[620] = 190, pos[620] = 235
degree[619] = 188, pos[619] = 1349
degree[618] = 188, pos[618] = 846
degree[617] = 188, pos[617] = 604
degree[616] = 188, pos[616] = 234
degree[615] = 187, pos[615] = 995
degree[614] = 186, pos[614] = 871
degree[613] = 186, pos[613] = 607
degree[612] = 185, pos[612] = 502
degree[611] = 185, pos[611] = 315
degree[610] = 184, pos[610] = 479
degree[609] = 184, pos[609] = 277
degree[608] = 184, pos[608] = 59
degree[607] = 181, pos[607] = 1411
degree[606] = 181, pos[606] = 957
degree[605] = 180, pos[605] = 1255
degree[604] = 180, pos[604] = 853
degree[603] = 180, pos[603] = 463
degree[602] = 179, pos[602] = 1420
degree[601] = 179, pos[601] = 1095
degree[600] = 178, pos[600] = 1131
degree[599] = 178, pos[599] = 997
degree[598] = 178, pos[598] = 609
degree[597] = 177, pos[597] = 1473
degree[596] = 177, pos[596] = 645
degree[595] = 176, pos[595] = 1422
degree[594] = 176, pos[594] = 1203
degree[593] = 176, pos[593] = 15
degree[592] = 174, pos[592] = 293
degree[591] = 173, pos[591] = 1188
degree[590] = 173, pos[590] = 1057
degree[589] = 172, pos[589] = 757
degree[588] = 171, pos[588] = 1419
degree[587] = 171, pos[587] = 1159
degree[586] = 170, pos[586] = 878
degree[585] = 169, pos[585] = 723
degree[584] = 168, pos[584] = 1219
degree[583] = 168, pos[583] = 603
degree[582] = 168, pos[582] = 145
degree[581] = 168, pos[581] = 26
degree[580] = 167, pos[580] = 259
degree[579] = 166, pos[579] = 1401
degree[578] = 166, pos[578] = 1102
degree[577] = 166, pos[577] = 659
degree[576] = 164, pos[576] = 268
degree[575] = 163, pos[575] = 1121
degree[574] = 163, pos[574] = 1101
degree[573] = 162, pos[573] = 1445
degree[572] = 162, pos[572] = 1225
degree[571] = 162, pos[571] = 894
degree[570] = 160, pos[570] = 750
degree[569] = 160, pos[569] = 456
degree[568] = 159, pos[568] = 1220
degree[567] = 159, pos[567] = 686
degree[566] = 158, pos[566] = 660
degree[565] = 158, pos[565] = 338
degree[564] = 158, pos[564] = 335
degree[563] = 157, pos[563] = 309
degree[562] = 156, pos[562] = 364
degree[561] = 156, pos[561] = 27
degree[560] = 155, pos[560] = 1235
degree[559] = 155, pos[559] = 978
degree[558] = 155, pos[558] = 389
degree[557] = 154, pos[557] = 1080
degree[556] = 153, pos[556] = 125
degree[555] = 151, pos[555] = 1238
degree[554] = 151, pos[554] = 1091
degree[553] = 151, pos[553] = 984
degree[552] = 150, pos[552] = 39
degree[551] = 149, pos[551] = 920
degree[550] = 149, pos[550] = 890
degree[549] = 148, pos[549] = 1107
degree[548] = 148, pos[548] = 893
degree[547] = 148, pos[547] = 648
degree[546] = 147, pos[546] = 1168
degree[545] = 147, pos[545] = 734
degree[544] = 147, pos[544] = 302
degree[543] = 146, pos[543] = 1079
degree[542] = 145, pos[542] = 1392
degree[541] = 145, pos[541] = 1369
degree[540] = 145, pos[540] = 1217
degree[539] = 145, pos[539] = 623
degree[538] = 143, pos[538] = 1213
degree[537] = 143, pos[537] = 622
degree[536] = 143, pos[536] = 515
degree[535] = 143, pos[535] = 444
degree[534] = 142, pos[534] = 182
degree[533] = 140, pos[533] = 857
degree[532] = 139, pos[532] = 1269
degree[531] = 139, pos[531] = 410
degree[530] = 138, pos[530] = 1093
degree[529] = 138, pos[529] = 359
degree[528] = 138, pos[528] = 322
degree[527] = 137, pos[527] = 1442
degree[526] = 137, pos[526] = 990
degree[525] = 136, pos[525] = 872
degree[524] = 135, pos[524] = 1139
degree[523] = 135, pos[523] = 696
degree[522] = 134, pos[522] = 1440
degree[521] = 134, pos[521] = 988
degree[520] = 134, pos[520] = 337
degree[519] = 133, pos[519] = 829
degree[518] = 132, pos[518] = 1250
degree[517] = 131, pos[517] = 849
degree[516] = 131, pos[516] = 197
degree[515] = 130, pos[515] = 505
degree[514] = 130, pos[514] = 20
degree[513] = 129, pos[513] = 510
degree[512] = 128, pos[512] = 725
degree[511] = 128, pos[511] = 198
degree[510] = 127, pos[510] = 1192
degree[509] = 127, pos[509] = 794
degree[508] = 127, pos[508] = 253
degree[507] = 126, pos[507] = 440
degree[506] = 125, pos[506] = 1003
degree[505] = 125, pos[505] = 948
degree[504] = 124, pos[504] = 535
degree[503] = 124, pos[503] = 137
degree[502] = 123, pos[502] = 1122
degree[501] = 123, pos[501] = 281
degree[500] = 122, pos[500] = 1325
degree[499] = 122, pos[499] = 1209
degree[498] = 122, pos[498] = 1070
degree[497] = 122, pos[497] = 953
degree[496] = 121, pos[496] = 826
degree[495] = 120, pos[495] = 1226
degree[494] = 120, pos[494] = 909
degree[493] = 120, pos[493] = 746
degree[492] = 119, pos[492] = 171
degree[491] = 119, pos[491] = 149
degree[490] = 118, pos[490] = 913
degree[489] = 118, pos[489] = 601
degree[488] = 117, pos[488] = 1022
degree[487] = 117, pos[487] = 703
degree[486] = 116, pos[486] = 376
degree[485] = 115, pos[485] = 1455
degree[484] = 115, pos[484] = 460
degree[483] = 115, pos[483] = 283
degree[482] = 115, pos[482] = 170
degree[481] = 114, pos[481] = 146
degree[480] = 113, pos[480] = 1174
degree[479] = 113, pos[479] = 900
degree[478] = 112, pos[478] = 1074
degree[477] = 112, pos[477] = 763
degree[476] = 112, pos[476] = 553
degree[475] = 112, pos[475] = 323
degree[474] = 111, pos[474] = 1053
degree[473] = 111, pos[473] = 793
degree[472] = 110, pos[472] = 521
degree[471] = 110, pos[471] = 211
degree[470] = 109, pos[470] = 1436
degree[469] = 109, pos[469] = 1176
degree[468] = 108, pos[468] = 1345
degree[467] = 108, pos[467] = 912
degree[466] = 107, pos[466] = 1469
degree[465] = 107, pos[465] = 459
degree[464] = 107, pos[464] = 404
degree[463] = 106, pos[463] = 966
degree[462] = 105, pos[462] = 453
degree[461] = 105, pos[461] = 40
degree[460] = 104, pos[460] = 1191
degree[459] = 104, pos[459] = 983
degree[458] = 103, pos[458] = 883
degree[457] = 103, pos[457] = 873
degree[456] = 103, pos[456] = 595
degree[455] = 102, pos[455] = 358
degree[454] = 102, pos[454] = 266
degree[453] = 101, pos[453] = 1043
degree[452] = 101, pos[452] = 436
degree[451] = 100, pos[451] = 911
degree[450] = 100, pos[450] = 666
degree[449] = 99, pos[449] = 1206
degree[448] = 99, pos[448] = 943
degree[447] = 99, pos[447] = 830
degree[446] = 98, pos[446] = 347
degree[445] = 97, pos[445] = 902
degree[444] = 97, pos[444] = 856
degree[443] = 97, pos[443] = 383
degree[442] = 97, pos[442] = 314
degree[441] = 97, pos[441] = 150
degree[440] = 96, pos[440] = 538
degree[439] = 96, pos[439] = 63
degree[438] = 95, pos[438] = 1054
degree[437] = 95, pos[437] = 363
degree[436] = 94, pos[436] = 1451
degree[435] = 94, pos[435] = 616
degree[434] = 94, pos[434] = 611
degree[433] = 94, pos[433] = 403
degree[432] = 93, pos[432] = 834
degree[431] = 93, pos[431] = 384
degree[430] = 92, pos[430] = 1081
degree[429] = 92, pos[429] = 217
degree[428] = 92, pos[428] = 168
degree[427] = 91, pos[427] = 1270
degree[426] = 91, pos[426] = 780
degree[425] = 90, pos[425] = 654
degree[424] = 90, pos[424] = 298
degree[423] = 89, pos[423] = 796
degree[422] = 89, pos[422] = 633
degree[421] = 89, pos[421] = 229
degree[420] = 89, pos[420] = 73
degree[419] = 88, pos[419] = 1012
degree[418] = 88, pos[418] = 807
degree[417] = 87, pos[417] = 795
degree[416] = 87, pos[416] = 753
degree[415] = 87, pos[415] = 151
degree[414] = 86, pos[414] = 491
degree[413] = 86, pos[413] = 447
degree[412] = 85, pos[412] = 1311
degree[411] = 84, pos[411] = 406
degree[410] = 84, pos[410] = 35
degree[409] = 83, pos[409] = 1324
degree[408] = 83, pos[408] = 1283
degree[407] = 82, pos[407] = 1078
degree[406] = 82, pos[406] = 675
degree[405] = 82, pos[405] = 69
degree[404] = 81, pos[404] = 691
degree[403] = 80, pos[403] = 1365
degree[402] = 80, pos[402] = 131
degree[401] = 79, pos[401] = 1224
degree[400] = 79, pos[400] = 246
degree[399] = 78, pos[399] = 637
degree[398] = 78, pos[398] = 450
degree[397] = 78, pos[397] = 286
degree[396] = 78, pos[396] = 206
degree[395] = 77, pos[395] = 310
degree[394] = 77, pos[394] = 177
degree[393] = 76, pos[393] = 1403
degree[392] = 75, pos[392] = 1381
degree[391] = 75, pos[391] = 1276
degree[390] = 75, pos[390] = 568
degree[389] = 74, pos[389] = 1372
degree[388] = 74, pos[388] = 923
degree[387] = 74, pos[387] = 580
degree[386] = 74, pos[386] = 156
degree[385] = 73, pos[385] = 1330
degree[384] = 73, pos[384] = 673
degree[383] = 73, pos[383] = 87
degree[382] = 72, pos[382] = 636
degree[381] = 72, pos[381] = 566
degree[380] = 72, pos[380] = 236
degree[379] = 71, pos[379] = 868
degree[378] = 71, pos[378] = 80
degree[377] = 70, pos[377] = 864
degree[376] = 70, pos[376] = 248
degree[375] = 70, pos[375] = 13
degree[374] = 69, pos[374] = 797
degree[373] = 68, pos[373] = 865
degree[372] = 68, pos[372] = 578
degree[371] = 68, pos[371] = 435
degree[370] = 67, pos[370] = 1468
degree[369] = 67, pos[369] = 1268
degree[368] = 67, pos[368] = 394
degree[367] = 66, pos[367] = 1312
degree[366] = 66, pos[366] = 176
degree[365] = 65, pos[365] = 1210
degree[364] = 65, pos[364] = 514
degree[363] = 65, pos[363] = 262
degree[362] = 64, pos[362] = 1358
degree[361] = 64, pos[361] = 1141
degree[360] = 64, pos[360] = 1129
degree[359] = 64, pos[359] = 715
degree[358] = 63, pos[358] = 875
degree[357] = 63, pos[357] = 504
degree[356] = 62, pos[356] = 1431
degree[355] = 61, pos[355] = 1233
degree[354] = 61, pos[354] = 487
degree[353] = 61, pos[353] = 356
degree[352] = 61, pos[352] = 299
degree[351] = 61, pos[351] = 272
degree[350] = 61, pos[350] = 187
degree[349] = 60, pos[349] = 799
degree[348] = 60, pos[348] = 107
degree[347] = 59, pos[347] = 1186
degree[346] = 59, pos[346] = 1114
degree[345] = 59, pos[345] = 600
degree[344] = 58, pos[344] = 1399
degree[343] = 58, pos[343] = 602
degree[342] = 57, pos[342] = 1443
degree[341] = 57, pos[341] = 800
degree[340] = 57, pos[340] = 321
degree[339] = 57, pos[339] = 252
degree[338] = 56, pos[338] = 956
degree[337] = 56, pos[337] = 457
degree[336] = 55, pos[336] = 1062
degree[335] = 55, pos[335] = 924
degree[334] = 54, pos[334] = 1118
degree[333] = 54, pos[333] = 1111
degree[332] = 54, pos[332] = 663
degree[331] = 54, pos[331] = 53
degree[330] = 53, pos[330] = 708
degree[329] = 53, pos[329] = 618
degree[328] = 53, pos[328] = 596
degree[327] = 53, pos[327] = 215
degree[326] = 52, pos[326] = 1065
degree[325] = 52, pos[325] = 1032
degree[324] = 52, pos[324] = 497
degree[323] = 52, pos[323] = 333
degree[322] = 52, pos[322] = 16
degree[321] = 51, pos[321] = 228
degree[320] = 51, pos[320] = 166
degree[319] = 51, pos[319] = 56
degree[318] = 50, pos[318] = 1377
degree[317] = 50, pos[317] = 1009
degree[316] = 49, pos[316] = 1251
degree[315] = 49, pos[315] = 550
degree[314] = 49, pos[314] = 279
degree[313] = 48, pos[313] = 969
degree[312] = 48, pos[312] = 942
degree[311] = 48, pos[311] = 665
degree[310] = 47, pos[310] = 1379
degree[309] = 47, pos[309] = 898
degree[308] = 47, pos[308] = 843
degree[307] = 47, pos[307] = 119
degree[306] = 47, pos[306] = 97
degree[305] = 46, pos[305] = 904
degree[304] = 46, pos[304] = 828
degree[303] = 46, pos[303] = 634
degree[302] = 46, pos[302] = 354
degree[301] = 46, pos[301] = 212
degree[300] = 45, pos[300] = 1357
degree[299] = 45, pos[299] = 1179
degree[298] = 45, pos[298] = 1077
degree[297] = 45, pos[297] = 455
degree[296] = 45, pos[296] = 378
degree[295] = 45, pos[295] = 332
degree[294] = 45, pos[294] = 274
degree[293] = 44, pos[293] = 555
degree[292] = 43, pos[292] = 526
degree[291] = 42, pos[291] = 671
degree[290] = 41, pos[290] = 1444
degree[289] = 41, pos[289] = 451
degree[288] = 41, pos[288] = 441
degree[287] = 40, pos[287] = 1446
degree[286] = 40, pos[286] = 729
degree[285] = 40, pos[285] = 717
degree[284] = 39, pos[284] = 1237
degree[283] = 39, pos[283] = 1201
degree[282] = 39, pos[282] = 661
degree[281] = 39, pos[281] = 328
degree[280] = 38, pos[280] = 1027
degree[279] = 38, pos[279] = 782
degree[278] = 38, pos[278] = 418
degree[277] = 37, pos[277] = 1198
degree[276] = 37, pos[276] = 1161
degree[275] = 37, pos[275] = 728
degree[274] = 37, pos[274] = 368
degree[273] = 37, pos[273] = 96
degree[272] = 36, pos[272] = 998
degree[271] = 36, pos[271] = 635
degree[270] = 36, pos[270] = 194
degree[269] = 35, pos[269] = 1112
degree[268] = 35, pos[268] = 352
degree[267] = 35, pos[267] = 47
degree[266] = 34, pos[266] = 1406
degree[265] = 34, pos[265] = 1127
degree[264] = 34, pos[264] = 1116
degree[263] = 34, pos[263] = 743
degree[262] = 34, pos[262] = 639
degree[261] = 33, pos[261] = 816
degree[260] = 32, pos[260] = 1310
degree[259] = 32, pos[259] = 1126
degree[258] = 32, pos[258] = 649
degree[257] = 32, pos[257] = 242
degree[256] = 31, pos[256] = 1181
degree[255] = 31, pos[255] = 933
degree[254] = 31, pos[254] = 815
degree[253] = 31, pos[253] = 367
degree[252] = 31, pos[252] = 31
degree[251] = 31, pos[251] = 2
degree[250] = 30, pos[250] = 809
degree[249] = 30, pos[249] = 738
degree[248] = 30, pos[248] = 662
degree[247] = 30, pos[247] = 181
degree[246] = 30, pos[246] = 169
degree[245] = 30, pos[245] = 24
degree[244] = 29, pos[244] = 610
degree[243] = 29, pos[243] = 549
degree[242] = 29, pos[242] = 193
degree[241] = 28, pos[241] = 1449
degree[240] = 28, pos[240] = 1258
degree[239] = 28, pos[239] = 1182
degree[238] = 28, pos[238] = 1098
degree[237] = 28, pos[237] = 454
degree[236] = 27, pos[236] = 1326
degree[235] = 27, pos[235] = 1042
degree[234] = 27, pos[234] = 946
degree[233] = 27, pos[233] = 377
degree[232] = 27, pos[232] = 251
degree[231] = 26, pos[231] = 1018
degree[230] = 26, pos[230] = 606
degree[229] = 26, pos[229] = 361
degree[228] = 25, pos[228] = 1002
degree[227] = 25, pos[227] = 895
degree[226] = 25, pos[226] = 461
degree[225] = 25, pos[225] = 74
degree[224] = 24, pos[224] = 1164
degree[223] = 24, pos[223] = 495
degree[222] = 24, pos[222] = 464
degree[221] = 24, pos[221] = 297
degree[220] = 23, pos[220] = 1327
degree[219] = 23, pos[219] = 1316
degree[218] = 23, pos[218] = 1147
degree[217] = 23, pos[217] = 695
degree[216] = 23, pos[216] = 685
degree[215] = 23, pos[215] = 127
degree[214] = 23, pos[214] = 48
degree[213] = 22, pos[213] = 1035
degree[212] = 22, pos[212] = 157
degree[211] = 21, pos[211] = 1267
degree[210] = 21, pos[210] = 981
degree[209] = 21, pos[209] = 833
degree[208] = 21, pos[208] = 256
degree[207] = 21, pos[207] = 28
degree[206] = 20, pos[206] = 1462
degree[205] = 20, pos[205] = 1253
degree[204] = 20, pos[204] = 1117
degree[203] = 20, pos[203] = 832
degree[202] = 20, pos[202] = 702
degree[201] = 20, pos[201] = 362
degree[200] = 20, pos[200] = 14
degree[199] = 19, pos[199] = 1280
degree[198] = 19, pos[198] = 1097
degree[197] = 19, pos[197] = 867
degree[196] = 19, pos[196] = 658
degree[195] = 18, pos[195] = 1317
degree[194] = 18, pos[194] = 1094
degree[193] = 18, pos[193] = 1090
degree[192] = 18, pos[192] = 386
degree[191] = 18, pos[191] = 147
degree[190] = 18, pos[190] = 64
degree[189] = 18, pos[189] = 58
degree[188] = 17, pos[188] = 1460
degree[187] = 17, pos[187] = 1279
degree[186] = 17, pos[186] = 1252
degree[185] = 17, pos[185] = 1228
degree[184] = 17, pos[184] = 996
degree[183] = 17, pos[183] = 749
degree[182] = 17, pos[182] = 652
degree[181] = 16, pos[181] = 1428
degree[180] = 16, pos[180] = 1029
degree[179] = 16, pos[179] = 230
degree[178] = 16, pos[178] = 45
degree[177] = 16, pos[177] = 6
degree[176] = 15, pos[176] = 1486
degree[175] = 15, pos[175] = 1049
degree[174] = 15, pos[174] = 847
degree[173] = 15, pos[173] = 727
degree[172] = 15, pos[172] = 473
degree[171] = 14, pos[171] = 424
degree[170] = 14, pos[170] = 307
degree[169] = 14, pos[169] = 196
degree[168] = 14, pos[168] = 78
degree[167] = 13, pos[167] = 1236
degree[166] = 13, pos[166] = 1047
degree[165] = 13, pos[165] = 840
degree[164] = 13, pos[164] = 814
degree[163] = 13, pos[163] = 501
degree[162] = 13, pos[162] = 162
degree[161] = 12, pos[161] = 1396
degree[160] = 12, pos[160] = 1355
degree[159] = 12, pos[159] = 1299
degree[158] = 12, pos[158] = 1254
degree[157] = 12, pos[157] = 532
degree[156] = 12, pos[156] = 458
degree[155] = 12, pos[155] = 301
degree[154] = 12, pos[154] = 93
degree[153] = 11, pos[153] = 784
degree[152] = 11, pos[152] = 630
degree[151] = 11, pos[151] = 577
degree[150] = 11, pos[150] = 425
degree[149] = 11, pos[149] = 329
degree[148] = 10, pos[148] = 1262
degree[147] = 10, pos[147] = 1239
degree[146] = 10, pos[146] = 1024
degree[145] = 10, pos[145] = 881
degree[144] = 10, pos[144] = 861
degree[143] = 10, pos[143] = 84
degree[142] = 10, pos[142] = 23
degree[141] = 9, pos[141] = 1362
degree[140] = 9, pos[140] = 1150
degree[139] = 9, pos[139] = 1083
degree[138] = 9, pos[138] = 986
degree[137] = 9, pos[137] = 380
degree[136] = 9, pos[136] = 304
degree[135] = 8, pos[135] = 1368
degree[134] = 8, pos[134] = 1301
degree[133] = 8, pos[133] = 1189
degree[132] = 8, pos[132] = 744
degree[131] = 8, pos[131] = 573
degree[130] = 8, pos[130] = 530
degree[129] = 8, pos[129] = 517
degree[128] = 8, pos[128] = 271
degree[127] = 7, pos[127] = 1334
degree[126] = 7, pos[126] = 960
degree[125] = 7, pos[125] = 572
degree[124] = 7, pos[124] = 353
degree[123] = 6, pos[123] = 1082
degree[122] = 6, pos[122] = 979
degree[121] = 6, pos[121] = 851
degree[120] = 6, pos[120] = 733
degree[119] = 6, pos[119] = 522
degree[118] = 6, pos[118] = 381
degree[117] = 6, pos[117] = 209
degree[116] = 6, pos[116] = 188
degree[115] = 6, pos[115] = 43
degree[114] = 5, pos[114] = 1439
degree[113] = 5, pos[113] = 1265
degree[112] = 5, pos[112] = 907
degree[111] = 5, pos[111] = 812
degree[110] = 5, pos[110] = 791
degree[109] = 5, pos[109] = 783
degree[108] = 5, pos[108] = 739
degree[107] = 5, pos[107] = 678
degree[106] = 5, pos[106] = 653
degree[105] = 5, pos[105] = 430
degree[104] = 5, pos[104] = 429
degree[103] = 5, pos[103] = 179
degree[102] = 4, pos[102] = 931
degree[101] = 4, pos[101] = 785
degree[100] = 4, pos[100] = 426
degree[99] = 4, pos[99] = 398
degree[98] = 4, pos[98] = 243
degree[97] = 4, pos[97] = 98
degree[96] = 4, pos[96] = 95
degree[95] = 3, pos[95] = 1450
degree[94] = 3, pos[94] = 1400
degree[93] = 3, pos[93] = 1308
degree[92] = 3, pos[92] = 1215
degree[91] = 3, pos[91] = 994
degree[90] = 3, pos[90] = 886
degree[89] = 3, pos[89] = 854
degree[88] = 3, pos[88] = 318
degree[87] = 3, pos[87] = 161
degree[86] = 3, pos[86] = 57
degree[85] = 2, pos[85] = 1480
degree[84] = 2, pos[84] = 1454
degree[83] = 2, pos[83] = 1333
degree[82] = 2, pos[82] = 1319
degree[81] = 2, pos[81] = 1247
degree[80] = 2, pos[80] = 1214
degree[79] = 2, pos[79] = 1040
degree[78] = 2, pos[78] = 827
degree[77] = 2, pos[77] = 813
degree[76] = 2, pos[76] = 742
degree[75] = 2, pos[75] = 679
degree[74] = 2, pos[74] = 557
degree[73] = 2, pos[73] = 452
degree[72] = 2, pos[72] = 416
degree[71] = 2, pos[71] = 325
degree[70] = 2, pos[70] = 290
degree[69] = 2, pos[69] = 190
degree[68] = 2, pos[68] = 105
degree[67] = 2, pos[67] = 82
degree[66] = 2, pos[66] = 33
degree[65] = 1, pos[65] = 1485
degree[64] = 1, pos[64] = 1394
degree[63] = 1, pos[63] = 1278
degree[62] = 1, pos[62] = 1207
degree[61] = 1, pos[61] = 1205
degree[60] = 1, pos[60] = 1178
degree[59] = 1, pos[59] = 1075
degree[58] = 1, pos[58] = 777
degree[57] = 1, pos[57] = 608
degree[56] = 1, pos[56] = 534
degree[55] = 1, pos[55] = 413
degree[54] = 1, pos[54] = 399
degree[53] = 1, pos[53] = 285
degree[52] = 1, pos[52] = 184
degree[51] = 0, pos[51] = 1489
degree[50] = 0, pos[50] = 1391
degree[49] = 0, pos[49] = 1387
degree[48] = 0, pos[48] = 1367
degree[47] = 0, pos[47] = 1363
degree[46] = 0, pos[46] = 1360
degree[45] = 0, pos[45] = 1356
degree[44] = 0, pos[44] = 1354
degree[43] = 0, pos[43] = 1307
degree[42] = 0, pos[42] = 1287
degree[41] = 0, pos[41] = 1275
degree[40] = 0, pos[40] = 1244
degree[39] = 0, pos[39] = 1216
degree[38] = 0, pos[38] = 1152
degree[37] = 0, pos[37] = 1058
degree[36] = 0, pos[36] = 1050
degree[35] = 0, pos[35] = 954
degree[34] = 0, pos[34] = 940
degree[33] = 0, pos[33] = 936
degree[32] = 0, pos[32] = 838
degree[31] = 0, pos[31] = 811
degree[30] = 0, pos[30] = 798
degree[29] = 0, pos[29] = 769
degree[28] = 0, pos[28] = 765
degree[27] = 0, pos[27] = 730
degree[26] = 0, pos[26] = 693
degree[25] = 0, pos[25] = 559
degree[24] = 0, pos[24] = 556
degree[23] = 0, pos[23] = 523
degree[22] = 0, pos[22] = 508
degree[21] = 0, pos[21] = 492
degree[20] = 0, pos[20] = 488
degree[19] = 0, pos[19] = 475
degree[18] = 0, pos[18] = 423
degree[17] = 0, pos[17] = 421
degree[16] = 0, pos[16] = 417
degree[15] = 0, pos[15] = 393
degree[14] = 0, pos[14] = 375
degree[13] = 0, pos[13] = 360
degree[12] = 0, pos[12] = 280
degree[11] = 0, pos[11] = 238
degree[10] = 0, pos[10] = 226
degree[9] = 0, pos[9] = 219
degree[8] = 0, pos[8] = 158
degree[7] = 0, pos[7] = 152
degree[6] = 0, pos[6] = 140
degree[5] = 0, pos[5] = 118
degree[4] = 0, pos[4] = 65
degree[3] = 0, pos[3] = 61
degree[2] = 0, pos[2] = 21
degree[1] = 0, pos[1] = 18
degree[0] = 0, pos[0] = 17
Pos[0] = 17
Pos[1] = 18
Pos[2] = 21
Pos[3] = 61
Pos[4] = 65
Pos[5] = 118
Pos[6] = 140
Pos[7] = 152
Pos[8] = 158
Pos[9] = 219
Pos[10] = 226
Pos[11] = 238
Pos[12] = 280
Pos[13] = 360
Pos[14] = 375
Pos[15] = 393
Pos[16] = 417
Pos[17] = 421
Pos[18] = 423
Pos[19] = 475
Pos[20] = 488
Pos[21] = 492
Pos[22] = 508
Pos[23] = 523
Pos[24] = 556
Pos[25] = 559
Pos[26] = 693
Pos[27] = 730
Pos[28] = 765
Pos[29] = 769
Pos[30] = 798
Pos[31] = 811
Pos[32] = 838
Pos[33] = 936
Pos[34] = 940
Pos[35] = 954
Pos[36] = 1050
Pos[37] = 1058
Pos[38] = 1152
Pos[39] = 1216
Pos[40] = 1244
Pos[41] = 1275
Pos[42] = 1287
Pos[43] = 1307
Pos[44] = 1354
Pos[45] = 1356
Pos[46] = 1360
Pos[47] = 1363
Pos[48] = 1367
Pos[49] = 1387
Pos[50] = 1391
Pos[51] = 1489
Pos[52] = 184
Pos[53] = 285
Pos[54] = 399
Pos[55] = 413
Pos[56] = 534
Pos[57] = 608
Pos[58] = 777
Pos[59] = 1075
Pos[60] = 1178
Pos[61] = 1205
Pos[62] = 1207
Pos[63] = 1278
Pos[64] = 1394
Pos[65] = 1485
Pos[66] = 33
Pos[67] = 82
Pos[68] = 105
Pos[69] = 190
Pos[70] = 290
Pos[71] = 325
Pos[72] = 416
Pos[73] = 452
Pos[74] = 557
Pos[75] = 679
Pos[76] = 742
Pos[77] = 813
Pos[78] = 827
Pos[79] = 1040
Pos[80] = 1214
Pos[81] = 1247
Pos[82] = 1319
Pos[83] = 1333
Pos[84] = 1454
Pos[85] = 1480
Pos[86] = 57
Pos[87] = 161
Pos[88] = 318
Pos[89] = 854
Pos[90] = 886
Pos[91] = 994
Pos[92] = 1215
Pos[93] = 1308
Pos[94] = 1400
Pos[95] = 1450
Pos[96] = 95
Pos[97] = 98
Pos[98] = 243
Pos[99] = 398
Pos[100] = 426
Pos[101] = 785
Pos[102] = 931
Pos[103] = 179
Pos[104] = 429
Pos[105] = 430
Pos[106] = 653
Pos[107] = 678
Pos[108] = 739
Pos[109] = 783
Pos[110] = 791
Pos[111] = 812
Pos[112] = 907
Pos[113] = 1265
Pos[114] = 1439
Pos[115] = 43
Pos[116] = 188
Pos[117] = 209
Pos[118] = 381
Pos[119] = 522
Pos[120] = 733
Pos[121] = 851
Pos[122] = 979
Pos[123] = 1082
Pos[124] = 353
Pos[125] = 572
Pos[126] = 960
Pos[127] = 1334
Pos[128] = 271
Pos[129] = 517
Pos[130] = 530
Pos[131] = 573
Pos[132] = 744
Pos[133] = 1189
Pos[134] = 1301
Pos[135] = 1368
Pos[136] = 304
Pos[137] = 380
Pos[138] = 986
Pos[139] = 1083
Pos[140] = 1150
Pos[141] = 1362
Pos[142] = 23
Pos[143] = 84
Pos[144] = 861
Pos[145] = 881
Pos[146] = 1024
Pos[147] = 1239
Pos[148] = 1262
Pos[149] = 329
Pos[150] = 425
Pos[151] = 577
Pos[152] = 630
Pos[153] = 784
Pos[154] = 93
Pos[155] = 301
Pos[156] = 458
Pos[157] = 532
Pos[158] = 1254
Pos[159] = 1299
Pos[160] = 1355
Pos[161] = 1396
Pos[162] = 162
Pos[163] = 501
Pos[164] = 814
Pos[165] = 840
Pos[166] = 1047
Pos[167] = 1236
Pos[168] = 78
Pos[169] = 196
Pos[170] = 307
Pos[171] = 424
Pos[172] = 473
Pos[173] = 727
Pos[174] = 847
Pos[175] = 1049
Pos[176] = 1486
Pos[177] = 6
Pos[178] = 45
Pos[179] = 230
Pos[180] = 1029
Pos[181] = 1428
Pos[182] = 652
Pos[183] = 749
Pos[184] = 996
Pos[185] = 1228
Pos[186] = 1252
Pos[187] = 1279
Pos[188] = 1460
Pos[189] = 58
Pos[190] = 64
Pos[191] = 147
Pos[192] = 386
Pos[193] = 1090
Pos[194] = 1094
Pos[195] = 1317
Pos[196] = 658
Pos[197] = 867
Pos[198] = 1097
Pos[199] = 1280
Pos[200] = 14
Pos[201] = 362
Pos[202] = 702
Pos[203] = 832
Pos[204] = 1117
Pos[205] = 1253
Pos[206] = 1462
Pos[207] = 28
Pos[208] = 256
Pos[209] = 833
Pos[210] = 981
Pos[211] = 1267
Pos[212] = 157
Pos[213] = 1035
Pos[214] = 48
Pos[215] = 127
Pos[216] = 685
Pos[217] = 695
Pos[218] = 1147
Pos[219] = 1316
Pos[220] = 1327
Pos[221] = 297
Pos[222] = 464
Pos[223] = 495
Pos[224] = 1164
Pos[225] = 74
Pos[226] = 461
Pos[227] = 895
Pos[228] = 1002
Pos[229] = 361
Pos[230] = 606
Pos[231] = 1018
Pos[232] = 251
Pos[233] = 377
Pos[234] = 946
Pos[235] = 1042
Pos[236] = 1326
Pos[237] = 454
Pos[238] = 1098
Pos[239] = 1182
Pos[240] = 1258
Pos[241] = 1449
Pos[242] = 193
Pos[243] = 549
Pos[244] = 610
Pos[245] = 24
Pos[246] = 169
Pos[247] = 181
Pos[248] = 662
Pos[249] = 738
Pos[250] = 809
Pos[251] = 2
Pos[252] = 31
Pos[253] = 367
Pos[254] = 815
Pos[255] = 933
Pos[256] = 1181
Pos[257] = 242
Pos[258] = 649
Pos[259] = 1126
Pos[260] = 1310
Pos[261] = 816
Pos[262] = 639
Pos[263] = 743
Pos[264] = 1116
Pos[265] = 1127
Pos[266] = 1406
Pos[267] = 47
Pos[268] = 352
Pos[269] = 1112
Pos[270] = 194
Pos[271] = 635
Pos[272] = 998
Pos[273] = 96
Pos[274] = 368
Pos[275] = 728
Pos[276] = 1161
Pos[277] = 1198
Pos[278] = 418
Pos[279] = 782
Pos[280] = 1027
Pos[281] = 328
Pos[282] = 661
Pos[283] = 1201
Pos[284] = 1237
Pos[285] = 717
Pos[286] = 729
Pos[287] = 1446
Pos[288] = 441
Pos[289] = 451
Pos[290] = 1444
Pos[291] = 671
Pos[292] = 526
Pos[293] = 555
Pos[294] = 274
Pos[295] = 332
Pos[296] = 378
Pos[297] = 455
Pos[298] = 1077
Pos[299] = 1179
Pos[300] = 1357
Pos[301] = 212
Pos[302] = 354
Pos[303] = 634
Pos[304] = 828
Pos[305] = 904
Pos[306] = 97
Pos[307] = 119
Pos[308] = 843
Pos[309] = 898
Pos[310] = 1379
Pos[311] = 665
Pos[312] = 942
Pos[313] = 969
Pos[314] = 279
Pos[315] = 550
Pos[316] = 1251
Pos[317] = 1009
Pos[318] = 1377
Pos[319] = 56
Pos[320] = 166
Pos[321] = 228
Pos[322] = 16
Pos[323] = 333
Pos[324] = 497
Pos[325] = 1032
Pos[326] = 1065
Pos[327] = 215
Pos[328] = 596
Pos[329] = 618
Pos[330] = 708
Pos[331] = 53
Pos[332] = 663
Pos[333] = 1111
Pos[334] = 1118
Pos[335] = 924
Pos[336] = 1062
Pos[337] = 457
Pos[338] = 956
Pos[339] = 252
Pos[340] = 321
Pos[341] = 800
Pos[342] = 1443
Pos[343] = 602
Pos[344] = 1399
Pos[345] = 600
Pos[346] = 1114
Pos[347] = 1186
Pos[348] = 107
Pos[349] = 799
Pos[350] = 187
Pos[351] = 272
Pos[352] = 299
Pos[353] = 356
Pos[354] = 487
Pos[355] = 1233
Pos[356] = 1431
Pos[357] = 504
Pos[358] = 875
Pos[359] = 715
Pos[360] = 1129
Pos[361] = 1141
Pos[362] = 1358
Pos[363] = 262
Pos[364] = 514
Pos[365] = 1210
Pos[366] = 176
Pos[367] = 1312
Pos[368] = 394
Pos[369] = 1268
Pos[370] = 1468
Pos[371] = 435
Pos[372] = 578
Pos[373] = 865
Pos[374] = 797
Pos[375] = 13
Pos[376] = 248
Pos[377] = 864
Pos[378] = 80
Pos[379] = 868
Pos[380] = 236
Pos[381] = 566
Pos[382] = 636
Pos[383] = 87
Pos[384] = 673
Pos[385] = 1330
Pos[386] = 156
Pos[387] = 580
Pos[388] = 923
Pos[389] = 1372
Pos[390] = 568
Pos[391] = 1276
Pos[392] = 1381
Pos[393] = 1403
Pos[394] = 177
Pos[395] = 310
Pos[396] = 206
Pos[397] = 286
Pos[398] = 450
Pos[399] = 637
Pos[400] = 246
Pos[401] = 1224
Pos[402] = 131
Pos[403] = 1365
Pos[404] = 691
Pos[405] = 69
Pos[406] = 675
Pos[407] = 1078
Pos[408] = 1283
Pos[409] = 1324
Pos[410] = 35
Pos[411] = 406
Pos[412] = 1311
Pos[413] = 447
Pos[414] = 491
Pos[415] = 151
Pos[416] = 753
Pos[417] = 795
Pos[418] = 807
Pos[419] = 1012
Pos[420] = 73
Pos[421] = 229
Pos[422] = 633
Pos[423] = 796
Pos[424] = 298
Pos[425] = 654
Pos[426] = 780
Pos[427] = 1270
Pos[428] = 168
Pos[429] = 217
Pos[430] = 1081
Pos[431] = 384
Pos[432] = 834
Pos[433] = 403
Pos[434] = 611
Pos[435] = 616
Pos[436] = 1451
Pos[437] = 363
Pos[438] = 1054
Pos[439] = 63
Pos[440] = 538
Pos[441] = 150
Pos[442] = 314
Pos[443] = 383
Pos[444] = 856
Pos[445] = 902
Pos[446] = 347
Pos[447] = 830
Pos[448] = 943
Pos[449] = 1206
Pos[450] = 666
Pos[451] = 911
Pos[452] = 436
Pos[453] = 1043
Pos[454] = 266
Pos[455] = 358
Pos[456] = 595
Pos[457] = 873
Pos[458] = 883
Pos[459] = 983
Pos[460] = 1191
Pos[461] = 40
Pos[462] = 453
Pos[463] = 966
Pos[464] = 404
Pos[465] = 459
Pos[466] = 1469
Pos[467] = 912
Pos[468] = 1345
Pos[469] = 1176
Pos[470] = 1436
Pos[471] = 211
Pos[472] = 521
Pos[473] = 793
Pos[474] = 1053
Pos[475] = 323
Pos[476] = 553
Pos[477] = 763
Pos[478] = 1074
Pos[479] = 900
Pos[480] = 1174
Pos[481] = 146
Pos[482] = 170
Pos[483] = 283
Pos[484] = 460
Pos[485] = 1455
Pos[486] = 376
Pos[487] = 703
Pos[488] = 1022
Pos[489] = 601
Pos[490] = 913
Pos[491] = 149
Pos[492] = 171
Pos[493] = 746
Pos[494] = 909
Pos[495] = 1226
Pos[496] = 826
Pos[497] = 953
Pos[498] = 1070
Pos[499] = 1209
Pos[500] = 1325
Pos[501] = 281
Pos[502] = 1122
Pos[503] = 137
Pos[504] = 535
Pos[505] = 948
Pos[506] = 1003
Pos[507] = 440
Pos[508] = 253
Pos[509] = 794
Pos[510] = 1192
Pos[511] = 198
Pos[512] = 725
Pos[513] = 510
Pos[514] = 20
Pos[515] = 505
Pos[516] = 197
Pos[517] = 849
Pos[518] = 1250
Pos[519] = 829
Pos[520] = 337
Pos[521] = 988
Pos[522] = 1440
Pos[523] = 696
Pos[524] = 1139
Pos[525] = 872
Pos[526] = 990
Pos[527] = 1442
Pos[528] = 322
Pos[529] = 359
Pos[530] = 1093
Pos[531] = 410
Pos[532] = 1269
Pos[533] = 857
Pos[534] = 182
Pos[535] = 444
Pos[536] = 515
Pos[537] = 622
Pos[538] = 1213
Pos[539] = 623
Pos[540] = 1217
Pos[541] = 1369
Pos[542] = 1392
Pos[543] = 1079
Pos[544] = 302
Pos[545] = 734
Pos[546] = 1168
Pos[547] = 648
Pos[548] = 893
Pos[549] = 1107
Pos[550] = 890
Pos[551] = 920
Pos[552] = 39
Pos[553] = 984
Pos[554] = 1091
Pos[555] = 1238
Pos[556] = 125
Pos[557] = 1080
Pos[558] = 389
Pos[559] = 978
Pos[560] = 1235
Pos[561] = 27
Pos[562] = 364
Pos[563] = 309
Pos[564] = 335
Pos[565] = 338
Pos[566] = 660
Pos[567] = 686
Pos[568] = 1220
Pos[569] = 456
Pos[570] = 750
Pos[571] = 894
Pos[572] = 1225
Pos[573] = 1445
Pos[574] = 1101
Pos[575] = 1121
Pos[576] = 268
Pos[577] = 659
Pos[578] = 1102
Pos[579] = 1401
Pos[580] = 259
Pos[581] = 26
Pos[582] = 145
Pos[583] = 603
Pos[584] = 1219
Pos[585] = 723
Pos[586] = 878
Pos[587] = 1159
Pos[588] = 1419
Pos[589] = 757
Pos[590] = 1057
Pos[591] = 1188
Pos[592] = 293
Pos[593] = 15
Pos[594] = 1203
Pos[595] = 1422
Pos[596] = 645
Pos[597] = 1473
Pos[598] = 609
Pos[599] = 997
Pos[600] = 1131
Pos[601] = 1095
Pos[602] = 1420
Pos[603] = 463
Pos[604] = 853
Pos[605] = 1255
Pos[606] = 957
Pos[607] = 1411
Pos[608] = 59
Pos[609] = 277
Pos[610] = 479
Pos[611] = 315
Pos[612] = 502
Pos[613] = 607
Pos[614] = 871
Pos[615] = 995
Pos[616] = 234
Pos[617] = 604
Pos[618] = 846
Pos[619] = 1349
Pos[620] = 235
Pos[621] = 405
Pos[622] = 295
Pos[623] = 1281
Pos[624] = 880
Pos[625] = 1125
Pos[626] = 1297
Pos[627] = 1453
Pos[628] = 3
Pos[629] = 926
Pos[630] = 123
Pos[631] = 831
Pos[632] = 1294
Pos[633] = 968
Pos[634] = 199
Pos[635] = 694
Pos[636] = 1331
Pos[637] = 1096
Pos[638] = 1425
Pos[639] = 120
Pos[640] = 993
Pos[641] = 70
Pos[642] = 713
Pos[643] = 1211
Pos[644] = 282
Pos[645] = 1321
Pos[646] = 664
Pos[647] = 593
Pos[648] = 126
Pos[649] = 1025
Pos[650] = 1200
Pos[651] = 204
Pos[652] = 218
Pos[653] = 373
Pos[654] = 469
Pos[655] = 374
Pos[656] = 1099
Pos[657] = 643
Pos[658] = 689
Pos[659] = 344
Pos[660] = 387
Pos[661] = 503
Pos[662] = 1146
Pos[663] = 1282
Pos[664] = 1076
Pos[665] = 205
Pos[666] = 591
Pos[667] = 1351
Pos[668] = 493
Pos[669] = 101
Pos[670] = 546
Pos[671] = 991
Pos[672] = 420
Pos[673] = 792
Pos[674] = 1257
Pos[675] = 91
Pos[676] = 1497
Pos[677] = 163
Pos[678] = 1496
Pos[679] = 32
Pos[680] = 1373
Pos[681] = 269
Pos[682] = 22
Pos[683] = 642
Pos[684] = 712
Pos[685] = 1314
Pos[686] = 409
Pos[687] = 1361
Pos[688] = 624
Pos[689] = 581
Pos[690] = 1011
Pos[691] = 1212
Pos[692] = 506
Pos[693] = 726
Pos[694] = 478
Pos[695] = 1498
Pos[696] = 467
Pos[697] = 884
Pos[698] = 594
Pos[699] = 866
Pos[700] = 1429
Pos[701] = 1153
Pos[702] = 1044
Pos[703] = 547
Pos[704] = 1087
Pos[705] = 348
Pos[706] = 570
Pos[707] = 655
Pos[708] = 305
Pos[709] = 971
Pos[710] = 552
Pos[711] = 1187
Pos[712] = 1336
Pos[713] = 51
Pos[714] = 599
Pos[715] = 512
Pos[716] = 1085
Pos[717] = 1240
Pos[718] = 1163
Pos[719] = 1416
Pos[720] = 1135
Pos[721] = 859
Pos[722] = 76
Pos[723] = 116
Pos[724] = 941
Pos[725] = 1242
Pos[726] = 470
Pos[727] = 540
Pos[728] = 221
Pos[729] = 8
Pos[730] = 223
Pos[731] = 1130
Pos[732] = 1305
Pos[733] = 1405
Pos[734] = 1441
Pos[735] = 142
Pos[736] = 588
Pos[737] = 629
Pos[738] = 11
Pos[739] = 431
Pos[740] = 615
Pos[741] = 788
Pos[742] = 1221
Pos[743] = 1140
Pos[744] = 1285
Pos[745] = 1103
Pos[746] = 1378
Pos[747] = 34
Pos[748] = 569
Pos[749] = 1344
Pos[750] = 106
Pos[751] = 644
Pos[752] = 1348
Pos[753] = 62
Pos[754] = 180
Pos[755] = 585
Pos[756] = 1256
Pos[757] = 922
Pos[758] = 1142
Pos[759] = 343
Pos[760] = 821
Pos[761] = 1128
Pos[762] = 820
Pos[763] = 1339
Pos[764] = 869
Pos[765] = 1424
Pos[766] = 317
Pos[767] = 112
Pos[768] = 1073
Pos[769] = 468
Pos[770] = 1136
Pos[771] = 638
Pos[772] = 320
Pos[773] = 7
Pos[774] = 987
Pos[775] = 1173
Pos[776] = 1284
Pos[777] = 195
Pos[778] = 1218
Pos[779] = 1417
Pos[780] = 1481
Pos[781] = 1438
Pos[782] = 366
Pos[783] = 790
Pos[784] = 760
Pos[785] = 1364
Pos[786] = 499
Pos[787] = 372
Pos[788] = 628
Pos[789] = 1110
Pos[790] = 1180
Pos[791] = 1434
Pos[792] = 677
Pos[793] = 19
Pos[794] = 1023
Pos[795] = 392
Pos[796] = 932
Pos[797] = 1154
Pos[798] = 1471
Pos[799] = 917
Pos[800] = 1196
Pos[801] = 1478
Pos[802] = 143
Pos[803] = 1195
Pos[804] = 1229
Pos[805] = 1383
Pos[806] = 46
Pos[807] = 1231
Pos[808] = 465
Pos[809] = 189
Pos[810] = 879
Pos[811] = 687
Pos[812] = 1249
Pos[813] = 627
Pos[814] = 1245
Pos[815] = 789
Pos[816] = 103
Pos[817] = 668
Pos[818] = 707
Pos[819] = 183
Pos[820] = 1295
Pos[821] = 66
Pos[822] = 139
Pos[823] = 567
Pos[824] = 128
Pos[825] = 202
Pos[826] = 537
Pos[827] = 542
Pos[828] = 778
Pos[829] = 620
Pos[830] = 891
Pos[831] = 701
Pos[832] = 1230
Pos[833] = 1370
Pos[834] = 564
Pos[835] = 918
Pos[836] = 54
Pos[837] = 88
Pos[838] = 412
Pos[839] = 186
Pos[840] = 334
Pos[841] = 494
Pos[842] = 1426
Pos[843] = 710
Pos[844] = 1464
Pos[845] = 129
Pos[846] = 192
Pos[847] = 200
Pos[848] = 264
Pos[849] = 407
Pos[850] = 207
Pos[851] = 1137
Pos[852] = 735
Pos[853] = 466
Pos[854] = 533
Pos[855] = 1263
Pos[856] = 160
Pos[857] = 819
Pos[858] = 980
Pos[859] = 1183
Pos[860] = 1031
Pos[861] = 741
Pos[862] = 776
Pos[863] = 300
Pos[864] = 562
Pos[865] = 1202
Pos[866] = 1323
Pos[867] = 445
Pos[868] = 975
Pos[869] = 1067
Pos[870] = 100
Pos[871] = 531
Pos[872] = 1447
Pos[873] = 319
Pos[874] = 1060
Pos[875] = 324
Pos[876] = 1124
Pos[877] = 751
Pos[878] = 1457
Pos[879] = 49
Pos[880] = 1016
Pos[881] = 482
Pos[882] = 52
Pos[883] = 117
Pos[884] = 914
Pos[885] = 1495
Pos[886] = 327
Pos[887] = 860
Pos[888] = 874
Pos[889] = 201
Pos[890] = 882
Pos[891] = 1105
Pos[892] = 203
Pos[893] = 1382
Pos[894] = 265
Pos[895] = 1015
Pos[896] = 1072
Pos[897] = 1277
Pos[898] = 1488
Pos[899] = 1185
Pos[900] = 490
Pos[901] = 191
Pos[902] = 400
Pos[903] = 771
Pos[904] = 1143
Pos[905] = 408
Pos[906] = 1021
Pos[907] = 1374
Pos[908] = 626
Pos[909] = 716
Pos[910] = 1335
Pos[911] = 1292
Pos[912] = 249
Pos[913] = 842
Pos[914] = 1184
Pos[915] = 1222
Pos[916] = 839
Pos[917] = 278
Pos[918] = 79
Pos[919] = 108
Pos[920] = 762
Pos[921] = 1491
Pos[922] = 90
Pos[923] = 582
Pos[924] = 667
Pos[925] = 1132
Pos[926] = 1409
Pos[927] = 154
Pos[928] = 1084
Pos[929] = 247
Pos[930] = 779
Pos[931] = 963
Pos[932] = 122
Pos[933] = 767
Pos[934] = 1167
Pos[935] = 480
Pos[936] = 910
Pos[937] = 442
Pos[938] = 1346
Pos[939] = 1340
Pos[940] = 1380
Pos[941] = 1397
Pos[942] = 1494
Pos[943] = 706
Pos[944] = 1274
Pos[945] = 848
Pos[946] = 1259
Pos[947] = 1465
Pos[948] = 804
Pos[949] = 175
Pos[950] = 1241
Pos[951] = 692
Pos[952] = 1386
Pos[953] = 720
Pos[954] = 1039
Pos[955] = 1313
Pos[956] = 222
Pos[957] = 1421
Pos[958] = 756
Pos[959] = 870
Pos[960] = 109
Pos[961] = 885
Pos[962] = 1427
Pos[963] = 339
Pos[964] = 1437
Pos[965] = 1479
Pos[966] = 1366
Pos[967] = 961
Pos[968] = 1013
Pos[969] = 68
Pos[970] = 254
Pos[971] = 511
Pos[972] = 641
Pos[973] = 896
Pos[974] = 992
Pos[975] = 1059
Pos[976] = 85
Pos[977] = 342
Pos[978] = 1157
Pos[979] = 37
Pos[980] = 640
Pos[981] = 498
Pos[982] = 952
Pos[983] = 680
Pos[984] = 855
Pos[985] = 999
Pos[986] = 210
Pos[987] = 544
Pos[988] = 676
Pos[989] = 806
Pos[990] = 1413
Pos[991] = 481
Pos[992] = 1113
Pos[993] = 903
Pos[994] = 719
Pos[995] = 772
Pos[996] = 1271
Pos[997] = 500
Pos[998] = 805
Pos[999] = 1123
Pos[1000] = 483
Pos[1001] = 250
Pos[1002] = 448
Pos[1003] = 1290
Pos[1004] = 583
Pos[1005] = 650
Pos[1006] = 411
Pos[1007] = 1092
Pos[1008] = 1407
Pos[1009] = 1232
Pos[1010] = 541
Pos[1011] = 1106
Pos[1012] = 284
Pos[1013] = 592
Pos[1014] = 1286
Pos[1015] = 336
Pos[1016] = 574
Pos[1017] = 584
Pos[1018] = 1155
Pos[1019] = 755
Pos[1020] = 1165
Pos[1021] = 845
Pos[1022] = 1169
Pos[1023] = 709
Pos[1024] = 257
Pos[1025] = 1300
Pos[1026] = 208
Pos[1027] = 341
Pos[1028] = 524
Pos[1029] = 631
Pos[1030] = 1
Pos[1031] = 705
Pos[1032] = 1306
Pos[1033] = 1390
Pos[1034] = 1466
Pos[1035] = 1204
Pos[1036] = 121
Pos[1037] = 787
Pos[1038] = 972
Pos[1039] = 1328
Pos[1040] = 77
Pos[1041] = 477
Pos[1042] = 589
Pos[1043] = 1347
Pos[1044] = 486
Pos[1045] = 1007
Pos[1046] = 929
Pos[1047] = 1138
Pos[1048] = 1371
Pos[1049] = 1474
Pos[1050] = 527
Pos[1051] = 1149
Pos[1052] = 1304
Pos[1053] = 476
Pos[1054] = 167
Pos[1055] = 1063
Pos[1056] = 382
Pos[1057] = 590
Pos[1058] = 258
Pos[1059] = 672
Pos[1060] = 597
Pos[1061] = 965
Pos[1062] = 835
Pos[1063] = 41
Pos[1064] = 9
Pos[1065] = 29
Pos[1066] = 312
Pos[1067] = 1338
Pos[1068] = 935
Pos[1069] = 1353
Pos[1070] = 115
Pos[1071] = 294
Pos[1072] = 721
Pos[1073] = 237
Pos[1074] = 740
Pos[1075] = 850
Pos[1076] = 949
Pos[1077] = 94
Pos[1078] = 446
Pos[1079] = 144
Pos[1080] = 822
Pos[1081] = 674
Pos[1082] = 135
Pos[1083] = 928
Pos[1084] = 934
Pos[1085] = 1000
Pos[1086] = 224
Pos[1087] = 1052
Pos[1088] = 1303
Pos[1089] = 1041
Pos[1090] = 1359
Pos[1091] = 937
Pos[1092] = 518
Pos[1093] = 1490
Pos[1094] = 1423
Pos[1095] = 379
Pos[1096] = 951
Pos[1097] = 1197
Pos[1098] = 397
Pos[1099] = 1064
Pos[1100] = 141
Pos[1101] = 38
Pos[1102] = 565
Pos[1103] = 976
Pos[1104] = 86
Pos[1105] = 306
Pos[1106] = 472
Pos[1107] = 1385
Pos[1108] = 863
Pos[1109] = 1273
Pos[1110] = 331
Pos[1111] = 1298
Pos[1112] = 1408
Pos[1113] = 370
Pos[1114] = 732
Pos[1115] = 241
Pos[1116] = 1014
Pos[1117] = 291
Pos[1118] = 1171
Pos[1119] = 945
Pos[1120] = 575
Pos[1121] = 684
Pos[1122] = 681
Pos[1123] = 525
Pos[1124] = 434
Pos[1125] = 770
Pos[1126] = 714
Pos[1127] = 1158
Pos[1128] = 1309
Pos[1129] = 747
Pos[1130] = 1376
Pos[1131] = 970
Pos[1132] = 774
Pos[1133] = 50
Pos[1134] = 240
Pos[1135] = 288
Pos[1136] = 1499
Pos[1137] = 612
Pos[1138] = 365
Pos[1139] = 1115
Pos[1140] = 1194
Pos[1141] = 326
Pos[1142] = 698
Pos[1143] = 964
Pos[1144] = 700
Pos[1145] = 1433
Pos[1146] = 1318
Pos[1147] = 4
Pos[1148] = 270
Pos[1149] = 233
Pos[1150] = 545
Pos[1151] = 571
Pos[1152] = 808
Pos[1153] = 225
Pos[1154] = 415
Pos[1155] = 516
Pos[1156] = 773
Pos[1157] = 134
Pos[1158] = 587
Pos[1159] = 110
Pos[1160] = 462
Pos[1161] = 915
Pos[1162] = 1472
Pos[1163] = 340
Pos[1164] = 938
Pos[1165] = 736
Pos[1166] = 950
Pos[1167] = 1193
Pos[1168] = 1315
Pos[1169] = 1223
Pos[1170] = 1461
Pos[1171] = 231
Pos[1172] = 625
Pos[1173] = 1350
Pos[1174] = 104
Pos[1175] = 836
Pos[1176] = 1293
Pos[1177] = 786
Pos[1178] = 858
Pos[1179] = 244
Pos[1180] = 613
Pos[1181] = 1088
Pos[1182] = 1337
Pos[1183] = 1476
Pos[1184] = 519
Pos[1185] = 1261
Pos[1186] = 214
Pos[1187] = 1145
Pos[1188] = 887
Pos[1189] = 1452
Pos[1190] = 287
Pos[1191] = 1055
Pos[1192] = 1289
Pos[1193] = 775
Pos[1194] = 801
Pos[1195] = 824
Pos[1196] = 313
Pos[1197] = 55
Pos[1198] = 704
Pos[1199] = 974
Pos[1200] = 1010
Pos[1201] = 1291
Pos[1202] = 1056
Pos[1203] = 944
Pos[1204] = 759
Pos[1205] = 485
Pos[1206] = 1487
Pos[1207] = 316
Pos[1208] = 579
Pos[1209] = 1375
Pos[1210] = 60
Pos[1211] = 292
Pos[1212] = 1069
Pos[1213] = 330
Pos[1214] = 632
Pos[1215] = 930
Pos[1216] = 5
Pos[1217] = 718
Pos[1218] = 1037
Pos[1219] = 1036
Pos[1220] = 227
Pos[1221] = 355
Pos[1222] = 947
Pos[1223] = 1395
Pos[1224] = 558
Pos[1225] = 173
Pos[1226] = 697
Pos[1227] = 83
Pos[1228] = 1227
Pos[1229] = 303
Pos[1230] = 670
Pos[1231] = 1435
Pos[1232] = 1483
Pos[1233] = 724
Pos[1234] = 758
Pos[1235] = 1008
Pos[1236] = 554
Pos[1237] = 802
Pos[1238] = 1030
Pos[1239] = 159
Pos[1240] = 810
Pos[1241] = 1208
Pos[1242] = 656
Pos[1243] = 619
Pos[1244] = 1302
Pos[1245] = 261
Pos[1246] = 889
Pos[1247] = 958
Pos[1248] = 752
Pos[1249] = 1456
Pos[1250] = 1051
Pos[1251] = 350
Pos[1252] = 761
Pos[1253] = 1089
Pos[1254] = 1342
Pos[1255] = 683
Pos[1256] = 967
Pos[1257] = 1162
Pos[1258] = 1493
Pos[1259] = 647
Pos[1260] = 396
Pos[1261] = 617
Pos[1262] = 509
Pos[1263] = 36
Pos[1264] = 438
Pos[1265] = 803
Pos[1266] = 1061
Pos[1267] = 1199
Pos[1268] = 1343
Pos[1269] = 81
Pos[1270] = 114
Pos[1271] = 178
Pos[1272] = 598
Pos[1273] = 605
Pos[1274] = 12
Pos[1275] = 30
Pos[1276] = 148
Pos[1277] = 124
Pos[1278] = 220
Pos[1279] = 766
Pos[1280] = 174
Pos[1281] = 908
Pos[1282] = 745
Pos[1283] = 153
Pos[1284] = 390
Pos[1285] = 401
Pos[1286] = 1133
Pos[1287] = 113
Pos[1288] = 308
Pos[1289] = 529
Pos[1290] = 1160
Pos[1291] = 1296
Pos[1292] = 781
Pos[1293] = 1352
Pos[1294] = 369
Pos[1295] = 982
Pos[1296] = 1430
Pos[1297] = 897
Pos[1298] = 1104
Pos[1299] = 651
Pos[1300] = 1398
Pos[1301] = 1086
Pos[1302] = 267
Pos[1303] = 817
Pos[1304] = 551
Pos[1305] = 1389
Pos[1306] = 754
Pos[1307] = 1248
Pos[1308] = 764
Pos[1309] = 346
Pos[1310] = 239
Pos[1311] = 586
Pos[1312] = 657
Pos[1313] = 1177
Pos[1314] = 892
Pos[1315] = 1108
Pos[1316] = 646
Pos[1317] = 1005
Pos[1318] = 1393
Pos[1319] = 428
Pos[1320] = 1109
Pos[1321] = 1388
Pos[1322] = 699
Pos[1323] = 1034
Pos[1324] = 1492
Pos[1325] = 844
Pos[1326] = 1100
Pos[1327] = 1329
Pos[1328] = 841
Pos[1329] = 1134
Pos[1330] = 99
Pos[1331] = 165
Pos[1332] = 89
Pos[1333] = 345
Pos[1334] = 548
Pos[1335] = 1260
Pos[1336] = 1415
Pos[1337] = 1048
Pos[1338] = 1066
Pos[1339] = 1148
Pos[1340] = 1151
Pos[1341] = 164
Pos[1342] = 419
Pos[1343] = 489
Pos[1344] = 1028
Pos[1345] = 560
Pos[1346] = 1341
Pos[1347] = 927
Pos[1348] = 955
Pos[1349] = 474
Pos[1350] = 722
Pos[1351] = 921
Pos[1352] = 136
Pos[1353] = 385
Pos[1354] = 731
Pos[1355] = 1404
Pos[1356] = 1019
Pos[1357] = 1020
Pos[1358] = 133
Pos[1359] = 102
Pos[1360] = 216
Pos[1361] = 1288
Pos[1362] = 296
Pos[1363] = 1017
Pos[1364] = 484
Pos[1365] = 682
Pos[1366] = 901
Pos[1367] = 255
Pos[1368] = 388
Pos[1369] = 275
Pos[1370] = 1467
Pos[1371] = 925
Pos[1372] = 985
Pos[1373] = 1038
Pos[1374] = 1190
Pos[1375] = 1418
Pos[1376] = 1458
Pos[1377] = 1175
Pos[1378] = 1402
Pos[1379] = 1459
Pos[1380] = 138
Pos[1381] = 349
Pos[1382] = 959
Pos[1383] = 1477
Pos[1384] = 245
Pos[1385] = 690
Pos[1386] = 1448
Pos[1387] = 1410
Pos[1388] = 1322
Pos[1389] = 1414
Pos[1390] = 155
Pos[1391] = 289
Pos[1392] = 395
Pos[1393] = 402
Pos[1394] = 576
Pos[1395] = 42
Pos[1396] = 263
Pos[1397] = 823
Pos[1398] = 1432
Pos[1399] = 1144
Pos[1400] = 876
Pos[1401] = 1156
Pos[1402] = 899
Pos[1403] = 1234
Pos[1404] = 0
Pos[1405] = 44
Pos[1406] = 1384
Pos[1407] = 536
Pos[1408] = 1068
Pos[1409] = 10
Pos[1410] = 92
Pos[1411] = 962
Pos[1412] = 1026
Pos[1413] = 919
Pos[1414] = 1046
Pos[1415] = 232
Pos[1416] = 351
Pos[1417] = 1006
Pos[1418] = 1266
Pos[1419] = 422
Pos[1420] = 437
Pos[1421] = 1045
Pos[1422] = 1033
Pos[1423] = 132
Pos[1424] = 906
Pos[1425] = 916
Pos[1426] = 1332
Pos[1427] = 1412
Pos[1428] = 1484
Pos[1429] = 75
Pos[1430] = 111
Pos[1431] = 1119
Pos[1432] = 905
Pos[1433] = 977
Pos[1434] = 1004
Pos[1435] = 427
Pos[1436] = 432
Pos[1437] = 561
Pos[1438] = 711
Pos[1439] = 852
Pos[1440] = 371
Pos[1441] = 449
Pos[1442] = 888
Pos[1443] = 539
Pos[1444] = 1470
Pos[1445] = 439
Pos[1446] = 273
Pos[1447] = 939
Pos[1448] = 989
Pos[1449] = 1475
Pos[1450] = 471
Pos[1451] = 213
Pos[1452] = 185
Pos[1453] = 669
Pos[1454] = 1243
Pos[1455] = 973
Pos[1456] = 496
Pos[1457] = 825
Pos[1458] = 507
Pos[1459] = 737
Pos[1460] = 748
Pos[1461] = 1001
Pos[1462] = 1264
Pos[1463] = 1172
Pos[1464] = 25
Pos[1465] = 520
Pos[1466] = 311
Pos[1467] = 1272
Pos[1468] = 443
Pos[1469] = 1320
Pos[1470] = 1463
Pos[1471] = 1482
Pos[1472] = 71
Pos[1473] = 563
Pos[1474] = 614
Pos[1475] = 862
Pos[1476] = 1166
Pos[1477] = 72
Pos[1478] = 837
Pos[1479] = 1071
Pos[1480] = 1246
Pos[1481] = 172
Pos[1482] = 543
Pos[1483] = 1120
Pos[1484] = 818
Pos[1485] = 260
Pos[1486] = 433
Pos[1487] = 768
Pos[1488] = 276
Pos[1489] = 391
Pos[1490] = 513
Pos[1491] = 528
Pos[1492] = 130
Pos[1493] = 688
Pos[1494] = 877
Pos[1495] = 414
Pos[1496] = 1170
Pos[1497] = 67
Pos[1498] = 621
Pos[1499] = 357
Enbr = 568960
start search
improving solution size 1
improving solution size 2
improving solution size 3
improving solution size 4
improving solution size 5
improving solution size 6
improving solution size 7
improving solution size 8
improving solution size 9
improving solution size 10
improving solution size 11
improving solution size 12
improving solution size 13
improving solution size 14
improving solution size 15
improving solution size 16
improving solution size 17
improving solution size 18
improving solution size 19
improving solution size 20
improving solution size 21
improving solution size 22
improving solution size 23
improving solution size 24
improving solution size 25
improving solution size 26
improving solution size 27
improving solution size 28
improving solution size 29
improving solution size 30
improving solution size 31
improving solution size 32
improving solution size 33
improving solution size 34
improving solution size 35
improving solution size 36
improving solution size 37
improving solution size 38
improving solution size 39
improving solution size 40
improving solution size 41
improving solution size 42
improving solution size 43
improving solution size 44
improving solution size 45
improving solution size 46
improving solution size 47
improving solution size 48
improving solution size 49
improving solution size 50
improving solution size 51
improving solution size 52
improving solution size 53
improving solution size 54
improving solution size 55
improving solution size 56
improving solution size 57
improving solution size 58
improving solution size 59
improving solution size 60
improving solution size 61
improving solution size 62
improving solution size 63
improving solution size 64
improving solution size 65
improving solution size 66
improving solution size 67
improving solution size 68
improving solution size 69
improving solution size 70
improving solution size 71
improving solution size 72
improving solution size 73
improving solution size 74
TIMEOUT
best clique: 358 622 68 1171 415 878 689 131 529 514 392 277 769 434 261 819 1121 544 173 1247 1072 838 73 1167 863 615 564 72 1483 1464 1321 444 1273 521 26 1265 1002 749 738 826 974 186 214 990 940 450 562 433 428 1485 917 1034 438 920 1027 45 403 1005 396 1449 139 1176 475 561 166 845 1389 429 647 309 606 82 1209 380 
record          =          74
subp            =  1580790211
time            =  3600.00061
