timeout 3600 s
Graph with 200 vertices and 13930 edges density 0.700000
t = 27860, Enbr = 13930
degree[199] = 164, pos[199] = 1
degree[198] = 163, pos[198] = 55
degree[197] = 160, pos[197] = 93
degree[196] = 159, pos[196] = 57
degree[195] = 157, pos[195] = 122
degree[194] = 156, pos[194] = 45
degree[193] = 154, pos[193] = 199
degree[192] = 153, pos[192] = 183
degree[191] = 152, pos[191] = 30
degree[190] = 150, pos[190] = 117
degree[189] = 150, pos[189] = 107
degree[188] = 148, pos[188] = 51
degree[187] = 147, pos[187] = 33
degree[186] = 147, pos[186] = 16
degree[185] = 146, pos[185] = 42
degree[184] = 145, pos[184] = 128
degree[183] = 145, pos[183] = 110
degree[182] = 141, pos[182] = 145
degree[181] = 140, pos[181] = 153
degree[180] = 139, pos[180] = 130
degree[179] = 138, pos[179] = 79
degree[178] = 137, pos[178] = 60
degree[177] = 137, pos[177] = 12
degree[176] = 134, pos[176] = 160
degree[175] = 133, pos[175] = 150
degree[174] = 132, pos[174] = 137
degree[173] = 131, pos[173] = 139
degree[172] = 130, pos[172] = 127
degree[171] = 130, pos[171] = 67
degree[170] = 130, pos[170] = 10
degree[169] = 129, pos[169] = 120
degree[168] = 127, pos[168] = 197
degree[167] = 126, pos[167] = 7
degree[166] = 125, pos[166] = 88
degree[165] = 123, pos[165] = 119
degree[164] = 122, pos[164] = 113
degree[163] = 121, pos[163] = 96
degree[162] = 120, pos[162] = 95
degree[161] = 119, pos[161] = 83
degree[160] = 118, pos[160] = 188
degree[159] = 118, pos[159] = 91
degree[158] = 118, pos[158] = 71
degree[157] = 118, pos[157] = 65
degree[156] = 116, pos[156] = 155
degree[155] = 116, pos[155] = 78
degree[154] = 112, pos[154] = 2
degree[153] = 111, pos[153] = 102
degree[152] = 109, pos[152] = 193
degree[151] = 109, pos[151] = 66
degree[150] = 108, pos[150] = 47
degree[149] = 108, pos[149] = 14
degree[148] = 105, pos[148] = 173
degree[147] = 104, pos[147] = 108
degree[146] = 104, pos[146] = 62
degree[145] = 104, pos[145] = 39
degree[144] = 103, pos[144] = 196
degree[143] = 102, pos[143] = 146
degree[142] = 100, pos[142] = 163
degree[141] = 99, pos[141] = 53
degree[140] = 97, pos[140] = 86
degree[139] = 96, pos[139] = 126
degree[138] = 96, pos[138] = 54
degree[137] = 94, pos[137] = 192
degree[136] = 93, pos[136] = 161
degree[135] = 92, pos[135] = 129
degree[134] = 92, pos[134] = 35
degree[133] = 91, pos[133] = 17
degree[132] = 89, pos[132] = 123
degree[131] = 88, pos[131] = 109
degree[130] = 88, pos[130] = 87
degree[129] = 88, pos[129] = 52
degree[128] = 86, pos[128] = 170
degree[127] = 86, pos[127] = 141
degree[126] = 85, pos[126] = 187
degree[125] = 84, pos[125] = 159
degree[124] = 83, pos[124] = 147
degree[123] = 83, pos[123] = 131
degree[122] = 82, pos[122] = 191
degree[121] = 82, pos[121] = 175
degree[120] = 81, pos[120] = 31
degree[119] = 79, pos[119] = 92
degree[118] = 78, pos[118] = 154
degree[117] = 77, pos[117] = 178
degree[116] = 77, pos[116] = 59
degree[115] = 76, pos[115] = 177
degree[114] = 76, pos[114] = 140
degree[113] = 75, pos[113] = 56
degree[112] = 74, pos[112] = 48
degree[111] = 73, pos[111] = 176
degree[110] = 73, pos[110] = 36
degree[109] = 72, pos[109] = 157
degree[108] = 72, pos[108] = 29
degree[107] = 71, pos[107] = 81
degree[106] = 70, pos[106] = 144
degree[105] = 70, pos[105] = 118
degree[104] = 70, pos[104] = 105
degree[103] = 70, pos[103] = 63
degree[102] = 67, pos[102] = 180
degree[101] = 66, pos[101] = 34
degree[100] = 65, pos[100] = 158
degree[99] = 65, pos[99] = 152
degree[98] = 65, pos[98] = 43
degree[97] = 63, pos[97] = 189
degree[96] = 63, pos[96] = 179
degree[95] = 63, pos[95] = 8
degree[94] = 61, pos[94] = 181
degree[93] = 61, pos[93] = 21
degree[92] = 61, pos[92] = 15
degree[91] = 59, pos[91] = 133
degree[90] = 58, pos[90] = 25
degree[89] = 57, pos[89] = 184
degree[88] = 56, pos[88] = 104
degree[87] = 56, pos[87] = 72
degree[86] = 56, pos[86] = 23
degree[85] = 55, pos[85] = 70
degree[84] = 54, pos[84] = 22
degree[83] = 54, pos[83] = 13
degree[82] = 52, pos[82] = 194
degree[81] = 51, pos[81] = 186
degree[80] = 51, pos[80] = 125
degree[79] = 50, pos[79] = 101
degree[78] = 49, pos[78] = 134
degree[77] = 49, pos[77] = 85
degree[76] = 48, pos[76] = 68
degree[75] = 47, pos[75] = 75
degree[74] = 46, pos[74] = 116
degree[73] = 46, pos[73] = 49
degree[72] = 46, pos[72] = 24
degree[71] = 45, pos[71] = 190
degree[70] = 44, pos[70] = 132
degree[69] = 44, pos[69] = 19
degree[68] = 43, pos[68] = 142
degree[67] = 42, pos[67] = 103
degree[66] = 41, pos[66] = 4
degree[65] = 41, pos[65] = 0
degree[64] = 40, pos[64] = 64
degree[63] = 39, pos[63] = 76
degree[62] = 38, pos[62] = 106
degree[61] = 38, pos[61] = 50
degree[60] = 37, pos[60] = 135
degree[59] = 37, pos[59] = 124
degree[58] = 35, pos[58] = 174
degree[57] = 35, pos[57] = 164
degree[56] = 33, pos[56] = 195
degree[55] = 33, pos[55] = 73
degree[54] = 32, pos[54] = 46
degree[53] = 32, pos[53] = 44
degree[52] = 31, pos[52] = 149
degree[51] = 31, pos[51] = 74
degree[50] = 31, pos[50] = 69
degree[49] = 30, pos[49] = 121
degree[48] = 30, pos[48] = 61
degree[47] = 28, pos[47] = 165
degree[46] = 28, pos[46] = 156
degree[45] = 28, pos[45] = 32
degree[44] = 28, pos[44] = 27
degree[43] = 27, pos[43] = 138
degree[42] = 25, pos[42] = 185
degree[41] = 24, pos[41] = 182
degree[40] = 23, pos[40] = 18
degree[39] = 21, pos[39] = 26
degree[38] = 20, pos[38] = 148
degree[37] = 20, pos[37] = 114
degree[36] = 20, pos[36] = 41
degree[35] = 19, pos[35] = 98
degree[34] = 18, pos[34] = 82
degree[33] = 18, pos[33] = 38
degree[32] = 17, pos[32] = 5
degree[31] = 16, pos[31] = 143
degree[30] = 16, pos[30] = 37
degree[29] = 16, pos[29] = 9
degree[28] = 15, pos[28] = 172
degree[27] = 15, pos[27] = 77
degree[26] = 15, pos[26] = 40
degree[25] = 14, pos[25] = 168
degree[24] = 14, pos[24] = 167
degree[23] = 14, pos[23] = 94
degree[22] = 14, pos[22] = 6
degree[21] = 7, pos[21] = 136
degree[20] = 6, pos[20] = 115
degree[19] = 5, pos[19] = 97
degree[18] = 5, pos[18] = 3
degree[17] = 4, pos[17] = 166
degree[16] = 3, pos[16] = 198
degree[15] = 3, pos[15] = 90
degree[14] = 3, pos[14] = 89
degree[13] = 3, pos[13] = 58
degree[12] = 2, pos[12] = 112
degree[11] = 2, pos[11] = 100
degree[10] = 1, pos[10] = 151
degree[9] = 0, pos[9] = 171
degree[8] = 0, pos[8] = 169
degree[7] = 0, pos[7] = 162
degree[6] = 0, pos[6] = 111
degree[5] = 0, pos[5] = 99
degree[4] = 0, pos[4] = 84
degree[3] = 0, pos[3] = 80
degree[2] = 0, pos[2] = 28
degree[1] = 0, pos[1] = 20
degree[0] = 0, pos[0] = 11
Pos[0] = 11
Pos[1] = 20
Pos[2] = 28
Pos[3] = 80
Pos[4] = 84
Pos[5] = 99
Pos[6] = 111
Pos[7] = 162
Pos[8] = 169
Pos[9] = 171
Pos[10] = 151
Pos[11] = 100
Pos[12] = 112
Pos[13] = 58
Pos[14] = 89
Pos[15] = 90
Pos[16] = 198
Pos[17] = 166
Pos[18] = 3
Pos[19] = 97
Pos[20] = 115
Pos[21] = 136
Pos[22] = 6
Pos[23] = 94
Pos[24] = 167
Pos[25] = 168
Pos[26] = 40
Pos[27] = 77
Pos[28] = 172
Pos[29] = 9
Pos[30] = 37
Pos[31] = 143
Pos[32] = 5
Pos[33] = 38
Pos[34] = 82
Pos[35] = 98
Pos[36] = 41
Pos[37] = 114
Pos[38] = 148
Pos[39] = 26
Pos[40] = 18
Pos[41] = 182
Pos[42] = 185
Pos[43] = 138
Pos[44] = 27
Pos[45] = 32
Pos[46] = 156
Pos[47] = 165
Pos[48] = 61
Pos[49] = 121
Pos[50] = 69
Pos[51] = 74
Pos[52] = 149
Pos[53] = 44
Pos[54] = 46
Pos[55] = 73
Pos[56] = 195
Pos[57] = 164
Pos[58] = 174
Pos[59] = 124
Pos[60] = 135
Pos[61] = 50
Pos[62] = 106
Pos[63] = 76
Pos[64] = 64
Pos[65] = 0
Pos[66] = 4
Pos[67] = 103
Pos[68] = 142
Pos[69] = 19
Pos[70] = 132
Pos[71] = 190
Pos[72] = 24
Pos[73] = 49
Pos[74] = 116
Pos[75] = 75
Pos[76] = 68
Pos[77] = 85
Pos[78] = 134
Pos[79] = 101
Pos[80] = 125
Pos[81] = 186
Pos[82] = 194
Pos[83] = 13
Pos[84] = 22
Pos[85] = 70
Pos[86] = 23
Pos[87] = 72
Pos[88] = 104
Pos[89] = 184
Pos[90] = 25
Pos[91] = 133
Pos[92] = 15
Pos[93] = 21
Pos[94] = 181
Pos[95] = 8
Pos[96] = 179
Pos[97] = 189
Pos[98] = 43
Pos[99] = 152
Pos[100] = 158
Pos[101] = 34
Pos[102] = 180
Pos[103] = 63
Pos[104] = 105
Pos[105] = 118
Pos[106] = 144
Pos[107] = 81
Pos[108] = 29
Pos[109] = 157
Pos[110] = 36
Pos[111] = 176
Pos[112] = 48
Pos[113] = 56
Pos[114] = 140
Pos[115] = 177
Pos[116] = 59
Pos[117] = 178
Pos[118] = 154
Pos[119] = 92
Pos[120] = 31
Pos[121] = 175
Pos[122] = 191
Pos[123] = 131
Pos[124] = 147
Pos[125] = 159
Pos[126] = 187
Pos[127] = 141
Pos[128] = 170
Pos[129] = 52
Pos[130] = 87
Pos[131] = 109
Pos[132] = 123
Pos[133] = 17
Pos[134] = 35
Pos[135] = 129
Pos[136] = 161
Pos[137] = 192
Pos[138] = 54
Pos[139] = 126
Pos[140] = 86
Pos[141] = 53
Pos[142] = 163
Pos[143] = 146
Pos[144] = 196
Pos[145] = 39
Pos[146] = 62
Pos[147] = 108
Pos[148] = 173
Pos[149] = 14
Pos[150] = 47
Pos[151] = 66
Pos[152] = 193
Pos[153] = 102
Pos[154] = 2
Pos[155] = 78
Pos[156] = 155
Pos[157] = 65
Pos[158] = 71
Pos[159] = 91
Pos[160] = 188
Pos[161] = 83
Pos[162] = 95
Pos[163] = 96
Pos[164] = 113
Pos[165] = 119
Pos[166] = 88
Pos[167] = 7
Pos[168] = 197
Pos[169] = 120
Pos[170] = 10
Pos[171] = 67
Pos[172] = 127
Pos[173] = 139
Pos[174] = 137
Pos[175] = 150
Pos[176] = 160
Pos[177] = 12
Pos[178] = 60
Pos[179] = 79
Pos[180] = 130
Pos[181] = 153
Pos[182] = 145
Pos[183] = 110
Pos[184] = 128
Pos[185] = 42
Pos[186] = 16
Pos[187] = 33
Pos[188] = 51
Pos[189] = 107
Pos[190] = 117
Pos[191] = 30
Pos[192] = 183
Pos[193] = 199
Pos[194] = 45
Pos[195] = 122
Pos[196] = 57
Pos[197] = 93
Pos[198] = 55
Pos[199] = 1
Enbr = 13930
start search
improving solution size 1
improving solution size 2
improving solution size 3
improving solution size 4
improving solution size 5
improving solution size 6
improving solution size 7
improving solution size 8
improving solution size 9
improving solution size 10
improving solution size 11
improving solution size 12
improving solution size 13
improving solution size 14
improving solution size 15
improving solution size 16
improving solution size 17
improving solution size 18
improving solution size 19
improving solution size 20
improving solution size 21
improving solution size 22
improving solution size 23
improving solution size 24
TIMEOUT
best clique: 2 56 58 123 46 184 31 52 146 154 131 80 61 138 120 3 130 36 155 181 196 27 116 4 
record          =          24
subp            =  1988888902
time            =  3600.00162
