timeout 3600 s
Graph with 200 vertices and 17910 edges density 0.900000
t = 35820, Enbr = 17910
degree[199] = 187, pos[199] = 95
degree[198] = 186, pos[198] = 17
degree[197] = 184, pos[197] = 176
degree[196] = 183, pos[196] = 159
degree[195] = 182, pos[195] = 75
degree[194] = 181, pos[194] = 67
degree[193] = 180, pos[193] = 65
degree[192] = 179, pos[192] = 54
degree[191] = 178, pos[191] = 30
degree[190] = 177, pos[190] = 24
degree[189] = 175, pos[189] = 125
degree[188] = 174, pos[188] = 189
degree[187] = 173, pos[187] = 113
degree[186] = 172, pos[186] = 92
degree[185] = 171, pos[185] = 16
degree[184] = 170, pos[184] = 9
degree[183] = 169, pos[183] = 193
degree[182] = 168, pos[182] = 183
degree[181] = 167, pos[181] = 166
degree[180] = 165, pos[180] = 190
degree[179] = 165, pos[179] = 77
degree[178] = 164, pos[178] = 143
degree[177] = 163, pos[177] = 50
degree[176] = 162, pos[176] = 116
degree[175] = 161, pos[175] = 29
degree[174] = 159, pos[174] = 196
degree[173] = 159, pos[173] = 134
degree[172] = 157, pos[172] = 177
degree[171] = 157, pos[171] = 21
degree[170] = 156, pos[170] = 73
degree[169] = 155, pos[169] = 31
degree[168] = 154, pos[168] = 163
degree[167] = 153, pos[167] = 135
degree[166] = 153, pos[166] = 5
degree[165] = 152, pos[165] = 110
degree[164] = 150, pos[164] = 127
degree[163] = 149, pos[163] = 141
degree[162] = 148, pos[162] = 118
degree[161] = 147, pos[161] = 160
degree[160] = 147, pos[160] = 28
degree[159] = 145, pos[159] = 106
degree[158] = 144, pos[158] = 179
degree[157] = 143, pos[157] = 146
degree[156] = 143, pos[156] = 102
degree[155] = 142, pos[155] = 18
degree[154] = 141, pos[154] = 96
degree[153] = 140, pos[153] = 44
degree[152] = 139, pos[152] = 14
degree[151] = 138, pos[151] = 49
degree[150] = 136, pos[150] = 165
degree[149] = 136, pos[149] = 42
degree[148] = 134, pos[148] = 174
degree[147] = 133, pos[147] = 142
degree[146] = 132, pos[146] = 149
degree[145] = 132, pos[145] = 69
degree[144] = 131, pos[144] = 100
degree[143] = 130, pos[143] = 51
degree[142] = 129, pos[142] = 119
degree[141] = 129, pos[141] = 85
degree[140] = 127, pos[140] = 83
degree[139] = 126, pos[139] = 150
degree[138] = 126, pos[138] = 63
degree[137] = 125, pos[137] = 27
degree[136] = 124, pos[136] = 90
degree[135] = 122, pos[135] = 140
degree[134] = 122, pos[134] = 19
degree[133] = 121, pos[133] = 78
degree[132] = 120, pos[132] = 32
degree[131] = 118, pos[131] = 180
degree[130] = 118, pos[130] = 104
degree[129] = 117, pos[129] = 46
degree[128] = 115, pos[128] = 161
degree[127] = 114, pos[127] = 197
degree[126] = 113, pos[126] = 187
degree[125] = 113, pos[125] = 167
degree[124] = 112, pos[124] = 175
degree[123] = 111, pos[123] = 164
degree[122] = 111, pos[122] = 152
degree[121] = 109, pos[121] = 173
degree[120] = 109, pos[120] = 89
degree[119] = 107, pos[119] = 94
degree[118] = 107, pos[118] = 60
degree[117] = 106, pos[117] = 56
degree[116] = 105, pos[116] = 37
degree[115] = 104, pos[115] = 79
degree[114] = 103, pos[114] = 133
degree[113] = 101, pos[113] = 172
degree[112] = 100, pos[112] = 103
degree[111] = 100, pos[111] = 40
degree[110] = 99, pos[110] = 4
degree[109] = 98, pos[109] = 33
degree[108] = 97, pos[108] = 55
degree[107] = 96, pos[107] = 76
degree[106] = 96, pos[106] = 23
degree[105] = 94, pos[105] = 15
degree[104] = 93, pos[104] = 1
degree[103] = 92, pos[103] = 72
degree[102] = 91, pos[102] = 68
degree[101] = 90, pos[101] = 64
degree[100] = 89, pos[100] = 157
degree[99] = 88, pos[99] = 158
degree[98] = 88, pos[98] = 12
degree[97] = 86, pos[97] = 171
degree[96] = 86, pos[96] = 57
degree[95] = 85, pos[95] = 192
degree[94] = 83, pos[94] = 151
degree[93] = 82, pos[93] = 147
degree[92] = 81, pos[92] = 139
degree[91] = 80, pos[91] = 130
degree[90] = 79, pos[90] = 185
degree[89] = 79, pos[89] = 45
degree[88] = 78, pos[88] = 26
degree[87] = 77, pos[87] = 58
degree[86] = 76, pos[86] = 62
degree[85] = 75, pos[85] = 111
degree[84] = 74, pos[84] = 186
degree[83] = 73, pos[83] = 6
degree[82] = 72, pos[82] = 184
degree[81] = 72, pos[81] = 86
degree[80] = 70, pos[80] = 155
degree[79] = 69, pos[79] = 88
degree[78] = 68, pos[78] = 81
degree[77] = 67, pos[77] = 101
degree[76] = 67, pos[76] = 61
degree[75] = 65, pos[75] = 168
degree[74] = 65, pos[74] = 3
degree[73] = 63, pos[73] = 188
degree[72] = 62, pos[72] = 144
degree[71] = 61, pos[71] = 199
degree[70] = 61, pos[70] = 136
degree[69] = 61, pos[69] = 117
degree[68] = 60, pos[68] = 99
degree[67] = 60, pos[67] = 2
degree[66] = 58, pos[66] = 10
degree[65] = 56, pos[65] = 131
degree[64] = 55, pos[64] = 120
degree[63] = 55, pos[63] = 47
degree[62] = 53, pos[62] = 137
degree[61] = 53, pos[61] = 97
degree[60] = 52, pos[60] = 169
degree[59] = 51, pos[59] = 20
degree[58] = 50, pos[58] = 195
degree[57] = 49, pos[57] = 153
degree[56] = 48, pos[56] = 109
degree[55] = 47, pos[55] = 87
degree[54] = 46, pos[54] = 194
degree[53] = 45, pos[53] = 156
degree[52] = 45, pos[52] = 123
degree[51] = 44, pos[51] = 115
degree[50] = 42, pos[50] = 191
degree[49] = 42, pos[49] = 8
degree[48] = 40, pos[48] = 124
degree[47] = 40, pos[47] = 122
degree[46] = 39, pos[46] = 93
degree[45] = 38, pos[45] = 39
degree[44] = 37, pos[44] = 154
degree[43] = 36, pos[43] = 91
degree[42] = 35, pos[42] = 82
degree[41] = 35, pos[41] = 25
degree[40] = 34, pos[40] = 48
degree[39] = 33, pos[39] = 22
degree[38] = 32, pos[38] = 66
degree[37] = 31, pos[37] = 138
degree[36] = 30, pos[36] = 11
degree[35] = 29, pos[35] = 0
degree[34] = 28, pos[34] = 148
degree[33] = 27, pos[33] = 121
degree[32] = 26, pos[32] = 114
degree[31] = 25, pos[31] = 107
degree[30] = 24, pos[30] = 105
degree[29] = 23, pos[29] = 132
degree[28] = 23, pos[28] = 52
degree[27] = 22, pos[27] = 71
degree[26] = 20, pos[26] = 182
degree[25] = 19, pos[25] = 181
degree[24] = 18, pos[24] = 170
degree[23] = 18, pos[23] = 112
degree[22] = 17, pos[22] = 128
degree[21] = 16, pos[21] = 145
degree[20] = 15, pos[20] = 43
degree[19] = 14, pos[19] = 108
degree[18] = 13, pos[18] = 129
degree[17] = 13, pos[17] = 126
degree[16] = 12, pos[16] = 70
degree[15] = 12, pos[15] = 13
degree[14] = 10, pos[14] = 162
degree[13] = 10, pos[13] = 74
degree[12] = 8, pos[12] = 198
degree[11] = 7, pos[11] = 36
degree[10] = 6, pos[10] = 98
degree[9] = 6, pos[9] = 80
degree[8] = 6, pos[8] = 7
degree[7] = 4, pos[7] = 84
degree[6] = 4, pos[6] = 35
degree[5] = 1, pos[5] = 178
degree[4] = 0, pos[4] = 59
degree[3] = 0, pos[3] = 53
degree[2] = 0, pos[2] = 41
degree[1] = 0, pos[1] = 38
degree[0] = 0, pos[0] = 34
Pos[0] = 34
Pos[1] = 38
Pos[2] = 41
Pos[3] = 53
Pos[4] = 59
Pos[5] = 178
Pos[6] = 35
Pos[7] = 84
Pos[8] = 7
Pos[9] = 80
Pos[10] = 98
Pos[11] = 36
Pos[12] = 198
Pos[13] = 74
Pos[14] = 162
Pos[15] = 13
Pos[16] = 70
Pos[17] = 126
Pos[18] = 129
Pos[19] = 108
Pos[20] = 43
Pos[21] = 145
Pos[22] = 128
Pos[23] = 112
Pos[24] = 170
Pos[25] = 181
Pos[26] = 182
Pos[27] = 71
Pos[28] = 52
Pos[29] = 132
Pos[30] = 105
Pos[31] = 107
Pos[32] = 114
Pos[33] = 121
Pos[34] = 148
Pos[35] = 0
Pos[36] = 11
Pos[37] = 138
Pos[38] = 66
Pos[39] = 22
Pos[40] = 48
Pos[41] = 25
Pos[42] = 82
Pos[43] = 91
Pos[44] = 154
Pos[45] = 39
Pos[46] = 93
Pos[47] = 122
Pos[48] = 124
Pos[49] = 8
Pos[50] = 191
Pos[51] = 115
Pos[52] = 123
Pos[53] = 156
Pos[54] = 194
Pos[55] = 87
Pos[56] = 109
Pos[57] = 153
Pos[58] = 195
Pos[59] = 20
Pos[60] = 169
Pos[61] = 97
Pos[62] = 137
Pos[63] = 47
Pos[64] = 120
Pos[65] = 131
Pos[66] = 10
Pos[67] = 2
Pos[68] = 99
Pos[69] = 117
Pos[70] = 136
Pos[71] = 199
Pos[72] = 144
Pos[73] = 188
Pos[74] = 3
Pos[75] = 168
Pos[76] = 61
Pos[77] = 101
Pos[78] = 81
Pos[79] = 88
Pos[80] = 155
Pos[81] = 86
Pos[82] = 184
Pos[83] = 6
Pos[84] = 186
Pos[85] = 111
Pos[86] = 62
Pos[87] = 58
Pos[88] = 26
Pos[89] = 45
Pos[90] = 185
Pos[91] = 130
Pos[92] = 139
Pos[93] = 147
Pos[94] = 151
Pos[95] = 192
Pos[96] = 57
Pos[97] = 171
Pos[98] = 12
Pos[99] = 158
Pos[100] = 157
Pos[101] = 64
Pos[102] = 68
Pos[103] = 72
Pos[104] = 1
Pos[105] = 15
Pos[106] = 23
Pos[107] = 76
Pos[108] = 55
Pos[109] = 33
Pos[110] = 4
Pos[111] = 40
Pos[112] = 103
Pos[113] = 172
Pos[114] = 133
Pos[115] = 79
Pos[116] = 37
Pos[117] = 56
Pos[118] = 60
Pos[119] = 94
Pos[120] = 89
Pos[121] = 173
Pos[122] = 152
Pos[123] = 164
Pos[124] = 175
Pos[125] = 167
Pos[126] = 187
Pos[127] = 197
Pos[128] = 161
Pos[129] = 46
Pos[130] = 104
Pos[131] = 180
Pos[132] = 32
Pos[133] = 78
Pos[134] = 19
Pos[135] = 140
Pos[136] = 90
Pos[137] = 27
Pos[138] = 63
Pos[139] = 150
Pos[140] = 83
Pos[141] = 85
Pos[142] = 119
Pos[143] = 51
Pos[144] = 100
Pos[145] = 69
Pos[146] = 149
Pos[147] = 142
Pos[148] = 174
Pos[149] = 42
Pos[150] = 165
Pos[151] = 49
Pos[152] = 14
Pos[153] = 44
Pos[154] = 96
Pos[155] = 18
Pos[156] = 102
Pos[157] = 146
Pos[158] = 179
Pos[159] = 106
Pos[160] = 28
Pos[161] = 160
Pos[162] = 118
Pos[163] = 141
Pos[164] = 127
Pos[165] = 110
Pos[166] = 5
Pos[167] = 135
Pos[168] = 163
Pos[169] = 31
Pos[170] = 73
Pos[171] = 21
Pos[172] = 177
Pos[173] = 134
Pos[174] = 196
Pos[175] = 29
Pos[176] = 116
Pos[177] = 50
Pos[178] = 143
Pos[179] = 77
Pos[180] = 190
Pos[181] = 166
Pos[182] = 183
Pos[183] = 193
Pos[184] = 9
Pos[185] = 16
Pos[186] = 92
Pos[187] = 113
Pos[188] = 189
Pos[189] = 125
Pos[190] = 24
Pos[191] = 30
Pos[192] = 54
Pos[193] = 65
Pos[194] = 67
Pos[195] = 75
Pos[196] = 159
Pos[197] = 176
Pos[198] = 17
Pos[199] = 95
Enbr = 17910
start search
improving solution size 1
improving solution size 2
improving solution size 3
improving solution size 4
improving solution size 5
improving solution size 6
improving solution size 7
improving solution size 8
improving solution size 9
improving solution size 10
improving solution size 11
improving solution size 12
improving solution size 13
improving solution size 14
improving solution size 15
improving solution size 16
improving solution size 17
improving solution size 18
improving solution size 19
improving solution size 20
improving solution size 21
improving solution size 22
improving solution size 23
improving solution size 24
improving solution size 25
improving solution size 26
improving solution size 27
improving solution size 28
improving solution size 29
improving solution size 30
improving solution size 31
improving solution size 32
improving solution size 33
improving solution size 34
improving solution size 35
improving solution size 36
improving solution size 37
improving solution size 38
improving solution size 39
improving solution size 40
improving solution size 41
improving solution size 42
improving solution size 43
improving solution size 44
improving solution size 45
improving solution size 46
improving solution size 47
TIMEOUT
best clique: 96 18 177 160 76 68 66 55 25 126 93 194 184 191 74 136 128 15 143 101 64 91 141 47 162 34 2 73 176 158 193 148 7 185 89 118 132 110 195 173 40 139 72 44 199 37 131 
record          =          47
subp            =  2953966015
time            =  3600.00026
