timeout 3600 s
Graph with 400 vertices and 55860 edges density 0.700000
t = 111720, Enbr = 55860
degree[399] = 301, pos[399] = 392
degree[398] = 299, pos[398] = 89
degree[397] = 296, pos[397] = 279
degree[396] = 295, pos[396] = 110
degree[395] = 294, pos[395] = 27
degree[394] = 293, pos[394] = 311
degree[393] = 291, pos[393] = 257
degree[392] = 290, pos[392] = 118
degree[391] = 289, pos[391] = 396
degree[390] = 288, pos[390] = 347
degree[389] = 287, pos[389] = 258
degree[388] = 286, pos[388] = 184
degree[387] = 286, pos[387] = 70
degree[386] = 284, pos[386] = 394
degree[385] = 284, pos[385] = 94
degree[384] = 282, pos[384] = 231
degree[383] = 281, pos[383] = 206
degree[382] = 281, pos[382] = 123
degree[381] = 279, pos[381] = 204
degree[380] = 279, pos[380] = 75
degree[379] = 278, pos[379] = 8
degree[378] = 276, pos[378] = 194
degree[377] = 275, pos[377] = 295
degree[376] = 274, pos[376] = 230
degree[375] = 274, pos[375] = 36
degree[374] = 272, pos[374] = 395
degree[373] = 272, pos[373] = 50
degree[372] = 271, pos[372] = 229
degree[371] = 269, pos[371] = 348
degree[370] = 269, pos[370] = 180
degree[369] = 268, pos[369] = 15
degree[368] = 266, pos[368] = 388
degree[367] = 266, pos[367] = 314
degree[366] = 265, pos[366] = 343
degree[365] = 265, pos[365] = 253
degree[364] = 264, pos[364] = 246
degree[363] = 263, pos[363] = 169
degree[362] = 263, pos[362] = 9
degree[361] = 262, pos[361] = 22
degree[360] = 260, pos[360] = 320
degree[359] = 260, pos[359] = 268
degree[358] = 259, pos[358] = 297
degree[357] = 258, pos[357] = 393
degree[356] = 258, pos[356] = 384
degree[355] = 258, pos[355] = 245
degree[354] = 256, pos[354] = 370
degree[353] = 255, pos[353] = 26
degree[352] = 253, pos[352] = 350
degree[351] = 253, pos[351] = 346
degree[350] = 252, pos[350] = 183
degree[349] = 251, pos[349] = 286
degree[348] = 251, pos[348] = 252
degree[347] = 250, pos[347] = 83
degree[346] = 249, pos[346] = 59
degree[345] = 248, pos[345] = 232
degree[344] = 248, pos[344] = 19
degree[343] = 247, pos[343] = 163
degree[342] = 246, pos[342] = 96
degree[341] = 245, pos[341] = 74
degree[340] = 244, pos[340] = 68
degree[339] = 244, pos[339] = 7
degree[338] = 242, pos[338] = 220
degree[337] = 242, pos[337] = 170
degree[336] = 240, pos[336] = 391
degree[335] = 240, pos[335] = 308
degree[334] = 240, pos[334] = 176
degree[333] = 238, pos[333] = 278
degree[332] = 238, pos[332] = 274
degree[331] = 236, pos[331] = 182
degree[330] = 235, pos[330] = 360
degree[329] = 235, pos[329] = 178
degree[328] = 234, pos[328] = 13
degree[327] = 233, pos[327] = 261
degree[326] = 232, pos[326] = 335
degree[325] = 231, pos[325] = 248
degree[324] = 231, pos[324] = 139
degree[323] = 230, pos[323] = 131
degree[322] = 229, pos[322] = 345
degree[321] = 228, pos[321] = 310
degree[320] = 228, pos[320] = 190
degree[319] = 227, pos[319] = 259
degree[318] = 226, pos[318] = 200
degree[317] = 226, pos[317] = 161
degree[316] = 225, pos[316] = 377
degree[315] = 224, pos[315] = 140
degree[314] = 223, pos[314] = 173
degree[313] = 223, pos[313] = 88
degree[312] = 222, pos[312] = 4
degree[311] = 221, pos[311] = 80
degree[310] = 220, pos[310] = 315
degree[309] = 220, pos[309] = 294
degree[308] = 219, pos[308] = 249
degree[307] = 219, pos[307] = 32
degree[306] = 218, pos[306] = 172
degree[305] = 217, pos[305] = 39
degree[304] = 216, pos[304] = 87
degree[303] = 215, pos[303] = 318
degree[302] = 214, pos[302] = 290
degree[301] = 214, pos[301] = 266
degree[300] = 213, pos[300] = 56
degree[299] = 212, pos[299] = 225
degree[298] = 212, pos[298] = 128
degree[297] = 211, pos[297] = 196
degree[296] = 210, pos[296] = 113
degree[295] = 209, pos[295] = 379
degree[294] = 209, pos[294] = 146
degree[293] = 209, pos[293] = 42
degree[292] = 207, pos[292] = 291
degree[291] = 207, pos[291] = 52
degree[290] = 206, pos[290] = 233
degree[289] = 205, pos[289] = 399
degree[288] = 205, pos[288] = 168
degree[287] = 204, pos[287] = 359
degree[286] = 204, pos[286] = 62
degree[285] = 203, pos[285] = 6
degree[284] = 201, pos[284] = 69
degree[283] = 200, pos[283] = 93
degree[282] = 199, pos[282] = 282
degree[281] = 198, pos[281] = 270
degree[280] = 198, pos[280] = 247
degree[279] = 197, pos[279] = 72
degree[278] = 196, pos[278] = 319
degree[277] = 195, pos[277] = 355
degree[276] = 195, pos[276] = 292
degree[275] = 194, pos[275] = 210
degree[274] = 193, pos[274] = 332
degree[273] = 192, pos[273] = 177
degree[272] = 192, pos[272] = 20
degree[271] = 191, pos[271] = 11
degree[270] = 190, pos[270] = 385
degree[269] = 189, pos[269] = 217
degree[268] = 189, pos[268] = 55
degree[267] = 188, pos[267] = 33
degree[266] = 187, pos[266] = 221
degree[265] = 186, pos[265] = 157
degree[264] = 185, pos[264] = 287
degree[263] = 184, pos[263] = 152
degree[262] = 184, pos[262] = 58
degree[261] = 183, pos[261] = 77
degree[260] = 182, pos[260] = 304
degree[259] = 182, pos[259] = 25
degree[258] = 180, pos[258] = 373
degree[257] = 180, pos[257] = 242
degree[256] = 179, pos[256] = 331
degree[255] = 179, pos[255] = 201
degree[254] = 178, pos[254] = 309
degree[253] = 178, pos[253] = 1
degree[252] = 176, pos[252] = 329
degree[251] = 176, pos[251] = 162
degree[250] = 175, pos[250] = 147
degree[249] = 174, pos[249] = 302
degree[248] = 173, pos[248] = 256
degree[247] = 173, pos[247] = 44
degree[246] = 172, pos[246] = 235
degree[245] = 171, pos[245] = 237
degree[244] = 171, pos[244] = 121
degree[243] = 170, pos[243] = 120
degree[242] = 169, pos[242] = 364
degree[241] = 168, pos[241] = 383
degree[240] = 168, pos[240] = 48
degree[239] = 167, pos[239] = 2
degree[238] = 166, pos[238] = 175
degree[237] = 165, pos[237] = 153
degree[236] = 165, pos[236] = 97
degree[235] = 163, pos[235] = 269
degree[234] = 163, pos[234] = 158
degree[233] = 162, pos[233] = 199
degree[232] = 161, pos[232] = 323
degree[231] = 161, pos[231] = 159
degree[230] = 160, pos[230] = 284
degree[229] = 160, pos[229] = 228
degree[228] = 159, pos[228] = 107
degree[227] = 158, pos[227] = 116
degree[226] = 158, pos[226] = 91
degree[225] = 157, pos[225] = 114
degree[224] = 155, pos[224] = 367
degree[223] = 155, pos[223] = 260
degree[222] = 154, pos[222] = 337
degree[221] = 153, pos[221] = 365
degree[220] = 153, pos[220] = 316
degree[219] = 152, pos[219] = 82
degree[218] = 151, pos[218] = 341
degree[217] = 150, pos[217] = 390
degree[216] = 150, pos[216] = 281
degree[215] = 149, pos[215] = 216
degree[214] = 148, pos[214] = 138
degree[213] = 147, pos[213] = 368
degree[212] = 147, pos[212] = 38
degree[211] = 146, pos[211] = 129
degree[210] = 145, pos[210] = 222
degree[209] = 145, pos[209] = 73
degree[208] = 144, pos[208] = 142
degree[207] = 143, pos[207] = 108
degree[206] = 142, pos[206] = 296
degree[205] = 141, pos[205] = 285
degree[204] = 141, pos[204] = 98
degree[203] = 140, pos[203] = 277
degree[202] = 139, pos[202] = 234
degree[201] = 139, pos[201] = 197
degree[200] = 138, pos[200] = 143
degree[199] = 137, pos[199] = 215
degree[198] = 136, pos[198] = 92
degree[197] = 135, pos[197] = 374
degree[196] = 134, pos[196] = 353
degree[195] = 134, pos[195] = 126
degree[194] = 133, pos[194] = 53
degree[193] = 132, pos[193] = 283
degree[192] = 132, pos[192] = 46
degree[191] = 131, pos[191] = 165
degree[190] = 130, pos[190] = 322
degree[189] = 129, pos[189] = 382
degree[188] = 128, pos[188] = 327
degree[187] = 128, pos[187] = 264
degree[186] = 127, pos[186] = 324
degree[185] = 127, pos[185] = 238
degree[184] = 126, pos[184] = 254
degree[183] = 125, pos[183] = 303
degree[182] = 124, pos[182] = 250
degree[181] = 124, pos[181] = 223
degree[180] = 123, pos[180] = 389
degree[179] = 122, pos[179] = 366
degree[178] = 121, pos[178] = 224
degree[177] = 121, pos[177] = 132
degree[176] = 120, pos[176] = 63
degree[175] = 119, pos[175] = 340
degree[174] = 118, pos[174] = 289
degree[173] = 118, pos[173] = 137
degree[172] = 117, pos[172] = 145
degree[171] = 116, pos[171] = 372
degree[170] = 116, pos[170] = 41
degree[169] = 115, pos[169] = 255
degree[168] = 114, pos[168] = 124
degree[167] = 113, pos[167] = 288
degree[166] = 113, pos[166] = 57
degree[165] = 112, pos[165] = 109
degree[164] = 111, pos[164] = 65
degree[163] = 111, pos[163] = 49
degree[162] = 109, pos[162] = 301
degree[161] = 109, pos[161] = 273
degree[160] = 109, pos[160] = 102
degree[159] = 107, pos[159] = 376
degree[158] = 107, pos[158] = 76
degree[157] = 106, pos[157] = 262
degree[156] = 105, pos[156] = 387
degree[155] = 104, pos[155] = 338
degree[154] = 104, pos[154] = 236
degree[153] = 103, pos[153] = 330
degree[152] = 102, pos[152] = 328
degree[151] = 102, pos[151] = 244
degree[150] = 101, pos[150] = 202
degree[149] = 100, pos[149] = 198
degree[148] = 99, pos[148] = 275
degree[147] = 99, pos[147] = 191
degree[146] = 98, pos[146] = 189
degree[145] = 98, pos[145] = 149
degree[144] = 97, pos[144] = 187
degree[143] = 97, pos[143] = 54
degree[142] = 97, pos[142] = 23
degree[141] = 95, pos[141] = 293
degree[140] = 95, pos[140] = 106
degree[139] = 94, pos[139] = 174
degree[138] = 93, pos[138] = 313
degree[137] = 92, pos[137] = 263
degree[136] = 92, pos[136] = 130
degree[135] = 91, pos[135] = 167
degree[134] = 90, pos[134] = 127
degree[133] = 89, pos[133] = 112
degree[132] = 88, pos[132] = 369
degree[131] = 88, pos[131] = 105
degree[130] = 86, pos[130] = 356
degree[129] = 86, pos[129] = 193
degree[128] = 85, pos[128] = 111
degree[127] = 84, pos[127] = 305
degree[126] = 83, pos[126] = 280
degree[125] = 83, pos[125] = 227
degree[124] = 83, pos[124] = 86
degree[123] = 81, pos[123] = 354
degree[122] = 81, pos[122] = 267
degree[121] = 80, pos[121] = 60
degree[120] = 79, pos[120] = 397
degree[119] = 78, pos[119] = 272
degree[118] = 78, pos[118] = 90
degree[117] = 77, pos[117] = 300
degree[116] = 77, pos[116] = 209
degree[115] = 77, pos[115] = 103
degree[114] = 77, pos[114] = 95
degree[113] = 75, pos[113] = 104
degree[112] = 74, pos[112] = 17
degree[111] = 73, pos[111] = 218
degree[110] = 73, pos[110] = 40
degree[109] = 71, pos[109] = 378
degree[108] = 71, pos[108] = 363
degree[107] = 70, pos[107] = 358
degree[106] = 70, pos[106] = 352
degree[105] = 69, pos[105] = 357
degree[104] = 68, pos[104] = 317
degree[103] = 68, pos[103] = 203
degree[102] = 67, pos[102] = 188
degree[101] = 66, pos[101] = 155
degree[100] = 65, pos[100] = 226
degree[99] = 64, pos[99] = 371
degree[98] = 63, pos[98] = 381
degree[97] = 63, pos[97] = 321
degree[96] = 62, pos[96] = 298
degree[95] = 61, pos[95] = 344
degree[94] = 61, pos[94] = 276
degree[93] = 60, pos[93] = 243
degree[92] = 60, pos[92] = 64
degree[91] = 59, pos[91] = 79
degree[90] = 58, pos[90] = 119
degree[89] = 58, pos[89] = 81
degree[88] = 57, pos[88] = 166
degree[87] = 57, pos[87] = 71
degree[86] = 55, pos[86] = 380
degree[85] = 55, pos[85] = 78
degree[84] = 54, pos[84] = 208
degree[83] = 53, pos[83] = 205
degree[82] = 52, pos[82] = 101
degree[81] = 52, pos[81] = 24
degree[80] = 52, pos[80] = 16
degree[79] = 51, pos[79] = 35
degree[78] = 49, pos[78] = 362
degree[77] = 49, pos[77] = 141
degree[76] = 48, pos[76] = 342
degree[75] = 48, pos[75] = 213
degree[74] = 46, pos[74] = 398
degree[73] = 46, pos[73] = 51
degree[72] = 45, pos[72] = 325
degree[71] = 45, pos[71] = 117
degree[70] = 44, pos[70] = 219
degree[69] = 44, pos[69] = 43
degree[68] = 42, pos[68] = 214
degree[67] = 42, pos[67] = 164
degree[66] = 42, pos[66] = 28
degree[65] = 41, pos[65] = 134
degree[64] = 40, pos[64] = 67
degree[63] = 40, pos[63] = 5
degree[62] = 38, pos[62] = 361
degree[61] = 38, pos[61] = 156
degree[60] = 37, pos[60] = 239
degree[59] = 36, pos[59] = 339
degree[58] = 36, pos[58] = 37
degree[57] = 35, pos[57] = 307
degree[56] = 35, pos[56] = 251
degree[55] = 34, pos[55] = 299
degree[54] = 34, pos[54] = 10
degree[53] = 32, pos[53] = 212
degree[52] = 32, pos[52] = 195
degree[51] = 31, pos[51] = 181
degree[50] = 31, pos[50] = 31
degree[49] = 30, pos[49] = 160
degree[48] = 29, pos[48] = 151
degree[47] = 29, pos[47] = 30
degree[46] = 28, pos[46] = 61
degree[45] = 27, pos[45] = 211
degree[44] = 27, pos[44] = 47
degree[43] = 26, pos[43] = 122
degree[42] = 26, pos[42] = 0
degree[41] = 24, pos[41] = 326
degree[40] = 24, pos[40] = 179
degree[39] = 23, pos[39] = 85
degree[38] = 23, pos[38] = 21
degree[37] = 21, pos[37] = 386
degree[36] = 21, pos[36] = 99
degree[35] = 20, pos[35] = 241
degree[34] = 18, pos[34] = 334
degree[33] = 18, pos[33] = 207
degree[32] = 17, pos[32] = 125
degree[31] = 17, pos[31] = 12
degree[30] = 15, pos[30] = 306
degree[29] = 15, pos[29] = 100
degree[28] = 14, pos[28] = 271
degree[27] = 14, pos[27] = 3
degree[26] = 13, pos[26] = 185
degree[25] = 12, pos[25] = 150
degree[24] = 11, pos[24] = 312
degree[23] = 11, pos[23] = 136
degree[22] = 11, pos[22] = 29
degree[21] = 10, pos[21] = 192
degree[20] = 10, pos[20] = 135
degree[19] = 9, pos[19] = 349
degree[18] = 9, pos[18] = 336
degree[17] = 9, pos[17] = 186
degree[16] = 9, pos[16] = 115
degree[15] = 4, pos[15] = 18
degree[14] = 3, pos[14] = 148
degree[13] = 3, pos[13] = 133
degree[12] = 2, pos[12] = 34
degree[11] = 1, pos[11] = 265
degree[10] = 1, pos[10] = 154
degree[9] = 1, pos[9] = 144
degree[8] = 0, pos[8] = 375
degree[7] = 0, pos[7] = 351
degree[6] = 0, pos[6] = 333
degree[5] = 0, pos[5] = 240
degree[4] = 0, pos[4] = 171
degree[3] = 0, pos[3] = 84
degree[2] = 0, pos[2] = 66
degree[1] = 0, pos[1] = 45
degree[0] = 0, pos[0] = 14
Pos[0] = 14
Pos[1] = 45
Pos[2] = 66
Pos[3] = 84
Pos[4] = 171
Pos[5] = 240
Pos[6] = 333
Pos[7] = 351
Pos[8] = 375
Pos[9] = 144
Pos[10] = 154
Pos[11] = 265
Pos[12] = 34
Pos[13] = 133
Pos[14] = 148
Pos[15] = 18
Pos[16] = 115
Pos[17] = 186
Pos[18] = 336
Pos[19] = 349
Pos[20] = 135
Pos[21] = 192
Pos[22] = 29
Pos[23] = 136
Pos[24] = 312
Pos[25] = 150
Pos[26] = 185
Pos[27] = 3
Pos[28] = 271
Pos[29] = 100
Pos[30] = 306
Pos[31] = 12
Pos[32] = 125
Pos[33] = 207
Pos[34] = 334
Pos[35] = 241
Pos[36] = 99
Pos[37] = 386
Pos[38] = 21
Pos[39] = 85
Pos[40] = 179
Pos[41] = 326
Pos[42] = 0
Pos[43] = 122
Pos[44] = 47
Pos[45] = 211
Pos[46] = 61
Pos[47] = 30
Pos[48] = 151
Pos[49] = 160
Pos[50] = 31
Pos[51] = 181
Pos[52] = 195
Pos[53] = 212
Pos[54] = 10
Pos[55] = 299
Pos[56] = 251
Pos[57] = 307
Pos[58] = 37
Pos[59] = 339
Pos[60] = 239
Pos[61] = 156
Pos[62] = 361
Pos[63] = 5
Pos[64] = 67
Pos[65] = 134
Pos[66] = 28
Pos[67] = 164
Pos[68] = 214
Pos[69] = 43
Pos[70] = 219
Pos[71] = 117
Pos[72] = 325
Pos[73] = 51
Pos[74] = 398
Pos[75] = 213
Pos[76] = 342
Pos[77] = 141
Pos[78] = 362
Pos[79] = 35
Pos[80] = 16
Pos[81] = 24
Pos[82] = 101
Pos[83] = 205
Pos[84] = 208
Pos[85] = 78
Pos[86] = 380
Pos[87] = 71
Pos[88] = 166
Pos[89] = 81
Pos[90] = 119
Pos[91] = 79
Pos[92] = 64
Pos[93] = 243
Pos[94] = 276
Pos[95] = 344
Pos[96] = 298
Pos[97] = 321
Pos[98] = 381
Pos[99] = 371
Pos[100] = 226
Pos[101] = 155
Pos[102] = 188
Pos[103] = 203
Pos[104] = 317
Pos[105] = 357
Pos[106] = 352
Pos[107] = 358
Pos[108] = 363
Pos[109] = 378
Pos[110] = 40
Pos[111] = 218
Pos[112] = 17
Pos[113] = 104
Pos[114] = 95
Pos[115] = 103
Pos[116] = 209
Pos[117] = 300
Pos[118] = 90
Pos[119] = 272
Pos[120] = 397
Pos[121] = 60
Pos[122] = 267
Pos[123] = 354
Pos[124] = 86
Pos[125] = 227
Pos[126] = 280
Pos[127] = 305
Pos[128] = 111
Pos[129] = 193
Pos[130] = 356
Pos[131] = 105
Pos[132] = 369
Pos[133] = 112
Pos[134] = 127
Pos[135] = 167
Pos[136] = 130
Pos[137] = 263
Pos[138] = 313
Pos[139] = 174
Pos[140] = 106
Pos[141] = 293
Pos[142] = 23
Pos[143] = 54
Pos[144] = 187
Pos[145] = 149
Pos[146] = 189
Pos[147] = 191
Pos[148] = 275
Pos[149] = 198
Pos[150] = 202
Pos[151] = 244
Pos[152] = 328
Pos[153] = 330
Pos[154] = 236
Pos[155] = 338
Pos[156] = 387
Pos[157] = 262
Pos[158] = 76
Pos[159] = 376
Pos[160] = 102
Pos[161] = 273
Pos[162] = 301
Pos[163] = 49
Pos[164] = 65
Pos[165] = 109
Pos[166] = 57
Pos[167] = 288
Pos[168] = 124
Pos[169] = 255
Pos[170] = 41
Pos[171] = 372
Pos[172] = 145
Pos[173] = 137
Pos[174] = 289
Pos[175] = 340
Pos[176] = 63
Pos[177] = 132
Pos[178] = 224
Pos[179] = 366
Pos[180] = 389
Pos[181] = 223
Pos[182] = 250
Pos[183] = 303
Pos[184] = 254
Pos[185] = 238
Pos[186] = 324
Pos[187] = 264
Pos[188] = 327
Pos[189] = 382
Pos[190] = 322
Pos[191] = 165
Pos[192] = 46
Pos[193] = 283
Pos[194] = 53
Pos[195] = 126
Pos[196] = 353
Pos[197] = 374
Pos[198] = 92
Pos[199] = 215
Pos[200] = 143
Pos[201] = 197
Pos[202] = 234
Pos[203] = 277
Pos[204] = 98
Pos[205] = 285
Pos[206] = 296
Pos[207] = 108
Pos[208] = 142
Pos[209] = 73
Pos[210] = 222
Pos[211] = 129
Pos[212] = 38
Pos[213] = 368
Pos[214] = 138
Pos[215] = 216
Pos[216] = 281
Pos[217] = 390
Pos[218] = 341
Pos[219] = 82
Pos[220] = 316
Pos[221] = 365
Pos[222] = 337
Pos[223] = 260
Pos[224] = 367
Pos[225] = 114
Pos[226] = 91
Pos[227] = 116
Pos[228] = 107
Pos[229] = 228
Pos[230] = 284
Pos[231] = 159
Pos[232] = 323
Pos[233] = 199
Pos[234] = 158
Pos[235] = 269
Pos[236] = 97
Pos[237] = 153
Pos[238] = 175
Pos[239] = 2
Pos[240] = 48
Pos[241] = 383
Pos[242] = 364
Pos[243] = 120
Pos[244] = 121
Pos[245] = 237
Pos[246] = 235
Pos[247] = 44
Pos[248] = 256
Pos[249] = 302
Pos[250] = 147
Pos[251] = 162
Pos[252] = 329
Pos[253] = 1
Pos[254] = 309
Pos[255] = 201
Pos[256] = 331
Pos[257] = 242
Pos[258] = 373
Pos[259] = 25
Pos[260] = 304
Pos[261] = 77
Pos[262] = 58
Pos[263] = 152
Pos[264] = 287
Pos[265] = 157
Pos[266] = 221
Pos[267] = 33
Pos[268] = 55
Pos[269] = 217
Pos[270] = 385
Pos[271] = 11
Pos[272] = 20
Pos[273] = 177
Pos[274] = 332
Pos[275] = 210
Pos[276] = 292
Pos[277] = 355
Pos[278] = 319
Pos[279] = 72
Pos[280] = 247
Pos[281] = 270
Pos[282] = 282
Pos[283] = 93
Pos[284] = 69
Pos[285] = 6
Pos[286] = 62
Pos[287] = 359
Pos[288] = 168
Pos[289] = 399
Pos[290] = 233
Pos[291] = 52
Pos[292] = 291
Pos[293] = 42
Pos[294] = 146
Pos[295] = 379
Pos[296] = 113
Pos[297] = 196
Pos[298] = 128
Pos[299] = 225
Pos[300] = 56
Pos[301] = 266
Pos[302] = 290
Pos[303] = 318
Pos[304] = 87
Pos[305] = 39
Pos[306] = 172
Pos[307] = 32
Pos[308] = 249
Pos[309] = 294
Pos[310] = 315
Pos[311] = 80
Pos[312] = 4
Pos[313] = 88
Pos[314] = 173
Pos[315] = 140
Pos[316] = 377
Pos[317] = 161
Pos[318] = 200
Pos[319] = 259
Pos[320] = 190
Pos[321] = 310
Pos[322] = 345
Pos[323] = 131
Pos[324] = 139
Pos[325] = 248
Pos[326] = 335
Pos[327] = 261
Pos[328] = 13
Pos[329] = 178
Pos[330] = 360
Pos[331] = 182
Pos[332] = 274
Pos[333] = 278
Pos[334] = 176
Pos[335] = 308
Pos[336] = 391
Pos[337] = 170
Pos[338] = 220
Pos[339] = 7
Pos[340] = 68
Pos[341] = 74
Pos[342] = 96
Pos[343] = 163
Pos[344] = 19
Pos[345] = 232
Pos[346] = 59
Pos[347] = 83
Pos[348] = 252
Pos[349] = 286
Pos[350] = 183
Pos[351] = 346
Pos[352] = 350
Pos[353] = 26
Pos[354] = 370
Pos[355] = 245
Pos[356] = 384
Pos[357] = 393
Pos[358] = 297
Pos[359] = 268
Pos[360] = 320
Pos[361] = 22
Pos[362] = 9
Pos[363] = 169
Pos[364] = 246
Pos[365] = 253
Pos[366] = 343
Pos[367] = 314
Pos[368] = 388
Pos[369] = 15
Pos[370] = 180
Pos[371] = 348
Pos[372] = 229
Pos[373] = 50
Pos[374] = 395
Pos[375] = 36
Pos[376] = 230
Pos[377] = 295
Pos[378] = 194
Pos[379] = 8
Pos[380] = 75
Pos[381] = 204
Pos[382] = 123
Pos[383] = 206
Pos[384] = 231
Pos[385] = 94
Pos[386] = 394
Pos[387] = 70
Pos[388] = 184
Pos[389] = 258
Pos[390] = 347
Pos[391] = 396
Pos[392] = 118
Pos[393] = 257
Pos[394] = 311
Pos[395] = 27
Pos[396] = 110
Pos[397] = 279
Pos[398] = 89
Pos[399] = 392
Enbr = 55860
start search
improving solution size 1
improving solution size 2
improving solution size 3
improving solution size 4
improving solution size 5
improving solution size 6
improving solution size 7
improving solution size 8
improving solution size 9
improving solution size 10
improving solution size 11
improving solution size 12
improving solution size 13
improving solution size 14
improving solution size 15
improving solution size 16
improving solution size 17
improving solution size 18
improving solution size 19
improving solution size 20
improving solution size 21
improving solution size 22
improving solution size 23
improving solution size 24
improving solution size 25
improving solution size 26
improving solution size 27
improving solution size 28
improving solution size 29
improving solution size 30
improving solution size 31
improving solution size 32
improving solution size 33
improving solution size 34
improving solution size 35
improving solution size 36
improving solution size 37
improving solution size 38
improving solution size 39
improving solution size 40
TIMEOUT
best clique: 393 90 280 28 119 124 395 321 84 346 191 89 205 230 10 385 254 233 316 158 279 275 195 378 34 289 171 110 181 103 184 219 325 62 75 262 218 257 85 67 
record          =          40
subp            =  2317933618
time            =  3600.00100
