timeout 3600 s
Graph with 400 vertices and 55860 edges density 0.700000
t = 111720, Enbr = 55860
degree[399] = 304, pos[399] = 120
degree[398] = 302, pos[398] = 346
degree[397] = 294, pos[397] = 153
degree[396] = 293, pos[396] = 17
degree[395] = 291, pos[395] = 377
degree[394] = 291, pos[394] = 221
degree[393] = 289, pos[393] = 338
degree[392] = 288, pos[392] = 25
degree[391] = 287, pos[391] = 100
degree[390] = 286, pos[390] = 84
degree[389] = 286, pos[389] = 14
degree[388] = 285, pos[388] = 11
degree[387] = 283, pos[387] = 370
degree[386] = 282, pos[386] = 251
degree[385] = 282, pos[385] = 237
degree[384] = 281, pos[384] = 141
degree[383] = 280, pos[383] = 364
degree[382] = 278, pos[382] = 206
degree[381] = 278, pos[381] = 134
degree[380] = 276, pos[380] = 394
degree[379] = 275, pos[379] = 332
degree[378] = 274, pos[378] = 253
degree[377] = 274, pos[377] = 151
degree[376] = 272, pos[376] = 318
degree[375] = 272, pos[375] = 283
degree[374] = 271, pos[374] = 271
degree[373] = 270, pos[373] = 351
degree[372] = 270, pos[372] = 91
degree[371] = 269, pos[371] = 67
degree[370] = 268, pos[370] = 282
degree[369] = 268, pos[369] = 19
degree[368] = 266, pos[368] = 212
degree[367] = 266, pos[367] = 122
degree[366] = 265, pos[366] = 244
degree[365] = 264, pos[365] = 43
degree[364] = 263, pos[364] = 203
degree[363] = 262, pos[363] = 392
degree[362] = 261, pos[362] = 320
degree[361] = 261, pos[361] = 160
degree[360] = 260, pos[360] = 327
degree[359] = 259, pos[359] = 310
degree[358] = 259, pos[358] = 218
degree[357] = 258, pos[357] = 300
degree[356] = 257, pos[356] = 238
degree[355] = 257, pos[355] = 187
degree[354] = 256, pos[354] = 149
degree[353] = 255, pos[353] = 270
degree[352] = 255, pos[352] = 3
degree[351] = 253, pos[351] = 242
degree[350] = 252, pos[350] = 281
degree[349] = 252, pos[349] = 30
degree[348] = 251, pos[348] = 261
degree[347] = 250, pos[347] = 181
degree[346] = 249, pos[346] = 107
degree[345] = 249, pos[345] = 48
degree[344] = 248, pos[344] = 10
degree[343] = 246, pos[343] = 380
degree[342] = 246, pos[342] = 199
degree[341] = 244, pos[341] = 333
degree[340] = 244, pos[340] = 331
degree[339] = 243, pos[339] = 294
degree[338] = 243, pos[338] = 190
degree[337] = 242, pos[337] = 194
degree[336] = 241, pos[336] = 175
degree[335] = 241, pos[335] = 21
degree[334] = 239, pos[334] = 214
degree[333] = 238, pos[333] = 121
degree[332] = 237, pos[332] = 378
degree[331] = 236, pos[331] = 258
degree[330] = 236, pos[330] = 60
degree[329] = 235, pos[329] = 252
degree[328] = 234, pos[328] = 340
degree[327] = 234, pos[327] = 54
degree[326] = 233, pos[326] = 63
degree[325] = 231, pos[325] = 363
degree[324] = 231, pos[324] = 265
degree[323] = 230, pos[323] = 264
degree[322] = 230, pos[322] = 233
degree[321] = 229, pos[321] = 217
degree[320] = 228, pos[320] = 93
degree[319] = 227, pos[319] = 88
degree[318] = 226, pos[318] = 368
degree[317] = 225, pos[317] = 326
degree[316] = 224, pos[316] = 317
degree[315] = 224, pos[315] = 189
degree[314] = 223, pos[314] = 139
degree[313] = 223, pos[313] = 130
degree[312] = 222, pos[312] = 0
degree[311] = 221, pos[311] = 90
degree[310] = 220, pos[310] = 397
degree[309] = 220, pos[309] = 249
degree[308] = 219, pos[308] = 176
degree[307] = 218, pos[307] = 124
degree[306] = 217, pos[306] = 289
degree[305] = 216, pos[305] = 243
degree[304] = 216, pos[304] = 154
degree[303] = 215, pos[303] = 197
degree[302] = 214, pos[302] = 274
degree[301] = 214, pos[301] = 34
degree[300] = 213, pos[300] = 381
degree[299] = 213, pos[299] = 50
degree[298] = 212, pos[298] = 369
degree[297] = 211, pos[297] = 79
degree[296] = 210, pos[296] = 180
degree[295] = 209, pos[295] = 177
degree[294] = 209, pos[294] = 161
degree[293] = 208, pos[293] = 358
degree[292] = 207, pos[292] = 42
degree[291] = 206, pos[291] = 334
degree[290] = 205, pos[290] = 276
degree[289] = 205, pos[289] = 172
degree[288] = 204, pos[288] = 372
degree[287] = 204, pos[287] = 330
degree[286] = 203, pos[286] = 355
degree[285] = 202, pos[285] = 239
degree[284] = 201, pos[284] = 5
degree[283] = 200, pos[283] = 297
degree[282] = 200, pos[282] = 279
degree[281] = 199, pos[281] = 158
degree[280] = 198, pos[280] = 295
degree[279] = 197, pos[279] = 254
degree[278] = 197, pos[278] = 89
degree[277] = 196, pos[277] = 178
degree[276] = 195, pos[276] = 268
degree[275] = 194, pos[275] = 353
degree[274] = 194, pos[274] = 148
degree[273] = 193, pos[273] = 169
degree[272] = 193, pos[272] = 28
degree[271] = 192, pos[271] = 144
degree[270] = 192, pos[270] = 83
degree[269] = 191, pos[269] = 371
degree[268] = 191, pos[268] = 210
degree[267] = 190, pos[267] = 46
degree[266] = 189, pos[266] = 359
degree[265] = 188, pos[265] = 323
degree[264] = 187, pos[264] = 306
degree[263] = 187, pos[263] = 250
degree[262] = 185, pos[262] = 286
degree[261] = 184, pos[261] = 349
degree[260] = 184, pos[260] = 55
degree[259] = 183, pos[259] = 325
degree[258] = 183, pos[258] = 322
degree[257] = 182, pos[257] = 288
degree[256] = 180, pos[256] = 344
degree[255] = 180, pos[255] = 290
degree[254] = 179, pos[254] = 131
degree[253] = 178, pos[253] = 376
degree[252] = 178, pos[252] = 303
degree[251] = 178, pos[251] = 31
degree[250] = 177, pos[250] = 80
degree[249] = 176, pos[249] = 231
degree[248] = 175, pos[248] = 393
degree[247] = 175, pos[247] = 228
degree[246] = 174, pos[246] = 385
degree[245] = 173, pos[245] = 106
degree[244] = 172, pos[244] = 387
degree[243] = 172, pos[243] = 57
degree[242] = 171, pos[242] = 105
degree[241] = 170, pos[241] = 225
degree[240] = 169, pos[240] = 262
degree[239] = 169, pos[239] = 183
degree[238] = 167, pos[238] = 257
degree[237] = 166, pos[237] = 316
degree[236] = 165, pos[236] = 156
degree[235] = 164, pos[235] = 348
degree[234] = 164, pos[234] = 64
degree[233] = 164, pos[233] = 37
degree[232] = 162, pos[232] = 224
degree[231] = 162, pos[231] = 87
degree[230] = 161, pos[230] = 167
degree[229] = 161, pos[229] = 117
degree[228] = 159, pos[228] = 365
degree[227] = 159, pos[227] = 312
degree[226] = 159, pos[226] = 211
degree[225] = 158, pos[225] = 360
degree[224] = 156, pos[224] = 95
degree[223] = 155, pos[223] = 335
degree[222] = 155, pos[222] = 76
degree[221] = 154, pos[221] = 159
degree[220] = 153, pos[220] = 309
degree[219] = 153, pos[219] = 74
degree[218] = 152, pos[218] = 296
degree[217] = 151, pos[217] = 269
degree[216] = 151, pos[216] = 246
degree[215] = 150, pos[215] = 216
degree[214] = 149, pos[214] = 232
degree[213] = 149, pos[213] = 81
degree[212] = 147, pos[212] = 292
degree[211] = 147, pos[211] = 287
degree[210] = 146, pos[210] = 366
degree[209] = 146, pos[209] = 319
degree[208] = 145, pos[208] = 337
degree[207] = 145, pos[207] = 277
degree[206] = 145, pos[206] = 135
degree[205] = 143, pos[205] = 285
degree[204] = 142, pos[204] = 227
degree[203] = 141, pos[203] = 308
degree[202] = 140, pos[202] = 112
degree[201] = 140, pos[201] = 96
degree[200] = 139, pos[200] = 314
degree[199] = 139, pos[199] = 40
degree[198] = 138, pos[198] = 47
degree[197] = 137, pos[197] = 110
degree[196] = 136, pos[196] = 304
degree[195] = 135, pos[195] = 202
degree[194] = 135, pos[194] = 56
degree[193] = 134, pos[193] = 291
degree[192] = 133, pos[192] = 165
degree[191] = 133, pos[191] = 53
degree[190] = 131, pos[190] = 108
degree[189] = 131, pos[189] = 94
degree[188] = 130, pos[188] = 73
degree[187] = 128, pos[187] = 375
degree[186] = 128, pos[186] = 352
degree[185] = 126, pos[185] = 386
degree[184] = 126, pos[184] = 2
degree[183] = 125, pos[183] = 315
degree[182] = 125, pos[182] = 256
degree[181] = 125, pos[181] = 29
degree[180] = 123, pos[180] = 311
degree[179] = 123, pos[179] = 166
degree[178] = 122, pos[178] = 155
degree[177] = 122, pos[177] = 147
degree[176] = 120, pos[176] = 399
degree[175] = 119, pos[175] = 191
degree[174] = 119, pos[174] = 49
degree[173] = 119, pos[173] = 8
degree[172] = 118, pos[172] = 357
degree[171] = 116, pos[171] = 396
degree[170] = 116, pos[170] = 186
degree[169] = 115, pos[169] = 241
degree[168] = 115, pos[168] = 22
degree[167] = 113, pos[167] = 343
degree[166] = 113, pos[166] = 293
degree[165] = 113, pos[165] = 219
degree[164] = 112, pos[164] = 102
degree[163] = 111, pos[163] = 329
degree[162] = 111, pos[162] = 260
degree[161] = 111, pos[161] = 230
degree[160] = 111, pos[160] = 208
degree[159] = 110, pos[159] = 114
degree[158] = 109, pos[158] = 383
degree[157] = 108, pos[157] = 7
degree[156] = 107, pos[156] = 215
degree[155] = 106, pos[155] = 163
degree[154] = 104, pos[154] = 339
degree[153] = 103, pos[153] = 299
degree[152] = 103, pos[152] = 263
degree[151] = 103, pos[151] = 66
degree[150] = 102, pos[150] = 267
degree[149] = 101, pos[149] = 184
degree[148] = 101, pos[148] = 98
degree[147] = 100, pos[147] = 240
degree[146] = 99, pos[146] = 350
degree[145] = 98, pos[145] = 72
degree[144] = 97, pos[144] = 35
degree[143] = 97, pos[143] = 20
degree[142] = 95, pos[142] = 174
degree[141] = 94, pos[141] = 341
degree[140] = 94, pos[140] = 336
degree[139] = 92, pos[139] = 278
degree[138] = 92, pos[138] = 259
degree[137] = 91, pos[137] = 109
degree[136] = 91, pos[136] = 38
degree[135] = 90, pos[135] = 36
degree[134] = 90, pos[134] = 16
degree[133] = 88, pos[133] = 367
degree[132] = 88, pos[132] = 113
degree[131] = 87, pos[131] = 321
degree[130] = 86, pos[130] = 58
degree[129] = 85, pos[129] = 138
degree[128] = 85, pos[128] = 82
degree[127] = 84, pos[127] = 248
degree[126] = 83, pos[126] = 222
degree[125] = 82, pos[125] = 280
degree[124] = 81, pos[124] = 220
degree[123] = 81, pos[123] = 143
degree[122] = 80, pos[122] = 137
degree[121] = 79, pos[121] = 45
degree[120] = 78, pos[120] = 164
degree[119] = 78, pos[119] = 59
degree[118] = 77, pos[118] = 27
degree[117] = 76, pos[117] = 389
degree[116] = 76, pos[116] = 128
degree[115] = 75, pos[115] = 205
degree[114] = 74, pos[114] = 235
degree[113] = 74, pos[113] = 71
degree[112] = 73, pos[112] = 379
degree[111] = 73, pos[111] = 1
degree[110] = 72, pos[110] = 61
degree[109] = 71, pos[109] = 226
degree[108] = 71, pos[108] = 115
degree[107] = 70, pos[107] = 41
degree[106] = 68, pos[106] = 388
degree[105] = 68, pos[105] = 382
degree[104] = 67, pos[104] = 171
degree[103] = 67, pos[103] = 111
degree[102] = 66, pos[102] = 23
degree[101] = 65, pos[101] = 18
degree[100] = 64, pos[100] = 395
degree[99] = 64, pos[99] = 179
degree[98] = 62, pos[98] = 313
degree[97] = 62, pos[97] = 103
degree[96] = 61, pos[96] = 245
degree[95] = 60, pos[95] = 307
degree[94] = 60, pos[94] = 236
degree[93] = 59, pos[93] = 209
degree[92] = 59, pos[92] = 69
degree[91] = 58, pos[91] = 32
degree[90] = 57, pos[90] = 126
degree[89] = 56, pos[89] = 384
degree[88] = 55, pos[88] = 391
degree[87] = 55, pos[87] = 301
degree[86] = 55, pos[86] = 145
degree[85] = 55, pos[85] = 13
degree[84] = 53, pos[84] = 356
degree[83] = 52, pos[83] = 266
degree[82] = 52, pos[82] = 101
degree[81] = 50, pos[81] = 361
degree[80] = 50, pos[80] = 347
degree[79] = 49, pos[79] = 345
degree[78] = 49, pos[78] = 146
degree[77] = 49, pos[77] = 12
degree[76] = 48, pos[76] = 342
degree[75] = 47, pos[75] = 298
degree[74] = 46, pos[74] = 116
degree[73] = 46, pos[73] = 26
degree[72] = 45, pos[72] = 200
degree[71] = 45, pos[71] = 99
degree[70] = 44, pos[70] = 302
degree[69] = 43, pos[69] = 15
degree[68] = 42, pos[68] = 390
degree[67] = 41, pos[67] = 185
degree[66] = 41, pos[66] = 77
degree[65] = 41, pos[65] = 9
degree[64] = 40, pos[64] = 223
degree[63] = 40, pos[63] = 85
degree[62] = 38, pos[62] = 78
degree[61] = 37, pos[61] = 173
degree[60] = 36, pos[60] = 305
degree[59] = 36, pos[59] = 104
degree[58] = 35, pos[58] = 207
degree[57] = 35, pos[57] = 195
degree[56] = 34, pos[56] = 97
degree[55] = 34, pos[55] = 44
degree[54] = 32, pos[54] = 362
degree[53] = 32, pos[53] = 201
degree[52] = 32, pos[52] = 127
degree[51] = 30, pos[51] = 192
degree[50] = 30, pos[50] = 125
degree[49] = 29, pos[49] = 324
degree[48] = 29, pos[48] = 170
degree[47] = 28, pos[47] = 354
degree[46] = 28, pos[46] = 234
degree[45] = 28, pos[45] = 52
degree[44] = 27, pos[44] = 188
degree[43] = 27, pos[43] = 182
degree[42] = 27, pos[42] = 33
degree[41] = 25, pos[41] = 119
degree[40] = 25, pos[40] = 92
degree[39] = 20, pos[39] = 284
degree[38] = 19, pos[38] = 275
degree[37] = 19, pos[37] = 86
degree[36] = 18, pos[36] = 129
degree[35] = 17, pos[35] = 374
degree[34] = 17, pos[34] = 136
degree[33] = 17, pos[33] = 70
degree[32] = 17, pos[32] = 62
degree[31] = 15, pos[31] = 229
degree[30] = 15, pos[30] = 193
degree[29] = 15, pos[29] = 140
degree[28] = 15, pos[28] = 4
degree[27] = 14, pos[27] = 133
degree[26] = 14, pos[26] = 123
degree[25] = 14, pos[25] = 75
degree[24] = 14, pos[24] = 65
degree[23] = 14, pos[23] = 6
degree[22] = 13, pos[22] = 168
degree[21] = 7, pos[21] = 328
degree[20] = 6, pos[20] = 150
degree[19] = 4, pos[19] = 373
degree[18] = 4, pos[18] = 273
degree[17] = 4, pos[17] = 247
degree[16] = 4, pos[16] = 204
degree[15] = 4, pos[15] = 39
degree[14] = 3, pos[14] = 398
degree[13] = 3, pos[13] = 142
degree[12] = 2, pos[12] = 198
degree[11] = 2, pos[11] = 24
degree[10] = 0, pos[10] = 272
degree[9] = 0, pos[9] = 255
degree[8] = 0, pos[8] = 213
degree[7] = 0, pos[7] = 196
degree[6] = 0, pos[6] = 162
degree[5] = 0, pos[5] = 157
degree[4] = 0, pos[4] = 152
degree[3] = 0, pos[3] = 132
degree[2] = 0, pos[2] = 118
degree[1] = 0, pos[1] = 68
degree[0] = 0, pos[0] = 51
Pos[0] = 51
Pos[1] = 68
Pos[2] = 118
Pos[3] = 132
Pos[4] = 152
Pos[5] = 157
Pos[6] = 162
Pos[7] = 196
Pos[8] = 213
Pos[9] = 255
Pos[10] = 272
Pos[11] = 24
Pos[12] = 198
Pos[13] = 142
Pos[14] = 398
Pos[15] = 39
Pos[16] = 204
Pos[17] = 247
Pos[18] = 273
Pos[19] = 373
Pos[20] = 150
Pos[21] = 328
Pos[22] = 168
Pos[23] = 6
Pos[24] = 65
Pos[25] = 75
Pos[26] = 123
Pos[27] = 133
Pos[28] = 4
Pos[29] = 140
Pos[30] = 193
Pos[31] = 229
Pos[32] = 62
Pos[33] = 70
Pos[34] = 136
Pos[35] = 374
Pos[36] = 129
Pos[37] = 86
Pos[38] = 275
Pos[39] = 284
Pos[40] = 92
Pos[41] = 119
Pos[42] = 33
Pos[43] = 182
Pos[44] = 188
Pos[45] = 52
Pos[46] = 234
Pos[47] = 354
Pos[48] = 170
Pos[49] = 324
Pos[50] = 125
Pos[51] = 192
Pos[52] = 127
Pos[53] = 201
Pos[54] = 362
Pos[55] = 44
Pos[56] = 97
Pos[57] = 195
Pos[58] = 207
Pos[59] = 104
Pos[60] = 305
Pos[61] = 173
Pos[62] = 78
Pos[63] = 85
Pos[64] = 223
Pos[65] = 9
Pos[66] = 77
Pos[67] = 185
Pos[68] = 390
Pos[69] = 15
Pos[70] = 302
Pos[71] = 99
Pos[72] = 200
Pos[73] = 26
Pos[74] = 116
Pos[75] = 298
Pos[76] = 342
Pos[77] = 12
Pos[78] = 146
Pos[79] = 345
Pos[80] = 347
Pos[81] = 361
Pos[82] = 101
Pos[83] = 266
Pos[84] = 356
Pos[85] = 13
Pos[86] = 145
Pos[87] = 301
Pos[88] = 391
Pos[89] = 384
Pos[90] = 126
Pos[91] = 32
Pos[92] = 69
Pos[93] = 209
Pos[94] = 236
Pos[95] = 307
Pos[96] = 245
Pos[97] = 103
Pos[98] = 313
Pos[99] = 179
Pos[100] = 395
Pos[101] = 18
Pos[102] = 23
Pos[103] = 111
Pos[104] = 171
Pos[105] = 382
Pos[106] = 388
Pos[107] = 41
Pos[108] = 115
Pos[109] = 226
Pos[110] = 61
Pos[111] = 1
Pos[112] = 379
Pos[113] = 71
Pos[114] = 235
Pos[115] = 205
Pos[116] = 128
Pos[117] = 389
Pos[118] = 27
Pos[119] = 59
Pos[120] = 164
Pos[121] = 45
Pos[122] = 137
Pos[123] = 143
Pos[124] = 220
Pos[125] = 280
Pos[126] = 222
Pos[127] = 248
Pos[128] = 82
Pos[129] = 138
Pos[130] = 58
Pos[131] = 321
Pos[132] = 113
Pos[133] = 367
Pos[134] = 16
Pos[135] = 36
Pos[136] = 38
Pos[137] = 109
Pos[138] = 259
Pos[139] = 278
Pos[140] = 336
Pos[141] = 341
Pos[142] = 174
Pos[143] = 20
Pos[144] = 35
Pos[145] = 72
Pos[146] = 350
Pos[147] = 240
Pos[148] = 98
Pos[149] = 184
Pos[150] = 267
Pos[151] = 66
Pos[152] = 263
Pos[153] = 299
Pos[154] = 339
Pos[155] = 163
Pos[156] = 215
Pos[157] = 7
Pos[158] = 383
Pos[159] = 114
Pos[160] = 208
Pos[161] = 230
Pos[162] = 260
Pos[163] = 329
Pos[164] = 102
Pos[165] = 219
Pos[166] = 293
Pos[167] = 343
Pos[168] = 22
Pos[169] = 241
Pos[170] = 186
Pos[171] = 396
Pos[172] = 357
Pos[173] = 8
Pos[174] = 49
Pos[175] = 191
Pos[176] = 399
Pos[177] = 147
Pos[178] = 155
Pos[179] = 166
Pos[180] = 311
Pos[181] = 29
Pos[182] = 256
Pos[183] = 315
Pos[184] = 2
Pos[185] = 386
Pos[186] = 352
Pos[187] = 375
Pos[188] = 73
Pos[189] = 94
Pos[190] = 108
Pos[191] = 53
Pos[192] = 165
Pos[193] = 291
Pos[194] = 56
Pos[195] = 202
Pos[196] = 304
Pos[197] = 110
Pos[198] = 47
Pos[199] = 40
Pos[200] = 314
Pos[201] = 96
Pos[202] = 112
Pos[203] = 308
Pos[204] = 227
Pos[205] = 285
Pos[206] = 135
Pos[207] = 277
Pos[208] = 337
Pos[209] = 319
Pos[210] = 366
Pos[211] = 287
Pos[212] = 292
Pos[213] = 81
Pos[214] = 232
Pos[215] = 216
Pos[216] = 246
Pos[217] = 269
Pos[218] = 296
Pos[219] = 74
Pos[220] = 309
Pos[221] = 159
Pos[222] = 76
Pos[223] = 335
Pos[224] = 95
Pos[225] = 360
Pos[226] = 211
Pos[227] = 312
Pos[228] = 365
Pos[229] = 117
Pos[230] = 167
Pos[231] = 87
Pos[232] = 224
Pos[233] = 37
Pos[234] = 64
Pos[235] = 348
Pos[236] = 156
Pos[237] = 316
Pos[238] = 257
Pos[239] = 183
Pos[240] = 262
Pos[241] = 225
Pos[242] = 105
Pos[243] = 57
Pos[244] = 387
Pos[245] = 106
Pos[246] = 385
Pos[247] = 228
Pos[248] = 393
Pos[249] = 231
Pos[250] = 80
Pos[251] = 31
Pos[252] = 303
Pos[253] = 376
Pos[254] = 131
Pos[255] = 290
Pos[256] = 344
Pos[257] = 288
Pos[258] = 322
Pos[259] = 325
Pos[260] = 55
Pos[261] = 349
Pos[262] = 286
Pos[263] = 250
Pos[264] = 306
Pos[265] = 323
Pos[266] = 359
Pos[267] = 46
Pos[268] = 210
Pos[269] = 371
Pos[270] = 83
Pos[271] = 144
Pos[272] = 28
Pos[273] = 169
Pos[274] = 148
Pos[275] = 353
Pos[276] = 268
Pos[277] = 178
Pos[278] = 89
Pos[279] = 254
Pos[280] = 295
Pos[281] = 158
Pos[282] = 279
Pos[283] = 297
Pos[284] = 5
Pos[285] = 239
Pos[286] = 355
Pos[287] = 330
Pos[288] = 372
Pos[289] = 172
Pos[290] = 276
Pos[291] = 334
Pos[292] = 42
Pos[293] = 358
Pos[294] = 161
Pos[295] = 177
Pos[296] = 180
Pos[297] = 79
Pos[298] = 369
Pos[299] = 50
Pos[300] = 381
Pos[301] = 34
Pos[302] = 274
Pos[303] = 197
Pos[304] = 154
Pos[305] = 243
Pos[306] = 289
Pos[307] = 124
Pos[308] = 176
Pos[309] = 249
Pos[310] = 397
Pos[311] = 90
Pos[312] = 0
Pos[313] = 130
Pos[314] = 139
Pos[315] = 189
Pos[316] = 317
Pos[317] = 326
Pos[318] = 368
Pos[319] = 88
Pos[320] = 93
Pos[321] = 217
Pos[322] = 233
Pos[323] = 264
Pos[324] = 265
Pos[325] = 363
Pos[326] = 63
Pos[327] = 54
Pos[328] = 340
Pos[329] = 252
Pos[330] = 60
Pos[331] = 258
Pos[332] = 378
Pos[333] = 121
Pos[334] = 214
Pos[335] = 21
Pos[336] = 175
Pos[337] = 194
Pos[338] = 190
Pos[339] = 294
Pos[340] = 331
Pos[341] = 333
Pos[342] = 199
Pos[343] = 380
Pos[344] = 10
Pos[345] = 48
Pos[346] = 107
Pos[347] = 181
Pos[348] = 261
Pos[349] = 30
Pos[350] = 281
Pos[351] = 242
Pos[352] = 3
Pos[353] = 270
Pos[354] = 149
Pos[355] = 187
Pos[356] = 238
Pos[357] = 300
Pos[358] = 218
Pos[359] = 310
Pos[360] = 327
Pos[361] = 160
Pos[362] = 320
Pos[363] = 392
Pos[364] = 203
Pos[365] = 43
Pos[366] = 244
Pos[367] = 122
Pos[368] = 212
Pos[369] = 19
Pos[370] = 282
Pos[371] = 67
Pos[372] = 91
Pos[373] = 351
Pos[374] = 271
Pos[375] = 283
Pos[376] = 318
Pos[377] = 151
Pos[378] = 253
Pos[379] = 332
Pos[380] = 394
Pos[381] = 134
Pos[382] = 206
Pos[383] = 364
Pos[384] = 141
Pos[385] = 237
Pos[386] = 251
Pos[387] = 370
Pos[388] = 11
Pos[389] = 14
Pos[390] = 84
Pos[391] = 100
Pos[392] = 25
Pos[393] = 338
Pos[394] = 221
Pos[395] = 377
Pos[396] = 17
Pos[397] = 153
Pos[398] = 346
Pos[399] = 120
Enbr = 55860
start search
improving solution size 1
improving solution size 2
improving solution size 3
improving solution size 4
improving solution size 5
improving solution size 6
improving solution size 7
improving solution size 8
improving solution size 9
improving solution size 10
improving solution size 11
improving solution size 12
improving solution size 13
improving solution size 14
improving solution size 15
improving solution size 16
improving solution size 17
improving solution size 18
improving solution size 19
improving solution size 20
improving solution size 21
improving solution size 22
improving solution size 23
improving solution size 24
improving solution size 25
improving solution size 26
improving solution size 27
improving solution size 28
improving solution size 29
improving solution size 30
TIMEOUT
best clique: 121 347 154 18 222 339 26 15 371 252 142 207 254 319 352 68 245 44 311 243 49 22 215 234 398 43 226 258 54 187 
record          =          30
subp            =  3688909224
time            =  3600.00033
