timeout 3600 s
Graph with 400 vertices and 55869 edges density 0.700113
t = 111738, Enbr = 55869
degree[399] = 310, pos[399] = 172
degree[398] = 306, pos[398] = 222
degree[397] = 303, pos[397] = 320
degree[396] = 300, pos[396] = 277
degree[395] = 298, pos[395] = 296
degree[394] = 296, pos[394] = 186
degree[393] = 294, pos[393] = 306
degree[392] = 293, pos[392] = 220
degree[391] = 292, pos[391] = 69
degree[390] = 292, pos[390] = 32
degree[389] = 290, pos[389] = 83
degree[388] = 288, pos[388] = 376
degree[387] = 287, pos[387] = 372
degree[386] = 286, pos[386] = 282
degree[385] = 285, pos[385] = 310
degree[384] = 285, pos[384] = 242
degree[383] = 283, pos[383] = 163
degree[382] = 282, pos[382] = 151
degree[381] = 282, pos[381] = 146
degree[380] = 281, pos[380] = 113
degree[379] = 279, pos[379] = 255
degree[378] = 279, pos[378] = 76
degree[377] = 277, pos[377] = 183
degree[376] = 276, pos[376] = 292
degree[375] = 275, pos[375] = 263
degree[374] = 274, pos[374] = 291
degree[373] = 274, pos[373] = 16
degree[372] = 273, pos[372] = 164
degree[371] = 272, pos[371] = 115
degree[370] = 271, pos[370] = 213
degree[369] = 270, pos[369] = 208
degree[368] = 269, pos[368] = 97
degree[367] = 268, pos[367] = 374
degree[366] = 268, pos[366] = 96
degree[365] = 266, pos[365] = 239
degree[364] = 266, pos[364] = 52
degree[363] = 265, pos[363] = 25
degree[362] = 264, pos[362] = 177
degree[361] = 263, pos[361] = 214
degree[360] = 263, pos[360] = 58
degree[359] = 262, pos[359] = 43
degree[358] = 261, pos[358] = 23
degree[357] = 260, pos[357] = 135
degree[356] = 258, pos[356] = 350
degree[355] = 257, pos[355] = 384
degree[354] = 256, pos[354] = 345
degree[353] = 255, pos[353] = 352
degree[352] = 255, pos[352] = 63
degree[351] = 254, pos[351] = 120
degree[350] = 253, pos[350] = 109
degree[349] = 252, pos[349] = 359
degree[348] = 251, pos[348] = 375
degree[347] = 251, pos[347] = 360
degree[346] = 250, pos[346] = 398
degree[345] = 250, pos[345] = 139
degree[344] = 249, pos[344] = 55
degree[343] = 247, pos[343] = 368
degree[342] = 247, pos[342] = 47
degree[341] = 246, pos[341] = 288
degree[340] = 245, pos[340] = 330
degree[339] = 244, pos[339] = 243
degree[338] = 244, pos[338] = 107
degree[337] = 243, pos[337] = 64
degree[336] = 242, pos[336] = 315
degree[335] = 242, pos[335] = 18
degree[334] = 240, pos[334] = 281
degree[333] = 240, pos[333] = 154
degree[332] = 239, pos[332] = 114
degree[331] = 239, pos[331] = 9
degree[330] = 237, pos[330] = 339
degree[329] = 236, pos[329] = 331
degree[328] = 236, pos[328] = 71
degree[327] = 234, pos[327] = 302
degree[326] = 234, pos[326] = 121
degree[325] = 233, pos[325] = 233
degree[324] = 232, pos[324] = 236
degree[323] = 231, pos[323] = 298
degree[322] = 230, pos[322] = 262
degree[321] = 230, pos[321] = 150
degree[320] = 229, pos[320] = 50
degree[319] = 228, pos[319] = 386
degree[318] = 228, pos[318] = 122
degree[317] = 228, pos[317] = 84
degree[316] = 226, pos[316] = 266
degree[315] = 225, pos[315] = 393
degree[314] = 225, pos[314] = 48
degree[313] = 223, pos[313] = 309
degree[312] = 223, pos[312] = 61
degree[311] = 222, pos[311] = 238
degree[310] = 222, pos[310] = 59
degree[309] = 222, pos[309] = 57
degree[308] = 220, pos[308] = 118
degree[307] = 219, pos[307] = 308
degree[306] = 218, pos[306] = 399
degree[305] = 217, pos[305] = 371
degree[304] = 216, pos[304] = 382
degree[303] = 215, pos[303] = 295
degree[302] = 214, pos[302] = 299
degree[301] = 214, pos[301] = 232
degree[300] = 213, pos[300] = 349
degree[299] = 212, pos[299] = 234
degree[298] = 212, pos[298] = 197
degree[297] = 212, pos[297] = 66
degree[296] = 211, pos[296] = 274
degree[295] = 210, pos[295] = 271
degree[294] = 209, pos[294] = 98
degree[293] = 208, pos[293] = 110
degree[292] = 207, pos[292] = 340
degree[291] = 206, pos[291] = 322
degree[290] = 206, pos[290] = 14
degree[289] = 204, pos[289] = 297
degree[288] = 204, pos[288] = 258
degree[287] = 203, pos[287] = 80
degree[286] = 202, pos[286] = 392
degree[285] = 201, pos[285] = 178
degree[284] = 201, pos[284] = 89
degree[283] = 200, pos[283] = 147
degree[282] = 199, pos[282] = 272
degree[281] = 198, pos[281] = 244
degree[280] = 198, pos[280] = 15
degree[279] = 197, pos[279] = 303
degree[278] = 197, pos[278] = 70
degree[277] = 196, pos[277] = 332
degree[276] = 196, pos[276] = 81
degree[275] = 195, pos[275] = 62
degree[274] = 194, pos[274] = 10
degree[273] = 192, pos[273] = 333
degree[272] = 192, pos[272] = 329
degree[271] = 192, pos[271] = 34
degree[270] = 191, pos[270] = 257
degree[269] = 190, pos[269] = 327
degree[268] = 188, pos[268] = 380
degree[267] = 188, pos[267] = 201
degree[266] = 188, pos[266] = 92
degree[265] = 186, pos[265] = 260
degree[264] = 186, pos[264] = 8
degree[263] = 185, pos[263] = 247
degree[262] = 184, pos[262] = 88
degree[261] = 183, pos[261] = 124
degree[260] = 182, pos[260] = 175
degree[259] = 182, pos[259] = 33
degree[258] = 181, pos[258] = 225
degree[257] = 181, pos[257] = 12
degree[256] = 180, pos[256] = 56
degree[255] = 179, pos[255] = 44
degree[254] = 178, pos[254] = 40
degree[253] = 178, pos[253] = 11
degree[252] = 176, pos[252] = 249
degree[251] = 176, pos[251] = 215
degree[250] = 175, pos[250] = 123
degree[249] = 174, pos[249] = 269
degree[248] = 173, pos[248] = 311
degree[247] = 172, pos[247] = 229
degree[246] = 171, pos[246] = 365
degree[245] = 171, pos[245] = 53
degree[244] = 170, pos[244] = 74
degree[243] = 170, pos[243] = 65
degree[242] = 168, pos[242] = 246
degree[241] = 167, pos[241] = 318
degree[240] = 167, pos[240] = 68
degree[239] = 166, pos[239] = 204
degree[238] = 166, pos[238] = 184
degree[237] = 165, pos[237] = 321
degree[236] = 163, pos[236] = 294
degree[235] = 163, pos[235] = 264
degree[234] = 162, pos[234] = 104
degree[233] = 160, pos[233] = 235
degree[232] = 160, pos[232] = 196
degree[231] = 160, pos[231] = 160
degree[230] = 159, pos[230] = 45
degree[229] = 158, pos[229] = 192
degree[228] = 158, pos[228] = 140
degree[227] = 158, pos[227] = 42
degree[226] = 157, pos[226] = 317
degree[225] = 157, pos[225] = 103
degree[224] = 156, pos[224] = 7
degree[223] = 154, pos[223] = 381
degree[222] = 153, pos[222] = 144
degree[221] = 153, pos[221] = 100
degree[220] = 153, pos[220] = 77
degree[219] = 151, pos[219] = 181
degree[218] = 150, pos[218] = 111
degree[217] = 148, pos[217] = 394
degree[216] = 148, pos[216] = 354
degree[215] = 147, pos[215] = 270
degree[214] = 147, pos[214] = 133
degree[213] = 146, pos[213] = 189
degree[212] = 145, pos[212] = 337
degree[211] = 145, pos[211] = 250
degree[210] = 144, pos[210] = 289
degree[209] = 144, pos[209] = 79
degree[208] = 143, pos[208] = 210
degree[207] = 143, pos[207] = 35
degree[206] = 142, pos[206] = 155
degree[205] = 141, pos[205] = 187
degree[204] = 140, pos[204] = 275
degree[203] = 139, pos[203] = 240
degree[202] = 139, pos[202] = 179
degree[201] = 138, pos[201] = 85
degree[200] = 137, pos[200] = 86
degree[199] = 136, pos[199] = 191
degree[198] = 135, pos[198] = 373
degree[197] = 134, pos[197] = 347
degree[196] = 134, pos[196] = 237
degree[195] = 133, pos[195] = 342
degree[194] = 133, pos[194] = 193
degree[193] = 132, pos[193] = 217
degree[192] = 132, pos[192] = 6
degree[191] = 131, pos[191] = 112
degree[190] = 130, pos[190] = 230
degree[189] = 130, pos[189] = 226
degree[188] = 129, pos[188] = 307
degree[187] = 128, pos[187] = 24
degree[186] = 127, pos[186] = 343
degree[185] = 126, pos[185] = 126
degree[184] = 125, pos[184] = 279
degree[183] = 124, pos[183] = 358
degree[182] = 124, pos[182] = 39
degree[181] = 122, pos[181] = 346
degree[180] = 122, pos[180] = 205
degree[179] = 121, pos[179] = 341
degree[178] = 120, pos[178] = 203
degree[177] = 120, pos[177] = 167
degree[176] = 119, pos[176] = 273
degree[175] = 118, pos[175] = 316
degree[174] = 118, pos[174] = 231
degree[173] = 118, pos[173] = 3
degree[172] = 117, pos[172] = 87
degree[171] = 116, pos[171] = 67
degree[170] = 115, pos[170] = 253
degree[169] = 115, pos[169] = 13
degree[168] = 113, pos[168] = 391
degree[167] = 112, pos[167] = 251
degree[166] = 111, pos[166] = 319
degree[165] = 111, pos[165] = 198
degree[164] = 110, pos[164] = 254
degree[163] = 109, pos[163] = 212
degree[162] = 109, pos[162] = 161
degree[161] = 109, pos[161] = 131
degree[160] = 107, pos[160] = 171
degree[159] = 106, pos[159] = 348
degree[158] = 106, pos[158] = 157
degree[157] = 106, pos[157] = 125
degree[156] = 106, pos[156] = 73
degree[155] = 104, pos[155] = 200
degree[154] = 104, pos[154] = 153
degree[153] = 102, pos[153] = 383
degree[152] = 102, pos[152] = 284
degree[151] = 101, pos[151] = 344
degree[150] = 101, pos[150] = 51
degree[149] = 100, pos[149] = 199
degree[148] = 99, pos[148] = 117
degree[147] = 99, pos[147] = 20
degree[146] = 98, pos[146] = 5
degree[145] = 97, pos[145] = 355
degree[144] = 96, pos[144] = 388
degree[143] = 96, pos[143] = 138
degree[142] = 95, pos[142] = 36
degree[141] = 93, pos[141] = 326
degree[140] = 93, pos[140] = 99
degree[139] = 92, pos[139] = 182
degree[138] = 91, pos[138] = 361
degree[137] = 91, pos[137] = 82
degree[136] = 90, pos[136] = 218
degree[135] = 90, pos[135] = 26
degree[134] = 89, pos[134] = 379
degree[133] = 88, pos[133] = 351
degree[132] = 88, pos[132] = 241
degree[131] = 88, pos[131] = 130
degree[130] = 86, pos[130] = 185
degree[129] = 85, pos[129] = 285
degree[128] = 84, pos[128] = 276
degree[127] = 83, pos[127] = 211
degree[126] = 82, pos[126] = 245
degree[125] = 82, pos[125] = 194
degree[124] = 81, pos[124] = 338
degree[123] = 81, pos[123] = 221
degree[122] = 80, pos[122] = 304
degree[121] = 80, pos[121] = 31
degree[120] = 78, pos[120] = 312
degree[119] = 78, pos[119] = 206
degree[118] = 77, pos[118] = 190
degree[117] = 76, pos[117] = 228
degree[116] = 76, pos[116] = 60
degree[115] = 75, pos[115] = 129
degree[114] = 75, pos[114] = 93
degree[113] = 75, pos[113] = 27
degree[112] = 73, pos[112] = 142
degree[111] = 72, pos[111] = 134
degree[110] = 71, pos[110] = 323
degree[109] = 71, pos[109] = 223
degree[108] = 70, pos[108] = 168
degree[107] = 70, pos[107] = 41
degree[106] = 69, pos[106] = 252
degree[105] = 68, pos[105] = 1
degree[104] = 67, pos[104] = 336
degree[103] = 67, pos[103] = 143
degree[102] = 66, pos[102] = 301
degree[101] = 65, pos[101] = 101
degree[100] = 65, pos[100] = 75
degree[99] = 63, pos[99] = 389
degree[98] = 63, pos[98] = 286
degree[97] = 63, pos[97] = 278
degree[96] = 62, pos[96] = 22
degree[95] = 61, pos[95] = 209
degree[94] = 60, pos[94] = 95
degree[93] = 59, pos[93] = 268
degree[92] = 58, pos[92] = 387
degree[91] = 58, pos[91] = 305
degree[90] = 58, pos[90] = 132
degree[89] = 57, pos[89] = 335
degree[88] = 57, pos[88] = 248
degree[87] = 56, pos[87] = 127
degree[86] = 55, pos[86] = 116
degree[85] = 55, pos[85] = 90
degree[84] = 54, pos[84] = 159
degree[83] = 52, pos[83] = 21
degree[82] = 51, pos[82] = 145
degree[81] = 50, pos[81] = 385
degree[80] = 50, pos[80] = 377
degree[79] = 49, pos[79] = 313
degree[78] = 49, pos[78] = 158
degree[77] = 48, pos[77] = 29
degree[76] = 47, pos[76] = 280
degree[75] = 46, pos[75] = 267
degree[74] = 45, pos[74] = 390
degree[73] = 45, pos[73] = 165
degree[72] = 45, pos[72] = 149
degree[71] = 44, pos[71] = 72
degree[70] = 43, pos[70] = 357
degree[69] = 42, pos[69] = 366
degree[68] = 42, pos[68] = 141
degree[67] = 42, pos[67] = 46
degree[66] = 40, pos[66] = 328
degree[65] = 39, pos[65] = 334
degree[64] = 39, pos[64] = 2
degree[63] = 38, pos[63] = 314
degree[62] = 38, pos[62] = 108
degree[61] = 37, pos[61] = 324
degree[60] = 37, pos[60] = 119
degree[59] = 36, pos[59] = 4
degree[58] = 34, pos[58] = 369
degree[57] = 34, pos[57] = 363
degree[56] = 34, pos[56] = 148
degree[55] = 33, pos[55] = 174
degree[54] = 32, pos[54] = 170
degree[53] = 32, pos[53] = 17
degree[52] = 31, pos[52] = 169
degree[51] = 30, pos[51] = 202
degree[50] = 30, pos[50] = 137
degree[49] = 29, pos[49] = 195
degree[48] = 27, pos[48] = 353
degree[47] = 27, pos[47] = 325
degree[46] = 26, pos[46] = 290
degree[45] = 25, pos[45] = 176
degree[44] = 25, pos[44] = 156
degree[43] = 24, pos[43] = 152
degree[42] = 23, pos[42] = 397
degree[41] = 23, pos[41] = 261
degree[40] = 22, pos[40] = 256
degree[39] = 21, pos[39] = 395
degree[38] = 21, pos[38] = 54
degree[37] = 20, pos[37] = 180
degree[36] = 19, pos[36] = 370
degree[35] = 18, pos[35] = 287
degree[34] = 18, pos[34] = 207
degree[33] = 17, pos[33] = 224
degree[32] = 17, pos[32] = 162
degree[31] = 16, pos[31] = 364
degree[30] = 16, pos[30] = 0
degree[29] = 15, pos[29] = 367
degree[28] = 15, pos[28] = 30
degree[27] = 14, pos[27] = 78
degree[26] = 13, pos[26] = 94
degree[25] = 13, pos[25] = 49
degree[24] = 12, pos[24] = 265
degree[23] = 12, pos[23] = 37
degree[22] = 11, pos[22] = 378
degree[21] = 10, pos[21] = 356
degree[20] = 10, pos[20] = 38
degree[19] = 8, pos[19] = 300
degree[18] = 8, pos[18] = 166
degree[17] = 7, pos[17] = 396
degree[16] = 7, pos[16] = 188
degree[15] = 6, pos[15] = 293
degree[14] = 6, pos[14] = 227
degree[13] = 5, pos[13] = 283
degree[12] = 4, pos[12] = 136
degree[11] = 4, pos[11] = 102
degree[10] = 3, pos[10] = 91
degree[9] = 2, pos[9] = 173
degree[8] = 1, pos[8] = 362
degree[7] = 1, pos[7] = 216
degree[6] = 1, pos[6] = 128
degree[5] = 1, pos[5] = 106
degree[4] = 0, pos[4] = 259
degree[3] = 0, pos[3] = 219
degree[2] = 0, pos[2] = 105
degree[1] = 0, pos[1] = 28
degree[0] = 0, pos[0] = 19
Pos[0] = 19
Pos[1] = 28
Pos[2] = 105
Pos[3] = 219
Pos[4] = 259
Pos[5] = 106
Pos[6] = 128
Pos[7] = 216
Pos[8] = 362
Pos[9] = 173
Pos[10] = 91
Pos[11] = 102
Pos[12] = 136
Pos[13] = 283
Pos[14] = 227
Pos[15] = 293
Pos[16] = 188
Pos[17] = 396
Pos[18] = 166
Pos[19] = 300
Pos[20] = 38
Pos[21] = 356
Pos[22] = 378
Pos[23] = 37
Pos[24] = 265
Pos[25] = 49
Pos[26] = 94
Pos[27] = 78
Pos[28] = 30
Pos[29] = 367
Pos[30] = 0
Pos[31] = 364
Pos[32] = 162
Pos[33] = 224
Pos[34] = 207
Pos[35] = 287
Pos[36] = 370
Pos[37] = 180
Pos[38] = 54
Pos[39] = 395
Pos[40] = 256
Pos[41] = 261
Pos[42] = 397
Pos[43] = 152
Pos[44] = 156
Pos[45] = 176
Pos[46] = 290
Pos[47] = 325
Pos[48] = 353
Pos[49] = 195
Pos[50] = 137
Pos[51] = 202
Pos[52] = 169
Pos[53] = 17
Pos[54] = 170
Pos[55] = 174
Pos[56] = 148
Pos[57] = 363
Pos[58] = 369
Pos[59] = 4
Pos[60] = 119
Pos[61] = 324
Pos[62] = 108
Pos[63] = 314
Pos[64] = 2
Pos[65] = 334
Pos[66] = 328
Pos[67] = 46
Pos[68] = 141
Pos[69] = 366
Pos[70] = 357
Pos[71] = 72
Pos[72] = 149
Pos[73] = 165
Pos[74] = 390
Pos[75] = 267
Pos[76] = 280
Pos[77] = 29
Pos[78] = 158
Pos[79] = 313
Pos[80] = 377
Pos[81] = 385
Pos[82] = 145
Pos[83] = 21
Pos[84] = 159
Pos[85] = 90
Pos[86] = 116
Pos[87] = 127
Pos[88] = 248
Pos[89] = 335
Pos[90] = 132
Pos[91] = 305
Pos[92] = 387
Pos[93] = 268
Pos[94] = 95
Pos[95] = 209
Pos[96] = 22
Pos[97] = 278
Pos[98] = 286
Pos[99] = 389
Pos[100] = 75
Pos[101] = 101
Pos[102] = 301
Pos[103] = 143
Pos[104] = 336
Pos[105] = 1
Pos[106] = 252
Pos[107] = 41
Pos[108] = 168
Pos[109] = 223
Pos[110] = 323
Pos[111] = 134
Pos[112] = 142
Pos[113] = 27
Pos[114] = 93
Pos[115] = 129
Pos[116] = 60
Pos[117] = 228
Pos[118] = 190
Pos[119] = 206
Pos[120] = 312
Pos[121] = 31
Pos[122] = 304
Pos[123] = 221
Pos[124] = 338
Pos[125] = 194
Pos[126] = 245
Pos[127] = 211
Pos[128] = 276
Pos[129] = 285
Pos[130] = 185
Pos[131] = 130
Pos[132] = 241
Pos[133] = 351
Pos[134] = 379
Pos[135] = 26
Pos[136] = 218
Pos[137] = 82
Pos[138] = 361
Pos[139] = 182
Pos[140] = 99
Pos[141] = 326
Pos[142] = 36
Pos[143] = 138
Pos[144] = 388
Pos[145] = 355
Pos[146] = 5
Pos[147] = 20
Pos[148] = 117
Pos[149] = 199
Pos[150] = 51
Pos[151] = 344
Pos[152] = 284
Pos[153] = 383
Pos[154] = 153
Pos[155] = 200
Pos[156] = 73
Pos[157] = 125
Pos[158] = 157
Pos[159] = 348
Pos[160] = 171
Pos[161] = 131
Pos[162] = 161
Pos[163] = 212
Pos[164] = 254
Pos[165] = 198
Pos[166] = 319
Pos[167] = 251
Pos[168] = 391
Pos[169] = 13
Pos[170] = 253
Pos[171] = 67
Pos[172] = 87
Pos[173] = 3
Pos[174] = 231
Pos[175] = 316
Pos[176] = 273
Pos[177] = 167
Pos[178] = 203
Pos[179] = 341
Pos[180] = 205
Pos[181] = 346
Pos[182] = 39
Pos[183] = 358
Pos[184] = 279
Pos[185] = 126
Pos[186] = 343
Pos[187] = 24
Pos[188] = 307
Pos[189] = 226
Pos[190] = 230
Pos[191] = 112
Pos[192] = 6
Pos[193] = 217
Pos[194] = 193
Pos[195] = 342
Pos[196] = 237
Pos[197] = 347
Pos[198] = 373
Pos[199] = 191
Pos[200] = 86
Pos[201] = 85
Pos[202] = 179
Pos[203] = 240
Pos[204] = 275
Pos[205] = 187
Pos[206] = 155
Pos[207] = 35
Pos[208] = 210
Pos[209] = 79
Pos[210] = 289
Pos[211] = 250
Pos[212] = 337
Pos[213] = 189
Pos[214] = 133
Pos[215] = 270
Pos[216] = 354
Pos[217] = 394
Pos[218] = 111
Pos[219] = 181
Pos[220] = 77
Pos[221] = 100
Pos[222] = 144
Pos[223] = 381
Pos[224] = 7
Pos[225] = 103
Pos[226] = 317
Pos[227] = 42
Pos[228] = 140
Pos[229] = 192
Pos[230] = 45
Pos[231] = 160
Pos[232] = 196
Pos[233] = 235
Pos[234] = 104
Pos[235] = 264
Pos[236] = 294
Pos[237] = 321
Pos[238] = 184
Pos[239] = 204
Pos[240] = 68
Pos[241] = 318
Pos[242] = 246
Pos[243] = 65
Pos[244] = 74
Pos[245] = 53
Pos[246] = 365
Pos[247] = 229
Pos[248] = 311
Pos[249] = 269
Pos[250] = 123
Pos[251] = 215
Pos[252] = 249
Pos[253] = 11
Pos[254] = 40
Pos[255] = 44
Pos[256] = 56
Pos[257] = 12
Pos[258] = 225
Pos[259] = 33
Pos[260] = 175
Pos[261] = 124
Pos[262] = 88
Pos[263] = 247
Pos[264] = 8
Pos[265] = 260
Pos[266] = 92
Pos[267] = 201
Pos[268] = 380
Pos[269] = 327
Pos[270] = 257
Pos[271] = 34
Pos[272] = 329
Pos[273] = 333
Pos[274] = 10
Pos[275] = 62
Pos[276] = 81
Pos[277] = 332
Pos[278] = 70
Pos[279] = 303
Pos[280] = 15
Pos[281] = 244
Pos[282] = 272
Pos[283] = 147
Pos[284] = 89
Pos[285] = 178
Pos[286] = 392
Pos[287] = 80
Pos[288] = 258
Pos[289] = 297
Pos[290] = 14
Pos[291] = 322
Pos[292] = 340
Pos[293] = 110
Pos[294] = 98
Pos[295] = 271
Pos[296] = 274
Pos[297] = 66
Pos[298] = 197
Pos[299] = 234
Pos[300] = 349
Pos[301] = 232
Pos[302] = 299
Pos[303] = 295
Pos[304] = 382
Pos[305] = 371
Pos[306] = 399
Pos[307] = 308
Pos[308] = 118
Pos[309] = 57
Pos[310] = 59
Pos[311] = 238
Pos[312] = 61
Pos[313] = 309
Pos[314] = 48
Pos[315] = 393
Pos[316] = 266
Pos[317] = 84
Pos[318] = 122
Pos[319] = 386
Pos[320] = 50
Pos[321] = 150
Pos[322] = 262
Pos[323] = 298
Pos[324] = 236
Pos[325] = 233
Pos[326] = 121
Pos[327] = 302
Pos[328] = 71
Pos[329] = 331
Pos[330] = 339
Pos[331] = 9
Pos[332] = 114
Pos[333] = 154
Pos[334] = 281
Pos[335] = 18
Pos[336] = 315
Pos[337] = 64
Pos[338] = 107
Pos[339] = 243
Pos[340] = 330
Pos[341] = 288
Pos[342] = 47
Pos[343] = 368
Pos[344] = 55
Pos[345] = 139
Pos[346] = 398
Pos[347] = 360
Pos[348] = 375
Pos[349] = 359
Pos[350] = 109
Pos[351] = 120
Pos[352] = 63
Pos[353] = 352
Pos[354] = 345
Pos[355] = 384
Pos[356] = 350
Pos[357] = 135
Pos[358] = 23
Pos[359] = 43
Pos[360] = 58
Pos[361] = 214
Pos[362] = 177
Pos[363] = 25
Pos[364] = 52
Pos[365] = 239
Pos[366] = 96
Pos[367] = 374
Pos[368] = 97
Pos[369] = 208
Pos[370] = 213
Pos[371] = 115
Pos[372] = 164
Pos[373] = 16
Pos[374] = 291
Pos[375] = 263
Pos[376] = 292
Pos[377] = 183
Pos[378] = 76
Pos[379] = 255
Pos[380] = 113
Pos[381] = 146
Pos[382] = 151
Pos[383] = 163
Pos[384] = 242
Pos[385] = 310
Pos[386] = 282
Pos[387] = 372
Pos[388] = 376
Pos[389] = 83
Pos[390] = 32
Pos[391] = 69
Pos[392] = 220
Pos[393] = 306
Pos[394] = 186
Pos[395] = 296
Pos[396] = 277
Pos[397] = 320
Pos[398] = 222
Pos[399] = 172
Enbr = 55869
start search
improving solution size 1
improving solution size 2
improving solution size 3
improving solution size 4
improving solution size 5
improving solution size 6
improving solution size 7
improving solution size 8
improving solution size 9
improving solution size 10
improving solution size 11
improving solution size 12
improving solution size 13
improving solution size 14
improving solution size 15
improving solution size 16
improving solution size 17
improving solution size 18
improving solution size 19
improving solution size 20
improving solution size 21
improving solution size 22
improving solution size 23
improving solution size 24
TIMEOUT
best clique: 173 223 321 278 33 373 97 26 399 332 267 111 245 381 46 182 227 4 213 183 305 324 3 326 
record          =          24
subp            =  3830099273
time            =  3600.00021
