timeout 3600 s
Graph with 400 vertices and 39984 edges density 0.501053
t = 79968, Enbr = 39984
degree[399] = 233, pos[399] = 322
degree[398] = 231, pos[398] = 218
degree[397] = 229, pos[397] = 310
degree[396] = 229, pos[396] = 293
degree[395] = 226, pos[395] = 80
degree[394] = 224, pos[394] = 141
degree[393] = 222, pos[393] = 355
degree[392] = 222, pos[392] = 182
degree[391] = 221, pos[391] = 210
degree[390] = 217, pos[390] = 89
degree[389] = 216, pos[389] = 342
degree[388] = 214, pos[388] = 279
degree[387] = 213, pos[387] = 268
degree[386] = 211, pos[386] = 339
degree[385] = 211, pos[385] = 176
degree[384] = 210, pos[384] = 280
degree[383] = 208, pos[383] = 247
degree[382] = 208, pos[382] = 49
degree[381] = 207, pos[381] = 161
degree[380] = 206, pos[380] = 208
degree[379] = 206, pos[379] = 99
degree[378] = 204, pos[378] = 299
degree[377] = 204, pos[377] = 236
degree[376] = 204, pos[376] = 116
degree[375] = 204, pos[375] = 40
degree[374] = 202, pos[374] = 62
degree[373] = 202, pos[373] = 35
degree[372] = 200, pos[372] = 198
degree[371] = 200, pos[371] = 166
degree[370] = 200, pos[370] = 53
degree[369] = 199, pos[369] = 19
degree[368] = 196, pos[368] = 349
degree[367] = 196, pos[367] = 329
degree[366] = 196, pos[366] = 124
degree[365] = 194, pos[365] = 301
degree[364] = 194, pos[364] = 118
degree[363] = 193, pos[363] = 332
degree[362] = 193, pos[362] = 90
degree[361] = 192, pos[361] = 111
degree[360] = 190, pos[360] = 374
degree[359] = 190, pos[359] = 336
degree[358] = 189, pos[358] = 380
degree[357] = 189, pos[357] = 81
degree[356] = 187, pos[356] = 367
degree[355] = 187, pos[355] = 292
degree[354] = 187, pos[354] = 22
degree[353] = 185, pos[353] = 282
degree[352] = 185, pos[352] = 253
degree[351] = 184, pos[351] = 200
degree[350] = 184, pos[350] = 58
degree[349] = 184, pos[349] = 29
degree[348] = 183, pos[348] = 0
degree[347] = 181, pos[347] = 384
degree[346] = 181, pos[346] = 171
degree[345] = 180, pos[345] = 373
degree[344] = 180, pos[344] = 286
degree[343] = 180, pos[343] = 25
degree[342] = 179, pos[342] = 358
degree[341] = 179, pos[341] = 239
degree[340] = 178, pos[340] = 376
degree[339] = 178, pos[339] = 348
degree[338] = 177, pos[338] = 264
degree[337] = 177, pos[337] = 163
degree[336] = 176, pos[336] = 298
degree[335] = 176, pos[335] = 250
degree[334] = 175, pos[334] = 170
degree[333] = 175, pos[333] = 128
degree[332] = 175, pos[332] = 36
degree[331] = 173, pos[331] = 311
degree[330] = 173, pos[330] = 130
degree[329] = 172, pos[329] = 256
degree[328] = 171, pos[328] = 393
degree[327] = 171, pos[327] = 96
degree[326] = 171, pos[326] = 45
degree[325] = 170, pos[325] = 269
degree[324] = 169, pos[324] = 345
degree[323] = 169, pos[323] = 149
degree[322] = 168, pos[322] = 387
degree[321] = 167, pos[321] = 275
degree[320] = 167, pos[320] = 94
degree[319] = 166, pos[319] = 274
degree[318] = 165, pos[318] = 147
degree[317] = 164, pos[317] = 360
degree[316] = 164, pos[316] = 234
degree[315] = 164, pos[315] = 43
degree[314] = 163, pos[314] = 258
degree[313] = 162, pos[313] = 157
degree[312] = 161, pos[312] = 270
degree[311] = 161, pos[311] = 68
degree[310] = 161, pos[310] = 50
degree[309] = 159, pos[309] = 316
degree[308] = 159, pos[308] = 242
degree[307] = 159, pos[307] = 220
degree[306] = 158, pos[306] = 297
degree[305] = 158, pos[305] = 238
degree[304] = 157, pos[304] = 306
degree[303] = 156, pos[303] = 284
degree[302] = 156, pos[302] = 219
degree[301] = 155, pos[301] = 398
degree[300] = 155, pos[300] = 139
degree[299] = 155, pos[299] = 23
degree[298] = 154, pos[298] = 83
degree[297] = 153, pos[297] = 38
degree[296] = 152, pos[296] = 396
degree[295] = 152, pos[295] = 318
degree[294] = 152, pos[294] = 227
degree[293] = 151, pos[293] = 216
degree[292] = 150, pos[292] = 394
degree[291] = 149, pos[291] = 321
degree[290] = 149, pos[290] = 272
degree[289] = 147, pos[289] = 357
degree[288] = 147, pos[288] = 261
degree[287] = 147, pos[287] = 213
degree[286] = 147, pos[286] = 134
degree[285] = 145, pos[285] = 312
degree[284] = 145, pos[284] = 153
degree[283] = 144, pos[283] = 363
degree[282] = 144, pos[282] = 11
degree[281] = 143, pos[281] = 350
degree[280] = 143, pos[280] = 228
degree[279] = 143, pos[279] = 137
degree[278] = 143, pos[278] = 4
degree[277] = 141, pos[277] = 55
degree[276] = 140, pos[276] = 303
degree[275] = 140, pos[275] = 156
degree[274] = 139, pos[274] = 162
degree[273] = 138, pos[273] = 277
degree[272] = 138, pos[272] = 276
degree[271] = 138, pos[271] = 9
degree[270] = 137, pos[270] = 304
degree[269] = 136, pos[269] = 285
degree[268] = 136, pos[268] = 229
degree[267] = 136, pos[267] = 217
degree[266] = 135, pos[266] = 104
degree[265] = 134, pos[265] = 375
degree[264] = 134, pos[264] = 179
degree[263] = 134, pos[263] = 126
degree[262] = 133, pos[262] = 347
degree[261] = 132, pos[261] = 193
degree[260] = 131, pos[260] = 331
degree[259] = 131, pos[259] = 131
degree[258] = 130, pos[258] = 165
degree[257] = 129, pos[257] = 271
degree[256] = 129, pos[256] = 199
degree[255] = 128, pos[255] = 386
degree[254] = 127, pos[254] = 391
degree[253] = 127, pos[253] = 223
degree[252] = 126, pos[252] = 257
degree[251] = 125, pos[251] = 178
degree[250] = 125, pos[250] = 136
degree[249] = 124, pos[249] = 115
degree[248] = 124, pos[248] = 100
degree[247] = 123, pos[247] = 317
degree[246] = 123, pos[246] = 47
degree[245] = 122, pos[245] = 372
degree[244] = 122, pos[244] = 180
degree[243] = 120, pos[243] = 260
degree[242] = 120, pos[242] = 91
degree[241] = 119, pos[241] = 237
degree[240] = 119, pos[240] = 59
degree[239] = 118, pos[239] = 300
degree[238] = 117, pos[238] = 190
degree[237] = 117, pos[237] = 187
degree[236] = 116, pos[236] = 399
degree[235] = 116, pos[235] = 174
degree[234] = 115, pos[234] = 395
degree[233] = 115, pos[233] = 114
degree[232] = 115, pos[232] = 107
degree[231] = 114, pos[231] = 351
degree[230] = 114, pos[230] = 273
degree[229] = 114, pos[229] = 251
degree[228] = 113, pos[228] = 113
degree[227] = 112, pos[227] = 194
degree[226] = 112, pos[226] = 145
degree[225] = 111, pos[225] = 205
degree[224] = 111, pos[224] = 97
degree[223] = 111, pos[223] = 86
degree[222] = 110, pos[222] = 74
degree[221] = 109, pos[221] = 92
degree[220] = 108, pos[220] = 54
degree[219] = 108, pos[219] = 33
degree[218] = 106, pos[218] = 334
degree[217] = 106, pos[217] = 296
degree[216] = 106, pos[216] = 52
degree[215] = 105, pos[215] = 67
degree[214] = 105, pos[214] = 30
degree[213] = 103, pos[213] = 354
degree[212] = 103, pos[212] = 231
degree[211] = 103, pos[211] = 207
degree[210] = 102, pos[210] = 326
degree[209] = 101, pos[209] = 330
degree[208] = 101, pos[208] = 287
degree[207] = 101, pos[207] = 278
degree[206] = 100, pos[206] = 255
degree[205] = 100, pos[205] = 177
degree[204] = 100, pos[204] = 65
degree[203] = 99, pos[203] = 34
degree[202] = 98, pos[202] = 206
degree[201] = 98, pos[201] = 31
degree[200] = 97, pos[200] = 221
degree[199] = 97, pos[199] = 203
degree[198] = 96, pos[198] = 248
degree[197] = 96, pos[197] = 63
degree[196] = 95, pos[196] = 56
degree[195] = 95, pos[195] = 26
degree[194] = 93, pos[194] = 381
degree[193] = 93, pos[193] = 341
degree[192] = 92, pos[192] = 222
degree[191] = 92, pos[191] = 185
degree[190] = 92, pos[190] = 150
degree[189] = 91, pos[189] = 308
degree[188] = 91, pos[188] = 195
degree[187] = 89, pos[187] = 382
degree[186] = 89, pos[186] = 121
degree[185] = 89, pos[185] = 14
degree[184] = 89, pos[184] = 13
degree[183] = 87, pos[183] = 389
degree[182] = 87, pos[182] = 235
degree[181] = 86, pos[181] = 214
degree[180] = 85, pos[180] = 390
degree[179] = 84, pos[179] = 392
degree[178] = 84, pos[178] = 352
degree[177] = 84, pos[177] = 39
degree[176] = 83, pos[176] = 132
degree[175] = 82, pos[175] = 379
degree[174] = 82, pos[174] = 344
degree[173] = 82, pos[173] = 288
degree[172] = 82, pos[172] = 88
degree[171] = 81, pos[171] = 294
degree[170] = 81, pos[170] = 77
degree[169] = 80, pos[169] = 61
degree[168] = 79, pos[168] = 119
degree[167] = 78, pos[167] = 343
degree[166] = 78, pos[166] = 307
degree[165] = 78, pos[165] = 148
degree[164] = 77, pos[164] = 244
degree[163] = 77, pos[163] = 76
degree[162] = 76, pos[162] = 338
degree[161] = 76, pos[161] = 64
degree[160] = 75, pos[160] = 337
degree[159] = 75, pos[159] = 204
degree[158] = 75, pos[158] = 109
degree[157] = 74, pos[157] = 57
degree[156] = 73, pos[156] = 346
degree[155] = 72, pos[155] = 186
degree[154] = 72, pos[154] = 181
degree[153] = 71, pos[153] = 378
degree[152] = 71, pos[152] = 20
degree[151] = 70, pos[151] = 305
degree[150] = 70, pos[150] = 87
degree[149] = 69, pos[149] = 267
degree[148] = 68, pos[148] = 243
degree[147] = 67, pos[147] = 361
degree[146] = 67, pos[146] = 155
degree[145] = 66, pos[145] = 289
degree[144] = 66, pos[144] = 283
degree[143] = 65, pos[143] = 201
degree[142] = 65, pos[142] = 144
degree[141] = 64, pos[141] = 241
degree[140] = 64, pos[140] = 146
degree[139] = 64, pos[139] = 85
degree[138] = 63, pos[138] = 369
degree[137] = 63, pos[137] = 315
degree[136] = 63, pos[136] = 184
degree[135] = 62, pos[135] = 333
degree[134] = 62, pos[134] = 142
degree[133] = 61, pos[133] = 197
degree[132] = 61, pos[132] = 32
degree[131] = 59, pos[131] = 295
degree[130] = 59, pos[130] = 82
degree[129] = 59, pos[129] = 70
degree[128] = 58, pos[128] = 249
degree[127] = 57, pos[127] = 371
degree[126] = 57, pos[126] = 15
degree[125] = 56, pos[125] = 383
degree[124] = 56, pos[124] = 7
degree[123] = 55, pos[123] = 377
degree[122] = 55, pos[122] = 122
degree[121] = 53, pos[121] = 368
degree[120] = 53, pos[120] = 246
degree[119] = 52, pos[119] = 320
degree[118] = 52, pos[118] = 167
degree[117] = 52, pos[117] = 129
degree[116] = 51, pos[116] = 46
degree[115] = 50, pos[115] = 164
degree[114] = 50, pos[114] = 138
degree[113] = 50, pos[113] = 42
degree[112] = 49, pos[112] = 105
degree[111] = 49, pos[111] = 37
degree[110] = 49, pos[110] = 12
degree[109] = 47, pos[109] = 385
degree[108] = 47, pos[108] = 93
degree[107] = 47, pos[107] = 73
degree[106] = 46, pos[106] = 262
degree[105] = 46, pos[105] = 24
degree[104] = 45, pos[104] = 240
degree[103] = 45, pos[103] = 120
degree[102] = 44, pos[102] = 6
degree[101] = 43, pos[101] = 245
degree[100] = 43, pos[100] = 101
degree[99] = 42, pos[99] = 359
degree[98] = 42, pos[98] = 263
degree[97] = 41, pos[97] = 196
degree[96] = 40, pos[96] = 353
degree[95] = 40, pos[95] = 323
degree[94] = 40, pos[94] = 254
degree[93] = 39, pos[93] = 356
degree[92] = 39, pos[92] = 291
degree[91] = 38, pos[91] = 302
degree[90] = 38, pos[90] = 225
degree[89] = 38, pos[89] = 2
degree[88] = 37, pos[88] = 183
degree[87] = 36, pos[87] = 313
degree[86] = 36, pos[86] = 168
degree[85] = 36, pos[85] = 78
degree[84] = 35, pos[84] = 160
degree[83] = 34, pos[83] = 226
degree[82] = 34, pos[82] = 158
degree[81] = 34, pos[81] = 60
degree[80] = 33, pos[80] = 335
degree[79] = 33, pos[79] = 66
degree[78] = 31, pos[78] = 328
degree[77] = 31, pos[77] = 172
degree[76] = 31, pos[76] = 117
degree[75] = 30, pos[75] = 388
degree[74] = 30, pos[74] = 103
degree[73] = 30, pos[73] = 69
degree[72] = 29, pos[72] = 108
degree[71] = 29, pos[71] = 1
degree[70] = 28, pos[70] = 173
degree[69] = 27, pos[69] = 327
degree[68] = 27, pos[68] = 319
degree[67] = 27, pos[67] = 188
degree[66] = 27, pos[66] = 169
degree[65] = 27, pos[65] = 48
degree[64] = 26, pos[64] = 95
degree[63] = 25, pos[63] = 230
degree[62] = 25, pos[62] = 215
degree[61] = 25, pos[61] = 28
degree[60] = 24, pos[60] = 98
degree[59] = 22, pos[59] = 364
degree[58] = 22, pos[58] = 290
degree[57] = 22, pos[57] = 281
degree[56] = 22, pos[56] = 51
degree[55] = 22, pos[55] = 3
degree[54] = 21, pos[54] = 370
degree[53] = 20, pos[53] = 106
degree[52] = 20, pos[52] = 17
degree[51] = 18, pos[51] = 189
degree[50] = 18, pos[50] = 44
degree[49] = 18, pos[49] = 21
degree[48] = 17, pos[48] = 340
degree[47] = 17, pos[47] = 10
degree[46] = 16, pos[46] = 135
degree[45] = 15, pos[45] = 397
degree[44] = 15, pos[44] = 266
degree[43] = 14, pos[43] = 366
degree[42] = 14, pos[42] = 314
degree[41] = 14, pos[41] = 209
degree[40] = 13, pos[40] = 191
degree[39] = 13, pos[39] = 154
degree[38] = 12, pos[38] = 252
degree[37] = 12, pos[37] = 159
degree[36] = 12, pos[36] = 133
degree[35] = 12, pos[35] = 127
degree[34] = 11, pos[34] = 232
degree[33] = 11, pos[33] = 125
degree[32] = 10, pos[32] = 123
degree[31] = 10, pos[31] = 5
degree[30] = 9, pos[30] = 309
degree[29] = 9, pos[29] = 175
degree[28] = 8, pos[28] = 211
degree[27] = 8, pos[27] = 143
degree[26] = 8, pos[26] = 41
degree[25] = 7, pos[25] = 79
degree[24] = 7, pos[24] = 27
degree[23] = 6, pos[23] = 224
degree[22] = 5, pos[22] = 365
degree[21] = 5, pos[21] = 233
degree[20] = 4, pos[20] = 362
degree[19] = 4, pos[19] = 259
degree[18] = 4, pos[18] = 212
degree[17] = 4, pos[17] = 16
degree[16] = 3, pos[16] = 202
degree[15] = 3, pos[15] = 84
degree[14] = 2, pos[14] = 325
degree[13] = 2, pos[13] = 265
degree[12] = 2, pos[12] = 192
degree[11] = 2, pos[11] = 72
degree[10] = 2, pos[10] = 71
degree[9] = 1, pos[9] = 140
degree[8] = 0, pos[8] = 324
degree[7] = 0, pos[7] = 152
degree[6] = 0, pos[6] = 151
degree[5] = 0, pos[5] = 112
degree[4] = 0, pos[4] = 110
degree[3] = 0, pos[3] = 102
degree[2] = 0, pos[2] = 75
degree[1] = 0, pos[1] = 18
degree[0] = 0, pos[0] = 8
Pos[0] = 8
Pos[1] = 18
Pos[2] = 75
Pos[3] = 102
Pos[4] = 110
Pos[5] = 112
Pos[6] = 151
Pos[7] = 152
Pos[8] = 324
Pos[9] = 140
Pos[10] = 71
Pos[11] = 72
Pos[12] = 192
Pos[13] = 265
Pos[14] = 325
Pos[15] = 84
Pos[16] = 202
Pos[17] = 16
Pos[18] = 212
Pos[19] = 259
Pos[20] = 362
Pos[21] = 233
Pos[22] = 365
Pos[23] = 224
Pos[24] = 27
Pos[25] = 79
Pos[26] = 41
Pos[27] = 143
Pos[28] = 211
Pos[29] = 175
Pos[30] = 309
Pos[31] = 5
Pos[32] = 123
Pos[33] = 125
Pos[34] = 232
Pos[35] = 127
Pos[36] = 133
Pos[37] = 159
Pos[38] = 252
Pos[39] = 154
Pos[40] = 191
Pos[41] = 209
Pos[42] = 314
Pos[43] = 366
Pos[44] = 266
Pos[45] = 397
Pos[46] = 135
Pos[47] = 10
Pos[48] = 340
Pos[49] = 21
Pos[50] = 44
Pos[51] = 189
Pos[52] = 17
Pos[53] = 106
Pos[54] = 370
Pos[55] = 3
Pos[56] = 51
Pos[57] = 281
Pos[58] = 290
Pos[59] = 364
Pos[60] = 98
Pos[61] = 28
Pos[62] = 215
Pos[63] = 230
Pos[64] = 95
Pos[65] = 48
Pos[66] = 169
Pos[67] = 188
Pos[68] = 319
Pos[69] = 327
Pos[70] = 173
Pos[71] = 1
Pos[72] = 108
Pos[73] = 69
Pos[74] = 103
Pos[75] = 388
Pos[76] = 117
Pos[77] = 172
Pos[78] = 328
Pos[79] = 66
Pos[80] = 335
Pos[81] = 60
Pos[82] = 158
Pos[83] = 226
Pos[84] = 160
Pos[85] = 78
Pos[86] = 168
Pos[87] = 313
Pos[88] = 183
Pos[89] = 2
Pos[90] = 225
Pos[91] = 302
Pos[92] = 291
Pos[93] = 356
Pos[94] = 254
Pos[95] = 323
Pos[96] = 353
Pos[97] = 196
Pos[98] = 263
Pos[99] = 359
Pos[100] = 101
Pos[101] = 245
Pos[102] = 6
Pos[103] = 120
Pos[104] = 240
Pos[105] = 24
Pos[106] = 262
Pos[107] = 73
Pos[108] = 93
Pos[109] = 385
Pos[110] = 12
Pos[111] = 37
Pos[112] = 105
Pos[113] = 42
Pos[114] = 138
Pos[115] = 164
Pos[116] = 46
Pos[117] = 129
Pos[118] = 167
Pos[119] = 320
Pos[120] = 246
Pos[121] = 368
Pos[122] = 122
Pos[123] = 377
Pos[124] = 7
Pos[125] = 383
Pos[126] = 15
Pos[127] = 371
Pos[128] = 249
Pos[129] = 70
Pos[130] = 82
Pos[131] = 295
Pos[132] = 32
Pos[133] = 197
Pos[134] = 142
Pos[135] = 333
Pos[136] = 184
Pos[137] = 315
Pos[138] = 369
Pos[139] = 85
Pos[140] = 146
Pos[141] = 241
Pos[142] = 144
Pos[143] = 201
Pos[144] = 283
Pos[145] = 289
Pos[146] = 155
Pos[147] = 361
Pos[148] = 243
Pos[149] = 267
Pos[150] = 87
Pos[151] = 305
Pos[152] = 20
Pos[153] = 378
Pos[154] = 181
Pos[155] = 186
Pos[156] = 346
Pos[157] = 57
Pos[158] = 109
Pos[159] = 204
Pos[160] = 337
Pos[161] = 64
Pos[162] = 338
Pos[163] = 76
Pos[164] = 244
Pos[165] = 148
Pos[166] = 307
Pos[167] = 343
Pos[168] = 119
Pos[169] = 61
Pos[170] = 77
Pos[171] = 294
Pos[172] = 88
Pos[173] = 288
Pos[174] = 344
Pos[175] = 379
Pos[176] = 132
Pos[177] = 39
Pos[178] = 352
Pos[179] = 392
Pos[180] = 390
Pos[181] = 214
Pos[182] = 235
Pos[183] = 389
Pos[184] = 13
Pos[185] = 14
Pos[186] = 121
Pos[187] = 382
Pos[188] = 195
Pos[189] = 308
Pos[190] = 150
Pos[191] = 185
Pos[192] = 222
Pos[193] = 341
Pos[194] = 381
Pos[195] = 26
Pos[196] = 56
Pos[197] = 63
Pos[198] = 248
Pos[199] = 203
Pos[200] = 221
Pos[201] = 31
Pos[202] = 206
Pos[203] = 34
Pos[204] = 65
Pos[205] = 177
Pos[206] = 255
Pos[207] = 278
Pos[208] = 287
Pos[209] = 330
Pos[210] = 326
Pos[211] = 207
Pos[212] = 231
Pos[213] = 354
Pos[214] = 30
Pos[215] = 67
Pos[216] = 52
Pos[217] = 296
Pos[218] = 334
Pos[219] = 33
Pos[220] = 54
Pos[221] = 92
Pos[222] = 74
Pos[223] = 86
Pos[224] = 97
Pos[225] = 205
Pos[226] = 145
Pos[227] = 194
Pos[228] = 113
Pos[229] = 251
Pos[230] = 273
Pos[231] = 351
Pos[232] = 107
Pos[233] = 114
Pos[234] = 395
Pos[235] = 174
Pos[236] = 399
Pos[237] = 187
Pos[238] = 190
Pos[239] = 300
Pos[240] = 59
Pos[241] = 237
Pos[242] = 91
Pos[243] = 260
Pos[244] = 180
Pos[245] = 372
Pos[246] = 47
Pos[247] = 317
Pos[248] = 100
Pos[249] = 115
Pos[250] = 136
Pos[251] = 178
Pos[252] = 257
Pos[253] = 223
Pos[254] = 391
Pos[255] = 386
Pos[256] = 199
Pos[257] = 271
Pos[258] = 165
Pos[259] = 131
Pos[260] = 331
Pos[261] = 193
Pos[262] = 347
Pos[263] = 126
Pos[264] = 179
Pos[265] = 375
Pos[266] = 104
Pos[267] = 217
Pos[268] = 229
Pos[269] = 285
Pos[270] = 304
Pos[271] = 9
Pos[272] = 276
Pos[273] = 277
Pos[274] = 162
Pos[275] = 156
Pos[276] = 303
Pos[277] = 55
Pos[278] = 4
Pos[279] = 137
Pos[280] = 228
Pos[281] = 350
Pos[282] = 11
Pos[283] = 363
Pos[284] = 153
Pos[285] = 312
Pos[286] = 134
Pos[287] = 213
Pos[288] = 261
Pos[289] = 357
Pos[290] = 272
Pos[291] = 321
Pos[292] = 394
Pos[293] = 216
Pos[294] = 227
Pos[295] = 318
Pos[296] = 396
Pos[297] = 38
Pos[298] = 83
Pos[299] = 23
Pos[300] = 139
Pos[301] = 398
Pos[302] = 219
Pos[303] = 284
Pos[304] = 306
Pos[305] = 238
Pos[306] = 297
Pos[307] = 220
Pos[308] = 242
Pos[309] = 316
Pos[310] = 50
Pos[311] = 68
Pos[312] = 270
Pos[313] = 157
Pos[314] = 258
Pos[315] = 43
Pos[316] = 234
Pos[317] = 360
Pos[318] = 147
Pos[319] = 274
Pos[320] = 94
Pos[321] = 275
Pos[322] = 387
Pos[323] = 149
Pos[324] = 345
Pos[325] = 269
Pos[326] = 45
Pos[327] = 96
Pos[328] = 393
Pos[329] = 256
Pos[330] = 130
Pos[331] = 311
Pos[332] = 36
Pos[333] = 128
Pos[334] = 170
Pos[335] = 250
Pos[336] = 298
Pos[337] = 163
Pos[338] = 264
Pos[339] = 348
Pos[340] = 376
Pos[341] = 239
Pos[342] = 358
Pos[343] = 25
Pos[344] = 286
Pos[345] = 373
Pos[346] = 171
Pos[347] = 384
Pos[348] = 0
Pos[349] = 29
Pos[350] = 58
Pos[351] = 200
Pos[352] = 253
Pos[353] = 282
Pos[354] = 22
Pos[355] = 292
Pos[356] = 367
Pos[357] = 81
Pos[358] = 380
Pos[359] = 336
Pos[360] = 374
Pos[361] = 111
Pos[362] = 90
Pos[363] = 332
Pos[364] = 118
Pos[365] = 301
Pos[366] = 124
Pos[367] = 329
Pos[368] = 349
Pos[369] = 19
Pos[370] = 53
Pos[371] = 166
Pos[372] = 198
Pos[373] = 35
Pos[374] = 62
Pos[375] = 40
Pos[376] = 116
Pos[377] = 236
Pos[378] = 299
Pos[379] = 99
Pos[380] = 208
Pos[381] = 161
Pos[382] = 49
Pos[383] = 247
Pos[384] = 280
Pos[385] = 176
Pos[386] = 339
Pos[387] = 268
Pos[388] = 279
Pos[389] = 342
Pos[390] = 89
Pos[391] = 210
Pos[392] = 182
Pos[393] = 355
Pos[394] = 141
Pos[395] = 80
Pos[396] = 293
Pos[397] = 310
Pos[398] = 218
Pos[399] = 322
Enbr = 39984
start search
improving solution size 1
improving solution size 2
improving solution size 3
improving solution size 4
improving solution size 5
improving solution size 6
improving solution size 7
improving solution size 8
improving solution size 9
improving solution size 10
improving solution size 11
improving solution size 12
improving solution size 13
improving solution size 14
improving solution size 15
best clique: 323 311 81 183 300 359 385 51 229 304 66 296 38 25 234 
record          =          15
subp            =  1637047477
time            =  1678.47870
